store,websites,attribute_set,type,category_ids,sku,has_options,name,meta_title,meta_description,url_key,url_path,custom_design,page_layout,options_container,image_label,small_image_label,thumbnail_label,country_of_manufacture,msrp_enabled,msrp_display_actual_price_type,gift_message_available,width,ratio,diameter,car_make,car_model,car_year,sidewall_style,serv_desc,utqg,production_year,fuel,weather,sound,size,price,special_price,weight,msrp,status,is_recurring,visibility,tax_class_id,passenger,tyres4_4,vantyres,description,short_description,meta_keyword,custom_layout_update,special_from_date,special_to_date,news_from_date,news_to_date,custom_design_from,custom_design_to,qty,min_qty,use_config_min_qty,is_qty_decimal,backorders,use_config_backorders,min_sale_qty,use_config_min_sale_qty,max_sale_qty,use_config_max_sale_qty,is_in_stock,low_stock_date,notify_stock_qty,use_config_notify_stock_qty,manage_stock,use_config_manage_stock,stock_status_changed_auto,use_config_qty_increments,qty_increments,use_config_enable_qty_inc,enable_qty_increments,is_decimal_divided,stock_status_changed_automatically,use_config_enable_qty_increments,product_name,store_id,product_type_id,product_status_changed,product_changed_websites,website,_media_image,_media_lable,_media_position,_media_is_disabled
admin,base,Tyre,simple,27,DUN0060,0,SP270 -,,,,,,No layout updates,Product Info Column,,,,JAPAN                                             ,Use config,,,235,55,19,,,,Black Wall,101V,,2017,B,C,65,235/55,418,,0,,Enabled,No,"Catalog, Search",Taxable Goods,Yes,No,No,Dunlop,Dunlop,,,,,,,,,100,0,1,0,0,1,1,1,0,1,1,,,1,0,1,0,1,0,1,0,0,0,1,SP270 -,0,simple,,,,,,,
admin,base,Tyre,simple,27,DUN0061,0,OPRT MAX ,,,,,,No layout updates,Product Info Column,,,,,Use config,,,235,60,16,,,,Black Wall,,,2017,B,C,65,235/60,187,,0,,Enabled,No,"Catalog, Search",Taxable Goods,Yes,No,No,Dunlop,Dunlop,,,,,,,,,100,0,1,0,0,1,1,1,0,1,1,,,1,0,1,0,1,0,1,0,0,0,1,OPRT MAX ,0,simple,,,,,,,
admin,base,Tyre,simple,27,DUN0062,0,SP.SPOR T MAXX A1,,,,,,No layout updates,Product Info Column,,,,JAPAN                                             ,Use config,,,235,60,18,,,,Black Wall,103V,,2017,B,C,65,235/60,462,,0,,Enabled,No,"Catalog, Search",Taxable Goods,Yes,No,No,Dunlop,Dunlop,,,,,,,,,100,0,1,0,0,1,1,1,0,1,1,,,1,0,1,0,1,0,1,0,0,0,1,SP.SPOR T MAXX A1,0,simple,,,,,,,
admin,base,Tyre,simple,27,DUN0063,0,MAX050+ ,,,,,,No layout updates,Product Info Column,,,,JAPAN                                             ,Use config,,,235,60,18,,,,Black Wall,107W,,2017,B,C,65,235/60,451,,0,,Enabled,No,"Catalog, Search",Taxable Goods,Yes,No,No,Dunlop,Dunlop,,,,,,,,,100,0,1,0,0,1,1,1,0,1,1,,,1,0,1,0,1,0,1,0,0,0,1,MAX050+ ,0,simple,,,,,,,
admin,base,Tyre,simple,27,DUN0064,0,TG31,,,,,,No layout updates,Product Info Column,,,,JAPAN                                             ,Use config,,,235,95,15,,,,Black Wall,,,2017,B,C,65,235/95,176,,0,,Enabled,No,"Catalog, Search",Taxable Goods,Yes,No,No,Dunlop,Dunlop,,,,,,,,,100,0,1,0,0,1,1,1,0,1,1,,,1,0,1,0,1,0,1,0,0,0,1,TG31,0,simple,,,,,,,
admin,base,Tyre,simple,27,DUN0065,0,MAXX050+ XL,,,,,,No layout updates,Product Info Column,,,,JAPAN                                             ,Use config,,,245,35,19,,,,Black Wall,93Y,,2017,B,C,65,245/35,451,,0,,Enabled,No,"Catalog, Search",Taxable Goods,Yes,No,No,Dunlop,Dunlop,,,,,,,,,100,0,1,0,0,1,1,1,0,1,1,,,1,0,1,0,1,0,1,0,0,0,1,MAXX050+ XL,0,simple,,,,,,,
admin,base,Tyre,simple,27,DUN0066,0,MAXTT,,,,,,No layout updates,Product Info Column,,,,JAPAN                                             ,Use config,,,245,35,19,,,,Black Wall,93Y,,2017,B,C,65,245/35,451,,0,,Enabled,No,"Catalog, Search",Taxable Goods,Yes,No,No,Dunlop,Dunlop,,,,,,,,,100,0,1,0,0,1,1,1,0,1,1,,,1,0,1,0,1,0,1,0,0,0,1,MAXTT,0,simple,,,,,,,
admin,base,Tyre,simple,27,DUN0067,0,SP MAXX RT2 XL,,,,,,No layout updates,Product Info Column,,,,GERMANY                                           ,Use config,,,245,35,19,,,,Black Wall,93Y,,2017,B,C,65,245/35,924,,0,,Enabled,No,"Catalog, Search",Taxable Goods,Yes,No,No,Dunlop,Dunlop,,,,,,,,,100,0,1,0,0,1,1,1,0,1,1,,,1,0,1,0,1,0,1,0,0,0,1,SP MAXX RT2 XL,0,simple,,,,,,,
admin,base,Tyre,simple,27,DUN0068,0,AX GT RO F(TAKE OFF),,,,,,No layout updates,Product Info Column,,,,,Use config,,,245,35,20,,,,Black Wall,,,2017,B,C,65,245/35,352,,0,,Enabled,No,"Catalog, Search",Taxable Goods,Yes,No,No,Dunlop,Dunlop,,,,,,,,,100,0,1,0,0,1,1,1,0,1,1,,,1,0,1,0,1,0,1,0,0,0,1,AX GT RO F(TAKE OFF),0,simple,,,,,,,
admin,base,Tyre,simple,27,DUN0069,0,MAXX GT R,,,,,,No layout updates,Product Info Column,,,,,Use config,,,245,35,20,,,,Black Wall,,,2017,B,C,65,245/35,1364,,0,,Enabled,No,"Catalog, Search",Taxable Goods,Yes,No,No,Dunlop,Dunlop,,,,,,,,,100,0,1,0,0,1,1,1,0,1,1,,,1,0,1,0,1,0,1,0,0,0,1,MAXX GT R,0,simple,,,,,,,
admin,base,Tyre,simple,27,DUN0070,0,MAXX050+ XL,,,,,,No layout updates,Product Info Column,,,,JAPAN                                             ,Use config,,,245,35,20,,,,Black Wall,95Y,,2017,B,C,65,245/35,495,,0,,Enabled,No,"Catalog, Search",Taxable Goods,Yes,No,No,Dunlop,Dunlop,,,,,,,,,100,0,1,0,0,1,1,1,0,1,1,,,1,0,1,0,1,0,1,0,0,0,1,MAXX050+ XL,0,simple,,,,,,,
admin,base,Tyre,simple,27,DUN0071,0,SP01* RO F,,,,,,No layout updates,Product Info Column,,,,GERMANY                                           ,Use config,,,245,40,18,,,,Black Wall,93Y,,2017,B,C,65,245/40,737,,0,,Enabled,No,"Catalog, Search",Taxable Goods,Yes,No,No,Dunlop,Dunlop,,,,,,,,,100,0,1,0,0,1,1,1,0,1,1,,,1,0,1,0,1,0,1,0,0,0,1,SP01* RO F,0,simple,,,,,,,
admin,base,Tyre,simple,27,DUN0072,0,MAX050 - ,,,,,,No layout updates,Product Info Column,,,,JAPAN                                             ,Use config,,,245,40,18,,,,Black Wall,97Y,,2017,B,C,65,245/40,291.5,,0,,Enabled,No,"Catalog, Search",Taxable Goods,Yes,No,No,Dunlop,Dunlop,,,,,,,,,100,0,1,0,0,1,1,1,0,1,1,,,1,0,1,0,1,0,1,0,0,0,1,MAX050 - ,0,simple,,,,,,,
admin,base,Tyre,simple,27,DUN0073,0,MAX050 - ,,,,,,No layout updates,Product Info Column,,,,JAPAN                                             ,Use config,,,245,40,18,,,,Black Wall,97Y,,2017,B,C,65,245/40,363,,0,,Enabled,No,"Catalog, Search",Taxable Goods,Yes,No,No,Dunlop,Dunlop,,,,,,,,,100,0,1,0,0,1,1,1,0,1,1,,,1,0,1,0,1,0,1,0,0,0,1,MAX050 - ,0,simple,,,,,,,
admin,base,Tyre,simple,27,DUN0074,0,,,,,,,No layout updates,Product Info Column,,,,JAPAN                                             ,Use config,,,245,40,19,,,,Black Wall,,,2017,B,C,65,245/40,302.5,,0,,Enabled,No,"Catalog, Search",Taxable Goods,Yes,No,No,Dunlop,Dunlop,,,,,,,,,100,0,1,0,0,1,1,1,0,1,1,,,1,0,1,0,1,0,1,0,0,0,1,,0,simple,,,,,,,
admin,base,Tyre,simple,27,DUN0075,0,SPORTM.G T* ROF,,,,,,No layout updates,Product Info Column,,,,GERMANY                                           ,Use config,,,245,40,19,,,,Black Wall,94Y,,2017,B,C,65,245/40,990,,0,,Enabled,No,"Catalog, Search",Taxable Goods,Yes,No,No,Dunlop,Dunlop,,,,,,,,,100,0,1,0,0,1,1,1,0,1,1,,,1,0,1,0,1,0,1,0,0,0,1,SPORTM.G T* ROF,0,simple,,,,,,,
admin,base,Tyre,simple,27,DUN0076,0,MAX050 - ,,,,,,No layout updates,Product Info Column,,,,JAPAN                                             ,Use config,,,245,40,19,,,,Black Wall,98Y,,2017,B,C,65,245/40,440,,0,,Enabled,No,"Catalog, Search",Taxable Goods,Yes,No,No,Dunlop,Dunlop,,,,,,,,,100,0,1,0,0,1,1,1,0,1,1,,,1,0,1,0,1,0,1,0,0,0,1,MAX050 - ,0,simple,,,,,,,
admin,base,Tyre,simple,27,DUN0077,0,SP MAXX,,,,,,No layout updates,Product Info Column,,,,JAPAN                                             ,Use config,,,245,40,19,,,,Black Wall,98Y,,2017,B,C,65,245/40,297,,0,,Enabled,No,"Catalog, Search",Taxable Goods,Yes,No,No,Dunlop,Dunlop,,,,,,,,,100,0,1,0,0,1,1,1,0,1,1,,,1,0,1,0,1,0,1,0,0,0,1,SP MAXX,0,simple,,,,,,,
admin,base,Tyre,simple,27,DUN0078,0,MAXX TT XL MFS,,,,,,No layout updates,Product Info Column,,,,JAPAN                                             ,Use config,,,245,40,20,,,,Black Wall,99Y,,2017,B,C,65,245/40,401.5,,0,,Enabled,No,"Catalog, Search",Taxable Goods,Yes,No,No,Dunlop,Dunlop,,,,,,,,,100,0,1,0,0,1,1,1,0,1,1,,,1,0,1,0,1,0,1,0,0,0,1,MAXX TT XL MFS,0,simple,,,,,,,
admin,base,Tyre,simple,27,DUN0079,0,MAXX TT XL MFS ,,,,,,No layout updates,Product Info Column,,,,JAPAN                                             ,Use config,,,245,40,20,,,,Black Wall,99Y,,2017,B,C,65,245/40,506,,0,,Enabled,No,"Catalog, Search",Taxable Goods,Yes,No,No,Dunlop,Dunlop,,,,,,,,,100,0,1,0,0,1,1,1,0,1,1,,,1,0,1,0,1,0,1,0,0,0,1,MAXX TT XL MFS ,0,simple,,,,,,,
admin,base,Tyre,simple,27,DUN0080,0,MAX050+X L MFS,,,,,,No layout updates,Product Info Column,,,,JAPAN                                             ,Use config,,,245,45,17,,,,Black Wall,99Y,,2017,B,C,65,245/45,330,,0,,Enabled,No,"Catalog, Search",Taxable Goods,Yes,No,No,Dunlop,Dunlop,,,,,,,,,100,0,1,0,0,1,1,1,0,1,1,,,1,0,1,0,1,0,1,0,0,0,1,MAX050+X L MFS,0,simple,,,,,,,
admin,base,Tyre,simple,27,DUN0081,0,MAX050 ,,,,,,No layout updates,Product Info Column,,,,JAPAN                                             ,Use config,,,245,45,18,,,,Black Wall,100Y,,2017,B,C,65,245/45,374,,0,,Enabled,No,"Catalog, Search",Taxable Goods,Yes,No,No,Dunlop,Dunlop,,,,,,,,,100,0,1,0,0,1,1,1,0,1,1,,,1,0,1,0,1,0,1,0,0,0,1,MAX050 ,0,simple,,,,,,,
admin,base,Tyre,simple,27,DUN0082,0,MAXX (T T) TL ,,,,,,No layout updates,Product Info Column,,,,JAPAN                                             ,Use config,,,245,45,18,,,,Black Wall,100Y,,2017,B,C,65,245/45,350,36.8,0,,Enabled,No,"Catalog, Search",Taxable Goods,Yes,No,No,Dunlop,Dunlop,,,,,,,,,100,0,1,0,0,1,1,1,0,1,1,,,1,0,1,0,1,0,1,0,0,0,1,MAXX (T T) TL ,0,simple,,,,,,,
admin,base,Tyre,simple,27,DUN0083,0,MAX050 ,,,,,,No layout updates,Product Info Column,,,,JAPAN                                             ,Use config,,,245,45,19,,,,Black Wall,102Y,,2017,B,C,65,245/45,350,36.8,0,,Enabled,No,"Catalog, Search",Taxable Goods,Yes,No,No,Dunlop,Dunlop,,,,,,,,,100,0,1,0,0,1,1,1,0,1,1,,,1,0,1,0,1,0,1,0,0,0,1,MAX050 ,0,simple,,,,,,,
admin,base,Tyre,simple,27,DUN0084,0,SP MAXX ,,,,,,No layout updates,Product Info Column,,,,JAPAN                                             ,Use config,,,245,45,19,,,,Black Wall,98Y,,2017,B,C,65,245/45,275,28.9,0,,Enabled,No,"Catalog, Search",Taxable Goods,Yes,No,No,Dunlop,Dunlop,,,,,,,,,100,0,1,0,0,1,1,1,0,1,1,,,1,0,1,0,1,0,1,0,0,0,1,SP MAXX ,0,simple,,,,,,,
admin,base,Tyre,simple,27,DUN0085,0,MAXX (TT ),,,,,,No layout updates,Product Info Column,,,,JAPAN                                             ,Use config,,,245,45,19,,,,Black Wall,98Y,,2017,B,C,65,245/45,365,38.3,0,,Enabled,No,"Catalog, Search",Taxable Goods,Yes,No,No,Dunlop,Dunlop,,,,,,,,,100,0,1,0,0,1,1,1,0,1,1,,,1,0,1,0,1,0,1,0,0,0,1,MAXX (TT ),0,simple,,,,,,,
admin,base,Tyre,simple,27,DUN0086,0,SP MAXX GT* ROF,,,,,,No layout updates,Product Info Column,,,,,Use config,,,245,45,19,,,,Black Wall,98Y,,2017,B,C,65,245/45,940,98.7,0,,Enabled,No,"Catalog, Search",Taxable Goods,Yes,No,No,Dunlop,Dunlop,,,,,,,,,100,0,1,0,0,1,1,1,0,1,1,,,1,0,1,0,1,0,1,0,0,0,1,SP MAXX GT* ROF,0,simple,,,,,,,
admin,base,Tyre,simple,27,DUN0087,0,MAX050 ,,,,,,No layout updates,Product Info Column,,,,JAPAN                                             ,Use config,,,245,45,20,,,,Black Wall,103Y,,2017,B,C,65,245/45,430,45.2,0,,Enabled,No,"Catalog, Search",Taxable Goods,Yes,No,No,Dunlop,Dunlop,,,,,,,,,100,0,1,0,0,1,1,1,0,1,1,,,1,0,1,0,1,0,1,0,0,0,1,MAX050 ,0,simple,,,,,,,
admin,base,Tyre,simple,27,DUN0088,0,TRAK GRIP,,,,,,No layout updates,Product Info Column,,,,SOUTH AFRICA                                      ,Use config,,,245,70,16,,,,Black Wall,,,2017,B,C,65,245/70,265,27.8,0,,Enabled,No,"Catalog, Search",Taxable Goods,Yes,No,No,Dunlop,Dunlop,,,,,,,,,100,0,1,0,0,1,1,1,0,1,1,,,1,0,1,0,1,0,1,0,0,0,1,TRAK GRIP,0,simple,,,,,,,
admin,base,Tyre,simple,27,DUN0089,0,,,,,,,No layout updates,Product Info Column,,,,JAPAN                                             ,Use config,,,245,75,17,,,,Black Wall,,,2017,B,C,65,245/75,250,26.3,0,,Enabled,No,"Catalog, Search",Taxable Goods,Yes,No,No,Dunlop,Dunlop,,,,,,,,,100,0,1,0,0,1,1,1,0,1,1,,,1,0,1,0,1,0,1,0,0,0,1,,0,simple,,,,,,,
