store,websites,attribute_set,type,category_ids,sku,has_options,name,meta_title,meta_description,image,small_image,thumbnail,url_key,url_path,custom_design,page_layout,options_container,image_label,small_image_label,thumbnail_label,country_of_manufacture,msrp_enabled,msrp_display_actual_price_type,gift_message_available,width,ratio,diameter,car_make,car_model,car_year,sidewall_style,serv_desc,utqg,production_year,fuel,weather,sound,size,price,special_price,weight,msrp,status,is_recurring,visibility,tax_class_id,passenger,tyres4_4,vantyres,description,short_description,meta_keyword,custom_layout_update,special_from_date,special_to_date,news_from_date,news_to_date,custom_design_from,custom_design_to,qty,min_qty,use_config_min_qty,is_qty_decimal,backorders,use_config_backorders,min_sale_qty,use_config_min_sale_qty,max_sale_qty,use_config_max_sale_qty,is_in_stock,low_stock_date,notify_stock_qty,use_config_notify_stock_qty,manage_stock,use_config_manage_stock,stock_status_changed_auto,use_config_qty_increments,qty_increments,use_config_enable_qty_inc,enable_qty_increments,is_decimal_divided,stock_status_changed_automatically,use_config_enable_qty_increments,product_name,store_id,product_type_id,product_status_changed,product_changed_websites,website,_media_image,_media_lable,_media_position,_media_is_disabled
admin,base,Tyre,simple,36,NEX10030,0,CP672,,,/CP672-angle.jpg,/CP672-angle.jpg,/CP672-angle.jpg,,,,,,,,,,Use config,Use config,No,225,50,17,,,2017,Black Wall,94V,,2017,C,C,65,225/50,258.5,,1,,Enabled,No,"Catalog, Search",Taxable Goods,Yes,No,No,"A quiet ride all year 'round, is the hallmark of the CP672 ? an optimized sectional design reduces pattern noise for ultra-quiet driving.? Stable handling and tight cornering are heightened by the rigid shoulder block design.? The straight center semi-dual rib offers higher speed responsiveness as well as excellent steering.? ","est assured when the roads are wet, four straight wide grooves maximize wet traction and anti-hydroplaning performance.?",,,,,,,,,100,0,1,0,0,1,1,1,0,1,1,,0,1,0,1,0,1,0,1,0,0,0,1,CP672,0,simple,,,,,,,
admin,base,Tyre,simple,36,NEX10031,0,CP672,,,/CP672-angle.jpg,/CP672-angle.jpg,/CP672-angle.jpg,,,,,,,,,,Use config,Use config,No,225,40,18,,,2016,Black Wall,92H,,2016,C,C,65,225/40,214.5,,1,,Enabled,No,"Catalog, Search",Taxable Goods,Yes,No,No,"A quiet ride all year 'round, is the hallmark of the CP672 ? an optimized sectional design reduces pattern noise for ultra-quiet driving.? Stable handling and tight cornering are heightened by the rigid shoulder block design.? The straight center semi-dual rib offers higher speed responsiveness as well as excellent steering.? ","est assured when the roads are wet, four straight wide grooves maximize wet traction and anti-hydroplaning performance.?",,,,,,,,,100,0,1,0,0,1,1,1,0,1,1,,0,1,0,1,0,1,0,1,0,0,0,1,CP672,0,simple,,,,,,,
admin,base,Tyre,simple,36,NEX10032,0,ROHTX RH5,,,/5d194781-dd46-443a-8e10-60b85a739621_1.46cfb39feb1afb3af0b31641e7e7c592.jpeg,/5d194781-dd46-443a-8e10-60b85a739621_1.46cfb39feb1afb3af0b31641e7e7c592.jpeg,/5d194781-dd46-443a-8e10-60b85a739621_1.46cfb39feb1afb3af0b31641e7e7c592.jpeg,,,,,,,,,,Use config,Use config,No,255,70,18,,,2017,Black Wall,113T,,2017,C,C,65,255/70,407,,1,,Enabled,No,"Catalog, Search",Taxable Goods,Yes,No,No,Kerf Design & Silica Compound - Confident driving performance on any road conditions,,,,,,,,,,100,0,1,0,0,1,1,1,0,1,1,,0,1,0,1,0,1,0,1,0,0,0,1,ROHTX RH5,0,simple,,,,,,,
admin,base,Tyre,simple,36,NEX10033,0,CP672,,,/CP672-angle.jpg,/CP672-angle.jpg,/CP672-angle.jpg,,,,,,,,,,Use config,Use config,No,215,45,18,,,2017,Black Wall,93H,,2017,C,C,65,215/45,275,,1,,Enabled,No,"Catalog, Search",Taxable Goods,Yes,No,No,"A quiet ride all year 'round, is the hallmark of the CP672 ? an optimized sectional design reduces pattern noise for ultra-quiet driving.? Stable handling and tight cornering are heightened by the rigid shoulder block design.? The straight center semi-dual rib offers higher speed responsiveness as well as excellent steering.? ","est assured when the roads are wet, four straight wide grooves maximize wet traction and anti-hydroplaning performance.?",,,,,,,,,100,0,1,0,0,1,1,1,0,1,1,,0,1,0,1,0,1,0,1,0,0,0,1,CP672,0,simple,,,,,,,
admin,base,Tyre,simple,36,NEX10034,0,NFERA AU5,,,/n-fera-au5-300x300.jpg,/n-fera-au5-300x300.jpg,/n-fera-au5-300x300.jpg,,,,,,,,,,Use config,Use config,No,255,35,20,,,2017,Black Wall,97W,,2017,C,C,65,255/35,407,,1,,Enabled,No,"Catalog, Search",Taxable Goods,Yes,No,No,Straight center rib - Directional driving stability,,,,,,,,,,100,0,1,0,0,1,1,1,0,1,1,,0,1,0,1,0,1,0,1,0,0,0,1,NFERA AU5,0,simple,,,,,,,
admin,base,Tyre,simple,36,NEX10035,0,NBLUE ECO,,,/x200-Nexen-N-Blue-ECO.jpg,/x200-Nexen-N-Blue-ECO.jpg,/x200-Nexen-N-Blue-ECO.jpg,,,,,,,,,,Use config,Use config,No,205,55,16,,,2017,Black Wall,94V,,2017,C,C,65,205/55,231,,1,,Enabled,No,"Catalog, Search",Taxable Goods,Yes,No,No,Organic style lateral Grooves - Enhanced traction,,,,,,,,,,100,0,1,0,0,1,1,1,0,1,1,,0,1,0,1,0,1,0,1,0,0,0,1,NBLUE ECO,0,simple,,,,,,,
admin,base,Tyre,simple,36,NEX10036,0,RO-542,,,/5d194781-dd46-443a-8e10-60b85a739621_1.46cfb39feb1afb3af0b31641e7e7c592.jpeg,/5d194781-dd46-443a-8e10-60b85a739621_1.46cfb39feb1afb3af0b31641e7e7c592.jpeg,/5d194781-dd46-443a-8e10-60b85a739621_1.46cfb39feb1afb3af0b31641e7e7c592.jpeg,,,,,,,,,,Use config,Use config,No,265,60,18,,,2017,Black Wall,110H,,2017,C,C,65,265/60,357.5,,1,,Enabled,No,"Catalog, Search",Taxable Goods,Yes,No,No,Kerf Design & Silica Compound - Confident driving performance on any road conditions,,,,,,,,,,100,0,1,0,0,1,1,1,0,1,1,,0,1,0,1,0,1,0,1,0,0,0,1,RO-542,0,simple,,,,,,,
admin,base,Tyre,simple,36,NEX10037,0,ROADIAN CT8,,,/5d194781-dd46-443a-8e10-60b85a739621_1.46cfb39feb1afb3af0b31641e7e7c592.jpeg,/5d194781-dd46-443a-8e10-60b85a739621_1.46cfb39feb1afb3af0b31641e7e7c592.jpeg,/5d194781-dd46-443a-8e10-60b85a739621_1.46cfb39feb1afb3af0b31641e7e7c592.jpeg,,,,,,,,,,Use config,Use config,No,195,14,,,,2017,Black Wall,,,2017,C,C,65,195R14,231,,1,,Enabled,No,"Catalog, Search",Taxable Goods,Yes,No,No,Kerf Design & Silica Compound - Confident driving performance on any road conditions,,,,,,,,,,100,0,1,0,0,1,1,1,0,1,1,,0,1,0,1,0,1,0,1,0,0,0,1,ROADIAN CT8,0,simple,,,,,,,
admin,base,Tyre,simple,36,NEX10038,0,CP672,,,/CP672-angle.jpg,/CP672-angle.jpg,/CP672-angle.jpg,,,,,,,,,,Use config,Use config,No,235,40,18,,,2016,Black Wall,95H,,2016,C,C,65,235/40,209,,1,,Enabled,No,"Catalog, Search",Taxable Goods,Yes,No,No,"A quiet ride all year 'round, is the hallmark of the CP672 ? an optimized sectional design reduces pattern noise for ultra-quiet driving.? Stable handling and tight cornering are heightened by the rigid shoulder block design.? The straight center semi-dual rib offers higher speed responsiveness as well as excellent steering.? ","est assured when the roads are wet, four straight wide grooves maximize wet traction and anti-hydroplaning performance.?",,,,,,,,,100,0,1,0,0,1,1,1,0,1,1,,0,1,0,1,0,1,0,1,0,0,0,1,CP672,0,simple,,,,,,,
admin,base,Tyre,simple,36,NEX10039,0,ROHTX RH5,,,/5d194781-dd46-443a-8e10-60b85a739621_1.46cfb39feb1afb3af0b31641e7e7c592.jpeg,/5d194781-dd46-443a-8e10-60b85a739621_1.46cfb39feb1afb3af0b31641e7e7c592.jpeg,/5d194781-dd46-443a-8e10-60b85a739621_1.46cfb39feb1afb3af0b31641e7e7c592.jpeg,,,,,,,,,,Use config,Use config,No,255,60,19,,,2017,Black Wall,109H,,2017,C,C,65,255/60,412.5,,1,,Enabled,No,"Catalog, Search",Taxable Goods,Yes,No,No,Kerf Design & Silica Compound - Confident driving performance on any road conditions,,,,,,,,,,100,0,1,0,0,1,1,1,0,1,1,,0,1,0,1,0,1,0,1,0,0,0,1,ROHTX RH5,0,simple,,,,,,,
admin,base,Tyre,simple,36,NEX10040,0,NFERA SU1,,,/nexen-nfera-sU1.jpg,/nexen-nfera-sU1.jpg,/nexen-nfera-sU1.jpg,,,,,,,,,,Use config,Use config,No,235,45,18,,,2017,Black Wall,94V,,2017,C,C,65,235/45,297,,1,,Enabled,No,"Catalog, Search",Taxable Goods,Yes,No,No,3+1 asymmetric grooves - Improved drainage performance,,,,,,,,,,100,0,1,0,0,1,1,1,0,1,1,,0,1,0,1,0,1,0,1,0,0,0,1,NFERA SU1,0,simple,,,,,,,
admin,base,Tyre,simple,36,NEX10041,0,NBLUE ECO,,,/x200-Nexen-N-Blue-ECO.jpg,/x200-Nexen-N-Blue-ECO.jpg,/x200-Nexen-N-Blue-ECO.jpg,,,,,,,,,,Use config,Use config,No,225,65,17,,,2017,Black Wall,100H,,2017,C,C,65,225/65,286,,1,,Enabled,No,"Catalog, Search",Taxable Goods,Yes,No,No,Organic style lateral Grooves - Enhanced traction,,,,,,,,,,100,0,1,0,0,1,1,1,0,1,1,,0,1,0,1,0,1,0,1,0,0,0,1,NBLUE ECO,0,simple,,,,,,,
admin,base,Tyre,simple,36,NEX10042,0,CP672,,,/CP672-angle.jpg,/CP672-angle.jpg,/CP672-angle.jpg,,,,,,,,,,Use config,Use config,No,235,50,18,,,2017,Black Wall,97V,,2017,C,C,65,235/50,324.5,,1,,Enabled,No,"Catalog, Search",Taxable Goods,Yes,No,No,"A quiet ride all year 'round, is the hallmark of the CP672 ? an optimized sectional design reduces pattern noise for ultra-quiet driving.? Stable handling and tight cornering are heightened by the rigid shoulder block design.? The straight center semi-dual rib offers higher speed responsiveness as well as excellent steering.? ","est assured when the roads are wet, four straight wide grooves maximize wet traction and anti-hydroplaning performance.?",,,,,,,,,100,0,1,0,0,1,1,1,0,1,1,,0,1,0,1,0,1,0,1,0,0,0,1,CP672,0,simple,,,,,,,
admin,base,Tyre,simple,36,NEX10043,0,NFERA AU5,,,/n-fera-au5-300x300.jpg,/n-fera-au5-300x300.jpg,/n-fera-au5-300x300.jpg,,,,,,,,,,Use config,Use config,No,245,40,18,,,2016,Black Wall,97W,,2016,C,C,65,245/40,209,,1,,Enabled,No,"Catalog, Search",Taxable Goods,Yes,No,No,Straight center rib - Directional driving stability,,,,,,,,,,100,0,1,0,0,1,1,1,0,1,1,,0,1,0,1,0,1,0,1,0,0,0,1,NFERA AU5,0,simple,,,,,,,
admin,base,Tyre,simple,36,NEX10044,0,R0-541,,,/0009187_nexen_npriz-4s.jpeg,/0009187_nexen_npriz-4s.jpeg,/0009187_nexen_npriz-4s.jpeg,,,,,,,,,,Use config,Use config,No,235,75,16,,,2017,Black Wall,108H,,2017,C,C,65,235/75,341,,1,,Enabled,No,"Catalog, Search",Taxable Goods,Yes,No,No,"The N'Priz has four wide longitudinal grooves that improve drainage performance; a rigid shoulder block design to enhance cornering, handling and a quiet comfortable ride; and a dual kerf design to enhance block stiffness and mileage.",,,,,,,,,,100,0,1,0,0,1,1,1,0,1,1,,0,1,0,1,0,1,0,1,0,0,0,1,R0-541,0,simple,,,,,,,
admin,base,Tyre,simple,36,NEX10045,0,NFERA SU1,,,/nexen-nfera-sU1.jpg,/nexen-nfera-sU1.jpg,/nexen-nfera-sU1.jpg,,,,,,,,,,Use config,Use config,No,235,40,19,,,2017,Black Wall,96Y,,2017,C,C,65,235/40,429,,1,,Enabled,No,"Catalog, Search",Taxable Goods,Yes,No,No,3+1 asymmetric grooves - Improved drainage performance,,,,,,,,,,100,0,1,0,0,1,1,1,0,1,1,,0,1,0,1,0,1,0,1,0,0,0,1,NFERA SU1,0,simple,,,,,,,
admin,base,Tyre,simple,36,NEX10046,0,NFERA SU1,,,/nexen-nfera-sU1.jpg,/nexen-nfera-sU1.jpg,/nexen-nfera-sU1.jpg,,,,,,,,,,Use config,Use config,No,235,55,17,,,2017,Black Wall,103W,,2017,C,C,65,235/55,302.5,,1,,Enabled,No,"Catalog, Search",Taxable Goods,Yes,No,No,3+1 asymmetric grooves - Improved drainage performance,,,,,,,,,,100,0,1,0,0,1,1,1,0,1,1,,0,1,0,1,0,1,0,1,0,0,0,1,NFERA SU1,0,simple,,,,,,,
admin,base,Tyre,simple,36,NEX10047,0,N-BLUE HD PLUS,,,/nexen-nblue-hd-plus.jpg,/nexen-nblue-hd-plus.jpg,/nexen-nblue-hd-plus.jpg,,,,,,,,,,Use config,Use config,No,165,65,14,,,2017,Black Wall,79T,,2017,C,C,65,165/65,159.5,,1,,Enabled,No,"Catalog, Search",Taxable Goods,Yes,No,No,4 Wide longitudinal grooves - Improved drainage performance,,,,,,,,,,100,0,1,0,0,1,1,1,0,1,1,,0,1,0,1,0,1,0,1,0,0,0,1,N-BLUE HD PLUS,0,simple,,,,,,,
admin,base,Tyre,simple,36,NEX10048,0,NFERA AU5,,,/2014,/2014,/2014,8,n-fera-au5-300x300.jpg,,,,,,,,Use config,Use config,No,215,50,17,,,2017,Black Wall,91W,,2017,C,C,65,215/50,275,,1,,Enabled,No,"Catalog, Search",Taxable Goods,Yes,No,No,Straight center rib - Directional driving stability,,,,,,,,,,100,0,1,0,0,1,1,1,0,1,1,,0,1,0,1,0,1,0,1,0,0,0,1,NFERA AU5,0,simple,,,,,,,
admin,base,Tyre,simple,36,NEX10049,0,NFERA SU1,,,/nexen-nfera-sU1.jpg,/nexen-nfera-sU1.jpg,/nexen-nfera-sU1.jpg,,,,,,,,,,Use config,Use config,No,255,45,19,,,2017,Black Wall,104Y,,2017,C,C,65,255/45,407,,1,,Enabled,No,"Catalog, Search",Taxable Goods,Yes,No,No,3+1 asymmetric grooves - Improved drainage performance,,,,,,,,,,100,0,1,0,0,1,1,1,0,1,1,,0,1,0,1,0,1,0,1,0,0,0,1,NFERA SU1,0,simple,,,,,,,
admin,base,Tyre,simple,36,NEX10050,0,NBLUE ECO,,,/x200-Nexen-N-Blue-ECO.jpg,/x200-Nexen-N-Blue-ECO.jpg,/x200-Nexen-N-Blue-ECO.jpg,,,,,,,,,,Use config,Use config,No,225,55,17,,,2017,Black Wall,95V,,2017,C,C,65,225/55,286,,1,,Enabled,No,"Catalog, Search",Taxable Goods,Yes,No,No,Organic style lateral Grooves - Enhanced traction,,,,,,,,,,100,0,1,0,0,1,1,1,0,1,1,,0,1,0,1,0,1,0,1,0,0,0,1,NBLUE ECO,0,simple,,,,,,,
admin,base,Tyre,simple,36,NEX10051,0,NFERA RU5,,,/c9f5eb79-0385-4caa-81fe-4a3e0e0f4414_1.d7a9e9e02f81dad25d71bfc31c173c8c.jpeg,/c9f5eb79-0385-4caa-81fe-4a3e0e0f4414_1.d7a9e9e02f81dad25d71bfc31c173c8c.jpeg,/c9f5eb79-0385-4caa-81fe-4a3e0e0f4414_1.d7a9e9e02f81dad25d71bfc31c173c8c.jpeg,,,,,,,,,,Use config,Use config,No,255,55,20,,,2017,Black Wall,107V,,2017,C,C,65,255/55,484,,1,,Enabled,No,"Catalog, Search",Taxable Goods,Yes,No,No,"The special design of the tyre will make each trip comfortable and safe, without compromising the tyre performance. One of the most important elements of this design is the central rib of the tyre, which takes care of the vehicle stability even during fast cornering.",,,,,,,,,,100,0,1,0,0,1,1,1,0,1,1,,0,1,0,1,0,1,0,1,0,0,0,1,NFERA RU5,0,simple,,,,,,,
admin,base,Tyre,simple,36,NEX10052,0,ROHTX RH5 ,,,/5d194781-dd46-443a-8e10-60b85a739621_1.46cfb39feb1afb3af0b31641e7e7c592.jpeg,/5d194781-dd46-443a-8e10-60b85a739621_1.46cfb39feb1afb3af0b31641e7e7c592.jpeg,/5d194781-dd46-443a-8e10-60b85a739621_1.46cfb39feb1afb3af0b31641e7e7c592.jpeg,,,,,,,,,,Use config,Use config,No,255,70,15,,,2017,Black Wall,113,,2017,C,C,65,255/70,308,,1,,Enabled,No,"Catalog, Search",Taxable Goods,Yes,No,No,Kerf Design & Silica Compound - Confident driving performance on any road conditions,,,,,,,,,,100,0,1,0,0,1,1,1,0,1,1,,0,1,0,1,0,1,0,1,0,0,0,1,ROHTX RH5 ,0,simple,,,,,,,
admin,base,Tyre,simple,36,NEX10053,0,NFERA,,,/c1788eb3-cb11-4305-91c3-619ba831f8dc_1.1445f7e089fdde08bca4b328705b8469.jpeg,/c1788eb3-cb11-4305-91c3-619ba831f8dc_1.1445f7e089fdde08bca4b328705b8469.jpeg,/c1788eb3-cb11-4305-91c3-619ba831f8dc_1.1445f7e089fdde08bca4b328705b8469.jpeg,,,,,,,,,,Use config,Use config,No,205,40,17,,,2017,Black Wall,84W,,2017,C,C,65,205/40,242,,1,,Enabled,No,"Catalog, Search",Taxable Goods,Yes,No,No,"High stiffness block enhances the driving performance at high speed and, consequently, provides steering stability",,,,,,,,,,100,0,1,0,0,1,1,1,0,1,1,,0,1,0,1,0,1,0,1,0,0,0,1,NFERA,0,simple,,,,,,,
admin,base,Tyre,simple,36,NEX10054,0,ROHTX,,,/5d194781-dd46-443a-8e10-60b85a739621_1.46cfb39feb1afb3af0b31641e7e7c592.jpeg,/5d194781-dd46-443a-8e10-60b85a739621_1.46cfb39feb1afb3af0b31641e7e7c592.jpeg,/5d194781-dd46-443a-8e10-60b85a739621_1.46cfb39feb1afb3af0b31641e7e7c592.jpeg,,,,,,,,,,Use config,Use config,No,275,65,17,,,2017,Black Wall,115T,,2017,C,C,65,275/65,385,,1,,Enabled,No,"Catalog, Search",Taxable Goods,Yes,No,No,"Dimple?s energy and heat distribution reduces the degree of fatigue and consequently, abnormal wear while improving durability",,,,,,,,,,100,0,1,0,0,1,1,1,0,1,1,,0,1,0,1,0,1,0,1,0,0,0,1,ROHTX,0,simple,,,,,,,
admin,base,Tyre,simple,36,NEX10055,0,CP672,,,/CP672-angle.jpg,/CP672-angle.jpg,/CP672-angle.jpg,,,,,,,,,,Use config,Use config,No,215,55,16,,,2017,Black Wall,6 93,,2017,C,C,65,215/55,253,,1,,Enabled,No,"Catalog, Search",Taxable Goods,Yes,No,No,"Optimal Lateral Groove width design, uniform block distribution and stiffness delivers a silent ride with the best ride quality",,,,,,,,,,100,0,1,0,0,1,1,1,0,1,1,,0,1,0,1,0,1,0,1,0,0,0,1,CP672,0,simple,,,,,,,
admin,base,Tyre,simple,36,NEX10056,0,NFERA SUI,,,/nexen-nfera-sU1.jpg,/nexen-nfera-sU1.jpg,/nexen-nfera-sU1.jpg,,,,,,,,,,Use config,Use config,No,245,45,18,,,2017,Black Wall,96V,,2017,C,C,65,245/45,341,,1,,Enabled,No,"Catalog, Search",Taxable Goods,Yes,No,No,3+1 asymmetric grooves - Improved drainage performance,,,,,,,,,,100,0,1,0,0,1,1,1,0,1,1,,0,1,0,1,0,1,0,1,0,0,0,1,NFERA SUI,0,simple,,,,,,,
admin,base,Tyre,simple,36,NEX10057,0,CP672,,,/CP672-angle.jpg,/CP672-angle.jpg,/CP672-angle.jpg,,,,,,,,,,Use config,Use config,No,215,50,17,,,2017,Black Wall,7 9V,,2017,C,C,65,215/50,275,,1,,Enabled,No,"Catalog, Search",Taxable Goods,Yes,No,No,"A quiet ride all year 'round, is the hallmark of the CP672 ? an optimized sectional design reduces pattern noise for ultra-quiet driving.? Stable handling and tight cornering are heightened by the rigid shoulder block design.? The straight center semi-dual rib offers higher speed responsiveness as well as excellent steering.? ","est assured when the roads are wet, four straight wide grooves maximize wet traction and anti-hydroplaning performance.?",,,,,,,,,100,0,1,0,0,1,1,1,0,1,1,,0,1,0,1,0,1,0,1,0,0,0,1,CP672,0,simple,,,,,,,
admin,base,Tyre,simple,36,NEX10058,0,NFERA SUI,,,/nexen-nfera-sU1.jpg,/nexen-nfera-sU1.jpg,/nexen-nfera-sU1.jpg,,,,,,,,,,Use config,Use config,No,205,45,17,,,2017,Black Wall,88W,,2017,C,C,65,205/45,247.5,,1,,Enabled,No,"Catalog, Search",Taxable Goods,Yes,No,No,3+1 asymmetric grooves - Improved drainage performance,,,,,,,,,,100,0,1,0,0,1,1,1,0,1,1,,0,1,0,1,0,1,0,1,0,0,0,1,NFERA SUI,0,simple,,,,,,,
admin,base,Tyre,simple,36,NEX10059,0,N7000-,,,/NEXEN_N7000.jpg,/NEXEN_N7000.jpg,/NEXEN_N7000.jpg,,,,,,,,,,Use config,Use config,No,275,45,19,,,2017,Black Wall,106Y,,2017,C,C,65,275/45,0,,1,,Enabled,No,"Catalog, Search",Taxable Goods,Yes,No,No,,ound Block Edge - Provides a quiet and comfortable ride,,,,,,,,,100,0,1,0,0,1,1,1,0,1,1,,0,1,0,1,0,1,0,1,0,0,0,1,N7000-,0,simple,,,,,,,
