store,websites,attribute_set,type,category_ids,sku,has_options,name,meta_title,meta_description,image,small_image,thumbnail,url_key,url_path,custom_design,page_layout,options_container,image_label,small_image_label,thumbnail_label,country_of_manufacture,msrp_enabled,msrp_display_actual_price_type,gift_message_available,width,ratio,diameter,serv_desc,car_make,car_model,car_year,sidewall_style,utqg,production_year,fuel,weather,sound,size,price,special_price,weight,msrp,status,is_recurring,visibility,tax_class_id,passenger,tyres4_4,vantyres,description,short_description,meta_keyword,custom_layout_update,special_from_date,special_to_date,news_from_date,news_to_date,custom_design_from,custom_design_to,qty,min_qty,use_config_min_qty,is_qty_decimal,backorders,use_config_backorders,min_sale_qty,use_config_min_sale_qty,max_sale_qty,use_config_max_sale_qty,is_in_stock,low_stock_date,notify_stock_qty,use_config_notify_stock_qty,manage_stock,use_config_manage_stock,stock_status_changed_auto,use_config_qty_increments,qty_increments,use_config_enable_qty_inc,enable_qty_increments,is_decimal_divided,stock_status_changed_automatically,use_config_enable_qty_increments,product_name,store_id,product_type_id,product_status_changed,product_changed_websites,website,_media_image,_media_lable,_media_position,_media_is_disabled
admin,base,Tyre,simple,24,BS300001,0,110/108 RLT,,,,,,,,,No layout updates,Product Info Column,,,,,Use config,,,205,,16,,,,,Black Wall,,2017,B,C,65,205R16,369.6,,0,,Enabled,No,"Catalog, Search",Taxable Goods,Yes,No,No,Bridgestone,Bridgestone,,,,,,,,,100,0,1,0,0,1,1,1,0,1,1,,,1,0,1,0,1,0,1,0,0,0,1,110/108 RLT,0,simple,,,,,,,
admin,base,Tyre,simple,24,BS300002,0,RE050A RFT,,,/bridge/51F6cSM3kyL._SY355_.jpg,/bridge/51F6cSM3kyL._SY355_.jpg,/bridge/51F6cSM3kyL._SY355_.jpg,,,,No layout updates,Product Info Column,,,,,Use config,,,225,35,19,88Y,,,,Black Wall,,2017,B,C,65,225/35,693,,0,,Enabled,No,"Catalog, Search",Taxable Goods,Yes,No,No,Bridgestone,Bridgestone,,,,,,,,,100,0,1,0,0,1,1,1,0,1,1,,,1,0,1,0,1,0,1,0,0,0,1,RE050A RFT,0,simple,,,,,,,
admin,base,Tyre,simple,24,BS300003,0,S001 RFT,,,/bridge/47626318-1-zoom.jpg?1491401159,/bridge/47626318-1-zoom.jpg?1491401159,/bridge/47626318-1-zoom.jpg?1491401159,,,,No layout updates,Product Info Column,,,,,Use config,,,225,40,18,,,,,Black Wall,,2017,B,C,65,225/40,392.7,,0,,Enabled,No,"Catalog, Search",Taxable Goods,Yes,No,No,Bridgestone,Bridgestone,,,,,,,,,100,0,1,0,0,1,1,1,0,1,1,,,1,0,1,0,1,0,1,0,0,0,1,S001 RFT,0,simple,,,,,,,
admin,base,Tyre,simple,24,BS300004,0,RE050A RFT,,,/bridge/51kP3qNpVEL._SY355_.jpg,/bridge/51kP3qNpVEL._SY355_.jpg,/bridge/51kP3qNpVEL._SY355_.jpg,,,,No layout updates,Product Info Column,,,,,Use config,,,225,40,18,88W,,,,Black Wall,,2017,B,C,65,225/40,323.4,,0,,Enabled,No,"Catalog, Search",Taxable Goods,Yes,No,No,Bridgestone,Bridgestone,,,,,,,,,100,0,1,0,0,1,1,1,0,1,1,,,1,0,1,0,1,0,1,0,0,0,1,RE050A RFT,0,simple,,,,,,,
admin,base,Tyre,simple,24,BS300005,0,T001,,,/bridge/bridgestone-225-40r18-92y-t001.jpg,/bridge/bridgestone-225-40r18-92y-t001.jpg,/bridge/bridgestone-225-40r18-92y-t001.jpg,,,,No layout updates,Product Info Column,,,,,Use config,,,225,40,18,92Y,,,,Black Wall,,2017,B,C,65,225/40,369.6,,0,,Enabled,No,"Catalog, Search",Taxable Goods,Yes,No,No,Bridgestone,Bridgestone,,,,,,,,,100,0,1,0,0,1,1,1,0,1,1,,,1,0,1,0,1,0,1,0,0,0,1,T001,0,simple,,,,,,,
admin,base,Tyre,simple,24,BS300006,0,S001  RFT*,,,/bridge/51ikLQ3V1VL._SY355_.jpg,/bridge/51ikLQ3V1VL._SY355_.jpg,/bridge/51ikLQ3V1VL._SY355_.jpg,,,,No layout updates,Product Info Column,,,,,Use config,,,225,40,18,92Y,,,,Black Wall,,2017,B,C,65,225/40,462,,0,,Enabled,No,"Catalog, Search",Taxable Goods,Yes,No,No,Bridgestone,Bridgestone,,,,,,,,,100,0,1,0,0,1,1,1,0,1,1,,,1,0,1,0,1,0,1,0,0,0,1,S001  RFT*,0,simple,,,,,,,
admin,base,Tyre,simple,24,BS300007,0,S001 MO,,,/bridge/HAC-Bridgestone-Potenza-S001?$hacpdpmain$,/bridge/HAC-Bridgestone-Potenza-S001?$hacpdpmain$,/bridge/HAC-Bridgestone-Potenza-S001?$hacpdpmain$,,,,No layout updates,Product Info Column,,,,,Use config,,,225,40,18,92Y,,,,Black Wall,,2017,B,C,65,225/40,496.65,,0,,Enabled,No,"Catalog, Search",Taxable Goods,Yes,No,No,Bridgestone,Bridgestone,,,,,,,,,100,0,1,0,0,1,1,1,0,1,1,,,1,0,1,0,1,0,1,0,0,0,1,S001 MO,0,simple,,,,,,,
admin,base,Tyre,simple,24,BS300008,0,RE050A+ RF,,,/bridge/51kP3qNpVEL._SY355_.jpg,/bridge/51kP3qNpVEL._SY355_.jpg,/bridge/51kP3qNpVEL._SY355_.jpg,,,,No layout updates,Product Info Column,,,,,Use config,,,225,45,17,91V,,,,Black Wall,,2017,B,C,65,225/45,490.88,,0,,Enabled,No,"Catalog, Search",Taxable Goods,Yes,No,No,Bridgestone,Bridgestone,,,,,,,,,100,0,1,0,0,1,1,1,0,1,1,,,1,0,1,0,1,0,1,0,0,0,1,RE050A+ RF,0,simple,,,,,,,
admin,base,Tyre,simple,24,BS300009,0,ER300,,,/bridge/er300-500x500.jpg,/bridge/er300-500x500.jpg,/bridge/er300-500x500.jpg,,,,No layout updates,Product Info Column,,,,,Use config,,,225,45,17,91Y,,,,Black Wall,,2017,B,C,65,225/45,254.1,,0,,Enabled,No,"Catalog, Search",Taxable Goods,Yes,No,No,Bridgestone,Bridgestone,,,,,,,,,100,0,1,0,0,1,1,1,0,1,1,,,1,0,1,0,1,0,1,0,0,0,1,ER300,0,simple,,,,,,,
admin,base,Tyre,simple,24,BS300010,0,RE-050*RFT,,,/bridge/Potenza%20RE050-500x500-product_popup.jpg,/bridge/Potenza%20RE050-500x500-product_popup.jpg,/bridge/Potenza%20RE050-500x500-product_popup.jpg,,,,No layout updates,Product Info Column,,,,,Use config,,,225,50,16,92W,,,,Black Wall,,2017,B,C,65,225/50,681.45,,0,,Enabled,No,"Catalog, Search",Taxable Goods,Yes,No,No,Bridgestone,Bridgestone,,,,,,,,,100,0,1,0,0,1,1,1,0,1,1,,,1,0,1,0,1,0,1,0,0,0,1,RE-050*RFT,0,simple,,,,,,,
admin,base,Tyre,simple,24,BS300011,0,DHT 684(2),,,/bridge/cq5dam.web.1280.1280.jpeg,/bridge/cq5dam.web.1280.1280.jpeg,/bridge/cq5dam.web.1280.1280.jpeg,,,,No layout updates,Product Info Column,,,,,Use config,,,225,65,17,102T,,,,Black Wall,,2017,B,C,65,225/65,358.05,,0,,Enabled,No,"Catalog, Search",Taxable Goods,Yes,No,No,Bridgestone,Bridgestone,,,,,,,,,100,0,1,0,0,1,1,1,0,1,1,,,1,0,1,0,1,0,1,0,0,0,1,DHT 684(2),0,simple,,,,,,,
admin,base,Tyre,simple,24,BS300012,0,DUEL SPORT,,,/bridge/Bridgestone-Duele-%20HP-Sport.jpg,/bridge/Bridgestone-Duele-%20HP-Sport.jpg,/bridge/Bridgestone-Duele-%20HP-Sport.jpg,,,,No layout updates,Product Info Column,,,,,Use config,,,235,65,18,106H,,,,Black Wall,,2017,B,C,65,235/65,450.45,,0,,Enabled,No,"Catalog, Search",Taxable Goods,Yes,No,No,Bridgestone,Bridgestone,,,,,,,,,100,0,1,0,0,1,1,1,0,1,1,,,1,0,1,0,1,0,1,0,0,0,1,DUEL SPORT,0,simple,,,,,,,
admin,base,Tyre,simple,24,BS300013,0,RU POTENZA,,,/bridge/Bridgestone-Potenza-RE050A-245-35-R20-95Y-XL-*-MFS-RunFlat.jpg,/bridge/Bridgestone-Potenza-RE050A-245-35-R20-95Y-XL-*-MFS-RunFlat.jpg,/bridge/Bridgestone-Potenza-RE050A-245-35-R20-95Y-XL-*-MFS-RunFlat.jpg,,,,No layout updates,Product Info Column,,,,,Use config,,,245,35,20,95Y,,,,Black Wall,,2017,B,C,65,245/35,808.5,,0,,Enabled,No,"Catalog, Search",Taxable Goods,Yes,No,No,Bridgestone,Bridgestone,,,,,,,,,100,0,1,0,0,1,1,1,0,1,1,,,1,0,1,0,1,0,1,0,0,0,1,RU POTENZA,0,simple,,,,,,,
admin,base,Tyre,simple,24,BS300014,0,RE050A -20,,,/bridge/4ad89a01-3997-44f8-b370-55131c9d99c5_1.ca1c25634e09c206e0b0bf55e89fde36.jpeg?odnHeight=450&odnWidth=450&odnBg=FFFFFF,/bridge/4ad89a01-3997-44f8-b370-55131c9d99c5_1.ca1c25634e09c206e0b0bf55e89fde36.jpeg?odnHeight=450&odnWidth=450&odnBg=FFFFFF,/bridge/4ad89a01-3997-44f8-b370-55131c9d99c5_1.ca1c25634e09c206e0b0bf55e89fde36.jpeg?odnHeight=450&odnWidth=450&odnBg=FFFFFF,,,,No layout updates,Product Info Column,,,,,Use config,,,245,40,19,94W,,,,Black Wall,,2017,B,C,65,245/40,589.05,,0,,Enabled,No,"Catalog, Search",Taxable Goods,Yes,No,No,Bridgestone,Bridgestone,,,,,,,,,100,0,1,0,0,1,1,1,0,1,1,,,1,0,1,0,1,0,1,0,0,0,1,RE050A -20,0,simple,,,,,,,
admin,base,Tyre,simple,24,BS300015,0,TURANZA ER,,,/bridge/s-l225.jpg,/bridge/s-l225.jpg,/bridge/s-l225.jpg,,,,No layout updates,Product Info Column,,,,,Use config,,,245,40,19,94Y,,,,Black Wall,,2017,B,C,65,245/40,970.2,,0,,Enabled,No,"Catalog, Search",Taxable Goods,Yes,No,No,Bridgestone,Bridgestone,,,,,,,,,100,0,1,0,0,1,1,1,0,1,1,,,1,0,1,0,1,0,1,0,0,0,1,TURANZA ER,0,simple,,,,,,,
admin,base,Tyre,simple,24,BS300016,0,RE050A RFT,,,/bridge/4831_1.JPG,/bridge/4831_1.JPG,/bridge/4831_1.JPG,,,,No layout updates,Product Info Column,,,,,Use config,,,245,45,17,95W,,,,Black Wall,,2017,B,C,65,245/45,623.7,,0,,Enabled,No,"Catalog, Search",Taxable Goods,Yes,No,No,Bridgestone,Bridgestone,,,,,,,,,100,0,1,0,0,1,1,1,0,1,1,,,1,0,1,0,1,0,1,0,0,0,1,RE050A RFT,0,simple,,,,,,,
admin,base,Tyre,simple,24,BS300017,0,GR90,,,/bridge/bridgestone_gr90_8.jpeg,/bridge/bridgestone_gr90_8.jpeg,/bridge/bridgestone_gr90_8.jpeg,,,,No layout updates,Product Info Column,,,,,Use config,,,245,45,18,96W,,,,Black Wall,,2017,B,C,65,245/45,490.88,,0,,Enabled,No,"Catalog, Search",Taxable Goods,Yes,No,No,Bridgestone,Bridgestone,,,,,,,,,100,0,1,0,0,1,1,1,0,1,1,,,1,0,1,0,1,0,1,0,0,0,1,GR90,0,simple,,,,,,,
admin,base,Tyre,simple,24,BS300018,0,TG90 FZT,,,,,,,,,No layout updates,Product Info Column,,,,,Use config,,,245,45,18,TG90,,,,Black Wall,,2017,B,C,65,245/45,560.18,,0,,Enabled,No,"Catalog, Search",Taxable Goods,Yes,No,No,Bridgestone,Bridgestone,,,,,,,,,100,0,1,0,0,1,1,1,0,1,1,,,1,0,1,0,1,0,1,0,0,0,1,TG90 FZT,0,simple,,,,,,,
admin,base,Tyre,simple,24,BS300019,0,G90FZ,,,/bridge/91GZaylriHL._SY450_.jpg,/bridge/91GZaylriHL._SY450_.jpg,/bridge/91GZaylriHL._SY450_.jpg,,,,No layout updates,Product Info Column,,,,,Use config,,,245,45,19,98W,,,,Black Wall,,2017,B,C,65,245/45,583.28,,0,,Enabled,No,"Catalog, Search",Taxable Goods,Yes,No,No,Bridgestone,Bridgestone,,,,,,,,,100,0,1,0,0,1,1,1,0,1,1,,,1,0,1,0,1,0,1,0,0,0,1,G90FZ,0,simple,,,,,,,
admin,base,Tyre,simple,24,BS300020,0,RE050A *RF,,,/bridge/re050a_5_2_1_1.jpg,/bridge/re050a_5_2_1_1.jpg,/bridge/re050a_5_2_1_1.jpg,,,,No layout updates,Product Info Column,,,,,Use config,,,255,30,19,91Y,,,,Black Wall,,2017,B,C,65,255/30,843.15,,0,,Enabled,No,"Catalog, Search",Taxable Goods,Yes,No,No,Bridgestone,Bridgestone,,,,,,,,,100,0,1,0,0,1,1,1,0,1,1,,,1,0,1,0,1,0,1,0,0,0,1,RE050A *RF,0,simple,,,,,,,
admin,base,Tyre,simple,24,BS300021,0,POTENZA RE050A RFT,,,/bridge/51F6cSM3kyL._SY355_.jpg,/bridge/51F6cSM3kyL._SY355_.jpg,/bridge/51F6cSM3kyL._SY355_.jpg,,,,No layout updates,Product Info Column,,,,,Use config,,,255,30,19,91Y,,,,Black Wall,,2017,B,C,65,255/30,600.6,,0,,Enabled,No,"Catalog, Search",Taxable Goods,Yes,No,No,Bridgestone,Bridgestone,,,,,,,,,100,0,1,0,0,1,1,1,0,1,1,,,1,0,1,0,1,0,1,0,0,0,1,POTENZA RE050A RFT,0,simple,,,,,,,
admin,base,Tyre,simple,24,BS300022,0,S001,,,/bridge/image.php?id=05348394&h=0156&w=0156&crop=2&options=YToxOntzOjU6ImNvbG9yIjtzOjU6IndoaXRlIjt9,/bridge/image.php?id=05348394&h=0156&w=0156&crop=2&options=YToxOntzOjU6ImNvbG9yIjtzOjU6IndoaXRlIjt9,/bridge/image.php?id=05348394&h=0156&w=0156&crop=2&options=YToxOntzOjU6ImNvbG9yIjtzOjU6IndoaXRlIjt9,,,,No layout updates,Product Info Column,,,,,Use config,,,255,35,18,,,,,Black Wall,,2017,B,C,65,255/35,589.05,,0,,Enabled,No,"Catalog, Search",Taxable Goods,Yes,No,No,Bridgestone,Bridgestone,,,,,,,,,100,0,1,0,0,1,1,1,0,1,1,,,1,0,1,0,1,0,1,0,0,0,1,S001,0,simple,,,,,,,
admin,base,Tyre,simple,24,BS300023,0,DUELER SPORT MO,,,/bridge/neumaticos-bridgestone-25540-r20-101w-dueler-hp-sport-mo.jpg,/bridge/neumaticos-bridgestone-25540-r20-101w-dueler-hp-sport-mo.jpg,/bridge/neumaticos-bridgestone-25540-r20-101w-dueler-hp-sport-mo.jpg,,,,No layout updates,Product Info Column,,,,,Use config,,,255,40,20,101W,,,,Black Wall,,2017,B,C,65,255/40,739.2,,0,,Enabled,No,"Catalog, Search",Taxable Goods,Yes,No,No,Bridgestone,Bridgestone,,,,,,,,,100,0,1,0,0,1,1,1,0,1,1,,,1,0,1,0,1,0,1,0,0,0,1,DUELER SPORT MO,0,simple,,,,,,,
admin,base,Tyre,simple,24,BS300024,0,DLR ALENZA,,,/bridge/087b7a49-8e9e-4d62-8a46-ad1b0d82f4f5_1.4500ce5255b0d29e2bd658c07cf7e927.jpeg?odnHeight=450&odnWidth=450&odnBg=FFFFFF,/bridge/087b7a49-8e9e-4d62-8a46-ad1b0d82f4f5_1.4500ce5255b0d29e2bd658c07cf7e927.jpeg?odnHeight=450&odnWidth=450&odnBg=FFFFFF,/bridge/087b7a49-8e9e-4d62-8a46-ad1b0d82f4f5_1.4500ce5255b0d29e2bd658c07cf7e927.jpeg?odnHeight=450&odnWidth=450&odnBg=FFFFFF,,,,No layout updates,Product Info Column,,,,,Use config,,,255,55,20,107H,,,,Black Wall,,2017,B,C,65,255/55,727.65,,0,,Enabled,No,"Catalog, Search",Taxable Goods,Yes,No,No,Bridgestone,Bridgestone,,,,,,,,,100,0,1,0,0,1,1,1,0,1,1,,,1,0,1,0,1,0,1,0,0,0,1,DLR ALENZA,0,simple,,,,,,,
admin,base,Tyre,simple,24,BS300025,0,112/110S 840,,,/bridge/s-l640.jpg,/bridge/s-l640.jpg,/bridge/s-l640.jpg,,,,No layout updates,Product Info Column,,,,,Use config,,,255,70,15,,,,,Black Wall,,2017,B,C,65,255/70,404.25,,0,,Enabled,No,"Catalog, Search",Taxable Goods,Yes,No,No,Bridgestone,Bridgestone,,,,,,,,,100,0,1,0,0,1,1,1,0,1,1,,,1,0,1,0,1,0,1,0,0,0,1,112/110S 840,0,simple,,,,,,,
admin,base,Tyre,simple,24,BS300026,0,DLR HT 840,,,/bridge/neumatico-4x4-bridgestone-dueler-h-t-840-265-65-r17-112-s--836004.jpg,/bridge/neumatico-4x4-bridgestone-dueler-h-t-840-265-65-r17-112-s--836004.jpg,/bridge/neumatico-4x4-bridgestone-dueler-h-t-840-265-65-r17-112-s--836004.jpg,,,,No layout updates,Product Info Column,,,,,Use config,,,265,65,17,112S,,,,Black Wall,,2017,B,C,65,265/65,433.13,,0,,Enabled,No,"Catalog, Search",Taxable Goods,Yes,No,No,Bridgestone,Bridgestone,,,,,,,,,100,0,1,0,0,1,1,1,0,1,1,,,1,0,1,0,1,0,1,0,0,0,1,DLR HT 840,0,simple,,,,,,,
admin,base,Tyre,simple,24,BS300027,0,D684 II BW,,,/bridge/5188eAi69mL._SL500_AC_SS350_.jpg,/bridge/5188eAi69mL._SL500_AC_SS350_.jpg,/bridge/5188eAi69mL._SL500_AC_SS350_.jpg,,,,No layout updates,Product Info Column,,,,,Use config,,,265,65,18,112T,,,,Black Wall,,2017,B,C,65,265/65,288.75,,0,,Enabled,No,"Catalog, Search",Taxable Goods,Yes,No,No,Bridgestone,Bridgestone,,,,,,,,,100,0,1,0,0,1,1,1,0,1,1,,,1,0,1,0,1,0,1,0,0,0,1,D684 II BW,0,simple,,,,,,,
admin,base,Tyre,simple,24,BS300028,0,RE050A *RF,,,/bridge/Bridgestone_Potenza_Re050A_Run_Flat.jpg,/bridge/Bridgestone_Potenza_Re050A_Run_Flat.jpg,/bridge/Bridgestone_Potenza_Re050A_Run_Flat.jpg,,,,No layout updates,Product Info Column,,,,,Use config,,,275,35,18,95W,,,,Black Wall,,2017,B,C,65,275/35,900.9,,0,,Enabled,No,"Catalog, Search",Taxable Goods,Yes,No,No,Bridgestone,Bridgestone,,,,,,,,,100,0,1,0,0,1,1,1,0,1,1,,,1,0,1,0,1,0,1,0,0,0,1,RE050A *RF,0,simple,,,,,,,
admin,base,Tyre,simple,24,BS300029,0,RE050A RFT,,,/bridge/mhJxJb2kBlhJ7vAAZ_ZgcMA.jpg,/bridge/mhJxJb2kBlhJ7vAAZ_ZgcMA.jpg,/bridge/mhJxJb2kBlhJ7vAAZ_ZgcMA.jpg,,,,No layout updates,Product Info Column,,,,,Use config,,,275,35,19,96W,,,,Black Wall,,2017,B,C,65,275/35,1062.6,,0,,Enabled,No,"Catalog, Search",Taxable Goods,Yes,No,No,Bridgestone,Bridgestone,,,,,,,,,100,0,1,0,0,1,1,1,0,1,1,,,1,0,1,0,1,0,1,0,0,0,1,RE050A RFT,0,simple,,,,,,,
admin,base,Tyre,simple,24,BS300030,0,TURANZA ER300 RFT*,,,/bridge/s-l225.jpg,/bridge/s-l225.jpg,/bridge/s-l225.jpg,,,,No layout updates,Product Info Column,,,,,Use config,,,275,35,19,96Y,,,,Black Wall,,2017,B,C,65,275/35,1258.95,,0,,Enabled,No,"Catalog, Search",Taxable Goods,Yes,No,No,Bridgestone,Bridgestone,,,,,,,,,100,0,1,0,0,1,1,1,0,1,1,,,1,0,1,0,1,0,1,0,0,0,1,TURANZA ER300 RFT*,0,simple,,,,,,,
admin,base,Tyre,simple,24,BS300031,0,RE050A RFT,,,/bridge/BS197-bridgestone-potenzaa-re050a-rf,/bridge/BS197-bridgestone-potenzaa-re050a-rf,/bridge/BS197-bridgestone-potenzaa-re050a-rf,,,,No layout updates,Product Info Column,,,,,Use config,,,275,40,18,99W,,,,Black Wall,,2017,B,C,65,275/40,970.2,,0,,Enabled,No,"Catalog, Search",Taxable Goods,Yes,No,No,Bridgestone,Bridgestone,,,,,,,,,100,0,1,0,0,1,1,1,0,1,1,,,1,0,1,0,1,0,1,0,0,0,1,RE050A RFT,0,simple,,,,,,,
admin,base,Tyre,simple,24,BS300032,0,DUEL SPORT RFT,,,/bridge/bridgestone_b250_2_2_2.jpeg,/bridge/bridgestone_b250_2_2_2.jpeg,/bridge/bridgestone_b250_2_2_2.jpeg,,,,No layout updates,Product Info Column,,,,,Use config,,,275,40,20,106W,,,,Black Wall,,2017,B,C,65,275/40,889.35,,0,,Enabled,No,"Catalog, Search",Taxable Goods,Yes,No,No,Bridgestone,Bridgestone,,,,,,,,,100,0,1,0,0,1,1,1,0,1,1,,,1,0,1,0,1,0,1,0,0,0,1,DUEL SPORT RFT,0,simple,,,,,,,
admin,base,Tyre,simple,24,BS300033,0,DHPAHZ( RF),,,/bridge/51OnqBHOHvL._SL500_AC_SS350_.jpg,/bridge/51OnqBHOHvL._SL500_AC_SS350_.jpg,/bridge/51OnqBHOHvL._SL500_AC_SS350_.jpg,,,,No layout updates,Product Info Column,,,,,Use config,,,275,40,20,106W,,,,Black Wall,,2017,B,C,65,275/40,1051.05,,0,,Enabled,No,"Catalog, Search",Taxable Goods,Yes,No,No,Bridgestone,Bridgestone,,,,,,,,,100,0,1,0,0,1,1,1,0,1,1,,,1,0,1,0,1,0,1,0,0,0,1,DHPAHZ( RF),0,simple,,,,,,,
admin,base,Tyre,simple,24,BS300034,0,D SPORT HP,,,/bridge/s-l225.jpg,/bridge/s-l225.jpg,/bridge/s-l225.jpg,,,,No layout updates,Product Info Column,,,,,Use config,,,275,45,20,110W,,,,Black Wall,,2017,B,C,65,275/45,693,,0,,Enabled,No,"Catalog, Search",Taxable Goods,Yes,No,No,Bridgestone,Bridgestone,,,,,,,,,100,0,1,0,0,1,1,1,0,1,1,,,1,0,1,0,1,0,1,0,0,0,1,D SPORT HP,0,simple,,,,,,,
admin,base,Tyre,simple,24,BS300035,0,D684,,,/bridge/0040622926939_A?$img_size_380x380$,/bridge/0040622926939_A?$img_size_380x380$,/bridge/0040622926939_A?$img_size_380x380$,,,,No layout updates,Product Info Column,,,,,Use config,,,275,50,22,111H,,,,Black Wall,,2017,B,C,65,275/50,808.5,,0,,Enabled,No,"Catalog, Search",Taxable Goods,Yes,No,No,Bridgestone,Bridgestone,,,,,,,,,100,0,1,0,0,1,1,1,0,1,1,,,1,0,1,0,1,0,1,0,0,0,1,D684,0,simple,,,,,,,
admin,base,Tyre,simple,24,BS300036,0,DLR ALZ HL BW,,,,,,,,,No layout updates,Product Info Column,,,,,Use config,,,275,55,20,111S,,,,Black Wall,,2017,B,C,65,275/55,542.85,,0,,Enabled,No,"Catalog, Search",Taxable Goods,Yes,No,No,Bridgestone,Bridgestone,,,,,,,,,100,0,1,0,0,1,1,1,0,1,1,,,1,0,1,0,1,0,1,0,0,0,1,DLR ALZ HL BW,0,simple,,,,,,,
admin,base,Tyre,simple,24,BS300037,0,DUELER D68,,,/bridge/1f0f4f48-88ba-4d94-a454-46e3df16c53f_1.19e232514949f9f041683c5e3036cdc5.jpeg?odnHeight=450&odnWidth=450&odnBg=FFFFFF,/bridge/1f0f4f48-88ba-4d94-a454-46e3df16c53f_1.19e232514949f9f041683c5e3036cdc5.jpeg?odnHeight=450&odnWidth=450&odnBg=FFFFFF,/bridge/1f0f4f48-88ba-4d94-a454-46e3df16c53f_1.19e232514949f9f041683c5e3036cdc5.jpeg?odnHeight=450&odnWidth=450&odnBg=FFFFFF,,,,No layout updates,Product Info Column,,,,,Use config,,,275,60,20,114H,,,,Black Wall,,2017,B,C,65,275/60,693,,0,,Enabled,No,"Catalog, Search",Taxable Goods,Yes,No,No,Bridgestone,Bridgestone,,,,,,,,,100,0,1,0,0,1,1,1,0,1,1,,,1,0,1,0,1,0,1,0,0,0,1,DUELER D68,0,simple,,,,,,,
admin,base,Tyre,simple,24,BS300038,0,D684,,,/bridge/9hq,/bridge/9hq,/bridge/9hq,,,,No layout updates,Product Info Column,,,,,Use config,,,275,60,20,115H,,,,Black Wall,,2017,B,C,65,275/60,843.15,,0,,Enabled,No,"Catalog, Search",Taxable Goods,Yes,No,No,Bridgestone,Bridgestone,,,,,,,,,100,0,1,0,0,1,1,1,0,1,1,,,1,0,1,0,1,0,1,0,0,0,1,D684,0,simple,,,,,,,
admin,base,Tyre,simple,24,BS300039,0,D850,,,,,,,,,No layout updates,Product Info Column,,,,,Use config,,,275,65,17,,,,,Black Wall,,2017,B,C,65,275/65,577.5,,0,,Enabled,No,"Catalog, Search",Taxable Goods,Yes,No,No,Bridgestone,Bridgestone,,,,,,,,,100,0,1,0,0,1,1,1,0,1,1,,,1,0,1,0,1,0,1,0,0,0,1,D850,0,simple,,,,,,,
admin,base,Tyre,simple,24,BS300040,0,D840,,,/bridge/9hq,/bridge/9hq,/bridge/9hq,,,,No layout updates,Product Info Column,,,,,Use config,,,275,70,16,114H,,,,Black Wall,,2017,B,C,65,275/70,577.5,,0,,Enabled,No,"Catalog, Search",Taxable Goods,Yes,No,No,Bridgestone,Bridgestone,,,,,,,,,100,0,1,0,0,1,1,1,0,1,1,,,1,0,1,0,1,0,1,0,0,0,1,D840,0,simple,,,,,,,
admin,base,Tyre,simple,24,BS300041,0,DLR ALENZA,,,/bridge/0040623565209_A?$img_size_380x380$,/bridge/0040623565209_A?$img_size_380x380$,/bridge/0040623565209_A?$img_size_380x380$,,,,No layout updates,Product Info Column,,,,,Use config,,,285,45,22,110H,,,,Black Wall,,2017,B,C,65,285/45,750.75,,0,,Enabled,No,"Catalog, Search",Taxable Goods,Yes,No,No,Bridgestone,Bridgestone,,,,,,,,,100,0,1,0,0,1,1,1,0,1,1,,,1,0,1,0,1,0,1,0,0,0,1,DLR ALENZA,0,simple,,,,,,,
admin,base,Tyre,simple,24,BS300042,0,D850,,,/bridge/img_hl850_enlarge.jpg,/bridge/img_hl850_enlarge.jpg,/bridge/img_hl850_enlarge.jpg,,,,No layout updates,Product Info Column,,,,,Use config,,,285,60,18,116V,,,,Black Wall,,2017,B,C,65,285/60,600.6,,0,,Enabled,No,"Catalog, Search",Taxable Goods,Yes,No,No,Bridgestone,Bridgestone,,,,,,,,,100,0,1,0,0,1,1,1,0,1,1,,,1,0,1,0,1,0,1,0,0,0,1,D850,0,simple,,,,,,,
admin,base,Tyre,simple,24,BS300043,0,D850,,,,,,,,,No layout updates,Product Info Column,,,,,Use config,,,285,65,17,,,,,Black Wall,,2017,B,C,65,285/65,554.4,,0,,Enabled,No,"Catalog, Search",Taxable Goods,Yes,No,No,Bridgestone,Bridgestone,,,,,,,,,100,0,1,0,0,1,1,1,0,1,1,,,1,0,1,0,1,0,1,0,0,0,1,D850,0,simple,,,,,,,
admin,base,Tyre,simple,24,BS300044,0,RE050A N1,,,/bridge/0107065_bridgestone-re050a-n1-passenger-car-summer-tyre-30530-r19-102y-xl-305-30-19_320.jpeg,/bridge/0107065_bridgestone-re050a-n1-passenger-car-summer-tyre-30530-r19-102y-xl-305-30-19_320.jpeg,/bridge/0107065_bridgestone-re050a-n1-passenger-car-summer-tyre-30530-r19-102y-xl-305-30-19_320.jpeg,,,,No layout updates,Product Info Column,,,,,Use config,,,305,30,19,102Y,,,,Black Wall,,2017,B,C,65,305/30,866.25,,0,,Enabled,No,"Catalog, Search",Taxable Goods,Yes,No,No,Bridgestone,Bridgestone,,,,,,,,,100,0,1,0,0,1,1,1,0,1,1,,,1,0,1,0,1,0,1,0,0,0,1,RE050A N1,0,simple,,,,,,,
admin,base,Tyre,simple,24,BS300045,0,DHPAHZ( RF),,,/bridge/34194_48153.jpg,/bridge/34194_48153.jpg,/bridge/34194_48153.jpg,,,,No layout updates,Product Info Column,,,,,Use config,,,315,35,20,110W,,,,Black Wall,,2017,B,C,65,315/35,1008,960,0,,Enabled,No,"Catalog, Search",Taxable Goods,Yes,No,No,Bridgestone,Bridgestone,,,,,,,,,100,0,1,0,0,1,1,1,0,1,1,,,1,0,1,0,1,0,1,0,0,0,1,DHPAHZ( RF),0,simple,,,,,,,
admin,base,Tyre,simple,24,BS300046,0,230 TT,,,,,,,,,No layout updates,Product Info Column,,,,,Use config,,,750,,16,,,,,Black Wall,,2017,B,C,65,750R16,551.25,525,0,,Enabled,No,"Catalog, Search",Taxable Goods,Yes,No,No,Bridgestone,Bridgestone,,,,,,,,,100,0,1,0,0,1,1,1,0,1,1,,,1,0,1,0,1,0,1,0,0,0,1,230 TT,0,simple,,,,,,,
