store,websites,attribute_set,type,category_ids,sku,has_options,name,meta_title,meta_description,image,small_image,thumbnail,url_key,url_path,custom_design,page_layout,options_container,image_label,small_image_label,thumbnail_label,country_of_manufacture,msrp_enabled,msrp_display_actual_price_type,gift_message_available,width,ratio,size,diameter,car_make,car_model,car_year,sidewall_style,serv_desc,utqg,production_year,fuel,weather,sound,price,special_price,weight,msrp,status,is_recurring,visibility,tax_class_id,passenger,tyres4_4,vantyres,description,short_description,meta_keyword,custom_layout_update,special_from_date,special_to_date,news_from_date,news_to_date,custom_design_from,custom_design_to,qty,min_qty,use_config_min_qty,is_qty_decimal,backorders,use_config_backorders,min_sale_qty,use_config_min_sale_qty,max_sale_qty,use_config_max_sale_qty,is_in_stock,low_stock_date,notify_stock_qty,use_config_notify_stock_qty,manage_stock,use_config_manage_stock,stock_status_changed_auto,use_config_qty_increments,qty_increments,use_config_enable_qty_inc,enable_qty_increments,is_decimal_divided,stock_status_changed_automatically,use_config_enable_qty_increments,product_name,store_id,product_type_id,product_status_changed,product_changed_websites
admin,base,Tyre,simple,24,BS202010,0,Potenza RE070,,,/bridgestone_re070.jpeg,/bridgestone_re070.jpeg,/bridgestone_re070.jpeg,,,,No layout updates,Product Info Column,,,,,Use config,Use config,No,255,40,255/40 R20,20,,,2017,Run Flat / Black Wall,"97 Y Load Index 97 =  1,609.36lbs (730kg) per tire Speed Rating = 186.41mph (300kph)",Run Flat / Black Wall,2017,C,C,65,1249,1124.1,1,,Enabled,No,"Catalog, Search",Taxable Goods,Yes,No,No,"The Potenza RE070 is Bridgestone Extreme Performance Summer tire developed for Original Equipment use in sizes for the 2012 Lexus LFA Nurburgring Edition, 2004-2007 all-wheel drive Subaru Impreza WRX STI performance sedans, as well as 2008-2009 Honda S2000 CR (Club Racer) sports cars. While designed to combine predictable handling on the street with extreme dry traction on the track, the Potenza RE070, like all Extreme Performance Summer tires, these tires are not intended to be serviced, stored nor driven in near- and below-freezing temperatures, through snow or on ice.",,,,,,,,,,100,0,1,0,0,1,1,1,0,1,1,,,1,0,1,0,1,0,1,0,0,0,1,Potenza RE070,0,simple,,
admin,base,Tyre,simple,24,BS201726,0,Dueler H/T D840,,,/bridgestone_dueler_840_2.jpeg,/bridgestone_dueler_840_2.jpeg,/bridgestone_dueler_840_2.jpeg,,,,No layout updates,Product Info Column,,,,,Use config,Use config,No,255,70,255/70 R15,15,,,2017,Black Wall,"112 S Load Index 112 =  2,469.15lbs (1120kg) per tire Speed Rating = 111.85mph (180kph)",Black Wall,2017,C,C,65,462,438.9,1,,Enabled,No,"Catalog, Search",Taxable Goods,Yes,No,No,Designed as a premium highway tyre for SUVs and 4x4s that require maximum ride quality and road holding.  It delivers superior dry and wet road performance without sacrificing ride comfort and is original equipment on the Nissan Navara.,,,,,,,,,,100,0,1,0,0,1,1,1,0,1,1,,,1,0,1,0,1,0,1,0,0,0,1,Dueler H/T D840,0,simple,,
admin,base,Tyre,simple,24,BS202115,0,Dueler H/L D400,,,/bridgestone_d400.jpg,/bridgestone_d400.jpg,/bridgestone_d400.jpg,,,,No layout updates,Product Info Column,,,,,Use config,Use config,No,265,45,265/45 R21,21,,,2017,Black Wall,"104 V Load Index 104 =  1,984.14lbs (900kg) per tire Speed Rating = 149.13mph (240kph)",Black Wall,2017,C,C,65,949,901.55,1,,Enabled,No,"Catalog, Search",Taxable Goods,Yes,No,No,"The Dueler H/L 400 is a highway tyre for luxury SUVs and 4x4s, combining performance with a quiet, comfortable ride.  The tyre is fitted as original equipment on selected vehicles including Nissan Pathfinder, Mazda CX-9 and Toyota Kluger.",,,,,,,,,,100,0,1,0,0,1,1,1,0,1,1,,,1,0,1,0,1,0,1,0,0,0,1,Dueler H/L D400,0,simple,,
admin,base,Tyre,simple,24,BS202024,0,Dueler H/P 92,,,/bridgestone_d92.jpg,/bridgestone_d92.jpg,/bridgestone_d92.jpg,,,,No layout updates,Product Info Column,,,,,Use config,Use config,No,265,50,265/50 R20,20,,,2017,Black Wall,"107 V Load Index 107 =  2,149.49lbs (975kg) per tire Speed Rating = 149.13mph (240kph)",Black Wall,2017,C,C,65,924,877.8,1,,Enabled,No,"Catalog, Search",Taxable Goods,Yes,No,No,"Versatile performance for drivers of trucks, SUVs and CUVs designed for a comfortable ride. Confident traction on wet and dry surfaces. Armed with technologies that help deliver durability with a good tread life",,,,,,,,,,100,0,1,0,0,1,1,1,0,1,1,,,1,0,1,0,1,0,1,0,0,0,1,Dueler H/P 92,0,simple,,
admin,base,Tyre,simple,24,BS202190,0,Dueler H/T D684,,,/d684.jpg,/d684.jpg,/d684.jpg,,,,No layout updates,Product Info Column,,,,,Use config,Use config,No,265,60,265/60 R18,18,,,2017,Black Wall,"110 H Load Index 110 =  2,336.88lbs (1060kg) per tire Speed Rating = 130.49mph (210kph)",Black Wall,2017,C,C,65,649,616.55,1,,Enabled,No,"Catalog, Search",Taxable Goods,Yes,No,No,"Bridgestone 4x4 tyre features a modern tread pattern for excellent handling stability and a quieter, smoother, more comfortable highway ride.  It is fitted as original equipment on a range of recreational vehicles, including Subaru Forester, Honda CR-V and Suzuki Vitara.",,,,,,,,,,100,0,1,0,0,1,1,1,0,1,1,,,1,0,1,0,1,0,1,0,0,0,1,Dueler H/T D684,0,simple,,
admin,base,Tyre,simple,24,BS202113,0,Dueler H/T D840,,,/bridgestone_dueler_840.jpeg,/bridgestone_dueler_840.jpeg,/bridgestone_dueler_840.jpeg,,,,No layout updates,Product Info Column,,,,,Use config,Use config,No,265,60,265/60 R18,18,,,2017,Black Wall,"110 H Load Index 110 =  2,336.88lbs (1060kg) per tire Speed Rating = 130.49mph (210kph)",Black Wall,2017,C,C,65,649,616.55,1,,Enabled,No,"Catalog, Search",Taxable Goods,Yes,No,No,Designed as a premium highway tyre for SUVs and 4x4s that require maximum ride quality and road holding.  It delivers superior dry and wet road performance without sacrificing ride comfort and is original equipment on the Nissan Navara.,,,,,,,,,,100,0,1,0,0,1,1,1,0,1,1,,,1,0,1,0,1,0,1,0,0,0,1,Dueler H/T D840,0,simple,,
admin,base,Tyre,simple,24,BS202053-ZNQ,0,Dueler H/T D840,,,/bridgestone_dueler_840.jpeg,/bridgestone_dueler_840.jpeg,/bridgestone_dueler_840.jpeg,,,,No layout updates,Product Info Column,,,,,Use config,Use config,No,265,65,265/65 R17,17,,,2017,Black Wall,"112 H Load Index 112 =  2,469.15lbs (1120kg) per tire Speed Rating = 130.49mph (210kph)",Black Wall,2017,C,C,65,609,578.55,1,,Enabled,No,"Catalog, Search",Taxable Goods,Yes,No,No,Designed as a premium highway tyre for SUVs and 4x4s that require maximum ride quality and road holding.  It delivers superior dry and wet road performance without sacrificing ride comfort and is original equipment on the Nissan Navara.,,,,,,,,,,100,0,1,0,0,1,1,1,0,1,1,,,1,0,1,0,1,0,1,0,0,0,1,Dueler H/T D840,0,simple,,
admin,base,Tyre,simple,24,BS201831,0,Dueler A/T D693,,,/dueler-at-d693-300x300.jpg,/dueler-at-d693-300x300.jpg,/dueler-at-d693-300x300.jpg,,,,No layout updates,Product Info Column,,,,,Use config,Use config,No,265,65,265/65 R17,17,,,2017,Black Wall,"112 S Load Index 112 =  2,469.15lbs (1120kg) per tire Speed Rating = 111.85mph (180kph)",Black Wall,2017,C,C,65,674,640.3,1,,Enabled,No,"Catalog, Search",Taxable Goods,Yes,No,No,"Designed to meet the demands of high performance 4x4s, this all terrain tyre offers excellent performance off road without compromising on highway comfort or handling.",,,,,,,,,,100,0,1,0,0,1,1,1,0,1,1,,,1,0,1,0,1,0,1,0,0,0,1,Dueler A/T D693,0,simple,,
admin,base,Tyre,simple,24,BS201823,0,Dueler H/T D684,,,/d684.jpg,/d684.jpg,/d684.jpg,,,,No layout updates,Product Info Column,,,,,Use config,Use config,No,265,65,265/65 R17,17,,,2017,Black Wall,"112 S Load Index 112 =  2,469.15lbs (1120kg) per tire Speed Rating = 111.85mph (180kph)",Black Wall,2017,C,C,65,560,532,1,,Enabled,No,"Catalog, Search",Taxable Goods,Yes,No,No,"Bridgestone 4x4 tyre features a modern tread pattern for excellent handling stability and a quieter, smoother, more comfortable highway ride.  It is fitted as original equipment on a range of recreational vehicles, including Subaru Forester, Honda CR-V and Suzuki Vitara.",,,,,,,,,,100,0,1,0,0,1,1,1,0,1,1,,,1,0,1,0,1,0,1,0,0,0,1,Dueler H/T D684,0,simple,,
admin,base,Tyre,simple,24,BS201816-ZNQ,0,Dueler H/T D840,,,/bridgestone_dueler_840.jpeg,/bridgestone_dueler_840.jpeg,/bridgestone_dueler_840.jpeg,,,,No layout updates,Product Info Column,,,,,Use config,Use config,No,265,70,265/70 R16,16,,,2017,Black Wall,"112 S Load Index 112 =  2,469.15lbs (1120kg) per tire Speed Rating = 111.85mph (180kph)",Black Wall,2017,C,C,65,529,502.55,1,,Enabled,No,"Catalog, Search",Taxable Goods,Yes,No,No,Designed as a premium highway tyre for SUVs and 4x4s that require maximum ride quality and road holding.  It delivers superior dry and wet road performance without sacrificing ride comfort and is original equipment on the Nissan Navara.,,,,,,,,,,100,0,1,0,0,1,1,1,0,1,1,,,1,0,1,0,1,0,1,0,0,0,1,Dueler H/T D840,0,simple,,
admin,base,Tyre,simple,24,BS202006,0,Dueler H/T D684,,,/d684.jpg,/d684.jpg,/d684.jpg,,,,No layout updates,Product Info Column,,,,,Use config,Use config,No,265,70,265/70 R18,18,,,2017,Black Wall,"116 H Load Index 116 =  2,755.75lbs (1250kg) per tire Speed Rating = 130.49mph (210kph)",Black Wall,2017,C,C,65,824,782.8,1,,Enabled,No,"Catalog, Search",Taxable Goods,Yes,No,No,"Bridgestone 4x4 tyre features a modern tread pattern for excellent handling stability and a quieter, smoother, more comfortable highway ride.  It is fitted as original equipment on a range of recreational vehicles, including Subaru Forester, Honda CR-V and Suzuki Vitara.",,,,,,,,,,100,0,1,0,0,1,1,1,0,1,1,,,1,0,1,0,1,0,1,0,0,0,1,Dueler H/T D684,0,simple,,
admin,base,Tyre,simple,24,BS202164,0,Potenza RE050A,,,/bridgestone_e050_12_1.jpeg,/bridgestone_e050_12_1.jpeg,/bridgestone_e050_12_1.jpeg,,,,No layout updates,Product Info Column,,,,,Use config,Use config,No,275,30,275/30 R20,20,,,2017,Run Flat / Black Wall,"97 Y Load Index 97 =  1,609.36lbs (730kg) per tire Speed Rating = 186.41mph (300kph)",Run Flat / Black Wall,2017,C,C,65,1249,1124.1,1,,Enabled,No,"Catalog, Search",Taxable Goods,Yes,No,No,"The Potenza RE050A is a Max Performance Summer tire designed to complement the performance of sports cars, sports coupes and sport sedans. While the Potenza RE050 is used as Original Equipment on the supercharged Mercedes-Benz S55 AMG sedan, a Potenza RE050A Scuderia version is used on the 12-cylinder Enzo Ferrari supercar, and a Run Flat version is used on the BMW Z4 sports cars and 5-Series sedans. The Potenza RE050A was developed to provide good traction along with responsive and predictable dry and wet road handling. It is not intended to be driven in near-freezing temperatures, through snow or on ice.",,,,,,,,,,100,0,1,0,0,1,1,1,0,1,1,,,1,0,1,0,1,0,1,0,0,0,1,Potenza RE050A,0,simple,,
admin,base,Tyre,simple,24,BS201975,0,Potenza RE050A,,,/bridgestone_e050.jpeg,/bridgestone_e050.jpeg,/bridgestone_e050.jpeg,,,,No layout updates,Product Info Column,,,,,Use config,Use config,No,275,35,275/35 R19,19,,,2017,Run Flat / Black Wall,"96 W Load Index 96 =  1,565.27lbs (710kg) per tire Speed Rating = 167.77mph (270kph)",Run Flat / Black Wall,2017,C,C,65,1049,944.1,1,,Enabled,No,"Catalog, Search",Taxable Goods,Yes,No,No,"The Potenza RE050A is a Max Performance Summer tire designed to complement the performance of sports cars, sports coupes and sport sedans. While the Potenza RE050 is used as Original Equipment on the supercharged Mercedes-Benz S55 AMG sedan, a Potenza RE050A Scuderia version is used on the 12-cylinder Enzo Ferrari supercar, and a Run Flat version is used on the BMW Z4 sports cars and 5-Series sedans. The Potenza RE050A was developed to provide good traction along with responsive and predictable dry and wet road handling. It is not intended to be driven in near-freezing temperatures, through snow or on ice.",,,,,,,,,,100,0,1,0,0,1,1,1,0,1,1,,,1,0,1,0,1,0,1,0,0,0,1,Potenza RE050A,0,simple,,
admin,base,Tyre,simple,24,BS201978,0,Potenza RE050A TL,,,/bridgestone_e050.jpeg,/bridgestone_e050.jpeg,/bridgestone_e050.jpeg,,,,No layout updates,Product Info Column,,,,,Use config,Use config,No,275,35,275/35 R19,19,,,2017,Black Wall,"96 W Load Index 96 =  1,565.27lbs (710kg) per tire Speed Rating = 167.77mph (270kph)",Black Wall,2017,C,C,65,899,854.05,1,,Enabled,No,"Catalog, Search",Taxable Goods,Yes,No,No,"The Potenza RE050A is a Max Performance Summer tire designed to complement the performance of sports cars, sports coupes and sport sedans. While the Potenza RE050 is used as Original Equipment on the supercharged Mercedes-Benz S55 AMG sedan, a Potenza RE050A Scuderia version is used on the 12-cylinder Enzo Ferrari supercar, and a Run Flat version is used on the BMW Z4 sports cars and 5-Series sedans. The Potenza RE050A was developed to provide good traction along with responsive and predictable dry and wet road handling. It is not intended to be driven in near-freezing temperatures, through snow or on ice.",,,,,,,,,,100,0,1,0,0,1,1,1,0,1,1,,,1,0,1,0,1,0,1,0,0,0,1,Potenza RE050A TL,0,simple,,
admin,base,Tyre,simple,24,BR275/40R20106W-DHPA-RFT-ZNQ,0,Dueler H/P Sport AS DHPA XL,,,/bridgestone_dueler_hp_sport_as.jpeg,/bridgestone_dueler_hp_sport_as.jpeg,/bridgestone_dueler_hp_sport_as.jpeg,,,,No layout updates,Product Info Column,,,,,Use config,Use config,No,275,40,275/40 R20,20,,,2017,Run Flat / Black Wall,"106 W Load Index 106 =  2,094.37lbs (950kg) per tire Speed Rating = 167.77mph (270kph)",Run Flat / Black Wall,2017,C,C,65,1149,1034.1,1,,Enabled,No,"Catalog, Search",Taxable Goods,Yes,No,No,"The Dueler H/P Sport AS is one of Bridgestones Crossover/SUV Touring All-Season tires developed for the drivers of luxury and performance crossovers, sport utility vehicles and light-duty pickup trucks looking for all-season capability, even in light snow. Designed to provide performance that is in tune with today's popular light-duty light trucks, the Dueler H/P Sport AS blends traction, handling and braking with ride comfort and wear.",,,,,,,,,,100,0,1,0,0,1,1,1,0,1,1,,,1,0,1,0,1,0,1,0,0,0,1,Dueler H/P Sport AS DHPA XL,0,simple,,
admin,base,Tyre,simple,24,BS201735,0,Dueler H/P Sport AS DHPA XL,,,/bridgestone_dueler_hp_sport_as.jpeg,/bridgestone_dueler_hp_sport_as.jpeg,/bridgestone_dueler_hp_sport_as.jpeg,,,,No layout updates,Product Info Column,,,,,Use config,Use config,No,275,45,275/45 R19,19,,,2017,Black Wall,"108 Y Load Index 108 =  2,204.60lbs (1000kg) per tire Speed Rating = 186.41mph (300kph)",Black Wall,2017,C,C,65,974,925.3,1,,Enabled,No,"Catalog, Search",Taxable Goods,Yes,No,No,"The Dueler H/P Sport AS is one of Bridgestones Crossover/SUV Touring All-Season tires developed for the drivers of luxury and performance crossovers, sport utility vehicles and light-duty pickup trucks looking for all-season capability, even in light snow. Designed to provide performance that is in tune with today's popular light-duty light trucks, the Dueler H/P Sport AS blends traction, handling and braking with ride comfort and wear.",,,,,,,,,,100,0,1,0,0,1,1,1,0,1,1,,,1,0,1,0,1,0,1,0,0,0,1,Dueler H/P Sport AS DHPA XL,0,simple,,
admin,base,Tyre,simple,24,BR275/50R22111H-D684,0,Dueler H/T D684,,,/d684.jpg,/d684.jpg,/d684.jpg,,,,No layout updates,Product Info Column,,,,,Use config,Use config,No,275,50,275/50 R22,22,,,2017,Black Wall,"111 H Load Index 111 =  2,403.01lbs (1090kg) per tire Speed Rating = 130.49mph (210kph)",Black Wall,2017,C,C,65,1174,1056.6,1,,Enabled,No,"Catalog, Search",Taxable Goods,Yes,No,No,"Bridgestone 4x4 tyre features a modern tread pattern for excellent handling stability and a quieter, smoother, more comfortable highway ride.  It is fitted as original equipment on a range of recreational vehicles, including Subaru Forester, Honda CR-V and Suzuki Vitara.",,,,,,,,,,100,0,1,0,0,1,1,1,0,1,1,,,1,0,1,0,1,0,1,0,0,0,1,Dueler H/T D684,0,simple,,
admin,base,Tyre,simple,24,BR275/55R20113H-DALN-ZNQ,0,Dueler H/L Alenza DLAN,,,/alenza.jpg,/alenza.jpg,/alenza.jpg,,,,No layout updates,Product Info Column,,,,,Use config,Use config,No,275,55,275/55 R20,20,,,2017,Black Wall,"113 H Load Index 113 =  2,535.29lbs (1150kg) per tire Speed Rating = 130.49mph (210kph)",Black Wall,2017,C,C,65,849,806.55,1,,Enabled,No,"Catalog, Search",Taxable Goods,Yes,No,No,"The Dueler H/L Alenza with UNI-T and/or UNI-T AQII technology is Bridgestones Crossover/SUV Touring All-Season light truck tire developed for the drivers of premium crossover and sport utility vehicles, as well as light duty pickup trucks. The Dueler H/L Alenza is designed to provide elegance with an edge, as well as year-round traction, even in light snow.",,,,,,,,,,100,0,1,0,0,1,1,1,0,1,1,,,1,0,1,0,1,0,1,0,0,0,1,Dueler H/L Alenza DLAN,0,simple,,
admin,base,Tyre,simple,24,BS202099-ZNQ,0,Dueler H/T D684,,,/d684.jpg,/d684.jpg,/d684.jpg,,,,No layout updates,Product Info Column,,,,,Use config,Use config,No,275,60,275/60 R20,20,,,2017,Black Wall,"115 H Load Index 115 =  2,678.59lbs (1215kg) per tire Speed Rating = 130.49mph (210kph)",Black Wall,2017,C,C,65,949,901.55,1,,Enabled,No,"Catalog, Search",Taxable Goods,Yes,No,No,"Bridgestone 4x4 tyre features a modern tread pattern for excellent handling stability and a quieter, smoother, more comfortable highway ride.  It is fitted as original equipment on a range of recreational vehicles, including Subaru Forester, Honda CR-V and Suzuki Vitara.",,,,,,,,,,100,0,1,0,0,1,1,1,0,1,1,,,1,0,1,0,1,0,1,0,0,0,1,Dueler H/T D684,0,simple,,
admin,base,Tyre,simple,24,BS201737,0,Dueler H/T D840,,,/bridgestone_duelerhtd840.jpg,/bridgestone_duelerhtd840.jpg,/bridgestone_duelerhtd840.jpg,,,,No layout updates,Product Info Column,,,,,Use config,Use config,No,275,65,275/65 R17,17,,,2017,Black Wall,"114 H Load Index 114 =  2,601.43lbs (1180kg) per tire Speed Rating = 130.49mph (210kph)",Black Wall,2017,C,C,65,649,616.55,1,,Enabled,No,"Catalog, Search",Taxable Goods,Yes,No,No,Designed as a premium highway tyre for SUVs and 4x4s that require maximum ride quality and road holding.  It delivers superior dry and wet road performance without sacrificing ride comfort and is original equipment on the Nissan Navara.,,,,,,,,,,100,0,1,0,0,1,1,1,0,1,1,,,1,0,1,0,1,0,1,0,0,0,1,Dueler H/T D840,0,simple,,
admin,base,Tyre,simple,24,BS202102,0,Dueler H/T D850,,,/bridgestone_duelerht_d850_1_10.jpg,/bridgestone_duelerht_d850_1_10.jpg,/bridgestone_duelerht_d850_1_10.jpg,,,,No layout updates,Product Info Column,,,,,Use config,Use config,No,275,65,275/65 R17,17,,,2017,Black Wall,"115 H Load Index 115 =  2,678.59lbs (1215kg) per tire Speed Rating = 130.49mph (210kph)",Black Wall,2017,C,C,65,609,578.55,1,,Enabled,No,"Catalog, Search",Taxable Goods,Yes,No,No,"The Bridgestone Dueler tires on Terrance Knighton ride are Bridgestones toughest SUV tires. And with an 80,000-mile treadwear warranty, these light truck tires give this strong and hungry NFL lineman plenty of durability to make it to the grocery store.",,,,,,,,,,100,0,1,0,0,1,1,1,0,1,1,,,1,0,1,0,1,0,1,0,0,0,1,Dueler H/T D850,0,simple,,
admin,base,Tyre,simple,24,BS201764-ZNQ,0,Dueler H/T D840,,,/bridgestone_dueler_840.jpeg,/bridgestone_dueler_840.jpeg,/bridgestone_dueler_840.jpeg,,,,No layout updates,Product Info Column,,,,,Use config,Use config,No,275,70,275/70 R16,16,,,2017,Black Wall,"114 H Load Index 114 =  2,601.43lbs (1180kg) per tire Speed Rating = 130.49mph (210kph)",Black Wall,2017,C,C,65,661,627.95,1,,Enabled,No,"Catalog, Search",Taxable Goods,Yes,No,No,Designed as a premium highway tyre for SUVs and 4x4s that require maximum ride quality and road holding.  It delivers superior dry and wet road performance without sacrificing ride comfort and is original equipment on the Nissan Navara.,,,,,,,,,,100,0,1,0,0,1,1,1,0,1,1,,,1,0,1,0,1,0,1,0,0,0,1,Dueler H/T D840,0,simple,,
admin,base,Tyre,simple,24,BS202011,0,Potenza RE070,,,/bridgestone_re070.jpeg,/bridgestone_re070.jpeg,/bridgestone_re070.jpeg,,,,No layout updates,Product Info Column,,,,,Use config,Use config,No,285,35,285/35 R20,20,,,2017,Run Flat / Black Wall,"100 Y Load Index 100 =  1,763.68lbs (800kg) per tire Speed Rating = 186.41mph (300kph)",Run Flat / Black Wall,2017,C,C,65,1399,1259.1,1,,Enabled,No,"Catalog, Search",Taxable Goods,Yes,No,No,"The Potenza RE070 is Bridgestone Extreme Performance Summer tire developed for Original Equipment use in sizes for the 2012 Lexus LFA Nurburgring Edition, 2004-2007 all-wheel drive Subaru Impreza WRX STI performance sedans, as well as 2008-2009 Honda S2000 CR (Club Racer) sports cars. While designed to combine predictable handling on the street with extreme dry traction on the track, the Potenza RE070, like all Extreme Performance Summer tires, these tires are not intended to be serviced, stored nor driven in near- and below-freezing temperatures, through snow or on ice.",,,,,,,,,,100,0,1,0,0,1,1,1,0,1,1,,,1,0,1,0,1,0,1,0,0,0,1,Potenza RE070,0,simple,,
admin,base,Tyre,simple,24,BS201970,0,Dueler H/P Sport AS DHPA XL,,,/bridgestone_dueler_hp_sport_as.jpeg,/bridgestone_dueler_hp_sport_as.jpeg,/bridgestone_dueler_hp_sport_as.jpeg,,,,No layout updates,Product Info Column,,,,,Use config,Use config,No,285,45,285/45 R19,19,,,2017,Run Flat / Black Wall,"111 V Load Index 111 =  2,403.01lbs (1090kg) per tire Speed Rating = 149.13mph (240kph)",Run Flat / Black Wall,2017,C,C,65,1228,1105.2,1,,Enabled,No,"Catalog, Search",Taxable Goods,Yes,No,No,"The Dueler H/P Sport AS is one of Bridgestones Crossover/SUV Touring All-Season tires developed for the drivers of luxury and performance crossovers, sport utility vehicles and light-duty pickup trucks looking for all-season capability, even in light snow. Designed to provide performance that is in tune with today's popular light-duty light trucks, the Dueler H/P Sport AS blends traction, handling and braking with ride comfort and wear.",,,,,,,,,,100,0,1,0,0,1,1,1,0,1,1,,,1,0,1,0,1,0,1,0,0,0,1,Dueler H/P Sport AS DHPA XL,0,simple,,
admin,base,Tyre,simple,24,BS201960-ZNQ,0,Dueler H/L Alenza,,,/alenza.jpg,/alenza.jpg,/alenza.jpg,,,,No layout updates,Product Info Column,,,,,Use config,Use config,No,285,45,285/45 R22,22,,,2017,Black Wall,"110 H Load Index 110 =  2,336.88lbs (1060kg) per tire Speed Rating = 130.49mph (210kph)",Black Wall,2017,C,C,65,899,854.05,1,,Enabled,No,"Catalog, Search",Taxable Goods,Yes,No,No,"The Dueler H/L Alenza with UNI-T and/or UNI-T AQII technology is Bridgestones Crossover/SUV Touring All-Season light truck tire developed for the drivers of premium crossover and sport utility vehicles, as well as light duty pickup trucks. The Dueler H/L Alenza is designed to provide elegance with an edge, as well as year-round traction, even in light snow.",,,,,,,,,,100,0,1,0,0,1,1,1,0,1,1,,,1,0,1,0,1,0,1,0,0,0,1,Dueler H/L Alenza,0,simple,,
admin,base,Tyre,simple,24,BS202105-ZNQ,0,Dueler H/T D850,,,/img_hl850_enlarge.jpg,/img_hl850_enlarge.jpg,/img_hl850_enlarge.jpg,,,,No layout updates,Product Info Column,,,,,Use config,Use config,No,285,60,285/60 R18,18,,,2017,Black Wall,"116 V Load Index 116 =  2,755.75lbs (1250kg) per tire Speed Rating = 149.13mph (240kph)",Black Wall,2017,C,C,65,724,687.8,1,,Enabled,No,"Catalog, Search",Taxable Goods,Yes,No,No,"The Bridgestone Dueler tires on Terrance Knighton ride are Bridgestones toughest SUV tires. And with an 80,000-mile treadwear warranty, these light truck tires give this strong and hungry NFL lineman plenty of durability to make it to the grocery store.",,,,,,,,,,100,0,1,0,0,1,1,1,0,1,1,,,1,0,1,0,1,0,1,0,0,0,1,Dueler H/T D850,0,simple,,
admin,base,Tyre,simple,24,BS202004,0,Potenza S001 XL,,,/bridgestone_s001.jpeg,/bridgestone_s001.jpeg,/bridgestone_s001.jpeg,,,,No layout updates,Product Info Column,,,,,Use config,Use config,No,295,35,295/35 R20,20,,,2017,Black Wall,"105 Y Load Index 105 =  2,039.26lbs (925kg) per tire Speed Rating = 186.41mph (300kph)",Black Wall,2017,C,C,65,1199,1079.1,1,,Enabled,No,"Catalog, Search",Taxable Goods,Yes,No,No,"The Potenza S001 is Bridgestone Max Performance Summer tire developed as Original Equipment for premium high-performance sports cars, coupes and sedans. The Potenza S001 is designed to combine low rolling resistance efficiency with maximum sports performance in dry and wet conditions. However, like all summer tires, they are not intended to be driven in near freezing temperatures, through snow or on ice.",,,,,,,,,,100,0,1,0,0,1,1,1,0,1,1,,,1,0,1,0,1,0,1,0,0,0,1,Potenza S001 XL,0,simple,,
admin,base,Tyre,simple,24,BS202123-ZNQ,0,Dueler H/P Sport AS DHPA XL,,,/bridgestone_dueler_hp_sport_as.jpeg,/bridgestone_dueler_hp_sport_as.jpeg,/bridgestone_dueler_hp_sport_as.jpeg,,,,No layout updates,Product Info Column,,,,,Use config,Use config,No,315,35,315/35 R20,20,,,2017,Run Flat / Black Wall,"110 W Load Index 110 =  2,336.88lbs (1060kg) per tire Speed Rating = 167.77mph (270kph)",Run Flat / Black Wall,2017,C,C,65,1299,1169.1,1,,Enabled,No,"Catalog, Search",Taxable Goods,Yes,No,No,"The Dueler H/P Sport AS is one of Bridgestones Crossover/SUV Touring All-Season tires developed for the drivers of luxury and performance crossovers, sport utility vehicles and light-duty pickup trucks looking for all-season capability, even in light snow. Designed to provide performance that is in tune with today's popular light-duty light trucks, the Dueler H/P Sport AS blends traction, handling and braking with ride comfort and wear.",,,,,,,,,,100,0,1,0,0,1,1,1,0,1,1,,,1,0,1,0,1,0,1,0,0,0,1,Dueler H/P Sport AS DHPA XL,0,simple,,
