store,websites,attribute_set,type,category_ids,sku,has_options,name,meta_title,meta_description,image,small_image,thumbnail,url_key,url_path,custom_design,page_layout,options_container,image_label,small_image_label,thumbnail_label,country_of_manufacture,msrp_enabled,msrp_display_actual_price_type,gift_message_available,width,ratio,size,diameter,car_make,car_model,car_year,sidewall_style,serv_desc,utqg,production_year,fuel,weather,sound,price,special_price,weight,msrp,status,is_recurring,visibility,tax_class_id,passenger,tyres4_4,vantyres,description,short_description,meta_keyword,custom_layout_update,special_from_date,special_to_date,news_from_date,news_to_date,custom_design_from,custom_design_to,qty,min_qty,use_config_min_qty,is_qty_decimal,backorders,use_config_backorders,min_sale_qty,use_config_min_sale_qty,max_sale_qty,use_config_max_sale_qty,is_in_stock,low_stock_date,notify_stock_qty,use_config_notify_stock_qty,manage_stock,use_config_manage_stock,stock_status_changed_auto,use_config_qty_increments,qty_increments,use_config_enable_qty_inc,enable_qty_increments,is_decimal_divided,stock_status_changed_automatically,use_config_enable_qty_increments,product_name,store_id,product_type_id,product_status_changed,product_changed_websites
admin,base,Tyre,simple,193,DUN65021,0,175/65 R14 82T,,,/t1.jpg,/t1.jpg,/t1.jpg,,,,No layout updates,Product Info Column,,,,,Use config,Use config,No,100,,175/65 R14,175/65 R14,,,2017,Black Wall,"82 T Load Index 82 =  1,047.19lbs (475kg) per tireSpeed Rating = 118.06mph (190kph)",Black Wall,2017,C,C,65,229,217.55,1,,Enabled,No,"Catalog, Search",Taxable Goods,Yes,No,No,"The SP Sport is Dunlops Max Performance Summer tire developed for the drivers of pure sports cars, powerful coupes and high performance sedans. SP Sport Maxx GT tires are designed to offer outstanding driver feedback and responsive handling, but like all summer tires are not intended to be driven in near-freezing temperatures, through snow or on ice.",,,,,,,,,,100,0,1,0,0,1,1,1,0,1,1,,,1,0,1,0,1,0,1,0,0,0,1,175/65 R14 82T,0,simple,,
admin,base,Tyre,simple,,DUN65269,0,175/65 R15 84T,,,/dunlop_sp31.jpeg,/dunlop_sp31.jpeg,/dunlop_sp31.jpeg,,,,No layout updates,Product Info Column,,,,,Use config,Use config,No,100,,175/65 R15,175/65 R15,,,2017,Black Wall,"84 T Load Index 84 =  1,102.30lbs (500kg) per tireSpeed Rating = 118.06mph (190kph)",Black Wall,2017,C,C,65,355,337.25,1,,Enabled,No,"Catalog, Search",Taxable Goods,Yes,No,No,"The SP31 A/S is Dunlops Passenger All-Season tire developed for drivers looking to match the Original Equipment (O.E.) needs of their fuel-efficient compact and sub-compact cars. Used as O.E. on Honda Civic Hybrid, Fit and Insight models, the SP31 A/S is designed to help maintain the vehicles original fuel efficiency and environmental impact while providing all-season traction in dry, wet and wintry conditions, including in occasional light snow.",,,,,,,,,,100,0,1,0,0,1,1,1,0,1,1,,,1,0,1,0,1,0,1,0,0,0,1,175/65 R15 84T,0,simple,,
admin,base,Tyre,simple,164,DUN60012,0,185/60 R16 86H,,,/dunlop_enasave_ec300.jpg,/dunlop_enasave_ec300.jpg,/dunlop_enasave_ec300.jpg,,,,No layout updates,Product Info Column,,,,,Use config,Use config,No,100,,185/60 R16,185/60 R16,,,2017,Black Wall,"86 H Load Index 86 =  1,168.44lbs (530kg) per tireSpeed Rating = 130.49mph (210kph)",Black Wall,2017,C,C,65,299,284.05,1,,Enabled,No,"Catalog, Search",Taxable Goods,Yes,No,No,"The Enasave 2030 has been developed by Dunlop for drivers of vehicles with a focus on saving energy and delivers energy efficiency through its reduced rolling resistance. The tyres tread has a pattern designed to deliver excellent grip during cornering by providing a large contact patch and wide grooves which help maintain wet handling and traction throughout the life of the tyre whilst providing a smooth, luxurious ride.",,,,,,,,,,100,0,1,0,0,1,1,1,0,1,1,,,1,0,1,0,1,0,1,0,0,0,1,185/60 R16 86H,0,simple,,
admin,base,Tyre,simple,193,DUN65023,0,185/65 R15 88T,,,/t1.jpg,/t1.jpg,/t1.jpg,,,,No layout updates,Product Info Column,,,,,Use config,Use config,No,100,,185/65 R15,185/65 R15,,,2017,Black Wall,"88 T Load Index 88 =  1,234.58lbs (560kg) per tireSpeed Rating = 118.06mph (190kph)",Black Wall,2017,C,C,65,249,236.55,1,,Enabled,No,"Catalog, Search",Taxable Goods,Yes,No,No,"The SP Sport SPTRGT1 is Dunlops Max Performance Summer tire developed for the drivers of pure sports cars, powerful coupes and high performance sedans. SP Sport Maxx GT tires are designed to offer outstanding driver feedback and responsive handling, but like all summer tires are not intended to be driven in near-freezing temperatures, through snow or on ice.",,,,,,,,,,100,0,1,0,0,1,1,1,0,1,1,,,1,0,1,0,1,0,1,0,0,0,1,185/65 R15 88T,0,simple,,
admin,base,Tyre,simple,189,DUN55014,0,195/55 R15 85V,,,/dunlop_spsportlm704.jpeg,/dunlop_spsportlm704.jpeg,/dunlop_spsportlm704.jpeg,,,,No layout updates,Product Info Column,,,,,Use config,Use config,No,100,,195/55 R15,195/55 R15,,,2017,Black Wall,"85 V Load Index 85 =  1,135.37lbs (515kg) per tireSpeed Rating = 149.13mph (240kph)",Black Wall,2017,C,C,65,299,284.05,1,,Enabled,No,"Catalog, Search",Taxable Goods,Yes,No,No,"The Dunlop SP Sport LM704 is the ideal tyre for a wide range of cars with high levels of handling, low noise and wet grip. Delivering improved tread wear versus its predecessor thanks to a new innovative silica tread compound and expanded contact area on the road, means you get value for money coupled with performance.",,,,,,,,,,100,0,1,0,0,1,1,1,0,1,1,,,1,0,1,0,1,0,1,0,0,0,1,195/55 R15 85V,0,simple,,
admin,base,Tyre,simple,189,DUN60007,0,195/60 R15 88V,,,/dunlop_spsportlm704.jpeg,/dunlop_spsportlm704.jpeg,/dunlop_spsportlm704.jpeg,,,,No layout updates,Product Info Column,,,,,Use config,Use config,No,100,,195/60 R15,195/60 R15,,,2017,Black Wall,"88 V Load Index 88 =  1,234.58lbs (560kg) per tireSpeed Rating = 149.13mph (240kph)",Black Wall,2017,C,C,65,290,275.5,1,,Enabled,No,"Catalog, Search",Taxable Goods,Yes,No,No,"The Dunlop SP Sport LM704 is the ideal tyre for a wide range of cars with high levels of handling, low noise and wet grip. Delivering improved tread wear versus its predecessor thanks to a new innovative silica tread compound and expanded contact area on the road, means you get value for money coupled with performance.",,,,,,,,,,100,0,1,0,0,1,1,1,0,1,1,,,1,0,1,0,1,0,1,0,0,0,1,195/60 R15 88V,0,simple,,
admin,base,Tyre,simple,188,DUN65178,0,195/65 R15 91H,,,/dunlop_sport300.jpeg,/dunlop_sport300.jpeg,/dunlop_sport300.jpeg,,,,No layout updates,Product Info Column,,,,,Use config,Use config,No,100,,195/65 R15,195/65 R15,,,2017,Black Wall,"91 H Load Index 91 =  1,355.83lbs (615kg) per tireSpeed Rating = 130.49mph (210kph)",Black Wall,2017,C,C,65,339,322.05,1,,Enabled,No,"Catalog, Search",Taxable Goods,Yes,No,No,Dunlop SP Sport tires are designed for drivers who value performance and style.,,,,,,,,,,100,0,1,0,0,1,1,1,0,1,1,,,1,0,1,0,1,0,1,0,0,0,1,195/65 R15 91H,0,simple,,
admin,base,Tyre,simple,193,DUN65024,0,195/65 R15 91T,,,/t1.jpg,/t1.jpg,/t1.jpg,,,,No layout updates,Product Info Column,,,,,Use config,Use config,No,100,,195/65 R15,195/65 R15,,,2017,Black Wall,"91 T Load Index 91 =  1,355.83lbs (615kg) per tireSpeed Rating = 118.06mph (190kph)",Black Wall,2017,C,C,65,269,255.55,1,,Enabled,No,"Catalog, Search",Taxable Goods,Yes,No,No,"The SP Sport SPTRGT1 is Dunlops Max Performance Summer tire developed for the drivers of pure sports cars, powerful coupes and high performance sedans. SP Sport Maxx GT tires are designed to offer outstanding driver feedback and responsive handling, but like all summer tires are not intended to be driven in near-freezing temperatures, through snow or on ice.",,,,,,,,,,100,0,1,0,0,1,1,1,0,1,1,,,1,0,1,0,1,0,1,0,0,0,1,195/65 R15 91T,0,simple,,
admin,base,Tyre,simple,173,DUN541,0,205/ R16C 106N,,,/dunlop_grandtrektg30.jpg,/dunlop_grandtrektg30.jpg,/dunlop_grandtrektg30.jpg,,,,No layout updates,Product Info Column,,,,,Use config,Use config,No,100,,205/R16C,205/R16C,,,2017,Black Wall,"106 N Load Index 106 =  2,094.37lbs (950kg) per tireSpeed Rating = 86.99mph (140kph)",Black Wall,2017,C,C,65,410,389.5,1,,Enabled,No,"Catalog, Search",Taxable Goods,Yes,No,No,"A new type of four block pattern, providing excellent performance both on and off-road.",,,,,,,,,,100,0,1,0,0,1,1,1,0,1,1,,,1,0,1,0,1,0,1,0,0,0,1,205/ R16C 106N,0,simple,,
admin,base,Tyre,simple,189,DUN55009,0,205/55 R16 91V,,,/dunlop_spsportlm704.jpeg,/dunlop_spsportlm704.jpeg,/dunlop_spsportlm704.jpeg,,,,No layout updates,Product Info Column,,,,,Use config,Use config,No,100,,205/55 R16,205/55 R16,,,2017,Black Wall,"91 V Load Index 91 =  1,355.83lbs (615kg) per tireSpeed Rating = 149.13mph (240kph)",Black Wall,2017,C,C,65,339,322.05,1,,Enabled,No,"Catalog, Search",Taxable Goods,Yes,No,No,"The Dunlop SP Sport LM704 is the ideal tyre for a wide range of cars with high levels of handling, low noise and wet grip. Delivering improved tread wear versus its predecessor thanks to a new innovative silica tread compound and expanded contact area on the road, means you get value for money coupled with performance.",,,,,,,,,,100,0,1,0,0,1,1,1,0,1,1,,,1,0,1,0,1,0,1,0,0,0,1,205/55 R16 91V,0,simple,,
admin,base,Tyre,simple,186,DUN60338,0,205/60 R16 92H,,,/dunlop_spsport2050.jpeg,/dunlop_spsport2050.jpeg,/dunlop_spsport2050.jpeg,,,,No layout updates,Product Info Column,,,,,Use config,Use config,No,100,,205/60 R16,205/60 R16,,,2017,Black Wall,"92 H Load Index 92 =  1,388.90lbs (630kg) per tireSpeed Rating = 130.49mph (210kph)",Black Wall,2017,C,C,65,389,369.55,1,,Enabled,No,"Catalog, Search",Taxable Goods,Yes,No,No,"Ultra High Performance Summer tires are for driving enthusiasts who want a combination of a performance appearance, crisp handling and Z-speed rated (or higher) durability along with dry and wet traction. Often used as Original Equipment (O.E.) on sports cars, performance coupes and high performance sedans, Ultra High Performance Summer tires are not intended to be driven in near-freezing temperatures, through snow or on ice.",,,,,,,,,,100,0,1,0,0,1,1,1,0,1,1,,,1,0,1,0,1,0,1,0,0,0,1,205/60 R16 92H,0,simple,,
admin,base,Tyre,simple,189,DUN60005,0,205/60 R16 92H,,,/dunlop_spsportlm704.jpeg,/dunlop_spsportlm704.jpeg,/dunlop_spsportlm704.jpeg,,,,No layout updates,Product Info Column,,,,,Use config,Use config,No,100,,205/60 R16,205/60 R16,,,2017,Black Wall,"92 H Load Index 92 =  1,388.90lbs (630kg) per tireSpeed Rating = 130.49mph (210kph)",Black Wall,2017,C,C,65,365,346.75,1,,Enabled,No,"Catalog, Search",Taxable Goods,Yes,No,No,"The Dunlop SP Sport LM704 is the ideal tyre for a wide range of cars with high levels of handling, low noise and wet grip. Delivering improved tread wear versus its predecessor thanks to a new innovative silica tread compound and expanded contact area on the road, means you get value for money coupled with performance.",,,,,,,,,,100,0,1,0,0,1,1,1,0,1,1,,,1,0,1,0,1,0,1,0,0,0,1,205/60 R16 92H,0,simple,,
admin,base,Tyre,simple,189,DUN65026,0,205/65 R15 94V,,,/dunlop_spsportlm704.jpeg,/dunlop_spsportlm704.jpeg,/dunlop_spsportlm704.jpeg,,,,No layout updates,Product Info Column,,,,,Use config,Use config,No,100,,205/65 R15,205/65 R15,,,2016,Black Wall,"94 V Load Index 94 =  1,477.08lbs (670kg) per tireSpeed Rating = 149.13mph (240kph)",Black Wall,2016,C,C,65,325,308.75,1,,Enabled,No,"Catalog, Search",Taxable Goods,Yes,No,No,"The Dunlop SP Sport LM704 is the ideal tyre for a wide range of cars with high levels of handling, low noise and wet grip. Delivering improved tread wear versus its predecessor thanks to a new innovative silica tread compound and expanded contact area on the road, means you get value for money coupled with performance.",,,,,,,,,,100,0,1,0,0,1,1,1,0,1,1,,,1,0,1,0,1,0,1,0,0,0,1,205/65 R15 94V,0,simple,,
admin,base,Tyre,simple,189,DUN65025,0,205/65 R16 95H,,,/dunlop_spsportlm704.jpeg,/dunlop_spsportlm704.jpeg,/dunlop_spsportlm704.jpeg,,,,No layout updates,Product Info Column,,,,,Use config,Use config,No,100,,205/65 R16,205/65 R16,,,2017,Black Wall,"95 H Load Index 95 =  1,521.17lbs (690kg) per tireSpeed Rating = 130.49mph (210kph)",Black Wall,2017,C,C,65,360,342,1,,Enabled,No,"Catalog, Search",Taxable Goods,Yes,No,No,"The Dunlop SP Sport LM704 is the ideal tyre for a wide range of cars with high levels of handling, low noise and wet grip. Delivering improved tread wear versus its predecessor thanks to a new innovative silica tread compound and expanded contact area on the road, means you get value for money coupled with performance.",,,,,,,,,,100,0,1,0,0,1,1,1,0,1,1,,,1,0,1,0,1,0,1,0,0,0,1,205/65 R16 95H,0,simple,,
admin,base,Tyre,simple,194,DUN542,0,205/80 R16 104S,,,/dunlop_tg20.jpeg,/dunlop_tg20.jpeg,/dunlop_tg20.jpeg,,,,No layout updates,Product Info Column,,,,,Use config,Use config,No,100,,205/80 R16,205/80 R16,,,2017,Black Wall,"104 S Load Index 104 =  1,984.14lbs (900kg) per tireSpeed Rating = 111.85mph (180kph)",Black Wall,2017,C,C,65,459,436.05,1,,Enabled,No,"Catalog, Search",Taxable Goods,Yes,No,No,"Pattern design on the tyre ensures low noise on hard roads, coupled with good wear characteristics as well as excellent snow and loose surface performance. Designed with a stiffened carcass construction which gives for high load capacity. Features a ribbed block profile tread for high grip on slush, snow and ice. Also designed with an open shoulder structure which provides rapid water drainage, resulting inhigh aquaplaning resistance.",,,,,,,,,,100,0,1,0,0,1,1,1,0,1,1,,,1,0,1,0,1,0,1,0,0,0,1,205/80 R16 104S,0,simple,,
admin,base,Tyre,simple,163,DUN45019,0,215/45 R17 91W,,,/dunlop_direzzadz101_2_1_1_2_3.jpeg,/dunlop_direzzadz101_2_1_1_2_3.jpeg,/dunlop_direzzadz101_2_1_1_2_3.jpeg,,,,No layout updates,Product Info Column,,,,,Use config,Use config,No,100,,215/45 R17,215/45 R17,,,2017,Black Wall,"91 W Load Index 91 =  1,355.83lbs (615kg) per tireSpeed Rating = 167.77mph (270kph)",Black Wall,2017,C,C,65,349,331.55,1,,Enabled,No,"Catalog, Search",Taxable Goods,Yes,No,No,"The Direzza DZ102 is Dunlops Ultra High Performance Summer tire for the drivers of sport compact cars. The Direzza DZ102 shares the Direzza name with Dunlop racing tires used in the Japanese SUPER GT Championship and was developed to provide crisp and responsive handling. The Direzza DZ102 is not intended to be driven in near-freezing temperatures, through snow or on ice.",,,,,,,,,,100,0,1,0,0,1,1,1,0,1,1,,,1,0,1,0,1,0,1,0,0,0,1,215/45 R17 91W,0,simple,,
admin,base,Tyre,simple,163,DUN50022,0,215/50 R17 91V,,,/dunlop_direzzadz101_2_1_1_2_3_1.jpeg,/dunlop_direzzadz101_2_1_1_2_3_1.jpeg,/dunlop_direzzadz101_2_1_1_2_3_1.jpeg,,,,No layout updates,Product Info Column,,,,,Use config,Use config,No,100,,215/50 R17,215/50 R17,,,2017,Black Wall,"91 V Load Index 91 =  1,355.83lbs (615kg) per tireSpeed Rating = 149.13mph (240kph)",Black Wall,2017,C,C,65,359,341.05,1,,Enabled,No,"Catalog, Search",Taxable Goods,Yes,No,No,"The Direzza DZ102 is Dunlops Ultra High Performance Summer tire for the drivers of sport compact cars. The Direzza DZ102 shares the Direzza name with Dunlop racing tires used in the Japanese SUPER GT Championship and was developed to provide crisp and responsive handling. The Direzza DZ102 is not intended to be driven in near-freezing temperatures, through snow or on ice.",,,,,,,,,,100,0,1,0,0,1,1,1,0,1,1,,,1,0,1,0,1,0,1,0,0,0,1,215/50 R17 91V,0,simple,,
admin,base,Tyre,simple,164,DUN55020,0,215/55 R16 93H,,,/dunlop_enasave_ec300_1.jpg,/dunlop_enasave_ec300_1.jpg,/dunlop_enasave_ec300_1.jpg,,,,No layout updates,Product Info Column,,,,,Use config,Use config,No,100,,215/55 R16,215/55 R16,,,2017,Black Wall,"93 H Load Index 93 =  1,432.99lbs (650kg) per tireSpeed Rating = 130.49mph (210kph)",Black Wall,2017,C,C,65,369,350.55,1,,Enabled,No,"Catalog, Search",Taxable Goods,Yes,No,No,"The Enasave 2030 has been developed by Dunlop for drivers of vehicles with a focus on saving energy and delivers energy efficiency through its reduced rolling resistance. The tyres tread has a pattern designed to deliver excellent grip during cornering by providing a large contact patch and wide grooves which help maintain wet handling and traction throughout the life of the tyre whilst providing a smooth, luxurious ride.",,,,,,,,,,100,0,1,0,0,1,1,1,0,1,1,,,1,0,1,0,1,0,1,0,0,0,1,215/55 R16 93H,0,simple,,
admin,base,Tyre,simple,189,DUN60006,0,215/60 R16 95H,,,/dunlop_spsportlm704.jpeg,/dunlop_spsportlm704.jpeg,/dunlop_spsportlm704.jpeg,,,,No layout updates,Product Info Column,,,,,Use config,Use config,No,100,,215/60 R16,215/60 R16,,,2017,Black Wall,"95 H Load Index 95 =  1,521.17lbs (690kg) per tireSpeed Rating = 130.49mph (210kph)",Black Wall,2017,C,C,65,375,356.25,1,,Enabled,No,"Catalog, Search",Taxable Goods,Yes,No,No,"The Dunlop SP Sport LM704 is the ideal tyre for a wide range of cars with high levels of handling, low noise and wet grip. Delivering improved tread wear versus its predecessor thanks to a new innovative silica tread compound and expanded contact area on the road, means you get value for money coupled with performance.",,,,,,,,,,100,0,1,0,0,1,1,1,0,1,1,,,1,0,1,0,1,0,1,0,0,0,1,215/60 R16 95H,0,simple,,
admin,base,Tyre,simple,193,DUN70018,0,215/70 R15 98T,,,/t1.jpg,/t1.jpg,/t1.jpg,,,,No layout updates,Product Info Column,,,,,Use config,Use config,No,100,,215/70 R15,215/70 R15,,,2017,Black Wall,"98 T Load Index 98 =  1,653.45lbs (750kg) per tireSpeed Rating = 118.06mph (190kph)",Black Wall,2017,C,C,65,295,280.25,1,,Enabled,No,"Catalog, Search",Taxable Goods,Yes,No,No,"The SP Sport SPTRGT1 is Dunlops Max Performance Summer tire developed for the drivers of pure sports cars, powerful coupes and high performance sedans. SP Sport Maxx GT tires are designed to offer outstanding driver feedback and responsive handling, but like all summer tires are not intended to be driven in near-freezing temperatures, through snow or on ice.",,,,,,,,,,100,0,1,0,0,1,1,1,0,1,1,,,1,0,1,0,1,0,1,0,0,0,1,215/70 R15 98T,0,simple,,
admin,base,Tyre,simple,183,DUN40241-ZNQ,0,225/40 R18 88Y,,,/max050.png,/max050.png,/max050.png,,,,No layout updates,Product Info Column,,,,,Use config,Use config,No,100,,225/40 R18,225/40 R18,,,2017,Black Wall,"88 Y Load Index 88 =  1,234.58lbs (560kg) per tireSpeed Rating = 186.41mph (300kph)",Black Wall,2017,C,C,65,449,426.55,1,,Enabled,No,"Catalog, Search",Taxable Goods,Yes,No,No,"Max Performance Summer tires are for serious driving enthusiasts who want a combination of a performance appearance, competent handling and Z-speed rated (orhigher) durability with enhanced dry and wet traction. Often used as Original Equipment (O.E.) on powerful sports cars, performance coupes and high performancesedans, Max Performance Summer tires are not intended to be driven in near-freezing temperatures, through snow or on ice.",,,,,,,,,,100,0,1,0,0,1,1,1,0,1,1,,,1,0,1,0,1,0,1,0,0,0,1,225/40 R18 88Y,0,simple,,
admin,base,Tyre,simple,163,DUN40021,0,225/40 R18 92W,,,/dunlop_direzzadz101_2_1_1_2_1.jpeg,/dunlop_direzzadz101_2_1_1_2_1.jpeg,/dunlop_direzzadz101_2_1_1_2_1.jpeg,,,,No layout updates,Product Info Column,,,,,Use config,Use config,No,100,,225/40 R18,225/40 R18,,,2017,Black Wall,"92 W Load Index 92 =  1,388.90lbs (630kg) per tireSpeed Rating = 167.77mph (270kph)",Black Wall,2017,C,C,65,459,436.05,1,,Enabled,No,"Catalog, Search",Taxable Goods,Yes,No,No,"The Direzza DZ102 is Dunlops Ultra High Performance Summer tire for the drivers of sport compact cars. The Direzza DZ102 shares the Direzza name with Dunlop racing tires used in the Japanese SUPER GT Championship and was developed to provide crisp and responsive handling. The Direzza DZ102 is not intended to be driven in near-freezing temperatures, through snow or on ice.",,,,,,,,,,100,0,1,0,0,1,1,1,0,1,1,,,1,0,1,0,1,0,1,0,0,0,1,225/40 R18 92W,0,simple,,
admin,base,Tyre,simple,163,DUN45016,0,225/45 R17 94W,,,/dunlop_direzzadz101_2_1_1_2.jpeg,/dunlop_direzzadz101_2_1_1_2.jpeg,/dunlop_direzzadz101_2_1_1_2.jpeg,,,,No layout updates,Product Info Column,,,,,Use config,Use config,No,100,,225/45 R17,225/45 R17,,,2017,Black Wall,"94 W Load Index 94 =  1,477.08lbs (670kg) per tireSpeed Rating = 167.77mph (270kph)",Black Wall,2017,C,C,65,375,356.25,1,,Enabled,No,"Catalog, Search",Taxable Goods,Yes,No,No,"The Direzza DZ102 is Dunlops Ultra High Performance Summer tire for the drivers of sport compact cars. The Direzza DZ102 shares the Direzza name with Dunlop racing tires used in the Japanese SUPER GT Championship and was developed to provide crisp and responsive handling. The Direzza DZ102 is not intended to be driven in near-freezing temperatures, through snow or on ice.",,,,,,,,,,100,0,1,0,0,1,1,1,0,1,1,,,1,0,1,0,1,0,1,0,0,0,1,225/45 R17 94W,0,simple,,
admin,base,Tyre,simple,189,DUN45018,0,225/45 R18 95W,,,/dunlop_spsportlm704_1.jpeg,/dunlop_spsportlm704_1.jpeg,/dunlop_spsportlm704_1.jpeg,,,,No layout updates,Product Info Column,,,,,Use config,Use config,No,100,,225/45 R18,225/45 R18,,,2017,Black Wall,"95 W Load Index 95 =  1,521.17lbs (690kg) per tireSpeed Rating = 167.77mph (270kph)",Black Wall,2017,C,C,65,439,417.05,1,,Enabled,No,"Catalog, Search",Taxable Goods,Yes,No,No,"The Dunlop SP Sport LM704 is the ideal tyre for a wide range of cars with high levels of handling, low noise and wet grip. Delivering improved tread wear versus its predecessor thanks to a new innovative silica tread compound and expanded contact area on the road, means you get value for money coupled with performance.",,,,,,,,,,100,0,1,0,0,1,1,1,0,1,1,,,1,0,1,0,1,0,1,0,0,0,1,225/45 R18 95W,0,simple,,
admin,base,Tyre,simple,163,DUN50021,0,225/50 R17 94W,,,/dunlop_direzzadz101_2_1_1_3_2.jpeg,/dunlop_direzzadz101_2_1_1_3_2.jpeg,/dunlop_direzzadz101_2_1_1_3_2.jpeg,,,,No layout updates,Product Info Column,,,,,Use config,Use config,No,100,,225/50 R17,225/50 R17,,,2016,Black Wall,"94 W Load Index 94 =  1,477.08lbs (670kg) per tireSpeed Rating = 167.77mph (270kph)",Black Wall,2016,C,C,65,459,436.05,1,,Enabled,No,"Catalog, Search",Taxable Goods,Yes,No,No,"The Direzza DZ102 is Dunlops Ultra High Performance Summer tire for the drivers of sport compact cars. The Direzza DZ102 shares the Direzza name with Dunlop racing tires used in the Japanese SUPER GT Championship and was developed to provide crisp and responsive handling. The Direzza DZ102 is not intended to be driven in near-freezing temperatures, through snow or on ice.",,,,,,,,,,100,0,1,0,0,1,1,1,0,1,1,,,1,0,1,0,1,0,1,0,0,0,1,225/50 R17 94W,0,simple,,
admin,base,Tyre,simple,183,DUN50306,0,225/50 R17 98Y,,,/max050_4.png,/max050_4.png,/max050_4.png,,,,No layout updates,Product Info Column,,,,,Use config,Use config,No,100,,225/50 R17,225/50 R17,,,2017,Black Wall,"98 Y Load Index 98 =  1,653.45lbs (750kg) per tireSpeed Rating = 186.41mph (300kph)",Black Wall,2017,C,C,65,560,532,1,,Enabled,No,"Catalog, Search",Taxable Goods,Yes,No,No,"Max Performance Summer tires are for serious driving enthusiasts who want a combination of a performance appearance, competent handling and Z-speed rated (orhigher) durability with enhanced dry and wet traction. Often used as Original Equipment (O.E.) on powerful sports cars, performance coupes and high performancesedans, Max Performance Summer tires are not intended to be driven in near-freezing temperatures, through snow or on ice.",,,,,,,,,,100,0,1,0,0,1,1,1,0,1,1,,,1,0,1,0,1,0,1,0,0,0,1,225/50 R17 98Y,0,simple,,
admin,base,Tyre,simple,183,DUN55401,0,225/55 R17 101Y,,,/max050.png,/max050.png,/max050.png,,,,No layout updates,Product Info Column,,,,,Use config,Use config,No,100,,225/55 R17,225/55 R17,,,2017,Black Wall,"101 Y Load Index 101 =  1,818.80lbs (825kg) per tireSpeed Rating = 186.41mph (300kph)",Black Wall,2017,C,C,65,465,441.75,1,,Enabled,No,"Catalog, Search",Taxable Goods,Yes,No,No,"MAX050+ is Dunlops Max Performance Summer tire developed for the drivers of sports cars, sporty coupes and high performance sedans. Dunlop Touch Technology combines sophisticated tire development and manufacturing techniques to enhance road feedback and driving precision. Like all summer tires, the SP Sport Maxx TT is not intended to be driven in near-freezing temperatures, through snow or on ice.",,,,,,,,,,100,0,1,0,0,1,1,1,0,1,1,,,1,0,1,0,1,0,1,0,0,0,1,225/55 R17 101Y,0,simple,,
admin,base,Tyre,simple,187,DUN60302,0,225/60 R17 99H,,,/dunlop_spsport270.jpg,/dunlop_spsport270.jpg,/dunlop_spsport270.jpg,,,,No layout updates,Product Info Column,,,,,Use config,Use config,No,100,,225/60 R17,225/60 R17,,,2017,Black Wall,"99 H Load Index 99 =  1,708.57lbs (775kg) per tireSpeed Rating = 130.49mph (210kph)",Black Wall,2017,C,C,65,535,508.25,1,,Enabled,No,"Catalog, Search",Taxable Goods,Yes,No,No,"The SP Sport 270 benefits from a stiffer sidewall, giving more stability when cornering. Enjoy good grip in all conditions with our unique high performance tread compound, which responds well to varying road temperatures.",,,,,,,,,,100,0,1,0,0,1,1,1,0,1,1,,,1,0,1,0,1,0,1,0,0,0,1,225/60 R17 99H,0,simple,,
admin,base,Tyre,simple,182,DUN60095,0,225/60 R18 100H,,,/max050.png,/max050.png,/max050.png,,,,No layout updates,Product Info Column,,,,,Use config,Use config,No,100,,225/60 R18,225/60 R18,,,2017,Black Wall,"100 H Load Index 100 =  1,763.68lbs (800kg) per tireSpeed Rating = 130.49mph (210kph)",Black Wall,2017,C,C,65,699,664.05,1,,Enabled,No,"Catalog, Search",Taxable Goods,Yes,No,No,"Max Performance Summer tires are for serious driving enthusiasts who want a combination of a performance appearance, competent handling and Z-speed rated (orhigher) durability with enhanced dry and wet traction. Often used as Original Equipment (O.E.) on powerful sports cars, performance coupes and high performancesedans, Max Performance Summer tires are not intended to be driven in near-freezing temperatures, through snow or on ice.",,,,,,,,,,100,0,1,0,0,1,1,1,0,1,1,,,1,0,1,0,1,0,1,0,0,0,1,225/60 R18 100H,0,simple,,
