store,websites,attribute_set,type,category_ids,sku,has_options,name,meta_title,meta_description,image,small_image,thumbnail,url_key,url_path,custom_design,page_layout,options_container,image_label,small_image_label,thumbnail_label,country_of_manufacture,msrp_enabled,msrp_display_actual_price_type,gift_message_available,width,ratio,size,diameter,car_make,car_model,car_year,sidewall_style,serv_desc,utqg,production_year,fuel,weather,sound,price,special_price,weight,msrp,status,is_recurring,visibility,tax_class_id,passenger,tyres4_4,vantyres,description,short_description,meta_keyword,custom_layout_update,special_from_date,special_to_date,news_from_date,news_to_date,custom_design_from,custom_design_to,qty,min_qty,use_config_min_qty,is_qty_decimal,backorders,use_config_backorders,min_sale_qty,use_config_min_sale_qty,max_sale_qty,use_config_max_sale_qty,is_in_stock,low_stock_date,notify_stock_qty,use_config_notify_stock_qty,manage_stock,use_config_manage_stock,stock_status_changed_auto,use_config_qty_increments,qty_increments,use_config_enable_qty_inc,enable_qty_increments,is_decimal_divided,stock_status_changed_automatically,use_config_enable_qty_increments,product_name,store_id,product_type_id,product_status_changed,product_changed_websites
admin,base,Tyre,simple,466,MIC859238,0,Latitude Sport,,,/michelin_latitudesport.jpg,/michelin_latitudesport.jpg,/michelin_latitudesport.jpg,,,,No layout updates,Product Info Column,,,,,Use config,Use config,No,255,55,255/55 R20,20,,,2017,Black Wall,110 Y,,2017,C,C,65,1379,1199.73,1,,Enabled,No,"Catalog, Search",Taxable Goods,Yes,No,No,"The Latitude Sport is Michelin's Street/Sport Truck Summer tire initially developed for Original Equipment (O.E.) use on some of the world's most prestigious high performance crossover and sport utility vehicles (Audi Q7, Porsche Cayenne and VW Touareg). The Latitude Sport is designed to deliver world-class dry and wet road traction, handling and cornering but like all summer tires, it is not intended to be driven in near-freezing temperatures, through snow or on ice. Latitude Sport tires share the asymmetric tread pattern and dual tread compounds of Michelin Pilot Sport PS2 Max Performance Summer tires for passenger cars. It features a hybrid silica/carbon black compound that begins at the tire's outboard shoulder and continues across the tread to enhance dry traction where a high-silica compound continues to the tire's inboard shoulder to enhance wet traction. Large outboard shoulder blocks along with continuous intermediate and center ribs enhance steering response and cornering stability while wide circumferential grooves and lateral notches help channel water to enhance wet road traction. The tires' internal structure includes two high-tensile, steel cord belts that are further reinforced by size-optimized, precisely placed individual aramid/nylon hybrid filaments that resist tire distortion to provide high-speed durability and enhanced ride quality.",,,,,,,,,,100,0,1,0,0,1,1,1,0,1,1,,,1,0,1,0,1,0,1,0,0,0,1,Latitude Sport,0,simple,,
admin,base,Tyre,simple,466,MIC450499,0,Latitude Sport 3 GRNX,,,/michelin_latitudesport3.jpg,/michelin_latitudesport3.jpg,/michelin_latitudesport3.jpg,,,,No layout updates,Product Info Column,,,,,Use config,Use config,No,235,55,235/55 R18,18,,,2017,Black Wall,100 V,,2017,C,C,65,949,901.55,1,,Enabled,No,"Catalog, Search",Taxable Goods,Yes,No,No,"The Latitude Sport 3 (third-generation Latitude on-road SUV tire) is Michelin's Street/Sport Truck Summer tire developed as Original Equipment for high performance SUVs and crossovers such as the Porsche Macan S and Macan Turbo. In addition to enhancing vehicle fuel economy by meeting Michelin's Green X low rolling resistance objectives, Latitude Sport 3 tires are designed to deliver world-class dry and wet road traction, handling and cornering. However, like all summer tires, they are not intended to be driven in near-freezing temperatures, through snow or on ice. Latitude Sport 3 tires feature a new tread compound molded into a symmetric design that offers an increased void ratio to improve wet grip compared to its predecessor. Variable thickness sipes reduce tread block deformation, which improves rolling resistance to enhance vehicle fuel economy. The tire's internal structure includes two high-tensile, steel cord belts that are further reinforced by size-optimized, precisely placed individual aramid/nylon hybrid filaments that resist tire distortion to provide high-speed durability and enhanced ride quality.",,,,,,,,,,100,0,1,0,0,1,1,1,0,1,1,,,1,0,1,0,1,0,1,0,0,0,1,Latitude Sport 3 GRNX,0,simple,,
admin,base,Tyre,simple,466,MIC450499,0,Latitude Sport 3 GRNX,,,/michelin_latitudesport3.jpg,/michelin_latitudesport3.jpg,/michelin_latitudesport3.jpg,,,,No layout updates,Product Info Column,,,,,Use config,Use config,No,235,55,235/55 R18,18,,,2017,Black Wall,100 V,,2017,C,C,65,949,901.55,1,,Enabled,No,"Catalog, Search",Taxable Goods,Yes,No,No,"The Latitude Sport 3 (third-generation Latitude on-road SUV tire) is Michelin's Street/Sport Truck Summer tire developed as Original Equipment for high performance SUVs and crossovers such as the Porsche Macan S and Macan Turbo. In addition to enhancing vehicle fuel economy by meeting Michelin's Green X low rolling resistance objectives, Latitude Sport 3 tires are designed to deliver world-class dry and wet road traction, handling and cornering. However, like all summer tires, they are not intended to be driven in near-freezing temperatures, through snow or on ice. Latitude Sport 3 tires feature a new tread compound molded into a symmetric design that offers an increased void ratio to improve wet grip compared to its predecessor. Variable thickness sipes reduce tread block deformation, which improves rolling resistance to enhance vehicle fuel economy. The tire's internal structure includes two high-tensile, steel cord belts that are further reinforced by size-optimized, precisely placed individual aramid/nylon hybrid filaments that resist tire distortion to provide high-speed durability and enhanced ride quality.",,,,,,,,,,100,0,1,0,0,1,1,1,0,1,1,,,1,0,1,0,1,0,1,0,0,0,1,Latitude Sport 3 GRNX,0,simple,,
admin,base,Tyre,simple,466,MIC919695,0,Latitude Sport 3 ZP GRNX,,,/michelin_latitudesport3.jpg,/michelin_latitudesport3.jpg,/michelin_latitudesport3.jpg,,,,No layout updates,Product Info Column,,,,,Use config,Use config,No,255,50,255/50 R19,19,,,2017,Run Flat/Black Wall,107 W,,2017,C,C,65,1549,1347.63,1,,Enabled,No,"Catalog, Search",Taxable Goods,Yes,No,No,"The Latitude Sport 3 (third-generation Latitude on-road SUV tire) is Michelin's Street/Sport Truck Summer tire developed as Original Equipment for high performance SUVs and crossovers such as the Porsche Macan S and Macan Turbo. In addition to enhancing vehicle fuel economy by meeting Michelin's Green X low rolling resistance objectives, Latitude Sport 3 tires are designed to deliver world-class dry and wet road traction, handling and cornering. However, like all summer tires, they are not intended to be driven in near-freezing temperatures, through snow or on ice. Latitude Sport 3 tires feature a new tread compound molded into a symmetric design that offers an increased void ratio to improve wet grip compared to its predecessor. Variable thickness sipes reduce tread block deformation, which improves rolling resistance to enhance vehicle fuel economy. The tire's internal structure includes two high-tensile, steel cord belts that are further reinforced by size-optimized, precisely placed individual aramid/nylon hybrid filaments that resist tire distortion to provide high-speed durability and enhanced ride quality.",,,,,,,,,,100,0,1,0,0,1,1,1,0,1,1,,,1,0,1,0,1,0,1,0,0,0,1,Latitude Sport 3 ZP GRNX,0,simple,,
admin,base,Tyre,simple,466,MIC049320,0,Energy XM2 GRNX,,,/michelin_mx2_grnx.jpeg,/michelin_mx2_grnx.jpeg,/michelin_mx2_grnx.jpeg,,,,No layout updates,Product Info Column,,,,,Use config,Use config,No,175,65,175/65 R14,14,,,2017,Black Wall,82 H,,2017,C,C,65,332,315.4,1,,Enabled,No,"Catalog, Search",Taxable Goods,Yes,No,No,"Michelin Energy XM2 has been able to achieve longer tyre life without sacrificing other performances; increased mileage compared to the average performance of leading competitors, meaning less frequent tyre replacements and more savings.Rolling resistance reduced by 10%, over its predecessor Michelin Energy XM1+ and features excellent braking performance in the wet. Improved tread grooves to evacuate up to 20% more water compared with Michelin Energy XM1+.",,,,,,,,,,100,0,1,0,0,1,1,1,0,1,1,,,1,0,1,0,1,0,1,0,0,0,1,Energy XM2 GRNX,0,simple,,
admin,base,Tyre,simple,466,MIC049320,0,Energy XM2 GRNX,,,/michelin_mx2_grnx.jpeg,/michelin_mx2_grnx.jpeg,/michelin_mx2_grnx.jpeg,,,,No layout updates,Product Info Column,,,,,Use config,Use config,No,175,65,175/65 R14,14,,,2017,Black Wall,82 H,,2017,C,C,65,332,315.4,1,,Enabled,No,"Catalog, Search",Taxable Goods,Yes,No,No,"Michelin Energy XM2 has been able to achieve longer tyre life without sacrificing other performances; increased mileage compared to the average performance of leading competitors, meaning less frequent tyre replacements and more savings.Rolling resistance reduced by 10%, over its predecessor Michelin Energy XM1+ and features excellent braking performance in the wet. Improved tread grooves to evacuate up to 20% more water compared with Michelin Energy XM1+.",,,,,,,,,,100,0,1,0,0,1,1,1,0,1,1,,,1,0,1,0,1,0,1,0,0,0,1,Energy XM2 GRNX,0,simple,,
admin,base,Tyre,simple,466,MIC889293,0,Energy XM2 GRNX,,,/michelin_energyxm2grnx.jpeg,/michelin_energyxm2grnx.jpeg,/michelin_energyxm2grnx.jpeg,,,,No layout updates,Product Info Column,,,,,Use config,Use config,No,175,65,175/65 R14,14,,,2017,Black Wall,82 T,,2017,C,C,65,299,284.05,1,,Enabled,No,"Catalog, Search",Taxable Goods,Yes,No,No,"Michelin Energy XM2 has been able to achieve longer tyre life without sacrificing other performances; increased mileage compared to the average performance of leading competitors, meaning less frequent tyre replacements and more savings.Rolling resistance reduced by 10%, over its predecessor Michelin Energy XM1+ and features excellent braking performance in the wet. Improved tread grooves to evacuate up to 20% more water compared with Michelin Energy XM1+.",,,,,,,,,,100,0,1,0,0,1,1,1,0,1,1,,,1,0,1,0,1,0,1,0,0,0,1,Energy XM2 GRNX,0,simple,,
admin,base,Tyre,simple,466,MIC889293,0,Energy XM2 GRNX,,,/michelin_energyxm2grnx.jpeg,/michelin_energyxm2grnx.jpeg,/michelin_energyxm2grnx.jpeg,,,,No layout updates,Product Info Column,,,,,Use config,Use config,No,175,65,175/65 R14,14,,,2017,Black Wall,82 T,,2017,C,C,65,299,284.05,1,,Enabled,No,"Catalog, Search",Taxable Goods,Yes,No,No,"Michelin Energy XM2 has been able to achieve longer tyre life without sacrificing other performances; increased mileage compared to the average performance of leading competitors, meaning less frequent tyre replacements and more savings.Rolling resistance reduced by 10%, over its predecessor Michelin Energy XM1+ and features excellent braking performance in the wet. Improved tread grooves to evacuate up to 20% more water compared with Michelin Energy XM1+.",,,,,,,,,,100,0,1,0,0,1,1,1,0,1,1,,,1,0,1,0,1,0,1,0,0,0,1,Energy XM2 GRNX,0,simple,,
admin,base,Tyre,simple,466,MIC817598-2016,0,Energy SAVER,,,/michelinenergysaver_1_1_1.jpg,/michelinenergysaver_1_1_1.jpg,/michelinenergysaver_1_1_1.jpg,,,,No layout updates,Product Info Column,,,,,Use config,Use config,No,175,65,175/65 R15,15,,,2017,Black Wall,84 H,,2017,C,C,65,346,328.7,1,,Enabled,No,"Catalog, Search",Taxable Goods,Yes,No,No,"The Energy Saver A/S features Michelin's EnergySaver Construction combined with a unique silica-based tread rubber that helps improve engine fuel efficiency by keeping the tire cooler. This compound is molded into a symmetric design that features siped, independent tread blocks to combine predictable handling, no compromise stopping performance and all-season traction without trading fuel efficiency. Circumferential and lateral grooves direct water through the tread design to help resist hydroplaning and enhance wet traction. Michelin Comfort Control Technology uses computer-optimized design and precision manufacturing to reduce vibrations and road noise to keep the vehicle quiet. The tire's internal structure includes twin steel belts reinforced by spirally wrapped polyamide on top of a polyester cord casing to combine strength, efficiency and comfort.",,,,,,,,,,100,0,1,0,0,1,1,1,0,1,1,,,1,0,1,0,1,0,1,0,0,0,1,Energy SAVER,0,simple,,
admin,base,Tyre,simple,466,MIC817598-2016,0,Energy SAVER,,,/michelinenergysaver_1_1_1.jpg,/michelinenergysaver_1_1_1.jpg,/michelinenergysaver_1_1_1.jpg,,,,No layout updates,Product Info Column,,,,,Use config,Use config,No,175,65,175/65 R15,15,,,2017,Black Wall,84 H,,2017,C,C,65,346,328.7,1,,Enabled,No,"Catalog, Search",Taxable Goods,Yes,No,No,"The Energy Saver A/S features Michelin's EnergySaver Construction combined with a unique silica-based tread rubber that helps improve engine fuel efficiency by keeping the tire cooler. This compound is molded into a symmetric design that features siped, independent tread blocks to combine predictable handling, no compromise stopping performance and all-season traction without trading fuel efficiency. Circumferential and lateral grooves direct water through the tread design to help resist hydroplaning and enhance wet traction. Michelin Comfort Control Technology uses computer-optimized design and precision manufacturing to reduce vibrations and road noise to keep the vehicle quiet. The tire's internal structure includes twin steel belts reinforced by spirally wrapped polyamide on top of a polyester cord casing to combine strength, efficiency and comfort.",,,,,,,,,,100,0,1,0,0,1,1,1,0,1,1,,,1,0,1,0,1,0,1,0,0,0,1,Energy SAVER,0,simple,,
admin,base,Tyre,simple,466,MIC501469,0,Energy XM2 GRNX,,,/michelin_mx2_grnx.jpeg,/michelin_mx2_grnx.jpeg,/michelin_mx2_grnx.jpeg,,,,No layout updates,Product Info Column,,,,,Use config,Use config,No,175,70,175/70 R14,14,,,2017,Black Wall,84 T,,2017,C,C,65,325,308.75,1,,Enabled,No,"Catalog, Search",Taxable Goods,Yes,No,No,"Michelin Energy XM2 has been able to achieve longer tyre life without sacrificing other performances; increased mileage compared to the average performance of leading competitors, meaning less frequent tyre replacements and more savings.Rolling resistance reduced by 10%, over its predecessor Michelin Energy XM1+ and features excellent braking performance in the wet. Improved tread grooves to evacuate up to 20% more water compared with Michelin Energy XM1+.",,,,,,,,,,100,0,1,0,0,1,1,1,0,1,1,,,1,0,1,0,1,0,1,0,0,0,1,Energy XM2 GRNX,0,simple,,
admin,base,Tyre,simple,466,MIC501469,0,Energy XM2 GRNX,,,/michelin_mx2_grnx.jpeg,/michelin_mx2_grnx.jpeg,/michelin_mx2_grnx.jpeg,,,,No layout updates,Product Info Column,,,,,Use config,Use config,No,175,70,175/70 R14,14,,,2017,Black Wall,84 T,,2017,C,C,65,325,308.75,1,,Enabled,No,"Catalog, Search",Taxable Goods,Yes,No,No,"Michelin Energy XM2 has been able to achieve longer tyre life without sacrificing other performances; increased mileage compared to the average performance of leading competitors, meaning less frequent tyre replacements and more savings.Rolling resistance reduced by 10%, over its predecessor Michelin Energy XM1+ and features excellent braking performance in the wet. Improved tread grooves to evacuate up to 20% more water compared with Michelin Energy XM1+.",,,,,,,,,,100,0,1,0,0,1,1,1,0,1,1,,,1,0,1,0,1,0,1,0,0,0,1,Energy XM2 GRNX,0,simple,,
admin,base,Tyre,simple,466,MIC028862,0,Agilis,,,/michelin_agilis.jpeg,/michelin_agilis.jpeg,/michelin_agilis.jpeg,,,,No layout updates,Product Info Column,,,,,Use config,Use config,No,185, ,185/ R14,14,,,2017,Black Wall,102 R,,2017,C,C,65,455,432.25,1,,Enabled,No,"Catalog, Search",Taxable Goods,Yes,No,No,"Highway Rib Summer light truck tires are for drivers who want a combination of heavy-duty load capacity, even wear and low noise along with traction on dry and wet roads. Sometimes used as Original Equipment (O.E.) on medium and heavy-duty 2WD trucks, vans and pickups, Highway Rib Summer tires are not intended to be driven in near-freezing temperatures, through snow or on ice. O.E. Highway Rib Summer light truck tires are typically purchased as direct replacements for worn-out pairs/sets of the vehicle's original tires. They can also be used for other vehicle applications in complete sets of four or axle pairs if available in an appropriate size, load range and speed rating to match the existing O.E. tires' performance category and specifications.",,,,,,,,,,100,0,1,0,0,1,1,1,0,1,1,,,1,0,1,0,1,0,1,0,0,0,1,Agilis,0,simple,,
admin,base,Tyre,simple,466,MIC286539,0,Energy Saver,,,/michelin_primacyhpgrnx_1_1.jpeg,/michelin_primacyhpgrnx_1_1.jpeg,/michelin_primacyhpgrnx_1_1.jpeg,,,,No layout updates,Product Info Column,,,,,Use config,Use config,No,185,60,185/60 R15,15,,,2017,Black Wall,84 H,,2017,C,C,65,389,369.55,1,,Enabled,No,"Catalog, Search",Taxable Goods,Yes,No,No,Optimised Profile : Increased safety: 10% larger tyre footprint gives better contact with the road and excellent grip .Increased fuel savings with excellent longevity: The new patented Eco ???N??? Grip technology uses a tread compound with improved molecular cohesion to reduce heat build-up.Increased fuel savings: Michelin has added a special under-tread layer containing very low rolling resistance polymers to reduce fuel consumption,,,,,,,,,,100,0,1,0,0,1,1,1,0,1,1,,,1,0,1,0,1,0,1,0,0,0,1,Energy Saver,0,simple,,
admin,base,Tyre,simple,466,MIC286539,0,Energy Saver,,,/michelin_primacyhpgrnx_1_1.jpeg,/michelin_primacyhpgrnx_1_1.jpeg,/michelin_primacyhpgrnx_1_1.jpeg,,,,No layout updates,Product Info Column,,,,,Use config,Use config,No,185,60,185/60 R15,15,,,2017,Black Wall,84 H,,2017,C,C,65,389,369.55,1,,Enabled,No,"Catalog, Search",Taxable Goods,Yes,No,No,Optimised Profile : Increased safety: 10% larger tyre footprint gives better contact with the road and excellent grip .Increased fuel savings with excellent longevity: The new patented Eco ???N??? Grip technology uses a tread compound with improved molecular cohesion to reduce heat build-up.Increased fuel savings: Michelin has added a special under-tread layer containing very low rolling resistance polymers to reduce fuel consumption,,,,,,,,,,100,0,1,0,0,1,1,1,0,1,1,,,1,0,1,0,1,0,1,0,0,0,1,Energy Saver,0,simple,,
admin,base,Tyre,simple,466,MIC706616,0,Energy XM2 GRNX,,,/michelin_mx2_grnx.jpeg,/michelin_mx2_grnx.jpeg,/michelin_mx2_grnx.jpeg,,,,No layout updates,Product Info Column,,,,,Use config,Use config,No,185,65,185/65 R14,14,,,2017,Black Wall,86 H,,2017,C,C,65,324,307.8,1,,Enabled,No,"Catalog, Search",Taxable Goods,Yes,No,No,"Michelin Energy XM2 has been able to achieve longer tyre life without sacrificing other performances; increased mileage compared to the average performance of leading competitors, meaning less frequent tyre replacements and more savings.Rolling resistance reduced by 10%, over its predecessor Michelin Energy XM1+ and features excellent braking performance in the wet. Improved tread grooves to evacuate up to 20% more water compared with Michelin Energy XM1+.",,,,,,,,,,100,0,1,0,0,1,1,1,0,1,1,,,1,0,1,0,1,0,1,0,0,0,1,Energy XM2 GRNX,0,simple,,
admin,base,Tyre,simple,466,MIC706616,0,Energy XM2 GRNX,,,/michelin_mx2_grnx.jpeg,/michelin_mx2_grnx.jpeg,/michelin_mx2_grnx.jpeg,,,,No layout updates,Product Info Column,,,,,Use config,Use config,No,185,65,185/65 R14,14,,,2017,Black Wall,86 H,,2017,C,C,65,324,307.8,1,,Enabled,No,"Catalog, Search",Taxable Goods,Yes,No,No,"Michelin Energy XM2 has been able to achieve longer tyre life without sacrificing other performances; increased mileage compared to the average performance of leading competitors, meaning less frequent tyre replacements and more savings.Rolling resistance reduced by 10%, over its predecessor Michelin Energy XM1+ and features excellent braking performance in the wet. Improved tread grooves to evacuate up to 20% more water compared with Michelin Energy XM1+.",,,,,,,,,,100,0,1,0,0,1,1,1,0,1,1,,,1,0,1,0,1,0,1,0,0,0,1,Energy XM2 GRNX,0,simple,,
admin,base,Tyre,simple,466,MIC086572-2016,0,Energy XM2 GRNX,,,/michelin_mx2_grnx_3.jpeg,/michelin_mx2_grnx_3.jpeg,/michelin_mx2_grnx_3.jpeg,,,,No layout updates,Product Info Column,,,,,Use config,Use config,No,185,65,185/65 R15,15,,,2017,Black Wall,88 H,,2017,C,C,65,356,338.2,1,,Enabled,No,"Catalog, Search",Taxable Goods,Yes,No,No,"Michelin Energy XM2 has been able to achieve longer tyre life without sacrificing other performances; increased mileage compared to the average performance of leading competitors, meaning less frequent tyre replacements and more savings.Rolling resistance reduced by 10%, over its predecessor Michelin Energy XM1+ and features excellent braking performance in the wet. Improved tread grooves to evacuate up to 20% more water compared with Michelin Energy XM1+.",,,,,,,,,,100,0,1,0,0,1,1,1,0,1,1,,,1,0,1,0,1,0,1,0,0,0,1,Energy XM2 GRNX,0,simple,,
admin,base,Tyre,simple,466,MIC086572-2016,0,Energy XM2 GRNX,,,/michelin_mx2_grnx_3.jpeg,/michelin_mx2_grnx_3.jpeg,/michelin_mx2_grnx_3.jpeg,,,,No layout updates,Product Info Column,,,,,Use config,Use config,No,185,65,185/65 R15,15,,,2017,Black Wall,88 H,,2017,C,C,65,356,338.2,1,,Enabled,No,"Catalog, Search",Taxable Goods,Yes,No,No,"Michelin Energy XM2 has been able to achieve longer tyre life without sacrificing other performances; increased mileage compared to the average performance of leading competitors, meaning less frequent tyre replacements and more savings.Rolling resistance reduced by 10%, over its predecessor Michelin Energy XM1+ and features excellent braking performance in the wet. Improved tread grooves to evacuate up to 20% more water compared with Michelin Energy XM1+.",,,,,,,,,,100,0,1,0,0,1,1,1,0,1,1,,,1,0,1,0,1,0,1,0,0,0,1,Energy XM2 GRNX,0,simple,,
admin,base,Tyre,simple,466,MIC326543,0,Energy XM2 GRNX,,,/michelin_mx2_grnx.jpeg,/michelin_mx2_grnx.jpeg,/michelin_mx2_grnx.jpeg,,,,No layout updates,Product Info Column,,,,,Use config,Use config,No,185,70,185/70 R14,14,,,2017,Black Wall,88 H,,2017,C,C,65,339,322.05,1,,Enabled,No,"Catalog, Search",Taxable Goods,Yes,No,No,"Michelin Energy XM2 has been able to achieve longer tyre life without sacrificing other performances; increased mileage compared to the average performance of leading competitors, meaning less frequent tyre replacements and more savings.Rolling resistance reduced by 10%, over its predecessor Michelin Energy XM1+ and features excellent braking performance in the wet. Improved tread grooves to evacuate up to 20% more water compared with Michelin Energy XM1+.",,,,,,,,,,100,0,1,0,0,1,1,1,0,1,1,,,1,0,1,0,1,0,1,0,0,0,1,Energy XM2 GRNX,0,simple,,
admin,base,Tyre,simple,466,MIC326543,0,Energy XM2 GRNX,,,/michelin_mx2_grnx.jpeg,/michelin_mx2_grnx.jpeg,/michelin_mx2_grnx.jpeg,,,,No layout updates,Product Info Column,,,,,Use config,Use config,No,185,70,185/70 R14,14,,,2017,Black Wall,88 H,,2017,C,C,65,339,322.05,1,,Enabled,No,"Catalog, Search",Taxable Goods,Yes,No,No,"Michelin Energy XM2 has been able to achieve longer tyre life without sacrificing other performances; increased mileage compared to the average performance of leading competitors, meaning less frequent tyre replacements and more savings.Rolling resistance reduced by 10%, over its predecessor Michelin Energy XM1+ and features excellent braking performance in the wet. Improved tread grooves to evacuate up to 20% more water compared with Michelin Energy XM1+.",,,,,,,,,,100,0,1,0,0,1,1,1,0,1,1,,,1,0,1,0,1,0,1,0,0,0,1,Energy XM2 GRNX,0,simple,,
admin,base,Tyre,simple,466,MIC052151,0,Agilis,,,/michelin_agilis.jpeg,/michelin_agilis.jpeg,/michelin_agilis.jpeg,,,,No layout updates,Product Info Column,,,,,Use config,Use config,No,195, ,195/R15,15,,,2017,Black Wall,106 R,,2017,C,C,65,429,407.55,1,,Enabled,No,"Catalog, Search",Taxable Goods,Yes,No,No,"Highway Rib Summer light truck tires are for drivers who want a combination of heavy-duty load capacity, even wear and low noise along with traction on dry and wet roads. Sometimes used as Original Equipment (O.E.) on medium and heavy-duty 2WD trucks, vans and pickups, Highway Rib Summer tires are not intended to be driven in near-freezing temperatures, through snow or on ice. O.E. Highway Rib Summer light truck tires are typically purchased as direct replacements for worn-out pairs/sets of the vehicle's original tires. They can also be used for other vehicle applications in complete sets of four or axle pairs if available in an appropriate size, load range and speed rating to match the existing O.E. tires' performance category and specifications.",,,,,,,,,,100,0,1,0,0,1,1,1,0,1,1,,,1,0,1,0,1,0,1,0,0,0,1,Agilis,0,simple,,
admin,base,Tyre,simple,466,MIC814705,0,Energy XM2 GRNX,,,/michelin_mx2_grnx.jpeg,/michelin_mx2_grnx.jpeg,/michelin_mx2_grnx.jpeg,,,,No layout updates,Product Info Column,,,,,Use config,Use config,No,195,60,195/60 R15,15,,,2017,Black Wall,88 H,,2017,C,C,65,399,379.05,1,,Enabled,No,"Catalog, Search",Taxable Goods,Yes,No,No,"Michelin Energy XM2 has been able to achieve longer tyre life without sacrificing other performances; increased mileage compared to the average performance of leading competitors, meaning less frequent tyre replacements and more savings.Rolling resistance reduced by 10%, over its predecessor Michelin Energy XM1+ and features excellent braking performance in the wet. Improved tread grooves to evacuate up to 20% more water compared with Michelin Energy XM1+.",,,,,,,,,,100,0,1,0,0,1,1,1,0,1,1,,,1,0,1,0,1,0,1,0,0,0,1,Energy XM2 GRNX,0,simple,,
admin,base,Tyre,simple,466,MIC814705,0,Energy XM2 GRNX,,,/michelin_mx2_grnx.jpeg,/michelin_mx2_grnx.jpeg,/michelin_mx2_grnx.jpeg,,,,No layout updates,Product Info Column,,,,,Use config,Use config,No,195,60,195/60 R15,15,,,2017,Black Wall,88 H,,2017,C,C,65,399,379.05,1,,Enabled,No,"Catalog, Search",Taxable Goods,Yes,No,No,"Michelin Energy XM2 has been able to achieve longer tyre life without sacrificing other performances; increased mileage compared to the average performance of leading competitors, meaning less frequent tyre replacements and more savings.Rolling resistance reduced by 10%, over its predecessor Michelin Energy XM1+ and features excellent braking performance in the wet. Improved tread grooves to evacuate up to 20% more water compared with Michelin Energy XM1+.",,,,,,,,,,100,0,1,0,0,1,1,1,0,1,1,,,1,0,1,0,1,0,1,0,0,0,1,Energy XM2 GRNX,0,simple,,
