store,websites,attribute_set,type,category_ids,sku,has_options,name,meta_title,meta_description,url_key,url_path,custom_design,page_layout,options_container,image_label,small_image_label,thumbnail_label,country_of_manufacture,msrp_enabled,msrp_display_actual_price_type,gift_message_available,width,ratio,diameter,serv_desc,car_make,car_model,car_year,sidewall_style,utqg,production_year,fuel,weather,sound,size,price,special_price,weight,msrp,status,is_recurring,visibility,tax_class_id,passenger,tyres4_4,vantyres,description,short_description,meta_keyword,custom_layout_update,special_from_date,special_to_date,news_from_date,news_to_date,custom_design_from,custom_design_to,qty,min_qty,use_config_min_qty,is_qty_decimal,backorders,use_config_backorders,min_sale_qty,use_config_min_sale_qty,max_sale_qty,use_config_max_sale_qty,is_in_stock,low_stock_date,notify_stock_qty,use_config_notify_stock_qty,manage_stock,use_config_manage_stock,stock_status_changed_auto,use_config_qty_increments,qty_increments,use_config_enable_qty_inc,enable_qty_increments,is_decimal_divided,stock_status_changed_automatically,use_config_enable_qty_increments,product_name,store_id,product_type_id,product_status_changed,product_changed_websites,website,_media_image,_media_lable,_media_position,_media_is_disabled
admin,base,Tyre,simple,30,GY0001,0,EFF. GRP. MOE ROF,,,,,,No layout updates,Product Info Column,,,,,Use config,,,205,55,16,91V,,,,Black Wall,,2017,B,C,65,205/55,390,,0,,Enabled,No,"Catalog, Search",Taxable Goods,Yes,No,No,Goodyear,Goodyear,,,,,,,,,100,0,1,0,0,1,1,1,0,1,1,,,1,0,1,0,1,0,1,0,0,0,1,EFF. GRP. MOE ROF,0,simple,,,,,,,
admin,base,Tyre,simple,30,GY0002,0,EFF. GR.* ROF -,,,,,,No layout updates,Product Info Column,,,,,Use config,,,205,55,16,91W,,,,Black Wall,,2017,B,C,65,205/55,435,,0,,Enabled,No,"Catalog, Search",Taxable Goods,Yes,No,No,Goodyear,Goodyear,,,,,,,,,100,0,1,0,0,1,1,1,0,1,1,,,1,0,1,0,1,0,1,0,0,0,1,EFF. GR.* ROF -,0,simple,,,,,,,
admin,base,Tyre,simple,30,GY0003,0,EFF.GRIP PERF* ROD,,,,,,No layout updates,Product Info Column,,,,,Use config,,,205,60,16,92V,,,,Black Wall,,2017,B,C,65,205/60,680,,0,,Enabled,No,"Catalog, Search",Taxable Goods,Yes,No,No,Goodyear,Goodyear,,,,,,,,,100,0,1,0,0,1,1,1,0,1,1,,,1,0,1,0,1,0,1,0,0,0,1,EFF.GRIP PERF* ROD,0,simple,,,,,,,
admin,base,Tyre,simple,30,GY0004,0,ASSURANCE,,,,,,No layout updates,Product Info Column,,,,,Use config,,,215,60,16,95V,,,,Black Wall,,2017,B,C,65,215/60,300,,0,,Enabled,No,"Catalog, Search",Taxable Goods,Yes,No,No,Goodyear,Goodyear,,,,,,,,,100,0,1,0,0,1,1,1,0,1,1,,,1,0,1,0,1,0,1,0,0,0,1,ASSURANCE,0,simple,,,,,,,
admin,base,Tyre,simple,30,GY0005,0,EAGLE F1ASYM 2* ROF,,,,,,No layout updates,Product Info Column,,,,,Use config,,,225,40,19,89Y,,,,Black Wall,,2017,B,C,65,225/40,970,,0,,Enabled,No,"Catalog, Search",Taxable Goods,Yes,No,No,Goodyear,Goodyear,,,,,,,,,100,0,1,0,0,1,1,1,0,1,1,,,1,0,1,0,1,0,1,0,0,0,1,EAGLE F1ASYM 2* ROF,0,simple,,,,,,,
admin,base,Tyre,simple,30,GY0006,0,EFFICIENT GRIP RFT,,,,,,No layout updates,Product Info Column,,,,,Use config,,,225,45,18,91V,,,,Black Wall,,2017,B,C,65,225/45,925,,0,,Enabled,No,"Catalog, Search",Taxable Goods,Yes,No,No,Goodyear,Goodyear,,,,,,,,,100,0,1,0,0,1,1,1,0,1,1,,,1,0,1,0,1,0,1,0,0,0,1,EFFICIENT GRIP RFT,0,simple,,,,,,,
admin,base,Tyre,simple,30,GY0007,0,EFFECIENTGRP PERF,,,,,,No layout updates,Product Info Column,,,,,Use config,,,225,50,17,94W,,,,Black Wall,,2017,B,C,65,225/50,330,,0,,Enabled,No,"Catalog, Search",Taxable Goods,Yes,No,No,Goodyear,Goodyear,,,,,,,,,100,0,1,0,0,1,1,1,0,1,1,,,1,0,1,0,1,0,1,0,0,0,1,EFFECIENTGRP PERF,0,simple,,,,,,,
admin,base,Tyre,simple,30,GY0008,0,TL  EAGLE-F1AS2 NO,,,,,,No layout updates,Product Info Column,,,,,Use config,,,235,35,20,88Y,,,,Black Wall,,2017,B,C,65,235/35,920,,0,,Enabled,No,"Catalog, Search",Taxable Goods,Yes,No,No,Goodyear,Goodyear,,,,,,,,,100,0,1,0,0,1,1,1,0,1,1,,,1,0,1,0,1,0,1,0,0,0,1,TL  EAGLE-F1AS2 NO,0,simple,,,,,,,
admin,base,Tyre,simple,30,GY0009,0,L EAGLE TOURING -,,,,,,No layout updates,Product Info Column,,,,,Use config,,,235,45,18,98VX,,,,Black Wall,,2017,B,C,65,235/45,420,,0,,Enabled,No,"Catalog, Search",Taxable Goods,Yes,No,No,Goodyear,Goodyear,,,,,,,,,100,0,1,0,0,1,1,1,0,1,1,,,1,0,1,0,1,0,1,0,0,0,1,L EAGLE TOURING -,0,simple,,,,,,,
admin,base,Tyre,simple,30,GY0010,0,EXCELLENCE ROF* -,,,,,,No layout updates,Product Info Column,,,,,Use config,,,245,40,19,98Y,,,,Black Wall,,2017,B,C,65,245/40,980,,0,,Enabled,No,"Catalog, Search",Taxable Goods,Yes,No,No,Goodyear,Goodyear,,,,,,,,,100,0,1,0,0,1,1,1,0,1,1,,,1,0,1,0,1,0,1,0,0,0,1,EXCELLENCE ROF* -,0,simple,,,,,,,
admin,base,Tyre,simple,30,GY0011,0,EAGLE F1 AS2 MOE ROF,,,,,,No layout updates,Product Info Column,,,,,Use config,,,245,40,20,99Y,,,,Black Wall,,2017,B,C,65,245/40,1230,,0,,Enabled,No,"Catalog, Search",Taxable Goods,Yes,No,No,Goodyear,Goodyear,,,,,,,,,100,0,1,0,0,1,1,1,0,1,1,,,1,0,1,0,1,0,1,0,0,0,1,EAGLE F1 AS2 MOE ROF,0,simple,,,,,,,
admin,base,Tyre,simple,30,GY0012,0,EAGLE F1 AS2 MOE ROF,,,,,,No layout updates,Product Info Column,,,,,Use config,,,245,40,20,99Y,,,,Black Wall,,2017,B,C,65,245/40,950,,0,,Enabled,No,"Catalog, Search",Taxable Goods,Yes,No,No,Goodyear,Goodyear,,,,,,,,,100,0,1,0,0,1,1,1,0,1,1,,,1,0,1,0,1,0,1,0,0,0,1,EAGLE F1 AS2 MOE ROF,0,simple,,,,,,,
admin,base,Tyre,simple,30,GY0013,0,EFF. GRP. ROF* -,,,,,,No layout updates,Product Info Column,,,,,Use config,,,245,45,18,96Y,,,,Black Wall,,2017,B,C,65,245/45,900,,0,,Enabled,No,"Catalog, Search",Taxable Goods,Yes,No,No,Goodyear,Goodyear,,,,,,,,,100,0,1,0,0,1,1,1,0,1,1,,,1,0,1,0,1,0,1,0,0,0,1,EFF. GRP. ROF* -,0,simple,,,,,,,
admin,base,Tyre,simple,30,GY0014,0,EAGLE LS2 ROF-,,,,,,No layout updates,Product Info Column,,,,,Use config,,,245,50,18,100W,,,,Black Wall,,2017,B,C,65,245/50,810,,0,,Enabled,No,"Catalog, Search",Taxable Goods,Yes,No,No,Goodyear,Goodyear,,,,,,,,,100,0,1,0,0,1,1,1,0,1,1,,,1,0,1,0,1,0,1,0,0,0,1,EAGLE LS2 ROF-,0,simple,,,,,,,
admin,base,Tyre,simple,30,GY0015,0,EAGLE F1 ASYM 2*ROF,,,,,,No layout updates,Product Info Column,,,,,Use config,,,255,35,19,92Y,,,,Black Wall,,2017,B,C,65,255/35,910,,0,,Enabled,No,"Catalog, Search",Taxable Goods,Yes,No,No,Goodyear,Goodyear,,,,,,,,,100,0,1,0,0,1,1,1,0,1,1,,,1,0,1,0,1,0,1,0,0,0,1,EAGLE F1 ASYM 2*ROF,0,simple,,,,,,,
admin,base,Tyre,simple,30,GY0016,0,F1 ASYM2  ROF BMW,,,,,,No layout updates,Product Info Column,,,,,Use config,,,255,35,19,92Y,,,,Black Wall,,2017,B,C,65,255/35,660,,0,,Enabled,No,"Catalog, Search",Taxable Goods,Yes,No,No,Goodyear,Goodyear,,,,,,,,,100,0,1,0,0,1,1,1,0,1,1,,,1,0,1,0,1,0,1,0,0,0,1,F1 ASYM2  ROF BMW,0,simple,,,,,,,
admin,base,Tyre,simple,30,GY0017,0,F1 ASYM2 ,,,,,,No layout updates,Product Info Column,,,,,Use config,,,255,35,20,97Y,,,,Black Wall,,2017,B,C,65,255/35,580,,0,,Enabled,No,"Catalog, Search",Taxable Goods,Yes,No,No,Goodyear,Goodyear,,,,,,,,,100,0,1,0,0,1,1,1,0,1,1,,,1,0,1,0,1,0,1,0,0,0,1,F1 ASYM2 ,0,simple,,,,,,,
admin,base,Tyre,simple,30,GY0018,0,EAGLE RS-A  SL VSB REP,,,,,,No layout updates,Product Info Column,,,,,Use config,,,255,45,19,100V,,,,Black Wall,,2017,B,C,65,255/45,580,,0,,Enabled,No,"Catalog, Search",Taxable Goods,Yes,No,No,Goodyear,Goodyear,,,,,,,,,100,0,1,0,0,1,1,1,0,1,1,,,1,0,1,0,1,0,1,0,0,0,1,EAGLE RS-A  SL VSB REP,0,simple,,,,,,,
admin,base,Tyre,simple,30,GY0019,0,F1 ASYM METRIC NO,,,,,,No layout updates,Product Info Column,,,,,Use config,,,255,45,19,100Y,,,,Black Wall,,2017,B,C,65,255/45,530,,0,,Enabled,No,"Catalog, Search",Taxable Goods,Yes,No,No,Goodyear,Goodyear,,,,,,,,,100,0,1,0,0,1,1,1,0,1,1,,,1,0,1,0,1,0,1,0,0,0,1,F1 ASYM METRIC NO,0,simple,,,,,,,
admin,base,Tyre,simple,30,GY0020,0,EFFICIENTGRIP ROF,,,,,,No layout updates,Product Info Column,,,,,Use config,,,255,45,20,101Y,,,,Black Wall,,2017,B,C,65,255/45,1850,,0,,Enabled,No,"Catalog, Search",Taxable Goods,Yes,No,No,Goodyear,Goodyear,,,,,,,,,100,0,1,0,0,1,1,1,0,1,1,,,1,0,1,0,1,0,1,0,0,0,1,EFFICIENTGRIP ROF,0,simple,,,,,,,
admin,base,Tyre,simple,30,GY0021,0,RSA ,,,,,,No layout updates,Product Info Column,,,,,Use config,,,255,60,19,108H,,,,Black Wall,,2017,B,C,65,255/60,740,,0,,Enabled,No,"Catalog, Search",Taxable Goods,Yes,No,No,Goodyear,Goodyear,,,,,,,,,100,0,1,0,0,1,1,1,0,1,1,,,1,0,1,0,1,0,1,0,0,0,1,RSA ,0,simple,,,,,,,
admin,base,Tyre,simple,30,GY0022,0,EAGLEE F1 AS AO,,,,,,No layout updates,Product Info Column,,,,,Use config,,,265,40,20,104Y,,,,Black Wall,,2017,B,C,65,265/40,970,,0,,Enabled,No,"Catalog, Search",Taxable Goods,Yes,No,No,Goodyear,Goodyear,,,,,,,,,100,0,1,0,0,1,1,1,0,1,1,,,1,0,1,0,1,0,1,0,0,0,1,EAGLEE F1 AS AO,0,simple,,,,,,,
admin,base,Tyre,simple,30,GY0023,0,WRANGLER HP ,,,,,,No layout updates,Product Info Column,,,,,Use config,,,265,70,17,113S,,,,Black Wall,,2017,B,C,65,265/70,600,,0,,Enabled,No,"Catalog, Search",Taxable Goods,Yes,No,No,Goodyear,Goodyear,,,,,,,,,100,0,1,0,0,1,1,1,0,1,1,,,1,0,1,0,1,0,1,0,0,0,1,WRANGLER HP ,0,simple,,,,,,,
admin,base,Tyre,simple,30,GY0024,0,Excellence XL,,,,,,No layout updates,Product Info Column,,,,,Use config,,,275,40,20,106 Y,,,,Black Wall,,2017,B,C,65,275/40                                 R20,1220,,0,,Enabled,No,"Catalog, Search",Taxable Goods,Yes,No,No,Goodyear,Goodyear,,,,,,,,,100,0,1,0,0,1,1,1,0,1,1,,,1,0,1,0,1,0,1,0,0,0,1,Excellence XL,0,simple,,,,,,,
admin,base,Tyre,simple,30,GY0025,0,EXCELLENCE ROF* -,,,,,,No layout updates,Product Info Column,,,,,Use config,,,275,40,19,101Y,,,,Black Wall,,2017,B,C,65,275/40,970,,0,,Enabled,No,"Catalog, Search",Taxable Goods,Yes,No,No,Goodyear,Goodyear,,,,,,,,,100,0,1,0,0,1,1,1,0,1,1,,,1,0,1,0,1,0,1,0,0,0,1,EXCELLENCE ROF* -,0,simple,,,,,,,
admin,base,Tyre,simple,30,GY0026,0,ASYM AO F1 XL - ,,,,,,No layout updates,Product Info Column,,,,,Use config,,,275,45,20,110Y,,,,Black Wall,,2017,B,C,65,275/45,1005,,0,,Enabled,No,"Catalog, Search",Taxable Goods,Yes,No,No,Goodyear,Goodyear,,,,,,,,,100,0,1,0,0,1,1,1,0,1,1,,,1,0,1,0,1,0,1,0,0,0,1,ASYM AO F1 XL - ,0,simple,,,,,,,
admin,base,Tyre,simple,30,GY0027,0,EAGAL- F1ASYM SUV,,,,,,No layout updates,Product Info Column,,,,,Use config,,,275,45,21,110W,,,,Black Wall,,2017,B,C,65,275/45,1050,,0,,Enabled,No,"Catalog, Search",Taxable Goods,Yes,No,No,Goodyear,Goodyear,,,,,,,,,100,0,1,0,0,1,1,1,0,1,1,,,1,0,1,0,1,0,1,0,0,0,1,EAGAL- F1ASYM SUV,0,simple,,,,,,,
admin,base,Tyre,simple,30,GY0028,0,EFFICIENT TL -,,,,,,No layout updates,Product Info Column,,,,,Use config,,,275,60,20,115H,,,,Black Wall,,2017,B,C,65,275/60,410,,0,,Enabled,No,"Catalog, Search",Taxable Goods,Yes,No,No,Goodyear,Goodyear,,,,,,,,,100,0,1,0,0,1,1,1,0,1,1,,,1,0,1,0,1,0,1,0,0,0,1,EFFICIENT TL -,0,simple,,,,,,,
admin,base,Tyre,simple,30,GY0029,0,EFFICIENTGRIP ROF,,,,,,No layout updates,Product Info Column,,,,,Use config,,,285,40,20,104Y,,,,Black Wall,,2017,B,C,65,285/40,2100,,0,,Enabled,No,"Catalog, Search",Taxable Goods,Yes,No,No,Goodyear,Goodyear,,,,,,,,,100,0,1,0,0,1,1,1,0,1,1,,,1,0,1,0,1,0,1,0,0,0,1,EFFICIENTGRIP ROF,0,simple,,,,,,,
admin,base,Tyre,simple,30,GY0030,0,EAGLE GTII -,,,,,,No layout updates,Product Info Column,,,,,Use config,,,285,50,20,111H,,,,Black Wall,,2017,B,C,65,285/50,730,,0,,Enabled,No,"Catalog, Search",Taxable Goods,Yes,No,No,Goodyear,Goodyear,,,,,,,,,100,0,1,0,0,1,1,1,0,1,1,,,1,0,1,0,1,0,1,0,0,0,1,EAGLE GTII -,0,simple,,,,,,,
admin,base,Tyre,simple,30,GY0031,0,EFFCENT GRIP SUV,,,,,,No layout updates,Product Info Column,,,,,Use config,,,285,60,18,,,,,Black Wall,,2017,B,C,65,285/60,450,,0,,Enabled,No,"Catalog, Search",Taxable Goods,Yes,No,No,Goodyear,Goodyear,,,,,,,,,100,0,1,0,0,1,1,1,0,1,1,,,1,0,1,0,1,0,1,0,0,0,1,EFFCENT GRIP SUV,0,simple,,,,,,,
