store,websites,attribute_set,type,category_ids,sku,has_options,name,meta_title,meta_description,url_key,url_path,custom_design,page_layout,options_container,image_label,small_image_label,thumbnail_label,country_of_manufacture,msrp_enabled,msrp_display_actual_price_type,gift_message_available,width,ratio,diameter,serv_desc,car_make,car_model,car_year,sidewall_style,utqg,production_year,fuel,weather,sound,size,price,special_price,weight,msrp,status,is_recurring,visibility,tax_class_id,passenger,tyres4_4,vantyres,description,short_description,meta_keyword,custom_layout_update,special_from_date,special_to_date,news_from_date,news_to_date,custom_design_from,custom_design_to,qty,min_qty,use_config_min_qty,is_qty_decimal,backorders,use_config_backorders,min_sale_qty,use_config_min_sale_qty,max_sale_qty,use_config_max_sale_qty,is_in_stock,low_stock_date,notify_stock_qty,use_config_notify_stock_qty,manage_stock,use_config_manage_stock,stock_status_changed_auto,use_config_qty_increments,qty_increments,use_config_enable_qty_inc,enable_qty_increments,is_decimal_divided,stock_status_changed_automatically,use_config_enable_qty_increments,product_name,store_id,product_type_id,product_status_changed,product_changed_websites,website,_media_image,_media_lable,_media_position,_media_is_disabled
admin,base,Tyre,simple,531,TRM0028,0,X-SPROT F110,,,,,,No layout updates,Product Info Column,,,,CHINA                                             ,Use config,,,285,35,22,106VX,,,,Black Wall,,2026,B,C,74,285/35,241.5,,0,,Enabled,No,"Catalog, Search",Taxable Goods,Yes,No,No,Tracmax,Tracmax,,,,,,,,,100,0,1,0,0,1,1,1,0,1,1,,,1,0,1,0,1,0,1,0,0,0,1,X-SPROT F110,0,simple,,,,,,,
admin,base,Tyre,simple,531,TRM0029,0,X-SPORT F110,,,,,,No layout updates,Product Info Column,,,,CHINA                                             ,Use config,,,285,50,20,116VX,,,,Black Wall,,2027,B,C,75,285/50,281.75,,0,,Enabled,No,"Catalog, Search",Taxable Goods,Yes,No,No,Tracmax,Tracmax,,,,,,,,,100,0,1,0,0,1,1,1,0,1,1,,,1,0,1,0,1,0,1,0,0,0,1,X-SPORT F110,0,simple,,,,,,,
admin,base,Tyre,simple,531,TRM0030,0,X -PRIVILO A/T,,,,,,No layout updates,Product Info Column,,,,CHINA                                             ,Use config,,,LT235,85,,,,,,Black Wall,,2028,B,C,76,LT235/,270.25,,0,,Enabled,No,"Catalog, Search",Taxable Goods,Yes,No,No,Tracmax,Tracmax,,,,,,,,,100,0,1,0,0,1,1,1,0,1,1,,,1,0,1,0,1,0,1,0,0,0,1,X -PRIVILO A/T,0,simple,,,,,,,
admin,base,Tyre,simple,531,TRM0031,0,X-PRIVILO AT08,,,,,,No layout updates,Product Info Column,,,,CHINA                                             ,Use config,,,P225,70,1,103T,,,,Black Wall,,2029,B,C,77,P225/7,189.75,,0,,Enabled,No,"Catalog, Search",Taxable Goods,Yes,No,No,Tracmax,Tracmax,,,,,,,,,100,0,1,0,0,1,1,1,0,1,1,,,1,0,1,0,1,0,1,0,0,0,1,X-PRIVILO AT08,0,simple,,,,,,,
