sku,short_description
MIC454045,Michelin
MIC454045,Michelin
MIC007410,Michelin
MIC710421,Michelin
MIC710421,Michelin
MIC518047,Michelin
MIC773625,Michelin
MIC974019,Michelin
MIC162305,Michelin
MIC436809,Michelin
MIC290116,Michelin
MIC020687-2016,Michelin
MIC020687,Michelin
MIC770024-ANF-2016,Michelin
MIC770024-ZNQ,Michelin
MIC095259,Michelin
MIC128931,Michelin
MIC986755,Michelin
MIC408613-2016,Michelin
MIC408613,Michelin
MIC313692,Michelin
MIC002705,Michelin
MIC796573,Michelin
MIC133870/ARD,Michelin
MIC643781,Michelin
