sku,image,small_image,thumbnail
CONTI0120,/conti/continental-295-25r20-95y-contisportcontact-6.jpg,/conti/continental-295-25r20-95y-contisportcontact-6.jpg,/conti/continental-295-25r20-95y-contisportcontact-6.jpg
CONTI0121,/conti/c45_10704_Continental-SportContact-6.png,/conti/c45_10704_Continental-SportContact-6.png,/conti/c45_10704_Continental-SportContact-6.png
CONTI0122,/conti/continental-295-30r19-100y-sc-6-xl.jpg,/conti/continental-295-30r19-100y-sc-6-xl.jpg,/conti/continental-295-30r19-100y-sc-6-xl.jpg
CONTI0123,/conti/ContiCrossContact%20UHP-500x500-product_popup.jpg,/conti/ContiCrossContact%20UHP-500x500-product_popup.jpg,/conti/ContiCrossContact%20UHP-500x500-product_popup.jpg
CONTI0124,/conti/continental-contisportcontact-5-295-40r21-111y-xl~9019735.jpg,/conti/continental-contisportcontact-5-295-40r21-111y-xl~9019735.jpg,/conti/continental-contisportcontact-5-295-40r21-111y-xl~9019735.jpg
CONTI0125,/conti/cont-contisportcontact-5-a2_4915_0_0-500x500-product_popup.png,/conti/cont-contisportcontact-5-a2_4915_0_0-500x500-product_popup.png,/conti/cont-contisportcontact-5-a2_4915_0_0-500x500-product_popup.png
CONTI0126,/conti/s-l640.jpg,/conti/s-l640.jpg,/conti/s-l640.jpg
CONTI0127,/conti/s-l640.jpg,/conti/s-l640.jpg,/conti/s-l640.jpg
CONTI0128,/conti/c45_9063_Continental-SportContact-5.png?ext=.png,/conti/c45_9063_Continental-SportContact-5.png?ext=.png,/conti/c45_9063_Continental-SportContact-5.png?ext=.png
CONTI0129,/conti/6548-continental-contisportcontact-5p.jpg,/conti/6548-continental-contisportcontact-5p.jpg,/conti/6548-continental-contisportcontact-5p.jpg
CONTI0130,/conti/6548-continental-contisportcontact-5p.jpg,/conti/6548-continental-contisportcontact-5p.jpg,/conti/6548-continental-contisportcontact-5p.jpg
CONTI0131,/conti/SPOR.+CONTACT[%20-]6.jpg,/conti/SPOR.+CONTACT[%20-]6.jpg,/conti/SPOR.+CONTACT[%20-]6.jpg
CONTI0132,/conti/SPOR.+CONTACT[%20-]6.jpg,/conti/SPOR.+CONTACT[%20-]6.jpg,/conti/SPOR.+CONTACT[%20-]6.jpg
