store,websites,attribute_set,type,category_ids,sku,has_options,name,meta_title,meta_description,image,small_image,thumbnail,url_key,url_path,custom_design,page_layout,options_container,image_label,small_image_label,thumbnail_label,country_of_manufacture,msrp_enabled,msrp_display_actual_price_type,gift_message_available,width,ratio,size,diameter,car_make,car_model,car_year,sidewall_style,serv_desc,utqg,production_year,fuel,weather,sound,price,special_price,weight,msrp,status,is_recurring,visibility,tax_class_id,passenger,tyres4_4,vantyres,description,short_description,meta_keyword,custom_layout_update,special_from_date,special_to_date,news_from_date,news_to_date,custom_design_from,custom_design_to,qty,min_qty,use_config_min_qty,is_qty_decimal,backorders,use_config_backorders,min_sale_qty,use_config_min_sale_qty,max_sale_qty,use_config_max_sale_qty,is_in_stock,low_stock_date,notify_stock_qty,use_config_notify_stock_qty,manage_stock,use_config_manage_stock,stock_status_changed_auto,use_config_qty_increments,qty_increments,use_config_enable_qty_inc,enable_qty_increments,is_decimal_divided,stock_status_changed_automatically,use_config_enable_qty_increments,product_name,store_id,product_type_id,product_status_changed,product_changed_websites
admin,base,Tyre,simple,93,CON03508150000,0,205/50 R17 89W,,,/continental_premiumcontact2ssr.jpeg,/continental_premiumcontact2ssr.jpeg,/continental_premiumcontact2ssr.jpeg,,,,No layout updates,Product Info Column,,,,,Use config,Use config,No,,,205/50 R17,205/50 R17,,,2017,Run Flat/Black Wall,"89 W Load Index 89 =  1,278.67lbs (580kg) per tire Speed Rating = 167.77mph (270kph)",Run Flat/Black Wall,2017,B,C,65,1051,977.43,1,,Enabled,No,"Catalog, Search",Taxable Goods,Yes,No,No,"The Continental ContiPremiumContact 2 SSR is a tire designed for a superior appearance. The ContiPremiumContact 2 SSR comes as original equipment on luxurious sedans and similar vehicles. This is a summer tire and though it handles well in wet and dry conditions, it is not made for driving in icy or snowy environments. Grand Touring Summer tires are for drivers who want a combination of sophisticated appearance, competent handling and H-speed rated (or higher) durability, along with dry and wet traction from their tires. Often used as Original Equipment (O.E.) on sophisticated coupes and luxurious performance sedans, Grand Touring Summer tires are not intended to be driven in near-freezing temperatures, through snow or on ice. O.E. Grand Touring Summer tires are typically purchased as direct replacements for worn-out pairs/sets of the vehicle's original tires. They can also be used for other vehicle applications in complete sets of four or axle pairs if available in an appropriate size, load range and speed rating to match the existing O.E. tires' performance category and specifications.",,,,,,,,,,95,0,1,0,0,1,1,1,0,1,1,,,1,0,1,0,1,0,1,0,0,0,1,205/50 R17 89W,0,simple,,
admin,base,Tyre,simple,94,CON03561800000 / C03566080000,0,205/55 R16 91V,,,/continental_premiumcontact5.jpg,/continental_premiumcontact5.jpg,/continental_premiumcontact5.jpg,,,,No layout updates,Product Info Column,,,,,Use config,Use config,No,,,205/55 R16,205/55 R16,,,2017,Black Wall,"91 V Load Index 91 =  1,355.83lbs (615kg) per tire Speed Rating = 149.13mph (240kph)",Black Wall,2017,B,C,65,449,417.57,1,,Enabled,No,"Catalog, Search",Taxable Goods,Yes,No,No,"The ContiPremiumContact 5 is the new allround premium Tyre for vehicles in the compact, mid-size and full-size category, which combines comfort and safety at the highest stage. The optimized 3D edges of the Tyre are what make for shorter braking distances than in the case of the predecessor model. ",,,,,,,,,,95,0,1,0,0,1,1,1,0,1,1,,,1,0,1,0,1,0,1,0,0,0,1,205/55 R16 91V,0,simple,,
admin,base,Tyre,simple,96,CON03521190000/3567390000/ANF,0,205/55 R16 91V,,,/continental_premiumcontactssr.jpg,/continental_premiumcontactssr.jpg,/continental_premiumcontactssr.jpg,,,,No layout updates,Product Info Column,,,,,Use config,Use config,No,,,205/55 R16,205/55 R16,,,2017,Run Flat/Black Wall,"91 V Load Index 91 =  1,355.83lbs (615kg) per tire Speed Rating = 149.13mph (240kph)",Run Flat/Black Wall,2017,B,C,65,552,513.36,1,,Enabled,No,"Catalog, Search",Taxable Goods,Yes,No,No,"This Tyre has Excellent handling and outstanding protection against aquaplaning on wet roads, Shorter braking distances delivered through bionic contour, Optimum cornering stability and maximum grip in wet and dry conditions. Unlike conventional tyres, the SSR principle is based on a reinforced self-supporting sidewall. This prevents the inside of the tyre from getting pinched between the road and the rim and from slipping into the rim well in the event of a loss of inflation. The SSR's reinforced sidewall enables the car to continue on its way at a maximum speed of 80 km/h (50 mph) for up to 80 km (50 miles), depending on road conditions and vehicle weight.",,,,,,,,,,95,0,1,0,0,1,1,1,0,1,1,,,1,0,1,0,1,0,1,0,0,0,1,205/55 R16 91V,0,simple,,
admin,base,Tyre,simple,112,CON3564400000,0,205/55 R17 91Y,,,/continental_sportcontact3_n2.jpg,/continental_sportcontact3_n2.jpg,/continental_sportcontact3_n2.jpg,,,,No layout updates,Product Info Column,,,,,Use config,Use config,No,,,205/55 R17,205/55 R17,,,2017,Black Wall,"91 Y Load Index 91 =  1,355.83lbs (615kg) per tire Speed Rating = 186.41mph (300kph)",Black Wall,2017,B,C,65,955,888.15,1,,Enabled,No,"Catalog, Search",Taxable Goods,Yes,No,No,"One of the most crucial requirements of tyres fitted on high performance, sports cars is agile steering precision. This ensures your vehicle maintains good adherence to the road in face of the considerable forces acting on the tyres when driving at high speeds, making abrupt manoeuvres or changes in road surfaces. The asymmetric tread ribs on the ContiSportContact",,,,,,,,,,95,0,1,0,0,1,1,1,0,1,1,,,1,0,1,0,1,0,1,0,0,0,1,205/55 R17 91Y,0,simple,,
admin,base,Tyre,simple,94,CON03563580000,0,205/65 R15 94H,,,/continental_premiumcontact5.jpg,/continental_premiumcontact5.jpg,/continental_premiumcontact5.jpg,,,,No layout updates,Product Info Column,,,,,Use config,Use config,No,,,205/65 R15,205/65 R15,,,2017,Black Wall,"94 H Load Index 94 =  1,477.08lbs (670kg) per tire Speed Rating = 130.49mph (210kph)",Black Wall,2017,B,C,65,389,361.77,1,,Enabled,No,"Catalog, Search",Taxable Goods,Yes,No,No,"The ContiPremiumContact 5 is the new allround premium Tyre for vehicles in the compact, mid-size and full-size category, which combines comfort and safety at the highest stage. The optimized 3D edges of the Tyre are what make for shorter braking distances than in the case of the predecessor model. ",,,,,,,,,,95,0,1,0,0,1,1,1,0,1,1,,,1,0,1,0,1,0,1,0,0,0,1,205/65 R15 94H,0,simple,,
admin,base,Tyre,simple,81,CON03546170000,0,205/70 R15 96T,,,/continental_4x4contact_1.jpg,/continental_4x4contact_1.jpg,/continental_4x4contact_1.jpg,,,,No layout updates,Product Info Column,,,,,Use config,Use config,No,,,205/70 R15,205/70 R15,,,2017,Black Wall,"96 T Load Index 96 =  1,565.27lbs (710kg) per tire Speed Rating = 118.06mph (190kph)",Black Wall,2017,B,C,65,486,451.98,1,,Enabled,No,"Catalog, Search",Taxable Goods,Yes,No,No,"Continental has added a new tyre with savings potential to its range that has been specially developed for vans like the Mercedes Sprinter, Ford Transit and Volkswagen T5. The new VancoEco has around 30 percent less rolling resistance.",,,,,,,,,,95,0,1,0,0,1,1,1,0,1,1,,,1,0,1,0,1,0,1,0,0,0,1,205/70 R15 96T,0,simple,,
admin,base,Tyre,simple,90,CONC03506970000,0,205/70 R16 97H,,,/continental_premiumcontact2.jpeg,/continental_premiumcontact2.jpeg,/continental_premiumcontact2.jpeg,,,,No layout updates,Product Info Column,,,,,Use config,Use config,No,,,205/70 R16,205/70 R16,,,2017,Black Wall,"97 H Load Index 97 =  1,609.36lbs (730kg) per tire Speed Rating = 130.49mph (210kph)",Black Wall,2017,B,C,65,570,530.1,1,,Enabled,No,"Catalog, Search",Taxable Goods,Yes,No,No,The Continental Conti Premium Contact 2 is equipped with the 3D grooves technology. it gives the tyre an excellent stability and faster water dispersal. This new technology enhances braking performance and ensures safety on wet roads.,,,,,,,,,,95,0,1,0,0,1,1,1,0,1,1,,,1,0,1,0,1,0,1,0,0,0,1,205/70 R16 97H,0,simple,,
admin,base,Tyre,simple,90,CONC03506970000,0,205/70 R16 97H,,,/continental_premiumcontact2.jpeg,/continental_premiumcontact2.jpeg,/continental_premiumcontact2.jpeg,,,,No layout updates,Product Info Column,,,,,Use config,Use config,No,,,205/70 R16,205/70 R16,,,2017,Black Wall,"97 H Load Index 97 =  1,609.36lbs (730kg) per tire Speed Rating = 130.49mph (210kph)",Black Wall,2017,B,C,65,570,530.1,1,,Enabled,No,"Catalog, Search",Taxable Goods,Yes,No,No,The Continental Conti Premium Contact 2 is equipped with the 3D grooves technology. it gives the tyre an excellent stability and faster water dispersal. This new technology enhances braking performance and ensures safety on wet roads.,,,,,,,,,,95,0,1,0,0,1,1,1,0,1,1,,,1,0,1,0,1,0,1,0,0,0,1,205/70 R16 97H,0,simple,,
admin,base,Tyre,simple,91,CON3567130000,0,215/40 R17 87W,,,/continental_premiumcontact2.jpeg,/continental_premiumcontact2.jpeg,/continental_premiumcontact2.jpeg,,,,No layout updates,Product Info Column,,,,,Use config,Use config,No,,,215/40 R17,215/40 R17,,,2017,Black Wall,"87 W Load Index 87 =  1,201.51lbs (545kg) per tire Speed Rating = 167.77mph (270kph)",Black Wall,2017,B,C,65,902,838.86,1,,Enabled,No,"Catalog, Search",Taxable Goods,Yes,No,No,"The distinctive feature of the new ContiPremiumContactTM 2 is its unique 3D tread grooves, which optimise braking performance on both wet and dry roads and achieve optimum protection against aquaplaning. The shallow side of the 3D groove gives greater tread block stability and improved road contact, which results in shorter braking distances on dry roads. Even when placed under great strain the tread blocks do not bend away and so the tyre retains maximum contact with the road. This more even contact pressure ensures maximum transmission of power to the dry road. The steep side of the 3D groove makes the edge of the tread block extremely angular. This enables it to cut through the water on the road, much like a windscreen wiper. The direct contact between the tyre and road means exceptionally short braking distances, even in the wet.",,,,,,,,,,95,0,1,0,0,1,1,1,0,1,1,,,1,0,1,0,1,0,1,0,0,0,1,215/40 R17 87W,0,simple,,
admin,base,Tyre,simple,103,CON03524890000,0,215/45 R17 87V,,,/continental_sportcontact2mo.jpeg,/continental_sportcontact2mo.jpeg,/continental_sportcontact2mo.jpeg,,,,No layout updates,Product Info Column,,,,,Use config,Use config,No,,,215/45 R17,215/45 R17,,,2017,Black Wall,"87 V Load Index 87 =  1,201.51lbs (545kg) per tire Speed Rating = 149.13mph (240kph)",Black Wall,2017,B,C,65,672,624.96,1,,Enabled,No,"Catalog, Search",Taxable Goods,Yes,No,No,"Continental ContiSportContact 2 MO tires use an Advanced Mould Concept (AMC) that helps distribute the pressure of the tire on the road more evenly. The AMC creates a larger area that grips the road when you hit your brake pedal. A very important part of the unique tread pattern of Continental ContiSportContact 2 MO tires is the closed outer shoulder, which helps make these tires stable. Furthermore, they're made of a newly developed bionic compound-a mix of two different materials-to add greater stability. High stability creates better handling no matter what conditions you are driving in. By choosing Continental ContiSportContact 2 MO tires for your Mercedes-Benz, you give yourself better ability to maintain precise control of your vehicle when you accelerate on long straightaways and when you corner at high speeds.",,,,,,,,,,95,0,1,0,0,1,1,1,0,1,1,,,1,0,1,0,1,0,1,0,0,0,1,215/45 R17 87V,0,simple,,
admin,base,Tyre,simple,94,CON03562510000,0,215/55 R16 93V,,,/continental_premiumcontact5.jpg,/continental_premiumcontact5.jpg,/continental_premiumcontact5.jpg,,,,No layout updates,Product Info Column,,,,,Use config,Use config,No,,,215/55 R16,215/55 R16,,,2017,Black Wall,"93 V Load Index 93 =  1,432.99lbs (650kg) per tire Speed Rating = 149.13mph (240kph)",Black Wall,2017,B,C,65,716,665.88,1,,Enabled,No,"Catalog, Search",Taxable Goods,Yes,No,No,"The ContiPremiumContact 5 is the new allround premium Tyre for vehicles in the compact, mid-size and full-size category, which combines comfort and safety at the highest stage. The optimized 3D edges of the Tyre are what make for shorter braking distances than in the case of the predecessor model. ",,,,,,,,,,95,0,1,0,0,1,1,1,0,1,1,,,1,0,1,0,1,0,1,0,0,0,1,215/55 R16 93V,0,simple,,
admin,base,Tyre,simple,97,CON15482620000,0,215/55 R18 94H,,,/continental_procontact.jpg,/continental_procontact.jpg,/continental_procontact.jpg,,,,No layout updates,Product Info Column,,,,,Use config,Use config,No,,,215/55 R18,215/55 R18,,,2017,Black Wall,"94 H Load Index 94 =  1,477.08lbs (670kg) per tire Speed Rating = 130.49mph (210kph)",Black Wall,2017,B,C,65,1026,954.18,1,,Enabled,No,"Catalog, Search",Taxable Goods,Yes,No,No,"The ContiProContact features an all-season tread compound molded into a symmetric, notched-rib tread design that provides continuous tread contact with the road to enhance steering response and handling while its wide circumferential grooves promote hydroplaning resistance and wet traction. Continental's PROactive Edge Technology places at least 800 arched edges in each ContiProContact tire's tread design to bring more active edges into the contact patch to promote stormy-weather traction while allowing the pattern elements to transfer smoothly from edge to edge to minimize on-road noise. The tire's internal structure includes twin steel belts reinforced by spirally wrapped nylon to stabilize the tread area promoting uniformity and high-speed durability.",,,,,,,,,,95,0,1,0,0,1,1,1,0,1,1,,,1,0,1,0,1,0,1,0,0,0,1,215/55 R18 94H,0,simple,,
admin,base,Tyre,simple,90,CON03503380000A,0,215/60 R16 95H,,,/continental_premiumcontact2.jpeg,/continental_premiumcontact2.jpeg,/continental_premiumcontact2.jpeg,,,,No layout updates,Product Info Column,,,,,Use config,Use config,No,,,215/60 R16,215/60 R16,,,2017,Black Wall,"95 H Load Index 95 =  1,521.17lbs (690kg) per tire Speed Rating = 130.49mph (210kph)",Black Wall,2017,B,C,65,393,365.49,1,,Enabled,No,"Catalog, Search",Taxable Goods,Yes,No,No,"The ContiPremiumContact 2 has a unique 3D tread groove which gives it optimal braking performance on both wet and dry surfaces, excellent protection against aquaplaning, precise handling and unbeatable driving stability.",,,,,,,,,,95,0,1,0,0,1,1,1,0,1,1,,,1,0,1,0,1,0,1,0,0,0,1,215/60 R16 95H,0,simple,,
admin,base,Tyre,simple,90,CON03503380000A,0,215/60 R16 95H,,,/continental_premiumcontact2.jpeg,/continental_premiumcontact2.jpeg,/continental_premiumcontact2.jpeg,,,,No layout updates,Product Info Column,,,,,Use config,Use config,No,,,215/60 R16,215/60 R16,,,2017,Black Wall,"95 H Load Index 95 =  1,521.17lbs (690kg) per tire Speed Rating = 130.49mph (210kph)",Black Wall,2017,B,C,65,393,365.49,1,,Enabled,No,"Catalog, Search",Taxable Goods,Yes,No,No,"The ContiPremiumContact 2 has a unique 3D tread groove which gives it optimal braking performance on both wet and dry surfaces, excellent protection against aquaplaning, precise handling and unbeatable driving stability.",,,,,,,,,,95,0,1,0,0,1,1,1,0,1,1,,,1,0,1,0,1,0,1,0,0,0,1,215/60 R16 95H,0,simple,,
admin,base,Tyre,simple,94,CON3564700000,0,215/60 R16 95V,,,/continental_contipremiumcontact5_1.jpeg,/continental_contipremiumcontact5_1.jpeg,/continental_contipremiumcontact5_1.jpeg,,,,No layout updates,Product Info Column,,,,,Use config,Use config,No,,,215/60 R16,215/60 R16,,,2017,Black Wall,"95 V Load Index 95 =  1,521.17lbs (690kg) per tire Speed Rating = 149.13mph (240kph)",Black Wall,2017,B,C,65,529,491.97,1,,Enabled,No,"Catalog, Search",Taxable Goods,Yes,No,No,"For mid-sized and executive class vehicles.  Perfect grip and optimal handling in every driving situation, Short braking distances on dry and wet surfaces, Comfortable driving and improved rolling resistance.",,,,,,,,,,95,0,1,0,0,1,1,1,0,1,1,,,1,0,1,0,1,0,1,0,0,0,1,215/60 R16 95V,0,simple,,
admin,base,Tyre,simple,82,CON3549380000,0,215/65 R16 98H,,,/continental_crosscontactat_2.jpg,/continental_crosscontactat_2.jpg,/continental_crosscontactat_2.jpg,,,,No layout updates,Product Info Column,,,,,Use config,Use config,No,,,215/65 R16,215/65 R16,,,2017,Black Wall,"98 H Load Index 98 =  1,653.45lbs (750kg) per tire Speed Rating = 130.49mph (210kph)",Black Wall,2017,B,C,65,575,534.75,1,,Enabled,No,"Catalog, Search",Taxable Goods,Yes,No,No,"Designed for 50% off-road and 50% on-road use, the ContiCrossContact AT feels at home on any terrain. The open shoulder provides good handling characteristics and traction off-road, whilst the wear resistant tread compound creates the potential for high mileage performance and the tread pattern design guarantees a quiet and smooth ride on road.",,,,,,,,,,95,0,1,0,0,1,1,1,0,1,1,,,1,0,1,0,1,0,1,0,0,0,1,215/65 R16 98H,0,simple,,
admin,base,Tyre,simple,161,CON04513850000,0,215/70 R15 109/107S,,,/continental_vanco-8.jpeg,/continental_vanco-8.jpeg,/continental_vanco-8.jpeg,,,,No layout updates,Product Info Column,,,,,Use config,Use config,No,,,215/70 R15,215/70 R15,,,2017,Black Wall,"109/107 S Load Index 109/107 =  2,270.74lbs (1030kg) per tire Speed Rating = 111.85mph (180kph)",Black Wall,2017,B,C,65,577,536.61,1,,Enabled,No,"Catalog, Search",Taxable Goods,Yes,No,No,"Highway Rib Summer light truck tires are for drivers who want a combination of heavy-duty load capacity, even wear and low noise along with traction on dry and wet roads. Sometimes used as Original Equipment (O.E.) on medium and heavy-duty 2WD trucks, vans and pickups, Highway Rib Summer tires are not intended to be driven in near-freezing temperatures, through snow or on ice.",,,,,,,,,,95,0,1,0,0,1,1,1,0,1,1,,,1,0,1,0,1,0,1,0,0,0,1,215/70 R15 109/107S,0,simple,,
admin,base,Tyre,simple,116,CON03569710000,0,225/35 R18 87W,,,/continental_sportcontact5.jpeg,/continental_sportcontact5.jpeg,/continental_sportcontact5.jpeg,,,,No layout updates,Product Info Column,,,,,Use config,Use config,No,,,225/35 R18,225/35 R18,,,2017,Black Wall,"87 W Load Index 87 =  1,201.51lbs (545kg) per tire Speed Rating = 167.77mph (270kph)",Black Wall,2017,B,C,65,876,797.16,1,,Enabled,No,"Catalog, Search",Taxable Goods,Yes,No,No,"With the launch of the ContiSportContact 5, Continental has developed a tyre which is equally suitable for sporty cars & SUVs with sporty driving characteristics. With this new development, the tyre engineers have made significant progress in comparison to the popular predecessor ContiSportContact 3.Its Features are: Shorter braking distances in all weather conditions, Excellent road grip and safety when cornering, Reduced fuel consumption and high mileage. This was made possible due to a new compound which focuses on maximum power transmission and provides low rolling resistance whilst driving normally. This rubber compound which carries the name BlackChilli uses the various vibrations of the tyre. The ContiSportContact 5 is available in a range of sizes from 17 inch upwards for cars and 18 inch upwards for SUV.",,,,,,,,,,95,0,1,0,0,1,1,1,0,1,1,,,1,0,1,0,1,0,1,0,0,0,1,225/35 R18 87W,0,simple,,
admin,base,Tyre,simple,104,CON3566650000,0,225/40 R18 88Y,,,/continental_sportcontact2_n2_2.jpg,/continental_sportcontact2_n2_2.jpg,/continental_sportcontact2_n2_2.jpg,,,,No layout updates,Product Info Column,,,,,Use config,Use config,No,,,225/40 R18,225/40 R18,,,2017,Black Wall,"88 Y Load Index 88 =  1,234.58lbs (560kg) per tire Speed Rating = 186.41mph (300kph)",Black Wall,2017,B,C,65,763,694.33,1,,Enabled,No,"Catalog, Search",Taxable Goods,Yes,No,No,"Continental ContiSportContact 2 N2 tires feature a design based on the Advanced Mould Concept (AMC). Continental's AMC helps distribute the pressure of the tire more evenly over the road surfaces. As a result, these tires have a larger area that grips the road and helps you stop quickly while you brake. One factor that increases the steering responsiveness of your vehicle is the stability of your tires. The closed outer shoulder of Continental ContiSportContact 2 N2 tires helps make these tires very stable. Additionally, they were built out of a new bionic compound, which combines two different materials to add greater stability. By purchasing Continental ContiSportContact 2 N2 tires, your Porsche will have more precise control so that you maneuver quickly when you need to avoid danger. Your handling on long straightaways and in tight turns also benefits from Continental ContiSportContact 2 N2 tires.",,,,,,,,,,95,0,1,0,0,1,1,1,0,1,1,,,1,0,1,0,1,0,1,0,0,0,1,225/40 R18 88Y,0,simple,,
admin,base,Tyre,simple,125,CON03505440000,0,225/40 R18 92W,,,/continental_sportcontact5ssr.jpg,/continental_sportcontact5ssr.jpg,/continental_sportcontact5ssr.jpg,,,,No layout updates,Product Info Column,,,,,Use config,Use config,No,,,225/40 R18,225/40 R18,,,2017,Run Flat/Black Wall,"92 W Load Index 92 =  1,388.90lbs (630kg) per tire Speed Rating = 167.77mph (270kph)",Run Flat/Black Wall,2017,B,C,65,967,879.97,1,,Enabled,No,"Catalog, Search",Taxable Goods,Yes,No,No,"The ContiSportContact 5 SSR is Continental's Max Performance Summer run-flat tire designed to provide temporary extended mobility in case of complete air loss due to a puncture. ContiSportContact 5 SSR tires are designed to combine short braking distances and good cornering traction with reduced fuel consumption and good treadwear. However like all summer tires, they are not intended to be driven in near freezing temperatures, through snow or on ice. ContiSportContact 5 SSR tires permit drivers to remain mobile in the event of a flat tire by allowing them to reach their destination or tire service facility without having to replace a flat tire with the spare tire. The ContiSportContact 5 SSR''s reinforced sidewall enables the car to continue on its way at a maximum speed of 50 mph (80 km/h) for up to 50 miles (80 km), depending on road conditions and vehicle weight.",,,,,,,,,,95,0,1,0,0,1,1,1,0,1,1,,,1,0,1,0,1,0,1,0,0,0,1,225/40 R18 92W,0,simple,,
admin,base,Tyre,simple,115,CON3566130000,0,225/40 R18 92Y,,,/continental_contisportcontact5_1_1.jpeg,/continental_contisportcontact5_1_1.jpeg,/continental_contisportcontact5_1_1.jpeg,,,,No layout updates,Product Info Column,,,,,Use config,Use config,No,,,225/40 R18,225/40 R18,,,2017,Black Wall,"92 Y Load Index 92 =  1,388.90lbs (630kg) per tire Speed Rating = 186.41mph (300kph)",Black Wall,2017,B,C,65,667,606.97,1,,Enabled,No,"Catalog, Search",Taxable Goods,Yes,No,No,"Unlimited driving fun thanks to excellent grip. The new ContiSportContact 5 Control never has bee sportier. With the launch of the ContiSportContact 5, Continental has developed a tire which is equally suitable for sporty cars & SUVs with sporty driving characteristics. With this new development, the tire engineers have made significant progress in camparison to the popular predecessor ContiSportContact 3 Shorter braking distances in all weather conditions. Excellent road grip and safety when cornering. Reduced fuel consumption and high mileage. This was made possible due to a new compound which focuses on maximum power transmission and provides low rolling resistance whilst driving normally. This rubber compound which carries the name BlackChilli uses the various vibrations of the tire.",,,,,,,,,,95,0,1,0,0,1,1,1,0,1,1,,,1,0,1,0,1,0,1,0,0,0,1,225/40 R18 92Y,0,simple,,
admin,base,Tyre,simple,119,CON03507390000-ZNQ,0,225/40 R18 92Y,,,/continental_sportcontact5_mo.jpg,/continental_sportcontact5_mo.jpg,/continental_sportcontact5_mo.jpg,,,,No layout updates,Product Info Column,,,,,Use config,Use config,No,,,225/40 R18,225/40 R18,,,2017,Black Wall,"92 Y Load Index 92 =  1,388.90lbs (630kg) per tire Speed Rating = 186.41mph (300kph)",Black Wall,2017,B,C,65,649,590.59,1,,Enabled,No,"Catalog, Search",Taxable Goods,Yes,No,No,"With the launch of the ContiSportContact 5, Continental has developed a tyre which is equally suitable for sporty cars & SUVs with sporty driving characteristics. With this new development, the tyre engineers have made significant progress in comparison to the popular predecessor ContiSportContact 3.Its Features are: Shorter braking distances in all weather conditions, Excellent road grip and safety when cornering, Reduced fuel consumption and high mileage. This was made possible due to a new compound which focuses on maximum power transmission and provides low rolling resistance whilst driving normally. This rubber compound which carries the name BlackChilli uses the various vibrations of the tyre. The ContiSportContact 5 is available in a range of sizes from 17 inch upwards for cars and 18 inch upwards for SUV.",,,,,,,,,,95,0,1,0,0,1,1,1,0,1,1,,,1,0,1,0,1,0,1,0,0,0,1,225/40 R18 92Y,0,simple,,
admin,base,Tyre,simple,124,CONC03562730000-ZNQ,0,225/40 R19 93Y,,,/continental_sportcontact5ssr.jpg,/continental_sportcontact5ssr.jpg,/continental_sportcontact5ssr.jpg,,,,No layout updates,Product Info Column,,,,,Use config,Use config,No,,,225/40 R19,225/40 R19,,,2017,Run Flat/Black Wall,"93 Y Load Index 93 =  1,432.99lbs (650kg) per tire Speed Rating = 186.41mph (300kph)",Run Flat/Black Wall,2017,B,C,65,1299,1182.09,1,,Enabled,No,"Catalog, Search",Taxable Goods,Yes,No,No,"This tyre has Improved contact patch when making sharp maneuvers, grip for faster cornering and additional steering response, Pattern conformation to road surface for increased contact surface during high speed cornering enhancing the on the limit response, Block edges designed to reduce tilting creating a larger effective contact area for shorter braking distances, and Pattern penetration of water on the road surface means better wet grip.",,,,,,,,,,95,0,1,0,0,1,1,1,0,1,1,,,1,0,1,0,1,0,1,0,0,0,1,225/40 R19 93Y,0,simple,,
admin,base,Tyre,simple,125,CON03507230000-AAT,0,225/45 R17 91W,,,/continental_sportcontact5ssr.jpg,/continental_sportcontact5ssr.jpg,/continental_sportcontact5ssr.jpg,,,,No layout updates,Product Info Column,,,,,Use config,Use config,No,,,225/45 R17,225/45 R17,,,2017,Run Flat/Black Wall,"91 W Load Index 91 =  1,355.83lbs (615kg) per tire Speed Rating = 167.77mph (270kph)",Run Flat/Black Wall,2017,B,C,65,676,615.16,1,,Enabled,No,"Catalog, Search",Taxable Goods,Yes,No,No,"The ContiSportContact 5 SSR is Continental's Max Performance Summer run-flat tire designed to provide temporary extended mobility in case of complete air loss due to a puncture. ContiSportContact 5 SSR tires are designed to combine short braking distances and good cornering traction with reduced fuel consumption and good treadwear. However like all summer tires, they are not intended to be driven in near freezing temperatures, through snow or on ice. ContiSportContact 5 SSR tires permit drivers to remain mobile in the event of a flat tire by allowing them to reach their destination or tire service facility without having to replace a flat tire with the spare tire. The ContiSportContact 5 SSR''s reinforced sidewall enables the car to continue on its way at a maximum speed of 50 mph (80 km/h) for up to 50 miles (80 km), depending on road conditions and vehicle weight.",,,,,,,,,,95,0,1,0,0,1,1,1,0,1,1,,,1,0,1,0,1,0,1,0,0,0,1,225/45 R17 91W,0,simple,,
admin,base,Tyre,simple,125,CON03563050000,0,225/45 R18 95Y,,,/continental_sportcontact5ssr.jpg,/continental_sportcontact5ssr.jpg,/continental_sportcontact5ssr.jpg,,,,No layout updates,Product Info Column,,,,,Use config,Use config,No,,,225/45 R18,225/45 R18,,,2017,Run Flat/Black Wall,"95 Y Load Index 95 =  1,521.17lbs (690kg) per tire Speed Rating = 186.41mph (300kph)",Run Flat/Black Wall,2017,B,C,65,1017,925.47,1,,Enabled,No,"Catalog, Search",Taxable Goods,Yes,No,No,"The ContiSportContact 5 SSR is Continental's Max Performance Summer run-flat tire designed to provide temporary extended mobility in case of complete air loss due to a puncture. ContiSportContact 5 SSR tires are designed to combine short braking distances and good cornering traction with reduced fuel consumption and good treadwear. However like all summer tires, they are not intended to be driven in near freezing temperatures, through snow or on ice. ContiSportContact 5 SSR tires permit drivers to remain mobile in the event of a flat tire by allowing them to reach their destination or tire service facility without having to replace a flat tire with the spare tire. The ContiSportContact 5 SSR''s reinforced sidewall enables the car to continue on its way at a maximum speed of 50 mph (80 km/h) for up to 50 miles (80 km), depending on road conditions and vehicle weight.",,,,,,,,,,95,0,1,0,0,1,1,1,0,1,1,,,1,0,1,0,1,0,1,0,0,0,1,225/45 R18 95Y,0,simple,,
admin,base,Tyre,simple,123,CON03561570000,0,225/45 R19 92W,,,/continental_sportcontact5ssr.jpg,/continental_sportcontact5ssr.jpg,/continental_sportcontact5ssr.jpg,,,,No layout updates,Product Info Column,,,,,Use config,Use config,No,,,225/45 R19,225/45 R19,,,2017,Run Flat/Black Wall,"92 W Load Index 92 =  1,388.90lbs (630kg) per tire Speed Rating = 167.77mph (270kph)",Run Flat/Black Wall,2017,B,C,65,1662,1512.42,1,,Enabled,No,"Catalog, Search",Taxable Goods,Yes,No,No,"The ContiSportContact 5 SSR is Continental's Max Performance Summer run-flat tire designed to provide temporary extended mobility in case of complete air loss due to a puncture. ContiSportContact 5 SSR tires are designed to combine short braking distances and good cornering traction with reduced fuel consumption and good treadwear. However like all summer tires, they are not intended to be driven in near freezing temperatures, through snow or on ice. ContiSportContact 5 SSR tires permit drivers to remain mobile in the event of a flat tire by allowing them to reach their destination or tire service facility without having to replace a flat tire with the spare tire. The ContiSportContact 5 SSR''s reinforced sidewall enables the car to continue on its way at a maximum speed of 50 mph (80 km/h) for up to 50 miles (80 km), depending on road conditions and vehicle weight.",,,,,,,,,,95,0,1,0,0,1,1,1,0,1,1,,,1,0,1,0,1,0,1,0,0,0,1,225/45 R19 92W,0,simple,,
admin,base,Tyre,simple,123,CON03561570000,0,225/45 R19 92W,,,/continental_sportcontact5ssr.jpg,/continental_sportcontact5ssr.jpg,/continental_sportcontact5ssr.jpg,,,,No layout updates,Product Info Column,,,,,Use config,Use config,No,,,225/45 R19,225/45 R19,,,2017,Run Flat/Black Wall,"92 W Load Index 92 =  1,388.90lbs (630kg) per tire Speed Rating = 167.77mph (270kph)",Run Flat/Black Wall,2017,B,C,65,1662,1512.42,1,,Enabled,No,"Catalog, Search",Taxable Goods,Yes,No,No,"The ContiSportContact 5 SSR is Continental's Max Performance Summer run-flat tire designed to provide temporary extended mobility in case of complete air loss due to a puncture. ContiSportContact 5 SSR tires are designed to combine short braking distances and good cornering traction with reduced fuel consumption and good treadwear. However like all summer tires, they are not intended to be driven in near freezing temperatures, through snow or on ice. ContiSportContact 5 SSR tires permit drivers to remain mobile in the event of a flat tire by allowing them to reach their destination or tire service facility without having to replace a flat tire with the spare tire. The ContiSportContact 5 SSR''s reinforced sidewall enables the car to continue on its way at a maximum speed of 50 mph (80 km/h) for up to 50 miles (80 km), depending on road conditions and vehicle weight.",,,,,,,,,,95,0,1,0,0,1,1,1,0,1,1,,,1,0,1,0,1,0,1,0,0,0,1,225/45 R19 92W,0,simple,,
