store,websites,attribute_set,type,category_ids,sku,has_options,name,meta_title,meta_description,url_key,url_path,custom_design,page_layout,options_container,image_label,small_image_label,thumbnail_label,country_of_manufacture,msrp_enabled,msrp_display_actual_price_type,gift_message_available,width,ratio,diameter,serv_desc,car_make,car_model,car_year,sidewall_style,utqg,production_year,fuel,weather,sound,size,price,special_price,weight,msrp,status,is_recurring,visibility,tax_class_id,passenger,tyres4_4,vantyres,description,short_description,meta_keyword,custom_layout_update,special_from_date,special_to_date,news_from_date,news_to_date,custom_design_from,custom_design_to,qty,min_qty,use_config_min_qty,is_qty_decimal,backorders,use_config_backorders,min_sale_qty,use_config_min_sale_qty,max_sale_qty,use_config_max_sale_qty,is_in_stock,low_stock_date,notify_stock_qty,use_config_notify_stock_qty,manage_stock,use_config_manage_stock,stock_status_changed_auto,use_config_qty_increments,qty_increments,use_config_enable_qty_inc,enable_qty_increments,is_decimal_divided,stock_status_changed_automatically,use_config_enable_qty_increments,product_name,store_id,product_type_id,product_status_changed,product_changed_websites,website,_media_image,_media_lable,_media_position,_media_is_disabled
admin,base,Tyre,simple,530,PER10039,0,GTR-SP,,,,,,No layout updates,Product Info Column,,,,China,Use config,,,165,65,13,77T,,,,Black Wall,,2017,B,C,65,165/65,71.4,,0,,Enabled,No,"Catalog, Search",Taxable Goods,Yes,No,No,Pearly,Pearly,,,,,,,,,100,0,1,0,0,1,1,1,0,1,1,,,1,0,1,0,1,0,1,0,0,0,1,GTR-SP,0,simple,,,,,,,
admin,base,Tyre,simple,530,PER10040,0,MAX-A ONE,,,,,,No layout updates,Product Info Column,,,,China,Use config,,,175,65,14,82H,,,,Black Wall,,2017,B,C,65,175/65,84,,0,,Enabled,No,"Catalog, Search",Taxable Goods,Yes,No,No,Pearly,Pearly,,,,,,,,,100,0,1,0,0,1,1,1,0,1,1,,,1,0,1,0,1,0,1,0,0,0,1,MAX-A ONE,0,simple,,,,,,,
admin,base,Tyre,simple,530,PER10041,0,GTR,,,,,,No layout updates,Product Info Column,,,,China,Use config,,,175,65,14,82H,,,,Black Wall,,2017,B,C,65,175/65,75.6,,0,,Enabled,No,"Catalog, Search",Taxable Goods,Yes,No,No,Pearly,Pearly,,,,,,,,,100,0,1,0,0,1,1,1,0,1,1,,,1,0,1,0,1,0,1,0,0,0,1,GTR,0,simple,,,,,,,
admin,base,Tyre,simple,530,PER10042,0,GTR-SP -,,,,,,No layout updates,Product Info Column,,,,China,Use config,,,175,70,13,82T,,,,Black Wall,,2017,B,C,65,175/70,73.5,,0,,Enabled,No,"Catalog, Search",Taxable Goods,Yes,No,No,Pearly,Pearly,,,,,,,,,100,0,1,0,0,1,1,1,0,1,1,,,1,0,1,0,1,0,1,0,0,0,1,GTR-SP -,0,simple,,,,,,,
admin,base,Tyre,simple,530,PER10043,0,MAX - A ONE 4PR,,,,,,No layout updates,Product Info Column,,,,China,Use config,,,175,70,14,84H,,,,Black Wall,,2017,B,C,65,175/70,89.25,,0,,Enabled,No,"Catalog, Search",Taxable Goods,Yes,No,No,Pearly,Pearly,,,,,,,,,100,0,1,0,0,1,1,1,0,1,1,,,1,0,1,0,1,0,1,0,0,0,1,MAX - A ONE 4PR,0,simple,,,,,,,
admin,base,Tyre,simple,530,PER10044,0,GTR-SP ,,,,,,No layout updates,Product Info Column,,,,China,Use config,,,175,70,14,84T,,,,Black Wall,,2017,B,C,65,175/70,75.6,,0,,Enabled,No,"Catalog, Search",Taxable Goods,Yes,No,No,Pearly,Pearly,,,,,,,,,100,0,1,0,0,1,1,1,0,1,1,,,1,0,1,0,1,0,1,0,0,0,1,GTR-SP ,0,simple,,,,,,,
admin,base,Tyre,simple,530,PER10045,0,MAX-A ONE 4PR,,,,,,No layout updates,Product Info Column,,,,China,Use config,,,185,65,14,86H,,,,Black Wall,,2017,B,C,65,185/65,94.5,,0,,Enabled,No,"Catalog, Search",Taxable Goods,Yes,No,No,Pearly,Pearly,,,,,,,,,100,0,1,0,0,1,1,1,0,1,1,,,1,0,1,0,1,0,1,0,0,0,1,MAX-A ONE 4PR,0,simple,,,,,,,
admin,base,Tyre,simple,530,PER10046,0,STAR SPORT -,,,,,,No layout updates,Product Info Column,,,,China,Use config,,,185,65,14,86H,,,,Black Wall,,2017,B,C,65,185/65,84,,0,,Enabled,No,"Catalog, Search",Taxable Goods,Yes,No,No,Pearly,Pearly,,,,,,,,,100,0,1,0,0,1,1,1,0,1,1,,,1,0,1,0,1,0,1,0,0,0,1,STAR SPORT -,0,simple,,,,,,,
admin,base,Tyre,simple,530,PER10047,0,STAR SPORT,,,,,,No layout updates,Product Info Column,,,,China,Use config,,,185,65,15,88H,,,,Black Wall,,2017,B,C,65,185/65,94.5,,0,,Enabled,No,"Catalog, Search",Taxable Goods,Yes,No,No,Pearly,Pearly,,,,,,,,,100,0,1,0,0,1,1,1,0,1,1,,,1,0,1,0,1,0,1,0,0,0,1,STAR SPORT,0,simple,,,,,,,
admin,base,Tyre,simple,530,PER10048,0,86T GTR,,,,,,No layout updates,Product Info Column,,,,China,Use config,,,185,70,13,86T,,,,Black Wall,,2017,B,C,65,185/70,84,,0,,Enabled,No,"Catalog, Search",Taxable Goods,Yes,No,No,Pearly,Pearly,,,,,,,,,100,0,1,0,0,1,1,1,0,1,1,,,1,0,1,0,1,0,1,0,0,0,1,86T GTR,0,simple,,,,,,,
admin,base,Tyre,simple,530,PER10049,0,GTR-SP -,,,,,,No layout updates,Product Info Column,,,,China,Use config,,,185,70,14,88T,,,,Black Wall,,2017,B,C,65,185/70,86.1,,0,,Enabled,No,"Catalog, Search",Taxable Goods,Yes,No,No,Pearly,Pearly,,,,,,,,,100,0,1,0,0,1,1,1,0,1,1,,,1,0,1,0,1,0,1,0,0,0,1,GTR-SP -,0,simple,,,,,,,
admin,base,Tyre,simple,530,PER10050,0,RALLY F1,,,,,,No layout updates,Product Info Column,,,,China,Use config,,,195,45,16,84VXL,,,,Black Wall,,2017,B,C,65,195/45,105,,0,,Enabled,No,"Catalog, Search",Taxable Goods,Yes,No,No,Pearly,Pearly,,,,,,,,,100,0,1,0,0,1,1,1,0,1,1,,,1,0,1,0,1,0,1,0,0,0,1,RALLY F1,0,simple,,,,,,,
admin,base,Tyre,simple,530,PER10051,0,STAR SPORT,,,,,,No layout updates,Product Info Column,,,,China,Use config,,,195,50,15,82V,,,,Black Wall,,2017,B,C,65,195/50,94.5,,0,,Enabled,No,"Catalog, Search",Taxable Goods,Yes,No,No,Pearly,Pearly,,,,,,,,,100,0,1,0,0,1,1,1,0,1,1,,,1,0,1,0,1,0,1,0,0,0,1,STAR SPORT,0,simple,,,,,,,
admin,base,Tyre,simple,530,PER10052,0,STAR SPORT -,,,,,,No layout updates,Product Info Column,,,,China,Use config,,,195,50,16,84V,,,,Black Wall,,2017,B,C,65,195/50,99.75,,0,,Enabled,No,"Catalog, Search",Taxable Goods,Yes,No,No,Pearly,Pearly,,,,,,,,,100,0,1,0,0,1,1,1,0,1,1,,,1,0,1,0,1,0,1,0,0,0,1,STAR SPORT -,0,simple,,,,,,,
admin,base,Tyre,simple,530,PER10053,0,STAR SPORT,,,,,,No layout updates,Product Info Column,,,,China,Use config,,,195,55,15,85V,,,,Black Wall,,2017,B,C,65,195/55,94.5,,0,,Enabled,No,"Catalog, Search",Taxable Goods,Yes,No,No,Pearly,Pearly,,,,,,,,,100,0,1,0,0,1,1,1,0,1,1,,,1,0,1,0,1,0,1,0,0,0,1,STAR SPORT,0,simple,,,,,,,
admin,base,Tyre,simple,530,PER10054,0,STAR SPORT,,,,,,No layout updates,Product Info Column,,,,China,Use config,,,195,60,15,,,,,Black Wall,,2017,B,C,65,195/60,99.75,,0,,Enabled,No,"Catalog, Search",Taxable Goods,Yes,No,No,Pearly,Pearly,,,,,,,,,100,0,1,0,0,1,1,1,0,1,1,,,1,0,1,0,1,0,1,0,0,0,1,STAR SPORT,0,simple,,,,,,,
admin,base,Tyre,simple,530,PER10055,0,HH301 4PR 88V ,,,,,,No layout updates,Product Info Column,,,,China,Use config,,,195,60,15,88V,,,,Black Wall,,2017,B,C,65,195/60,105,,0,,Enabled,No,"Catalog, Search",Taxable Goods,Yes,No,No,Pearly,Pearly,,,,,,,,,100,0,1,0,0,1,1,1,0,1,1,,,1,0,1,0,1,0,1,0,0,0,1,HH301 4PR 88V ,0,simple,,,,,,,
admin,base,Tyre,simple,530,PER10056,0,STAR SPORT,,,,,,No layout updates,Product Info Column,,,,China,Use config,,,195,65,15,91H,,,,Black Wall,,2017,B,C,65,195/65,94.5,,0,,Enabled,No,"Catalog, Search",Taxable Goods,Yes,No,No,Pearly,Pearly,,,,,,,,,100,0,1,0,0,1,1,1,0,1,1,,,1,0,1,0,1,0,1,0,0,0,1,STAR SPORT,0,simple,,,,,,,
admin,base,Tyre,simple,530,PER10057,0,R601 8PR 106/104R,,,,,,No layout updates,Product Info Column,,,,China,Use config,,,195,,15,,,,,Black Wall,,2017,B,C,65,195R15,136.5,,0,,Enabled,No,"Catalog, Search",Taxable Goods,Yes,No,No,Pearly,Pearly,,,,,,,,,100,0,1,0,0,1,1,1,0,1,1,,,1,0,1,0,1,0,1,0,0,0,1,R601 8PR 106/104R,0,simple,,,,,,,
admin,base,Tyre,simple,530,PER10058,0,RALLY F1,,,,,,No layout updates,Product Info Column,,,,China,Use config,,,205,40,17,94WXL,,,,Black Wall,,2017,B,C,65,205/40,105,,0,,Enabled,No,"Catalog, Search",Taxable Goods,Yes,No,No,Pearly,Pearly,,,,,,,,,100,0,1,0,0,1,1,1,0,1,1,,,1,0,1,0,1,0,1,0,0,0,1,RALLY F1,0,simple,,,,,,,
admin,base,Tyre,simple,530,PER10059,0,RALLY F1,,,,,,No layout updates,Product Info Column,,,,China,Use config,,,205,45,16,87WXL,,,,Black Wall,,2017,B,C,65,205/45,115.5,,0,,Enabled,No,"Catalog, Search",Taxable Goods,Yes,No,No,Pearly,Pearly,,,,,,,,,100,0,1,0,0,1,1,1,0,1,1,,,1,0,1,0,1,0,1,0,0,0,1,RALLY F1,0,simple,,,,,,,
admin,base,Tyre,simple,530,PER10060,0,L RALLY-F1 -,,,,,,No layout updates,Product Info Column,,,,China,Use config,,,205,45,17,88WXL,,,,Black Wall,,2017,B,C,65,205/45,115.5,,0,,Enabled,No,"Catalog, Search",Taxable Goods,Yes,No,No,Pearly,Pearly,,,,,,,,,100,0,1,0,0,1,1,1,0,1,1,,,1,0,1,0,1,0,1,0,0,0,1,L RALLY-F1 -,0,simple,,,,,,,
admin,base,Tyre,simple,530,PER10061,0,RALLY-F1 ,,,,,,No layout updates,Product Info Column,,,,China,Use config,,,205,50,16,87W,,,,Black Wall,,2017,B,C,65,205/50,115.5,,0,,Enabled,No,"Catalog, Search",Taxable Goods,Yes,No,No,Pearly,Pearly,,,,,,,,,100,0,1,0,0,1,1,1,0,1,1,,,1,0,1,0,1,0,1,0,0,0,1,RALLY-F1 ,0,simple,,,,,,,
admin,base,Tyre,simple,530,PER10062,0,STAR SPORT,,,,,,No layout updates,Product Info Column,,,,China,Use config,,,205,60,15,91V,,,,Black Wall,,2017,B,C,65,205/60,110.25,,0,,Enabled,No,"Catalog, Search",Taxable Goods,Yes,No,No,Pearly,Pearly,,,,,,,,,100,0,1,0,0,1,1,1,0,1,1,,,1,0,1,0,1,0,1,0,0,0,1,STAR SPORT,0,simple,,,,,,,
admin,base,Tyre,simple,530,PER10063,0,STAR SPORT -,,,,,,No layout updates,Product Info Column,,,,China,Use config,,,205,60,16,92V,,,,Black Wall,,2017,B,C,65,205/60,105,,0,,Enabled,No,"Catalog, Search",Taxable Goods,Yes,No,No,Pearly,Pearly,,,,,,,,,100,0,1,0,0,1,1,1,0,1,1,,,1,0,1,0,1,0,1,0,0,0,1,STAR SPORT -,0,simple,,,,,,,
admin,base,Tyre,simple,530,PER10064,0,STAR SPORT,,,,,,No layout updates,Product Info Column,,,,China,Use config,,,205,65,1,94H,,,,Black Wall,,2017,B,C,65,205/65,105,,0,,Enabled,No,"Catalog, Search",Taxable Goods,Yes,No,No,Pearly,Pearly,,,,,,,,,100,0,1,0,0,1,1,1,0,1,1,,,1,0,1,0,1,0,1,0,0,0,1,STAR SPORT,0,simple,,,,,,,
admin,base,Tyre,simple,530,PER10065,0,MAX-A ONE 4PR ,,,,,,No layout updates,Product Info Column,,,,China,Use config,,,205,65,15,94V,,,,Black Wall,,2017,B,C,65,205/65,120.75,,0,,Enabled,No,"Catalog, Search",Taxable Goods,Yes,No,No,Pearly,Pearly,,,,,,,,,100,0,1,0,0,1,1,1,0,1,1,,,1,0,1,0,1,0,1,0,0,0,1,MAX-A ONE 4PR ,0,simple,,,,,,,
admin,base,Tyre,simple,530,PER10066,0,GTR-SP,,,,,,No layout updates,Product Info Column,,,,China,Use config,,,205,70,15,96T,,,,Black Wall,,2017,B,C,65,205/70,131.25,,0,,Enabled,No,"Catalog, Search",Taxable Goods,Yes,No,No,Pearly,Pearly,,,,,,,,,100,0,1,0,0,1,1,1,0,1,1,,,1,0,1,0,1,0,1,0,0,0,1,GTR-SP,0,simple,,,,,,,
