store,websites,attribute_set,type,category_ids,sku,has_options,name,meta_title,meta_description,image,small_image,thumbnail,url_key,url_path,custom_design,page_layout,options_container,image_label,small_image_label,thumbnail_label,country_of_manufacture,msrp_enabled,msrp_display_actual_price_type,gift_message_available,width,ratio,size,diameter,car_make,car_model,car_year,sidewall_style,serv_desc,utqg,production_year,fuel,weather,sound,price,special_price,weight,msrp,status,is_recurring,visibility,tax_class_id,passenger,tyres4_4,vantyres,description,short_description,meta_keyword,custom_layout_update,special_from_date,special_to_date,news_from_date,news_to_date,custom_design_from,custom_design_to,qty,min_qty,use_config_min_qty,is_qty_decimal,backorders,use_config_backorders,min_sale_qty,use_config_min_sale_qty,max_sale_qty,use_config_max_sale_qty,is_in_stock,low_stock_date,notify_stock_qty,use_config_notify_stock_qty,manage_stock,use_config_manage_stock,stock_status_changed_auto,use_config_qty_increments,qty_increments,use_config_enable_qty_inc,enable_qty_increments,is_decimal_divided,stock_status_changed_automatically,use_config_enable_qty_increments,product_name,store_id,product_type_id,product_status_changed,product_changed_websites
admin,base,Tyre,simple,42,YOK-1335225/55R17-G95ATL,0,GEOLANDAR H/T G95A,,,/yokohama_geolandarg95a.jpg,/yokohama_geolandarg95a.jpg,/yokohama_geolandarg95a.jpg,,,,No layout updates,Product Info Column,,,,,Use config,Use config,No,225,55,225/55 R17,17,,,2017,Black Wall,97 V,,2017,C,C,65,561,532.95,1,,Enabled,No,"Catalog, Search",Taxable Goods,Yes,No,No,"Highway All-Season light truck Tyres are for drivers who want a combination of pleasant on-road characteristics, long wear and all-season versatility, including traction in light snow. O.E. Highway All-Season light truck Tyres are typically purchased as direct replacements for worn-out pairs/sets of the vehicle's original Tyres. They can also be used for other vehicle applications in complete sets of four or axle pairs if available in an appropriate size, load range and speed rating to match the existing O.E. Tyres' performance category and specifications.",,,,,,,,,,100,0,1,0,0,1,1,1,0,1,1,,,1,0,1,0,1,0,1,0,0,0,1,GEOLANDAR H/T G95A,0,simple,,
admin,base,Tyre,simple,42,YOK-1335155/80R13-Y350TL-2016-TEN,0,Y350,,,/yokohama_y350.jpg,/yokohama_y350.jpg,/yokohama_y350.jpg,,,,No layout updates,Product Info Column,,,,,Use config,Use config,No,155,80,155/80 R13,13,,,2017,Black Wall,79 S,,2017,C,C,65,192,182.4,1,,Enabled,No,"Catalog, Search",Taxable Goods,Yes,No,No,"Yokohama tires are designed to perform better, keep you safer, and take you further. It delivers outstanding Tyres for all aspects of performance in all conditions. That is why numerous premium car manufacturers provide factory equipped vehicles with Yokohama products.",,,,,,,,,,100,0,1,0,0,1,1,1,0,1,1,,,1,0,1,0,1,0,1,0,0,0,1,Y350,0,simple,,
admin,base,Tyre,simple,42,YOK-1335165/80R13-Y350TL,0,Y350,,,/yokohama_y350.jpg,/yokohama_y350.jpg,/yokohama_y350.jpg,,,,No layout updates,Product Info Column,,,,,Use config,Use config,No,165,80,165/80 R13,13,,,2017,Black Wall,83 S,,2017,C,C,65,199,189.05,1,,Enabled,No,"Catalog, Search",Taxable Goods,Yes,No,No,"Yokohama tires are designed to perform better, keep you safer, and take you further. It delivers outstanding Tyres for all aspects of performance in all conditions. That is why numerous premium car manufacturers provide factory equipped vehicles with Yokohama products.",,,,,,,,,,100,0,1,0,0,1,1,1,0,1,1,,,1,0,1,0,1,0,1,0,0,0,1,Y350,0,simple,,
admin,base,Tyre,simple,42,YOK-1335165/80R13-Y350TL-2016-TEN,0,Y350,,,/yokohama_y350.jpg,/yokohama_y350.jpg,/yokohama_y350.jpg,,,,No layout updates,Product Info Column,,,,,Use config,Use config,No,165,80,165/80 R13,13,,,2017,Black Wall,83 S,,2017,C,C,65,202,191.9,1,,Enabled,No,"Catalog, Search",Taxable Goods,Yes,No,No,"Yokohama tires are designed to perform better, keep you safer, and take you further. It delivers outstanding Tyres for all aspects of performance in all conditions. That is why numerous premium car manufacturers provide factory equipped vehicles with Yokohama products.",,,,,,,,,,100,0,1,0,0,1,1,1,0,1,1,,,1,0,1,0,1,0,1,0,0,0,1,Y350,0,simple,,
admin,base,Tyre,simple,42,YOK-1335175/65R14-AA01TL,0,A.drive AA01,,,/yokohama_a.driveaa01.jpeg,/yokohama_a.driveaa01.jpeg,/yokohama_a.driveaa01.jpeg,,,,No layout updates,Product Info Column,,,,,Use config,Use config,No,175,65,175/65 R14,14,,,2017,Black Wall,82 H,,2017,C,C,65,255,242.25,1,,Enabled,No,"Catalog, Search",Taxable Goods,Yes,No,No,"Yokohama A.DRIVE AA01 is a Conventional tyre designed for good fuel economy, high mileage and good braking. It is developed to satisfy safety-conscious drivers, and designed with a construction that evenly distributes the tyres all important contact pressure, resulting in better even tread wear properties. The unique design of the tyre also allows for a larger contact area for better traction and stronger grip.",,,,,,,,,,100,0,1,0,0,1,1,1,0,1,1,,,1,0,1,0,1,0,1,0,0,0,1,A.drive AA01,0,simple,,
admin,base,Tyre,simple,42,YOK-1335175/65R14-AA01TL-2016,0,A.drive AA01,,,/yokohama_a.driveaa01.jpeg,/yokohama_a.driveaa01.jpeg,/yokohama_a.driveaa01.jpeg,,,,No layout updates,Product Info Column,,,,,Use config,Use config,No,175,65,175/65 R14,14,,,2017,Black Wall,82 H,,2017,C,C,65,281,266.95,1,,Enabled,No,"Catalog, Search",Taxable Goods,Yes,No,No,"Yokohama A.DRIVE AA01 is a Conventional tyre designed for good fuel economy, high mileage and good braking. It is developed to satisfy safety-conscious drivers, and designed with a construction that evenly distributes the tyres all important contact pressure, resulting in better even tread wear properties. The unique design of the tyre also allows for a larger contact area for better traction and stronger grip.",,,,,,,,,,100,0,1,0,0,1,1,1,0,1,1,,,1,0,1,0,1,0,1,0,0,0,1,A.drive AA01,0,simple,,
admin,base,Tyre,simple,42,YOK-1335175/65R15-E70DTL,0,AVS db E70D,,,/yokohama_avsdbe70.jpg,/yokohama_avsdbe70.jpg,/yokohama_avsdbe70.jpg,,,,No layout updates,Product Info Column,,,,,Use config,Use config,No,175,65,175/65 R15,15,,,2017,Black Wall,84 H,,2017,C,C,65,315,299.25,1,,Enabled,No,"Catalog, Search",Taxable Goods,Yes,No,No,"The tyre AVS dB E70 is a summer car tyre of the Yokohama brand. this tyre is great for those looking for comfort and quiet. Designed to ensure maximum comfort the AVS dB range will suprise many with it's superb handling and safety features exceeding expectations in nearly all areas. With great perfomance in both the wet and the dry conditions, the AVS dB E70 is a great choice for those not convinced of the benefits of winter tyres yet.",,,,,,,,,,100,0,1,0,0,1,1,1,0,1,1,,,1,0,1,0,1,0,1,0,0,0,1,AVS db E70D,0,simple,,
admin,base,Tyre,simple,42,YOK-1335175/70R13-AA01TL,0,A.drive AA01,,,/yokohama_a.driveaa01.jpeg,/yokohama_a.driveaa01.jpeg,/yokohama_a.driveaa01.jpeg,,,,No layout updates,Product Info Column,,,,,Use config,Use config,No,175,70,175/70 R13,13,,,2017,Black Wall,82 H,,2017,C,C,65,225,213.75,1,,Enabled,No,"Catalog, Search",Taxable Goods,Yes,No,No,"Yokohama A.DRIVE AA01 is a Conventional tyre designed for good fuel economy, high mileage and good braking. It is developed to satisfy safety-conscious drivers, and designed with a construction that evenly distributes the tyres all important contact pressure, resulting in better even tread wear properties. The unique design of the tyre also allows for a larger contact area for better traction and stronger grip.",,,,,,,,,,100,0,1,0,0,1,1,1,0,1,1,,,1,0,1,0,1,0,1,0,0,0,1,A.drive AA01,0,simple,,
admin,base,Tyre,simple,42,YOK-1335175/70R13-AA01TL-2016,0,A.drive AA01,,,/yokohama_a.driveaa01.jpeg,/yokohama_a.driveaa01.jpeg,/yokohama_a.driveaa01.jpeg,,,,No layout updates,Product Info Column,,,,,Use config,Use config,No,175,70,175/70 R13,13,,,2017,Black Wall,82 H,,2017,C,C,65,251,238.45,1,,Enabled,No,"Catalog, Search",Taxable Goods,Yes,No,No,"Yokohama A.DRIVE AA01 is a Conventional tyre designed for good fuel economy, high mileage and good braking. It is developed to satisfy safety-conscious drivers, and designed with a construction that evenly distributes the tyres all important contact pressure, resulting in better even tread wear properties. The unique design of the tyre also allows for a larger contact area for better traction and stronger grip.",,,,,,,,,,100,0,1,0,0,1,1,1,0,1,1,,,1,0,1,0,1,0,1,0,0,0,1,A.drive AA01,0,simple,,
admin,base,Tyre,simple,42,YOK-1335175/70R14-S207TL,0,S207,,,/yokohama_s207.jpg,/yokohama_s207.jpg,/yokohama_s207.jpg,,,,No layout updates,Product Info Column,,,,,Use config,Use config,No,175,70,175/70 R14,14,,,2017,Black Wall,84 H,,2017,C,C,65,252,239.4,1,,Enabled,No,"Catalog, Search",Taxable Goods,Yes,No,No,The tyre S207 is a summer car tyre of the Yokohama brand. Yokohama delivers outstanding Tyres for all aspects of performance in all conditions. That is why numerous premium car manufacturers provide factory equipped vehicles with Yokohama products.,,,,,,,,,,100,0,1,0,0,1,1,1,0,1,1,,,1,0,1,0,1,0,1,0,0,0,1,S207,0,simple,,
admin,base,Tyre,simple,42,YOK-1335175/70R14-S207TL-2016,0,S207,,,/yokohama_s207.jpg,/yokohama_s207.jpg,/yokohama_s207.jpg,,,,No layout updates,Product Info Column,,,,,Use config,Use config,No,175,70,175/70 R14,14,,,2017,Black Wall,84 H,,2017,C,C,65,270,256.5,1,,Enabled,No,"Catalog, Search",Taxable Goods,Yes,No,No,The tyre S207 is a summer car tyre of the Yokohama brand. Yokohama delivers outstanding Tyres for all aspects of performance in all conditions. That is why numerous premium car manufacturers provide factory equipped vehicles with Yokohama products.,,,,,,,,,,100,0,1,0,0,1,1,1,0,1,1,,,1,0,1,0,1,0,1,0,0,0,1,S207,0,simple,,
admin,base,Tyre,simple,42,YOK-1335185/65R14-AA01TL,0,A.drive AA01,,,/yokohama_a.driveaa01.jpeg,/yokohama_a.driveaa01.jpeg,/yokohama_a.driveaa01.jpeg,,,,No layout updates,Product Info Column,,,,,Use config,Use config,No,185,65,185/65 R14,14,,,2017,Black Wall,86 H,,2017,C,C,65,265,251.75,1,,Enabled,No,"Catalog, Search",Taxable Goods,Yes,No,No,"Yokohama A.DRIVE AA01 is a Conventional tyre designed for good fuel economy, high mileage and good braking. It is developed to satisfy safety-conscious drivers, and designed with a construction that evenly distributes the tyres all important contact pressure, resulting in better even tread wear properties. The unique design of the tyre also allows for a larger contact area for better traction and stronger grip.",,,,,,,,,,100,0,1,0,0,1,1,1,0,1,1,,,1,0,1,0,1,0,1,0,0,0,1,A.drive AA01,0,simple,,
admin,base,Tyre,simple,42,YOK-1335185/65R14-AA01TL-2016,0,A.drive AA01,,,/yokohama_a.driveaa01.jpeg,/yokohama_a.driveaa01.jpeg,/yokohama_a.driveaa01.jpeg,,,,No layout updates,Product Info Column,,,,,Use config,Use config,No,185,65,185/65 R14,14,,,2017,Black Wall,86 H,,2017,C,C,65,291,276.45,1,,Enabled,No,"Catalog, Search",Taxable Goods,Yes,No,No,"Yokohama A.DRIVE AA01 is a Conventional tyre designed for good fuel economy, high mileage and good braking. It is developed to satisfy safety-conscious drivers, and designed with a construction that evenly distributes the tyres all important contact pressure, resulting in better even tread wear properties. The unique design of the tyre also allows for a larger contact area for better traction and stronger grip.",,,,,,,,,,100,0,1,0,0,1,1,1,0,1,1,,,1,0,1,0,1,0,1,0,0,0,1,A.drive AA01,0,simple,,
admin,base,Tyre,simple,42,YOK-1335185/65R14-AC01TL-2016-TEN,0,A.drive AC01TL,,,/yokohama_a.driveaa01_1.jpeg,/yokohama_a.driveaa01_1.jpeg,/yokohama_a.driveaa01_1.jpeg,,,,No layout updates,Product Info Column,,,,,Use config,Use config,No,185,65,185/65 R14,14,,,2017,Black Wall,86 H,,2017,C,C,65,249,236.55,1,,Enabled,No,"Catalog, Search",Taxable Goods,Yes,No,No,"Yokohama A.DRIVE AC01TL is a Conventional tyre designed for good fuel economy, high mileage and good braking. It is developed to satisfy safety-conscious drivers, and designed with a construction that evenly distributes the tyres all important contact pressure, resulting in better even tread wear properties. The unique design of the tyre also allows for a larger contact area for better traction and stronger grip.",,,,,,,,,,100,0,1,0,0,1,1,1,0,1,1,,,1,0,1,0,1,0,1,0,0,0,1,A.drive AC01TL,0,simple,,
admin,base,Tyre,simple,42,YOK-1335185/65R15-AC01TL,0,C.drive AC01,,,/yokohama_a.driveaa01_2.jpeg,/yokohama_a.driveaa01_2.jpeg,/yokohama_a.driveaa01_2.jpeg,,,,No layout updates,Product Info Column,,,,,Use config,Use config,No,185,65,185/65 R15,15,,,2017,Black Wall,88 H,,2017,C,C,65,299,284.05,1,,Enabled,No,"Catalog, Search",Taxable Goods,Yes,No,No,"Yokohama A.DRIVE AC01TL is a Conventional tyre designed for good fuel economy, high mileage and good braking. It is developed to satisfy safety-conscious drivers, and designed with a construction that evenly distributes the tyres all important contact pressure, resulting in better even tread wear properties. The unique design of the tyre also allows for a larger contact area for better traction and stronger grip.",,,,,,,,,,100,0,1,0,0,1,1,1,0,1,1,,,1,0,1,0,1,0,1,0,0,0,1,C.drive AC01,0,simple,,
admin,base,Tyre,simple,42,YOK-1335185/65R15-AC01TL-2016,0,C.drive AC01,,,/yokohama_a.driveaa01_2.jpeg,/yokohama_a.driveaa01_2.jpeg,/yokohama_a.driveaa01_2.jpeg,,,,No layout updates,Product Info Column,,,,,Use config,Use config,No,185,65,185/65 R15,15,,,2017,Black Wall,88 H,,2017,C,C,65,333,316.35,1,,Enabled,No,"Catalog, Search",Taxable Goods,Yes,No,No,"Yokohama A.DRIVE AC01TL is a Conventional tyre designed for good fuel economy, high mileage and good braking. It is developed to satisfy safety-conscious drivers, and designed with a construction that evenly distributes the tyres all important contact pressure, resulting in better even tread wear properties. The unique design of the tyre also allows for a larger contact area for better traction and stronger grip.",,,,,,,,,,100,0,1,0,0,1,1,1,0,1,1,,,1,0,1,0,1,0,1,0,0,0,1,C.drive AC01,0,simple,,
admin,base,Tyre,simple,42,YOK-1335185/70R14-AA01TL-2016,0,A.drive AA01,,,/yokohama_a.driveaa01.jpeg,/yokohama_a.driveaa01.jpeg,/yokohama_a.driveaa01.jpeg,,,,No layout updates,Product Info Column,,,,,Use config,Use config,No,185,70,185/70 R14,14,,,2017,Black Wall,88 H,,2017,C,C,65,268,254.6,1,,Enabled,No,"Catalog, Search",Taxable Goods,Yes,No,No,"Yokohama A.DRIVE AA01 is a Conventional tyre designed for good fuel economy, high mileage and good braking. It is developed to satisfy safety-conscious drivers, and designed with a construction that evenly distributes the tyres all important contact pressure, resulting in better even tread wear properties. The unique design of the tyre also allows for a larger contact area for better traction and stronger grip.",,,,,,,,,,100,0,1,0,0,1,1,1,0,1,1,,,1,0,1,0,1,0,1,0,0,0,1,A.drive AA01,0,simple,,
admin,base,Tyre,simple,42,YOK-1335195/50R16-V105TL,0,V105STL,,,/yokohama_advansportv103_2_1.jpg,/yokohama_advansportv103_2_1.jpg,/yokohama_advansportv103_2_1.jpg,,,,No layout updates,Product Info Column,,,,,Use config,Use config,No,195,50,195/50 R16,16,,,2017,Black Wall,-- --,,2017,C,C,65,,,1,,Enabled,No,"Catalog, Search",Taxable Goods,Yes,No,No,"V105STL tyre has 5 Pitch Variation Tread Design Low tyre and cabin noise. Rayon Carcass Construction Strong and durable enabling high speed, cornering and stability. Exclusive Rubber Compound Flexible, durable, superior grip in wide temperature range. 4 Wide Straight Grooves Removes water from under tyre increasing wet grip.",,,,,,,,,,100,0,1,0,0,1,1,1,0,1,1,,,1,0,1,0,1,0,1,0,0,0,1,V105STL,0,simple,,
admin,base,Tyre,simple,42,YOK-1335195/65R15-AA01TL,0,A.drive AA01,,,/yokohama_a.driveaa01.jpeg,/yokohama_a.driveaa01.jpeg,/yokohama_a.driveaa01.jpeg,,,,No layout updates,Product Info Column,,,,,Use config,Use config,No,195,65,195/65 R15,15,,,2017,Black Wall,91 H,,2017,C,C,65,290,275.5,1,,Enabled,No,"Catalog, Search",Taxable Goods,Yes,No,No,"Yokohama A.DRIVE AA01 is a Conventional tyre designed for good fuel economy, high mileage and good braking. It is developed to satisfy safety-conscious drivers, and designed with a construction that evenly distributes the tyres all important contact pressure, resulting in better even tread wear properties. The unique design of the tyre also allows for a larger contact area for better traction and stronger grip.",,,,,,,,,,100,0,1,0,0,1,1,1,0,1,1,,,1,0,1,0,1,0,1,0,0,0,1,A.drive AA01,0,simple,,
admin,base,Tyre,simple,42,YOK-1335195/65R15-A349TL,0,A349TL,,,/yokohama_aspeca349_4.jpg,/yokohama_aspeca349_4.jpg,/yokohama_aspeca349_4.jpg,,,,No layout updates,Product Info Column,,,,,Use config,Use config,No,195,65,195/65 R15,15,,,2017,Black Wall,91 V,,2017,C,C,65,298,283.1,1,,Enabled,No,"Catalog, Search",Taxable Goods,Yes,No,No,"The Yokohama tyres A349 is a low profile radial tyre that blends sporty performance with comfort, quietness and economy. High traction tread based on new silica compound provides excellent wet surface grip, while the anti wear properties and dry surface performance remain on a high level.",,,,,,,,,,100,0,1,0,0,1,1,1,0,1,1,,,1,0,1,0,1,0,1,0,0,0,1,A349TL,0,simple,,
admin,base,Tyre,simple,42,YOK-1335195/65R15-A349TL-2016,0,A349TL,,,/yokohama_aspeca349_4.jpg,/yokohama_aspeca349_4.jpg,/yokohama_aspeca349_4.jpg,,,,No layout updates,Product Info Column,,,,,Use config,Use config,No,195,65,195/65 R15,15,,,2017,Black Wall,91 V,,2017,C,C,65,333,316.35,1,,Enabled,No,"Catalog, Search",Taxable Goods,Yes,No,No,"The Yokohama tyres A349 is a low profile radial tyre that blends sporty performance with comfort, quietness and economy. High traction tread based on new silica compound provides excellent wet surface grip, while the anti wear properties and dry surface performance remain on a high level.",,,,,,,,,,100,0,1,0,0,1,1,1,0,1,1,,,1,0,1,0,1,0,1,0,0,0,1,A349TL,0,simple,,
admin,base,Tyre,simple,42,YOK-1335195/65R15-A349ATL-2016-TEN,0,ASPEC A349A,,,/yokohama_aspeca349.jpg,/yokohama_aspeca349.jpg,/yokohama_aspeca349.jpg,,,,No layout updates,Product Info Column,,,,,Use config,Use config,No,195,65,195/65 R15,15,,,2017,Black Wall,91 V,,2017,C,C,65,294,279.3,1,,Enabled,No,"Catalog, Search",Taxable Goods,Yes,No,No,"The Yokohama tyres A349 is a low profile radial tyre that blends sporty performance with comfort, quietness and economy. High traction tread based on new silica compound provides excellent wet surface grip, while the anti wear properties and dry surface performance remain on a high level.",,,,,,,,,,100,0,1,0,0,1,1,1,0,1,1,,,1,0,1,0,1,0,1,0,0,0,1,ASPEC A349A,0,simple,,
admin,base,Tyre,simple,42,YOK-1335195/65R15-A349ATL,0,ASPEC A349A,,,/yokohama_aspeca349.jpg,/yokohama_aspeca349.jpg,/yokohama_aspeca349.jpg,,,,No layout updates,Product Info Column,,,,,Use config,Use config,No,195,65,195/65 R15,15,,,2017,Black Wall,91 V,,2017,C,C,65,295,280.25,1,,Enabled,No,"Catalog, Search",Taxable Goods,Yes,No,No,"The Yokohama tyres A349 is a low profile radial tyre that blends sporty performance with comfort, quietness and economy. High traction tread based on new silica compound provides excellent wet surface grip, while the anti wear properties and dry surface performance remain on a high level.",,,,,,,,,,100,0,1,0,0,1,1,1,0,1,1,,,1,0,1,0,1,0,1,0,0,0,1,ASPEC A349A,0,simple,,
admin,base,Tyre,simple,42,YOK-1335195/65R15-AC01TL-2016,0,C Drive AC01TL,,,/yokohama_aspeca349_1.jpg,/yokohama_aspeca349_1.jpg,/yokohama_aspeca349_1.jpg,,,,No layout updates,Product Info Column,,,,,Use config,Use config,No,195,65,195/65 R15,15,,,2017,Black Wall,95 H,,2017,C,C,65,333,316.35,1,,Enabled,No,"Catalog, Search",Taxable Goods,Yes,No,No,"The Yokohama tyres AC01TL is a low profile radial tyre that blends sporty performance with comfort, quietness and economy. High traction tread based on new silica compound provides excellent wet surface grip, while the anti wear properties and dry surface performance remain on a high level.",,,,,,,,,,100,0,1,0,0,1,1,1,0,1,1,,,1,0,1,0,1,0,1,0,0,0,1,C Drive AC01TL,0,simple,,
