sku,name,country_of_manufacture,width,ratio,diameter,serv_desc,sidewall_style,production_year,fuel,weather,sound,size,price,special_price,description,short_description
BS300001,110/108 RLT,,205,,16,,Black Wall,2017,B,C,65,205R16,370,,Bridgestone,Bridgestone
BS300002,RE050A RFT,,225,35,19,88Y,Black Wall,2017,B,C,65,225/35,693,,Bridgestone,Bridgestone
BS300003,S001 RFT,,225,40,18,,Black Wall,2017,B,C,65,225/40,393,,Bridgestone,Bridgestone
BS300004,RE050A RFT,,225,40,18,88W,Black Wall,2017,B,C,65,225/40,323,,Bridgestone,Bridgestone
BS300005,T001,,225,40,18,92Y,Black Wall,2017,B,C,65,225/40,370,,Bridgestone,Bridgestone
BS300006,S001  RFT*,,225,40,18,92Y,Black Wall,2017,B,C,65,225/40,462,,Bridgestone,Bridgestone
BS300007,S001 MO,,225,40,18,92Y,Black Wall,2017,B,C,65,225/40,497,,Bridgestone,Bridgestone
BS300008,RE050A+ RF,,225,45,17,91V,Black Wall,2017,B,C,65,225/45,491,,Bridgestone,Bridgestone
BS300009,ER300,,225,45,17,91Y,Black Wall,2017,B,C,65,225/45,254,,Bridgestone,Bridgestone
BS300010,RE-050*RFT,,225,50,16,92W,Black Wall,2017,B,C,65,225/50,681,,Bridgestone,Bridgestone
BS300011,DHT 684(2),,225,65,17,102T,Black Wall,2017,B,C,65,225/65,358,,Bridgestone,Bridgestone
BS300012,DUEL SPORT,,235,65,18,106H,Black Wall,2017,B,C,65,235/65,450,,Bridgestone,Bridgestone
BS300013,RU POTENZA,,245,35,20,95Y,Black Wall,2017,B,C,65,245/35,809,,Bridgestone,Bridgestone
BS300014,RE050A -20,,245,40,19,94W,Black Wall,2017,B,C,65,245/40,589,,Bridgestone,Bridgestone
BS300015,TURANZA ER,,245,40,19,94Y,Black Wall,2017,B,C,65,245/40,970,,Bridgestone,Bridgestone
BS300016,RE050A RFT,,245,45,17,95W,Black Wall,2017,B,C,65,245/45,624,,Bridgestone,Bridgestone
BS300017,GR90,,245,45,18,96W,Black Wall,2017,B,C,65,245/45,491,,Bridgestone,Bridgestone
BS300018,TG90 FZT,,245,45,18,TG90,Black Wall,2017,B,C,65,245/45,560,,Bridgestone,Bridgestone
BS300019,G90FZ,,245,45,19,98W,Black Wall,2017,B,C,65,245/45,583,,Bridgestone,Bridgestone
BS300020,RE050A *RF,,255,30,19,91Y,Black Wall,2017,B,C,65,255/30,843,,Bridgestone,Bridgestone
BS300021,POTENZA RE050A RFT,,255,30,19,91Y,Black Wall,2017,B,C,65,255/30,601,,Bridgestone,Bridgestone
BS300022,S001,,255,35,18,,Black Wall,2017,B,C,65,255/35,589,,Bridgestone,Bridgestone
BS300023,DUELER SPORT MO,,255,40,20,101W,Black Wall,2017,B,C,65,255/40,739,,Bridgestone,Bridgestone
BS300024,DLR ALENZA,,255,55,20,107H,Black Wall,2017,B,C,65,255/55,728,,Bridgestone,Bridgestone
BS300025,112/110S 840,,255,70,15,,Black Wall,2017,B,C,65,255/70,404,,Bridgestone,Bridgestone
BS300026,DLR HT 840,,265,65,17,112S,Black Wall,2017,B,C,65,265/65,433,,Bridgestone,Bridgestone
BS300027,D684 II BW,,265,65,18,112T,Black Wall,2017,B,C,65,265/65,289,,Bridgestone,Bridgestone
BS300028,RE050A *RF,,275,35,18,95W,Black Wall,2017,B,C,65,275/35,901,,Bridgestone,Bridgestone
BS300029,RE050A RFT,,275,35,19,96W,Black Wall,2017,B,C,65,275/35,1063,,Bridgestone,Bridgestone
BS300030,TURANZA ER300 RFT*,,275,35,19,96Y,Black Wall,2017,B,C,65,275/35,1259,,Bridgestone,Bridgestone
BS300031,RE050A RFT,,275,40,18,99W,Black Wall,2017,B,C,65,275/40,970,,Bridgestone,Bridgestone
BS300032,DUEL SPORT RFT,,275,40,20,106W,Black Wall,2017,B,C,65,275/40,889,,Bridgestone,Bridgestone
BS300033,DHPAHZ( RF),,275,40,20,106W,Black Wall,2017,B,C,65,275/40,1051,,Bridgestone,Bridgestone
BS300034,D SPORT HP,,275,45,20,110W,Black Wall,2017,B,C,65,275/45,693,,Bridgestone,Bridgestone
BS300035,D684,,275,50,22,111H,Black Wall,2017,B,C,65,275/50,809,,Bridgestone,Bridgestone
BS300036,DLR ALZ HL BW,,275,55,20,111S,Black Wall,2017,B,C,65,275/55,543,,Bridgestone,Bridgestone
BS300037,DUELER D68,,275,60,20,114H,Black Wall,2017,B,C,65,275/60,693,,Bridgestone,Bridgestone
BS300038,D684,,275,60,20,115H,Black Wall,2017,B,C,65,275/60,843,,Bridgestone,Bridgestone
BS300039,D850,,275,65,17,,Black Wall,2017,B,C,65,275/65,578,,Bridgestone,Bridgestone
BS300040,D840,,275,70,16,114H,Black Wall,2017,B,C,65,275/70,578,,Bridgestone,Bridgestone
BS300041,DLR ALENZA,,285,45,22,110H,Black Wall,2017,B,C,65,285/45,751,,Bridgestone,Bridgestone
BS300042,D850,,285,60,18,116V,Black Wall,2017,B,C,65,285/60,601,,Bridgestone,Bridgestone
BS300043,D850,,285,65,17,,Black Wall,2017,B,C,65,285/65,554,,Bridgestone,Bridgestone
BS300044,RE050A N1,,305,30,19,102Y,Black Wall,2017,B,C,65,305/30,866,,Bridgestone,Bridgestone
BS300045,DHPAHZ( RF),,315,35,20,110W,Black Wall,2017,B,C,65,315/35,1008,960,Bridgestone,Bridgestone
BS300046,230 TT,,750,,16,,Black Wall,2017,B,C,65,750R16,551,525,Bridgestone,Bridgestone
BS300047,,,195,65,15,91H,Black Wall,2017,B,C,65,195/65,196,,Bridgestone,Bridgestone
BS300048,,,195,,15,,Black Wall,2017,B,C,65,195R15,283,,Bridgestone,Bridgestone
BS300049,,,205,70,15,,Black Wall,2017,B,C,65,205/70,306,,Bridgestone,Bridgestone
BS300050,,,215,55,17,,Black Wall,2017,B,C,65,215/55,404,,Bridgestone,Bridgestone
BS300051,,,215,60,16,95V,Black Wall,2017,B,C,65,215/60,347,,Bridgestone,Bridgestone
BS300052,,,215,65,16,,Black Wall,2017,B,C,65,215/65,450,,Bridgestone,Bridgestone
BS300053,,,225,40,18,88W,Black Wall,2017,B,C,65,225/40,647,,Bridgestone,Bridgestone
BS300054,,,225,40,19,89Y,Black Wall,2017,B,C,65,225/40,1086,,Bridgestone,Bridgestone
BS300055,,,225,45,18,91V,Black Wall,2017,B,C,65,225/45,774,,Bridgestone,Bridgestone
BS300056,,,235,40,19,96W,Black Wall,2017,B,C,65,235/40,866,,Bridgestone,Bridgestone
BS300057,,,235,45,19,95V,Black Wall,2017,B,C,65,235/45,751,,Bridgestone,Bridgestone
BS300058,,,235,45,19,95V,Black Wall,2017,B,C,65,235/45,855,,Bridgestone,Bridgestone
BS300059,,,245,35,20,95Y,Black Wall,2017,B,C,65,245/35,1236,,Bridgestone,Bridgestone
BS300060,,,245,40,19,94W,Black Wall,2017,B,C,65,245/40,578,,Bridgestone,Bridgestone
BS300061,,,245,40,20,95W,Black Wall,2017,B,C,65,245/40,993,,Bridgestone,Bridgestone
BS300062,,,245,40,20,95Y,Black Wall,2017,B,C,65,245/40,993,,Bridgestone,Bridgestone
BS300063,,,245,45,17,95Y,Black Wall,2017,B,C,65,245/45,809,,Bridgestone,Bridgestone
BS300064,,,245,45,19,102Y,Black Wall,2017,B,C,65,245/45,878,,Bridgestone,Bridgestone
BS300065,,,245,65,17,,Black Wall,2017,B,C,65,245/65,554,,Bridgestone,Bridgestone
BS300066,,,245,75,17,,Black Wall,2017,B,C,65,245/75,404,,Bridgestone,Bridgestone
BS300067,,,245,75,17,,Black Wall,2017,B,C,65,245/75,266,,Bridgestone,Bridgestone
BS300068,,,255,30,19,91Y,Black Wall,2017,B,C,65,255/30,936,,Bridgestone,Bridgestone
BS300069,,,255,35,18,90Y,Black Wall,2017,B,C,65,255/35,936,,Bridgestone,Bridgestone
BS300070,,,255,35,18,94Y,Black Wall,2017,B,C,65,255/35,693,,Bridgestone,Bridgestone
BS300071,,,255,35,19,96Y,Black Wall,2017,B,C,65,255/35,780,,Bridgestone,Bridgestone
BS300072,,,255,35,19,96Y,Black Wall,2017,B,C,65,255/35,601,,Bridgestone,Bridgestone
BS300073,,,255,35,20,97Y,Black Wall,2017,B,C,65,255/35,924,,Bridgestone,Bridgestone
BS300074,,,255,35,20,97Y,Black Wall,2017,B,C,65,255/35,676,,Bridgestone,Bridgestone
BS300075,,,265,45,21,104V,Black Wall,2017,B,C,65,265/45,899,,Bridgestone,Bridgestone
BS300076,,,265,50,20,,Black Wall,2017,B,C,65,265/50,809,,Bridgestone,Bridgestone
BS300077,,,265,65,17,112H,Black Wall,2017,B,C,65,265/65,554,,Bridgestone,Bridgestone
BS300078,,,275,30,20,97Y,Black Wall,2017,B,C,65,275/30,1271,,Bridgestone,Bridgestone
BS300079,,,275,40,19,101Y,Black Wall,2017,B,C,65,275/40,1213,,Bridgestone,Bridgestone
BS300080,,,275,40,20,106W,Black Wall,2017,B,C,65,275/40,970,,Bridgestone,Bridgestone
BS300081,,,275,45,20,110Y,Black Wall,2017,B,C,65,275/45,993,,Bridgestone,Bridgestone
BS300082,,,285,35,20,100Y,Black Wall,2017,B,C,65,285/35,1675,,Bridgestone,Bridgestone
BS300083,,,305,30,20,,Black Wall,2017,B,C,65,305/30,0,,Bridgestone,Bridgestone
BS300084,,,315,35,20,110Y,Black Wall,2017,B,C,65,315/35,998,950,Bridgestone,Bridgestone
