sku,short_description
MIC699514,Michelin
MIC887014-ZNQ,Michelin
MIC501268,Michelin
MIC270474-2016,Michelin
MIC270474,Michelin
MIC268293,Michelin
MIC651885,Michelin
MIC285/30R21100Y-ZNQ,Michelin
MIC510217,Michelin
MIC387291-2016,Michelin
MIC387291,Michelin
MIC544381-2016,Michelin
MIC544381-2016,Michelin
MIC574132-2016,Michelin
MIC574132-ZNQ,Michelin
MIC118655-ZNQ,Michelin
MIC978679NO,Michelin
MIC456910-2016,Michelin
MIC456910-2016,Michelin
MIC456910-2016,Michelin
MIC884133,Michelin
MIC429255,Michelin
MIC429255,Michelin
MIC433460-ZNQ,Michelin
MIC224029/AAT,Michelin
MIC815490-2016,Michelin
MIC815490,Michelin
MIC815490-2016,Michelin
MIC815490,Michelin
MIC558923,Michelin
