sku,short_description
DUN50021,Dunlop
DUN50306,Dunlop
DUN55401,Dunlop
DUN60302,Dunlop
DUN60095,Dunlop
DUN213,Dunlop
DUN30005-ZNQ,Dunlop
DUN40172,Dunlop
DUN55400,Dunlop
DUN55010,Dunlop
DUN55518-ARD,Dunlop
DUN55355-ZNQ,Dunlop
DUN55070,Dunlop
DUN60342,Dunlop
DUN60347-ZNQ,Dunlop
DUN65500,Dunlop
DUN701,Dunlop
DUN35305-ZNQ,Dunlop
DUN40173,Dunlop
DUN40303-ZNQ,Dunlop
DUN40019,Dunlop
DUN40302-ZNQ,Dunlop
DUN40018ZNQ,Dunlop
DUN45307,Dunlop
DUN45089,Dunlop
