store,websites,attribute_set,type,category_ids,sku,has_options,name,meta_title,meta_description,url_key,url_path,custom_design,page_layout,options_container,image_label,small_image_label,thumbnail_label,country_of_manufacture,msrp_enabled,msrp_display_actual_price_type,gift_message_available,width,ratio,diameter,car_make,car_model,car_year,sidewall_style,serv_desc,utqg,production_year,fuel,weather,sound,size,price,special_price,weight,msrp,status,is_recurring,visibility,tax_class_id,passenger,tyres4_4,vantyres,description,short_description,meta_keyword,custom_layout_update,special_from_date,special_to_date,news_from_date,news_to_date,custom_design_from,custom_design_to,qty,min_qty,use_config_min_qty,is_qty_decimal,backorders,use_config_backorders,min_sale_qty,use_config_min_sale_qty,max_sale_qty,use_config_max_sale_qty,is_in_stock,low_stock_date,notify_stock_qty,use_config_notify_stock_qty,manage_stock,use_config_manage_stock,stock_status_changed_auto,use_config_qty_increments,qty_increments,use_config_enable_qty_inc,enable_qty_increments,is_decimal_divided,stock_status_changed_automatically,use_config_enable_qty_increments,product_name,store_id,product_type_id,product_status_changed,product_changed_websites,website,_media_image,_media_lable,_media_position,_media_is_disabled
admin,base,Tyre,simple,38,PIR0060,0,PZERO - 201,,,,,,No layout updates,Product Info Column,,,,,Use config,,,245,45,20,,,,Black Wall,103Y,,2017,B,C,65,245/45,658.35,,0,,Enabled,No,"Catalog, Search",Taxable Goods,Yes,No,No,Pirelli,Pirelli,,,,,,,,,100,0,1,0,0,1,1,1,0,1,1,,,1,0,1,0,1,0,1,0,0,0,1,PZERO - 201,0,simple,,,,,,,
admin,base,Tyre,simple,38,PIR0061,0,P7 CINT.AS *RFT -,,,,,,No layout updates,Product Info Column,,,,,Use config,,,245,50,18,,,,Black Wall,100V,,2017,B,C,65,245/50,808.5,,0,,Enabled,No,"Catalog, Search",Taxable Goods,Yes,No,No,Pirelli,Pirelli,,,,,,,,,100,0,1,0,0,1,1,1,0,1,1,,,1,0,1,0,1,0,1,0,0,0,1,P7 CINT.AS *RFT -,0,simple,,,,,,,
admin,base,Tyre,simple,38,PIR0062,0,SCORPION STR,,,,,,No layout updates,Product Info Column,,,,,Use config,,,245,50,20,,,,Black Wall,102H,,2017,B,C,65,245/50,623.7,,0,,Enabled,No,"Catalog, Search",Taxable Goods,Yes,No,No,Pirelli,Pirelli,,,,,,,,,100,0,1,0,0,1,1,1,0,1,1,,,1,0,1,0,1,0,1,0,0,0,1,SCORPION STR,0,simple,,,,,,,
admin,base,Tyre,simple,38,PIR0063,0,PZERO RFT * ,,,,,,No layout updates,Product Info Column,,,,,Use config,,,255,30,19,,,,Black Wall,91Y,,2017,B,C,65,255/30,1027.95,,0,,Enabled,No,"Catalog, Search",Taxable Goods,Yes,No,No,Pirelli,Pirelli,,,,,,,,,100,0,1,0,0,1,1,1,0,1,1,,,1,0,1,0,1,0,1,0,0,0,1,PZERO RFT * ,0,simple,,,,,,,
admin,base,Tyre,simple,38,PIR0064,0,PZERO RFT * ,,,,,,No layout updates,Product Info Column,,,,,Use config,,,255,30,19,,,,Black Wall,91Y,,2017,B,C,65,255/30,1120.35,,0,,Enabled,No,"Catalog, Search",Taxable Goods,Yes,No,No,Pirelli,Pirelli,,,,,,,,,100,0,1,0,0,1,1,1,0,1,1,,,1,0,1,0,1,0,1,0,0,0,1,PZERO RFT * ,0,simple,,,,,,,
admin,base,Tyre,simple,38,PIR0065,0,PZERO L  ,,,,,,No layout updates,Product Info Column,,,,,Use config,,,255,30,20,,,,Black Wall,92Y,,2017,B,C,65,255/30,1247.4,,0,,Enabled,No,"Catalog, Search",Taxable Goods,Yes,No,No,Pirelli,Pirelli,,,,,,,,,100,0,1,0,0,1,1,1,0,1,1,,,1,0,1,0,1,0,1,0,0,0,1,PZERO L  ,0,simple,,,,,,,
admin,base,Tyre,simple,38,PIR0066,0,PZERO XL MO R01,,,,,,No layout updates,Product Info Column,,,,,Use config,,,255,35,18,,,,Black Wall,94Y,,2017,B,C,65,255/35,577.5,,0,,Enabled,No,"Catalog, Search",Taxable Goods,Yes,No,No,Pirelli,Pirelli,,,,,,,,,100,0,1,0,0,1,1,1,0,1,1,,,1,0,1,0,1,0,1,0,0,0,1,PZERO XL MO R01,0,simple,,,,,,,
admin,base,Tyre,simple,38,PIR0067,0,XL MO  RO1-,,,,,,No layout updates,Product Info Column,,,,,Use config,,,255,35,18,,,,Black Wall,94Y,,2017,B,C,65,255/35,612.15,,0,,Enabled,No,"Catalog, Search",Taxable Goods,Yes,No,No,Pirelli,Pirelli,,,,,,,,,100,0,1,0,0,1,1,1,0,1,1,,,1,0,1,0,1,0,1,0,0,0,1,XL MO  RO1-,0,simple,,,,,,,
admin,base,Tyre,simple,38,PIR0068,0,PZERO XL MO ,,,,,,No layout updates,Product Info Column,,,,,Use config,,,255,35,20,,,,Black Wall,97Y,,2017,B,C,65,255/35,952.88,,0,,Enabled,No,"Catalog, Search",Taxable Goods,Yes,No,No,Pirelli,Pirelli,,,,,,,,,100,0,1,0,0,1,1,1,0,1,1,,,1,0,1,0,1,0,1,0,0,0,1,PZERO XL MO ,0,simple,,,,,,,
admin,base,Tyre,simple,38,PIR0069,0,PZERO,,,,,,No layout updates,Product Info Column,,,,,Use config,,,255,40,19,,,,Black Wall,100Y,,2017,B,C,65,255/40,947.1,,0,,Enabled,No,"Catalog, Search",Taxable Goods,Yes,No,No,Pirelli,Pirelli,,,,,,,,,100,0,1,0,0,1,1,1,0,1,1,,,1,0,1,0,1,0,1,0,0,0,1,PZERO,0,simple,,,,,,,
admin,base,Tyre,simple,38,PIR0070,0,PZERO -,,,,,,No layout updates,Product Info Column,,,,,Use config,,,255,40,19,,,,Black Wall,96W,,2017,B,C,65,255/40,947.1,,0,,Enabled,No,"Catalog, Search",Taxable Goods,Yes,No,No,Pirelli,Pirelli,,,,,,,,,100,0,1,0,0,1,1,1,0,1,1,,,1,0,1,0,1,0,1,0,0,0,1,PZERO -,0,simple,,,,,,,
admin,base,Tyre,simple,38,PIR0071,0,PZERO XL MO ,,,,,,No layout updates,Product Info Column,,,,,Use config,,,255,40,20,,,,Black Wall,101W,,2017,B,C,65,255/40,693,,0,,Enabled,No,"Catalog, Search",Taxable Goods,Yes,No,No,Pirelli,Pirelli,,,,,,,,,100,0,1,0,0,1,1,1,0,1,1,,,1,0,1,0,1,0,1,0,0,0,1,PZERO XL MO ,0,simple,,,,,,,
admin,base,Tyre,simple,38,PIR0072,0,PZERO MO ,,,,,,No layout updates,Product Info Column,,,,,Use config,,,255,40,20,,,,Black Wall,101W,,2017,B,C,65,255/40,993.3,,0,,Enabled,No,"Catalog, Search",Taxable Goods,Yes,No,No,Pirelli,Pirelli,,,,,,,,,100,0,1,0,0,1,1,1,0,1,1,,,1,0,1,0,1,0,1,0,0,0,1,PZERO MO ,0,simple,,,,,,,
admin,base,Tyre,simple,38,PIR0073,0,N1,,,,,,No layout updates,Product Info Column,,,,,Use config,,,255,40,20,,,,Black Wall,101Y,,2017,B,C,65,255/40,1039.5,,0,,Enabled,No,"Catalog, Search",Taxable Goods,Yes,No,No,Pirelli,Pirelli,,,,,,,,,100,0,1,0,0,1,1,1,0,1,1,,,1,0,1,0,1,0,1,0,0,0,1,N1,0,simple,,,,,,,
admin,base,Tyre,simple,38,PIR0074,0,PZERO AO,,,,,,No layout updates,Product Info Column,,,,,Use config,,,255,40,20,,,,Black Wall,101Y,,2017,B,C,65,255/40,1039.5,,0,,Enabled,No,"Catalog, Search",Taxable Goods,Yes,No,No,Pirelli,Pirelli,,,,,,,,,100,0,1,0,0,1,1,1,0,1,1,,,1,0,1,0,1,0,1,0,0,0,1,PZERO AO,0,simple,,,,,,,
admin,base,Tyre,simple,38,PIR0075,0,PZERO AO -,,,,,,No layout updates,Product Info Column,,,,,Use config,,,255,45,18,,,,Black Wall,99Y,,2017,B,C,65,255/45,854.7,,0,,Enabled,No,"Catalog, Search",Taxable Goods,Yes,No,No,Pirelli,Pirelli,,,,,,,,,100,0,1,0,0,1,1,1,0,1,1,,,1,0,1,0,1,0,1,0,0,0,1,PZERO AO -,0,simple,,,,,,,
admin,base,Tyre,simple,38,PIR0076,0,PZERO AO -,,,,,,No layout updates,Product Info Column,,,,,Use config,,,255,45,19,,,,Black Wall,100Y,,2017,B,C,65,255/45,970.2,,0,,Enabled,No,"Catalog, Search",Taxable Goods,Yes,No,No,Pirelli,Pirelli,,,,,,,,,100,0,1,0,0,1,1,1,0,1,1,,,1,0,1,0,1,0,1,0,0,0,1,PZERO AO -,0,simple,,,,,,,
admin,base,Tyre,simple,38,PIR0077,0,SC-VERDE MO ,,,,,,No layout updates,Product Info Column,,,,,Use config,,,255,50,19,,,,Black Wall,103W,,2017,B,C,65,255/50,762.3,,0,,Enabled,No,"Catalog, Search",Taxable Goods,Yes,No,No,Pirelli,Pirelli,,,,,,,,,100,0,1,0,0,1,1,1,0,1,1,,,1,0,1,0,1,0,1,0,0,0,1,SC-VERDE MO ,0,simple,,,,,,,
admin,base,Tyre,simple,38,PIR0078,0,SC-VERDE A/S X,,,,,,No layout updates,Product Info Column,,,,,Use config,,,255,50,20,,,,Black Wall,109H,,2017,B,C,65,255/50,889.35,,0,,Enabled,No,"Catalog, Search",Taxable Goods,Yes,No,No,Pirelli,Pirelli,,,,,,,,,100,0,1,0,0,1,1,1,0,1,1,,,1,0,1,0,1,0,1,0,0,0,1,SC-VERDE A/S X,0,simple,,,,,,,
admin,base,Tyre,simple,38,PIR0079,0,PZERO J,,,,,,No layout updates,Product Info Column,,,,,Use config,,,255,50,20,,,,Black Wall,109W,,2017,B,C,65,255/50,1016.4,,0,,Enabled,No,"Catalog, Search",Taxable Goods,Yes,No,No,Pirelli,Pirelli,,,,,,,,,100,0,1,0,0,1,1,1,0,1,1,,,1,0,1,0,1,0,1,0,0,0,1,PZERO J,0,simple,,,,,,,
admin,base,Tyre,simple,38,PIR0080,0,SCORP VERDE RFT*,,,,,,No layout updates,Product Info Column,,,,,Use config,,,255,55,18,,,,Black Wall,109V,,2017,B,C,65,255/55,808.5,,0,,Enabled,No,"Catalog, Search",Taxable Goods,Yes,No,No,Pirelli,Pirelli,,,,,,,,,100,0,1,0,0,1,1,1,0,1,1,,,1,0,1,0,1,0,1,0,0,0,1,SCORP VERDE RFT*,0,simple,,,,,,,
admin,base,Tyre,simple,38,PIR0081,0,SC-VERDE*,,,,,,No layout updates,Product Info Column,,,,,Use config,,,255,55,18,,,,Black Wall,109V,,2017,B,C,65,255/55,721.88,,0,,Enabled,No,"Catalog, Search",Taxable Goods,Yes,No,No,Pirelli,Pirelli,,,,,,,,,100,0,1,0,0,1,1,1,0,1,1,,,1,0,1,0,1,0,1,0,0,0,1,SC-VERDE*,0,simple,,,,,,,
admin,base,Tyre,simple,38,PIR0082,0,S - STR ,,,,,,No layout updates,Product Info Column,,,,,Use config,,,255,70,18,,,,Black Wall,112H,,2017,B,C,65,255/70,451.5,430,0,,Enabled,No,"Catalog, Search",Taxable Goods,Yes,No,No,Pirelli,Pirelli,,,,,,,,,100,0,1,0,0,1,1,1,0,1,1,,,1,0,1,0,1,0,1,0,0,0,1,S - STR ,0,simple,,,,,,,
admin,base,Tyre,simple,38,PIR0083,0,PZERO RO1 NCS (SI,,,,,,No layout updates,Product Info Column,,,,,Use config,,,265,30,21,,,,Black Wall,96Y,,2017,B,C,65,265/30,1449,"1,380.00",0,,Enabled,No,"Catalog, Search",Taxable Goods,Yes,No,No,Pirelli,Pirelli,,,,,,,,,100,0,1,0,0,1,1,1,0,1,1,,,1,0,1,0,1,0,1,0,0,0,1,PZERO RO1 NCS (SI,0,simple,,,,,,,
admin,base,Tyre,simple,38,PIR0084,0,PZERO XL MO  -201,,,,,,No layout updates,Product Info Column,,,,,Use config,,,265,35,18,,,,Black Wall,97Y,,2017,B,C,65,265/35,672,640,0,,Enabled,No,"Catalog, Search",Taxable Goods,Yes,No,No,Pirelli,Pirelli,,,,,,,,,100,0,1,0,0,1,1,1,0,1,1,,,1,0,1,0,1,0,1,0,0,0,1,PZERO XL MO  -201,0,simple,,,,,,,
admin,base,Tyre,simple,38,PIR0085,0,P-ZERO N2,,,,,,No layout updates,Product Info Column,,,,,Use config,,,265,35,19,,,,Black Wall,94Y,,2017,B,C,65,265/35,819,780,0,,Enabled,No,"Catalog, Search",Taxable Goods,Yes,No,No,Pirelli,Pirelli,,,,,,,,,100,0,1,0,0,1,1,1,0,1,1,,,1,0,1,0,1,0,1,0,0,0,1,P-ZERO N2,0,simple,,,,,,,
admin,base,Tyre,simple,38,PIR0086,0,P-ZERO N2,,,,,,No layout updates,Product Info Column,,,,,Use config,,,265,35,19,,,,Black Wall,94Y,,2017,B,C,65,265/35,1050,"1,000.00",0,,Enabled,No,"Catalog, Search",Taxable Goods,Yes,No,No,Pirelli,Pirelli,,,,,,,,,100,0,1,0,0,1,1,1,0,1,1,,,1,0,1,0,1,0,1,0,0,0,1,P-ZERO N2,0,simple,,,,,,,
admin,base,Tyre,simple,38,PIR0087,0,P-ZERO PZ4 XL,,,,,,No layout updates,Product Info Column,,,,,Use config,,,265,35,21,,,,Black Wall,101Y,,2017,B,C,65,265/35,1029,980,0,,Enabled,No,"Catalog, Search",Taxable Goods,Yes,No,No,Pirelli,Pirelli,,,,,,,,,100,0,1,0,0,1,1,1,0,1,1,,,1,0,1,0,1,0,1,0,0,0,1,P-ZERO PZ4 XL,0,simple,,,,,,,
admin,base,Tyre,simple,38,PIR0088,0,02Y PZERO ,,,,,,No layout updates,Product Info Column,,,,,Use config,,,265,40,19,,,,Black Wall,102Y,,2017,B,C,65,265/40,1050,"1,000.00",0,,Enabled,No,"Catalog, Search",Taxable Goods,Yes,No,No,Pirelli,Pirelli,,,,,,,,,100,0,1,0,0,1,1,1,0,1,1,,,1,0,1,0,1,0,1,0,0,0,1,02Y PZERO ,0,simple,,,,,,,
admin,base,Tyre,simple,38,PIR0089,0,PZERO NERO  AO -,,,,,,No layout updates,Product Info Column,,,,,Use config,,,265,40,20,,,,Black Wall,104H,,2017,B,C,65,265/40,787.5,750,0,,Enabled,No,"Catalog, Search",Taxable Goods,Yes,No,No,Pirelli,Pirelli,,,,,,,,,100,0,1,0,0,1,1,1,0,1,1,,,1,0,1,0,1,0,1,0,0,0,1,PZERO NERO  AO -,0,simple,,,,,,,
