sku,image,small_image,thumbnail
NEX-10171,/nexen/s-l225.jpg,/nexen/s-l225.jpg,/nexen/s-l225.jpg
NEX-10172,/nexen/51q-A6D3glL._SY355_.jpg,/nexen/51q-A6D3glL._SY355_.jpg,/nexen/51q-A6D3glL._SY355_.jpg
NEX-10173,/nexen/51q-A6D3glL._SY355_.jpg,/nexen/51q-A6D3glL._SY355_.jpg,/nexen/51q-A6D3glL._SY355_.jpg
NEX-10174,/nexen/s-l225.jpg,/nexen/s-l225.jpg,/nexen/s-l225.jpg
NEX-10175,/nexen/51q-A6D3glL._SY355_.jpg,/nexen/51q-A6D3glL._SY355_.jpg,/nexen/51q-A6D3glL._SY355_.jpg
NEX-10176,/nexen/51q-A6D3glL._SY355_.jpg,/nexen/51q-A6D3glL._SY355_.jpg,/nexen/51q-A6D3glL._SY355_.jpg
NEX-10177,/nexen/llantas-nexen-CP672_1.jpg,/nexen/llantas-nexen-CP672_1.jpg,/nexen/llantas-nexen-CP672_1.jpg
NEX-10178,/nexen/nexen-tire-n-blue-hd-plus-215-60-r17-96h.png,/nexen/nexen-tire-n-blue-hd-plus-215-60-r17-96h.png,/nexen/nexen-tire-n-blue-hd-plus-215-60-r17-96h.png
NEX-10179,/nexen/CP521.jpg,/nexen/CP521.jpg,/nexen/CP521.jpg
NEX-10180,/nexen/nexen-nfera-sU1.jpg,/nexen/nexen-nfera-sU1.jpg,/nexen/nexen-nfera-sU1.jpg
NEX-10181,/nexen/51Kr%2B7o17QL._SY450_.jpg,/nexen/51Kr%2B7o17QL._SY450_.jpg,/nexen/51Kr%2B7o17QL._SY450_.jpg
NEX-10182,/nexen/51Kr%2B7o17QL._SY450_.jpg,/nexen/51Kr%2B7o17QL._SY450_.jpg,/nexen/51Kr%2B7o17QL._SY450_.jpg
NEX-10183,/nexen/nexen-nfera-sU1.jpg,/nexen/nexen-nfera-sU1.jpg,/nexen/nexen-nfera-sU1.jpg
NEX-10184,/nexen/Nexen-N-Blue-ECO.jpg,/nexen/Nexen-N-Blue-ECO.jpg,/nexen/Nexen-N-Blue-ECO.jpg
NEX-10185,/nexen/CP672-angle.jpg,/nexen/CP672-angle.jpg,/nexen/CP672-angle.jpg
NEX-10186,/nexen/s-l225.jpg,/nexen/s-l225.jpg,/nexen/s-l225.jpg
NEX-10187,/nexen/ca27f473-f9cd-4c30-a04e-a0907a9d1fd6_1.a8f1942900a1ccb946dbc041022e90a2.jpeg?odnHeight=450&odnWidth=450&odnBg=FFFFFF,/nexen/ca27f473-f9cd-4c30-a04e-a0907a9d1fd6_1.a8f1942900a1ccb946dbc041022e90a2.jpeg?odnHeight=450&odnWidth=450&odnBg=FFFFFF,/nexen/ca27f473-f9cd-4c30-a04e-a0907a9d1fd6_1.a8f1942900a1ccb946dbc041022e90a2.jpeg?odnHeight=450&odnWidth=450&odnBg=FFFFFF
NEX-10188,/nexen/s-l225.jpg,/nexen/s-l225.jpg,/nexen/s-l225.jpg
NEX-10189,/nexen/0Sjk9kpTURBXy83NDRhM2VlMGMxOWExYmUxODFkMTEyYTVmYzQ1YjQ3Yi5qcGeQgQEB,/nexen/0Sjk9kpTURBXy83NDRhM2VlMGMxOWExYmUxODFkMTEyYTVmYzQ1YjQ3Yi5qcGeQgQEB,/nexen/0Sjk9kpTURBXy83NDRhM2VlMGMxOWExYmUxODFkMTEyYTVmYzQ1YjQ3Yi5qcGeQgQEB
NEX-10190,/nexen/Nexen-CP672--225-60R18-99H--2294313.jpg,/nexen/Nexen-CP672--225-60R18-99H--2294313.jpg,/nexen/Nexen-CP672--225-60R18-99H--2294313.jpg
NEX-10191,/nexen/8663af495d78c84bf34abf61c8027f0b.jpg,/nexen/8663af495d78c84bf34abf61c8027f0b.jpg,/nexen/8663af495d78c84bf34abf61c8027f0b.jpg
NEX-10192,/nexen/$_58.JPG,/nexen/$_58.JPG,/nexen/$_58.JPG
NEX-10193,/nexen/0859656c-707d-40f5-8537-994671710faa_1.05075fef62f8aa23c7d43c70e261b759.jpeg?odnHeight=450&odnWidth=450&odnBg=FFFFFF,/nexen/0859656c-707d-40f5-8537-994671710faa_1.05075fef62f8aa23c7d43c70e261b759.jpeg?odnHeight=450&odnWidth=450&odnBg=FFFFFF,/nexen/0859656c-707d-40f5-8537-994671710faa_1.05075fef62f8aa23c7d43c70e261b759.jpeg?odnHeight=450&odnWidth=450&odnBg=FFFFFF
NEX-10194,/nexen/NEXEN-NFERA-AU5-Tyres.jpg,/nexen/NEXEN-NFERA-AU5-Tyres.jpg,/nexen/NEXEN-NFERA-AU5-Tyres.jpg
NEX-10195,/nexen/NEXEN_N_FERA_SU1.png,/nexen/NEXEN_N_FERA_SU1.png,/nexen/NEXEN_N_FERA_SU1.png
NEX-10196,/nexen/N-Blue-HD-Plus_146.jpg,/nexen/N-Blue-HD-Plus_146.jpg,/nexen/N-Blue-HD-Plus_146.jpg
NEX-10197,/nexen/NEXEN-NFERA-AU5_lg_super.jpg,/nexen/NEXEN-NFERA-AU5_lg_super.jpg,/nexen/NEXEN-NFERA-AU5_lg_super.jpg
NEX-10198,/nexen/NEXEN-NFERA-AU5_lg_super.jpg,/nexen/NEXEN-NFERA-AU5_lg_super.jpg,/nexen/NEXEN-NFERA-AU5_lg_super.jpg
NEX-10199,/nexen/NEXEN-NFERA-AU5_lg_super.jpg,/nexen/NEXEN-NFERA-AU5_lg_super.jpg,/nexen/NEXEN-NFERA-AU5_lg_super.jpg
NEX-10200,/nexen/nexen-nfera-sU1.jpg,/nexen/nexen-nfera-sU1.jpg,/nexen/nexen-nfera-sU1.jpg
