sku,name,country_of_manufacture,width,ratio,diameter,serv_desc,sidewall_style,production_year,fuel,weather,sound,size,price,special_price,description,short_description
BFG0001,g-Grip,Poland,185,60,15,84 H,Black Wall,2017,B,C,65,185/60                                 R15,338,,BFGoodrich,BFGoodrich
BFG0002,g-Grip,Poland,195,60,15,88 H,Black Wall,2017,B,C,65,195/60                                 R15,338,,BFGoodrich,BFGoodrich
BFG0003,g-Grip,Poland,195,65,15,91 H,Black Wall,2017,B,C,65,195/65                                 R15,338,,BFGoodrich,BFGoodrich
BFG0004,g-Grip,Poland,205,55,16,91 V,Black Wall,2017,B,C,65,205/55                                 R16,363,,BFGoodrich,BFGoodrich
BFG0005,g-Grip,Poland,205,60,16,92 V,Black Wall,2017,B,C,65,205/60                                 R16,396,,BFGoodrich,BFGoodrich
BFG0006,g-Grip,Poland,215,55,17,94 W,Black Wall,2017,B,C,65,215/55                                 R17,479,,BFGoodrich,BFGoodrich
BFG0007,All Terrain T/A KO2,,235,85,16,120/116 S,Black Wall,2017,B,C,65,235/85                                 R16,1057,,BFGoodrich,BFGoodrich
BFG0008,All Terrain T/A KO2,,245,75,16,120/116 S,Black Wall,2017,B,C,65,245/75                                 R16,1003,,BFGoodrich,BFGoodrich
BFG0009,All Terrain T/A KO2,,265,60,18,119/116 S,Black Wall,2017,B,C,65,265/60                                 R18,1158,,BFGoodrich,BFGoodrich
BFG0010,All Terrain T/A KO2,,265,65,17,120/117 S,Black Wall,2017,B,C,65,265/65                                 R17,1268,,BFGoodrich,BFGoodrich
BFG0011,Long Trail T/A Tour,,265,70,16,111 T,Black Wall,2017,B,C,65,265/70                                 R16,981,,BFGoodrich,BFGoodrich
BFG0012,All Terrain T/A KO2,,265,70,17,121/118 S,Black Wall,2017,B,C,65,265/70                                 R17,1235,,BFGoodrich,BFGoodrich
BFG0013,Rugged Terrain T/A,,265,70,18,114 T,Black Wall,2017,B,C,65,265/70                                 R18,1294,,BFGoodrich,BFGoodrich
BFG0014,All Terrain T/A KO2,,265,75,16,119/116 R,Black Wall,2017,B,C,65,265/75                                 R16,906,,BFGoodrich,BFGoodrich
BFG0015,All Terrain T/A KO2,,275,55,20,,Black Wall,2017,B,C,65,275/55                                 R20,1396,,BFGoodrich,BFGoodrich
BFG0016,All Terrain T/A KO2,,275,70,16,119/116 S,Black Wall,2017,B,C,65,275/70                                 R16,1108,,BFGoodrich,BFGoodrich
BFG0017,All Terrain T/A KO2,,285,70,17,121/118 R,Black Wall,2017,B,C,65,285/70                                 R17,1075,,BFGoodrich,BFGoodrich
BFG0018,All Terrain T/A KO2,,285,75,16,116/113 R,Black Wall,2017,B,C,65,285/75                                 R16,979,,BFGoodrich,BFGoodrich
BFG0019,All Terrain T/A KO2,,33X,12.5,15,108 R,Black Wall,2017,B,C,65,33X/12.5                                 R15,1261,,BFGoodrich,BFGoodrich
