store,websites,attribute_set,type,category_ids,sku,has_options,name,meta_title,meta_description,url_key,url_path,custom_design,page_layout,options_container,image_label,small_image_label,thumbnail_label,country_of_manufacture,msrp_enabled,msrp_display_actual_price_type,gift_message_available,width,ratio,diameter,serv_desc,car_make,car_model,car_year,sidewall_style,utqg,production_year,fuel,weather,sound,size,price,special_price,weight,msrp,status,is_recurring,visibility,tax_class_id,passenger,tyres4_4,vantyres,description,short_description,meta_keyword,custom_layout_update,special_from_date,special_to_date,news_from_date,news_to_date,custom_design_from,custom_design_to,qty,min_qty,use_config_min_qty,is_qty_decimal,backorders,use_config_backorders,min_sale_qty,use_config_min_sale_qty,max_sale_qty,use_config_max_sale_qty,is_in_stock,low_stock_date,notify_stock_qty,use_config_notify_stock_qty,manage_stock,use_config_manage_stock,stock_status_changed_auto,use_config_qty_increments,qty_increments,use_config_enable_qty_inc,enable_qty_increments,is_decimal_divided,stock_status_changed_automatically,use_config_enable_qty_increments,product_name,store_id,product_type_id,product_status_changed,product_changed_websites,website,_media_image,_media_lable,_media_position,_media_is_disabled
admin,base,Tyre,simple,25,CONTI0120,0,,,,,,,No layout updates,Product Info Column,,,,,Use config,,,295,25,20,95Y,,,,Black Wall,,2016,B,C,65,245/45,1260,"1,200.00",0,,Enabled,No,"Catalog, Search",Taxable Goods,Yes,No,No,Continental,Continental,,,,,,,,,100,0,1,0,0,1,1,1,0,1,1,,,1,0,1,0,1,0,1,0,0,0,1,,0,simple,,,,,,,
admin,base,Tyre,simple,25,CONTI0121,0,,,,,,,No layout updates,Product Info Column,,,,,Use config,,,295,25,21,96Y,,,,Black Wall,,2016,B,C,65,285/30,1417.5,"1,350.00",0,,Enabled,No,"Catalog, Search",Taxable Goods,Yes,No,No,Continental,Continental,,,,,,,,,100,0,1,0,0,1,1,1,0,1,1,,,1,0,1,0,1,0,1,0,0,0,1,,0,simple,,,,,,,
admin,base,Tyre,simple,25,CONTI0122,0,,,,,,,No layout updates,Product Info Column,,,,,Use config,,,295,30,19,100Y,,,,Black Wall,,2017,B,C,65,225/50,1029,980,0,,Enabled,No,"Catalog, Search",Taxable Goods,Yes,No,No,Continental,Continental,,,,,,,,,100,0,1,0,0,1,1,1,0,1,1,,,1,0,1,0,1,0,1,0,0,0,1,,0,simple,,,,,,,
admin,base,Tyre,simple,25,CONTI0123,0,,,,,,,No layout updates,Product Info Column,,,,,Use config,,,295,40,21,111W,,,,Black Wall,,2017,B,C,65,235/50,1123.5,"1,070.00",0,,Enabled,No,"Catalog, Search",Taxable Goods,Yes,No,No,Continental,Continental,,,,,,,,,100,0,1,0,0,1,1,1,0,1,1,,,1,0,1,0,1,0,1,0,0,0,1,,0,simple,,,,,,,
admin,base,Tyre,simple,25,CONTI0124,0,,,,,,,No layout updates,Product Info Column,,,,,Use config,,,295,40,21,111Y,,,,Black Wall,,2017,B,C,65,275/30,1071,"1,020.00",0,,Enabled,No,"Catalog, Search",Taxable Goods,Yes,No,No,Continental,Continental,,,,,,,,,100,0,1,0,0,1,1,1,0,1,1,,,1,0,1,0,1,0,1,0,0,0,1,,0,simple,,,,,,,
admin,base,Tyre,simple,25,CONTI0125,0,,,,,,,No layout updates,Product Info Column,,,,,Use config,,,315,30,21,105Y,,,,Black Wall,,2017,B,C,65,225/45,1575,"1,500.00",0,,Enabled,No,"Catalog, Search",Taxable Goods,Yes,No,No,Continental,Continental,,,,,,,,,100,0,1,0,0,1,1,1,0,1,1,,,1,0,1,0,1,0,1,0,0,0,1,,0,simple,,,,,,,
admin,base,Tyre,simple,25,CONTI0126,0,,,,,,,No layout updates,Product Info Column,,,,,Use config,,,315,35,20,110W,,,,Black Wall,,2016,B,C,65,275/40,1050,"1,000.00",0,,Enabled,No,"Catalog, Search",Taxable Goods,Yes,No,No,Continental,Continental,,,,,,,,,100,0,1,0,0,1,1,1,0,1,1,,,1,0,1,0,1,0,1,0,0,0,1,,0,simple,,,,,,,
admin,base,Tyre,simple,25,CONTI0127,0,,,,,,,No layout updates,Product Info Column,,,,,Use config,,,315,35,20,110W,,,,Black Wall,,2017,B,C,65,225/40,1181.25,"1,125.00",0,,Enabled,No,"Catalog, Search",Taxable Goods,Yes,No,No,Continental,Continental,,,,,,,,,100,0,1,0,0,1,1,1,0,1,1,,,1,0,1,0,1,0,1,0,0,0,1,,0,simple,,,,,,,
admin,base,Tyre,simple,25,CONTI0128,0,,,,,,,No layout updates,Product Info Column,,,,,Use config,,,315,40,21,111Y,,,,Black Wall,,2017,B,C,65,275/40,1443.75,"1,375.00",0,,Enabled,No,"Catalog, Search",Taxable Goods,Yes,No,No,Continental,Continental,,,,,,,,,100,0,1,0,0,1,1,1,0,1,1,,,1,0,1,0,1,0,1,0,0,0,1,,0,simple,,,,,,,
admin,base,Tyre,simple,25,CONTI0129,0,,,,,,,No layout updates,Product Info Column,,,,,Use config,,,325,35,22,110Y,,,,Black Wall,,2016,B,C,65,255/30,924,880,0,,Enabled,No,"Catalog, Search",Taxable Goods,Yes,No,No,Continental,Continental,,,,,,,,,100,0,1,0,0,1,1,1,0,1,1,,,1,0,1,0,1,0,1,0,0,0,1,,0,simple,,,,,,,
admin,base,Tyre,simple,25,CONTI0130,0,,,,,,,No layout updates,Product Info Column,,,,,Use config,,,325,35,22,110Y,,,,Black Wall,,2017,B,C,65,285/40,1391.25,"1,325.00",0,,Enabled,No,"Catalog, Search",Taxable Goods,Yes,No,No,Continental,Continental,,,,,,,,,100,0,1,0,0,1,1,1,0,1,1,,,1,0,1,0,1,0,1,0,0,0,1,,0,simple,,,,,,,
admin,base,Tyre,simple,25,CONTI0131,0,,,,,,,No layout updates,Product Info Column,,,,,Use config,,,335,25,22,105Y,,,,Black Wall,,2016,B,C,65,255/45,1365,"1,300.00",0,,Enabled,No,"Catalog, Search",Taxable Goods,Yes,No,No,Continental,Continental,,,,,,,,,100,0,1,0,0,1,1,1,0,1,1,,,1,0,1,0,1,0,1,0,0,0,1,,0,simple,,,,,,,
admin,base,Tyre,simple,25,CONTI0132,0,,,,,,,No layout updates,Product Info Column,,,,,Use config,,,335,25,22,105Y,,,,Black Wall,,2017,B,C,65,255/50,1543.5,"1,470.00",0,,Enabled,No,"Catalog, Search",Taxable Goods,Yes,No,No,Continental,Continental,,,,,,,,,100,0,1,0,0,1,1,1,0,1,1,,,1,0,1,0,1,0,1,0,0,0,1,,0,simple,,,,,,,
