store,websites,attribute_set,type,category_ids,sku,has_options,name,meta_title,meta_description,image,small_image,thumbnail,url_key,url_path,custom_design,page_layout,options_container,image_label,small_image_label,thumbnail_label,country_of_manufacture,msrp_enabled,msrp_display_actual_price_type,gift_message_available,width,ratio,size,diameter,car_make,car_model,car_year,sidewall_style,serv_desc,utqg,production_year,fuel,weather,sound,price,special_price,weight,msrp,status,is_recurring,visibility,tax_class_id,passenger,tyres4_4,vantyres,description,short_description,meta_keyword,custom_layout_update,special_from_date,special_to_date,news_from_date,news_to_date,custom_design_from,custom_design_to,qty,min_qty,use_config_min_qty,is_qty_decimal,backorders,use_config_backorders,min_sale_qty,use_config_min_sale_qty,max_sale_qty,use_config_max_sale_qty,is_in_stock,low_stock_date,notify_stock_qty,use_config_notify_stock_qty,manage_stock,use_config_manage_stock,stock_status_changed_auto,use_config_qty_increments,qty_increments,use_config_enable_qty_inc,enable_qty_increments,is_decimal_divided,stock_status_changed_automatically,use_config_enable_qty_increments,product_name,store_id,product_type_id,product_status_changed,product_changed_websites
admin,base,Tyre,simple,183,DUN45306,,MAXX 050+,,,/max050.png,/max050.png,/max050.png,,,,No layout updates,Product Info Column,,,,,Use config,Use config,No,245,45,245/45 R17,17,,,2017,Black Wall,"99 Y Load Index 99 =  1,708.57lbs (775kg) per tireSpeed Rating = 186.41mph (300kph)",Black Wall,2017,C,C,65,499,474.05,1,,Enabled,No,"Catalog, Search",Taxable Goods,Yes,No,No,"MAX050+ is Dunlops Max Performance Summer tire developed for the drivers of sports cars, sporty coupes and high performance sedans. Dunlop Touch Technology combines sophisticated tire development and manufacturing techniques to enhance road feedback and driving precision. Like all summer tires, the SP Sport Maxx TT is not intended to be driven in near-freezing temperatures, through snow or on ice.",,,,,,,,,,100,0,1,0,0,1,1,1,0,1,1,,,1,0,1,0,1,0,1,0,0,0,1,MAXX 050+,0,simple,,
admin,base,Tyre,simple,163,DUN45017,,Direzza DZ102,,,/dunlop_direzzadz101_2_1_1.jpeg,/dunlop_direzzadz101_2_1_1.jpeg,/dunlop_direzzadz101_2_1_1.jpeg,,,,No layout updates,Product Info Column,,,,,Use config,Use config,No,245,45,245/45 R18,18,,,2016,Black Wall,"100 W Load Index 100 =  1,763.68lbs (800kg) per tireSpeed Rating = 167.77mph (270kph)",Black Wall,2016,C,C,65,429,407.55,1,,Enabled,No,"Catalog, Search",Taxable Goods,Yes,No,No,"The Direzza DZ102 is Dunlops Ultra High Performance Summer tire for the drivers of sport compact cars. The Direzza DZ102 shares the Direzza name with Dunlop racing tires used in the Japanese SUPER GT Championship and was developed to provide crisp and responsive handling. The Direzza DZ102 is not intended to be driven in near-freezing temperatures, through snow or on ice.",,,,,,,,,,100,0,1,0,0,1,1,1,0,1,1,,,1,0,1,0,1,0,1,0,0,0,1,Direzza DZ102,0,simple,,
admin,base,Tyre,simple,183,DUN45304-ZNQ,,MAXX 050+,,,/max050.png,/max050.png,/max050.png,,,,No layout updates,Product Info Column,,,,,Use config,Use config,No,245,45,245/45 R19,19,,,2017,Black Wall,"102 Y Load Index 102 =  1,873.91lbs (850kg) per tireSpeed Rating = 186.41mph (300kph)",Black Wall,2017,C,C,65,629,597.55,1,,Enabled,No,"Catalog, Search",Taxable Goods,Yes,No,No,"MAX050+ is Dunlops Max Performance Summer tire developed for the drivers of sports cars, sporty coupes and high performance sedans. Dunlop Touch Technology combines sophisticated tire development and manufacturing techniques to enhance road feedback and driving precision. Like all summer tires, the SP Sport Maxx TT is not intended to be driven in near-freezing temperatures, through snow or on ice.",,,,,,,,,,100,0,1,0,0,1,1,1,0,1,1,,,1,0,1,0,1,0,1,0,0,0,1,MAXX 050+,0,simple,,
admin,base,Tyre,simple,182,DUN45045,,MAXX 050,,,/max050.png,/max050.png,/max050.png,,,,No layout updates,Product Info Column,,,,,Use config,Use config,No,245,45,245/45 R19,19,,,2016,Black Wall,"98 Y Load Index 98 =  1,653.45lbs (750kg) per tireSpeed Rating = 186.41mph (300kph)",Black Wall,2016,C,C,65,945,897.75,1,,Enabled,No,"Catalog, Search",Taxable Goods,Yes,No,No,"Max Performance Summer tires are for serious driving enthusiasts who want a combination of a performance appearance, competent handling and Z-speed rated (orhigher) durability with enhanced dry and wet traction. Often used as Original Equipment (O.E.) on powerful sports cars, performance coupes and high performancesedans, Max Performance Summer tires are not intended to be driven in near-freezing temperatures, through snow or on ice.",,,,,,,,,,100,0,1,0,0,1,1,1,0,1,1,,,1,0,1,0,1,0,1,0,0,0,1,MAXX 050,0,simple,,
admin,base,Tyre,simple,183,DUN45300-ZNQ,,MAXX 050+,,,/max050.png,/max050.png,/max050.png,,,,No layout updates,Product Info Column,,,,,Use config,Use config,No,245,45,245/45 R20,20,,,2017,Black Wall,"103 Y Load Index 103 =  1,929.03lbs (875kg) per tireSpeed Rating = 186.41mph (300kph)",Black Wall,2017,C,C,65,649,616.55,1,,Enabled,No,"Catalog, Search",Taxable Goods,Yes,No,No,"MAX050 is Dunlops Max Performance Summer tire developed for the drivers of sports cars, sporty coupes and high performance sedans. Dunlop Touch Technology combines sophisticated tire development and manufacturing techniques to enhance road feedback and driving precision. Like all summer tires, the SP Sport Maxx TT is not intended to be driven in near-freezing temperatures, through snow or on ice.",,,,,,,,,,100,0,1,0,0,1,1,1,0,1,1,,,1,0,1,0,1,0,1,0,0,0,1,MAXX 050+,0,simple,,
admin,base,Tyre,simple,177,DUN50132,,MAX GT,,,/dunlop_sportmaxxgt.jpeg,/dunlop_sportmaxxgt.jpeg,/dunlop_sportmaxxgt.jpeg,,,,No layout updates,Product Info Column,,,,,Use config,Use config,No,245,50,245/50 R18,18,,,2017,Run Flat/Black Wall,"100 Y Load Index 100 =  1,763.68lbs (800kg) per tireSpeed Rating = 186.41mph (300kph)",Run Flat/Black Wall,2017,C,C,65,950,902.5,1,,Enabled,No,"Catalog, Search",Taxable Goods,Yes,No,No,"The SP Sport Maxx GT is Dunlops Max Performance Summer tire developed for the drivers of pure sports cars, powerful coupes and high performance sedans. SP Sport Maxx GT tires are designed to offer outstanding driver feedback and responsive handling, but like all summer tires are not intended to be driven in near-freezing temperatures, through snow or on ice.",,,,,,,,,,100,0,1,0,0,1,1,1,0,1,1,,,1,0,1,0,1,0,1,0,0,0,1,MAX GT,0,simple,,
admin,base,Tyre,simple,175,DUN451,,Grandtrek TG35-M2,,,/dunlop_grandtrektg35.jpeg,/dunlop_grandtrektg35.jpeg,/dunlop_grandtrektg35.jpeg,,,,No layout updates,Product Info Column,,,,,Use config,Use config,No,245,70,245/70 R16,16,,,2017,Black Wall,"106 S Load Index 106 =  2,094.37lbs (950kg) per tireSpeed Rating = 111.85mph (180kph)",Black Wall,2017,C,C,65,609,578.55,1,,Enabled,No,"Catalog, Search",Taxable Goods,Yes,No,No,Developed with Toyota and endorsed as original equipment on their popular 4WD models. The TG35 M2 delivers superior on-road performance and solid off-road stability. It also features robust casing for enhanced strength in tough conditions.,,,,,,,,,,100,0,1,0,0,1,1,1,0,1,1,,,1,0,1,0,1,0,1,0,0,0,1,Grandtrek TG35-M2,0,simple,,
admin,base,Tyre,simple,165,DUN699,,Grandtrek AT20,,,/dunlop_grandtrekat20.jpeg,/dunlop_grandtrekat20.jpeg,/dunlop_grandtrekat20.jpeg,,,,No layout updates,Product Info Column,,,,,Use config,Use config,No,245,70,245/70 R17,17,,,2017,Black Wall,"110 S Load Index 110 =  2,336.88lbs (1060kg) per tireSpeed Rating = 111.85mph (180kph)",Black Wall,2017,C,C,65,695,660.25,1,,Enabled,No,"Catalog, Search",Taxable Goods,Yes,No,No,"The Grandtrek AT20 is Dunlops Highway All-Season light truck tire that was developed for the drivers of pickups and sport utility vehicles. The Grandtrek AT20 was designed to deliver low noise, a comfortable ride, and year-round traction, even in light snow.",,,,,,,,,,100,0,1,0,0,1,1,1,0,1,1,,,1,0,1,0,1,0,1,0,0,0,1,Grandtrek AT20,0,simple,,
admin,base,Tyre,simple,176,DUN698,,Grandtrek TG5,,,/dunlop_tg20.jpeg,/dunlop_tg20.jpeg,/dunlop_tg20.jpeg,,,,No layout updates,Product Info Column,,,,,Use config,Use config,No,245,75,245/75 R16,16,,,2017,Black Wall,"120/116 S Load Index 120/116 =  3,086.44lbs (1400kg) per tireSpeed Rating = 111.85mph (180kph)",Black Wall,2017,C,C,65,609,578.55,1,,Enabled,No,"Catalog, Search",Taxable Goods,Yes,No,No,"This Tire has a rather fine tread pattern. Provides a comfortable ride with low noise. Grandtrek TG5 withstand dirt and cold, well controlled on level pavement.",,,,,,,,,,100,0,1,0,0,1,1,1,0,1,1,,,1,0,1,0,1,0,1,0,0,0,1,Grandtrek TG5,0,simple,,
admin,base,Tyre,simple,195,DUN713,,SP-Road-Grippers,,,/dunlop_tg20.jpeg,/dunlop_tg20.jpeg,/dunlop_tg20.jpeg,,,,No layout updates,Product Info Column,,,,,Use config,Use config,No,245,75,245/75 R17,17,,,2017,Black Wall,"112 H Load Index 112 =  2,469.15lbs (1120kg) per tireSpeed Rating = 130.49mph (210kph)",Black Wall,2017,C,C,65,590,560.5,1,,Enabled,No,"Catalog, Search",Taxable Goods,Yes,No,No,"The perfect 4WD tyres for drivers who spend as much time off the road as they do on it. The Road Gripper S is an exceptionally tough tyre, which delivers a superior performance in a variety of demanding conditions. It also meets the stringent tyre requirements of many leading 4WD manufacturers.",,,,,,,,,,100,0,1,0,0,1,1,1,0,1,1,,,1,0,1,0,1,0,1,0,0,0,1,SP-Road-Grippers,0,simple,,
admin,base,Tyre,simple,174,DUN700,,Grandtrek TG31,,,/dunlop_tg20.jpeg,/dunlop_tg20.jpeg,/dunlop_tg20.jpeg,,,,No layout updates,Product Info Column,,,,,Use config,Use config,No,245,85,245/85 R16,16,,,2017,White Letters,"114 S Load Index 114 =  2,601.43lbs (1180kg) per tireSpeed Rating = 111.85mph (180kph)",White Letters,2017,C,C,65,649,616.55,1,,Enabled,No,"Catalog, Search",Taxable Goods,Yes,No,No,"Dunlop Grandtrek TG31  is ultra high performance sand SUV tyre. * Revolution in sand performance and on-sand traction * Excellent high speed on-road performance A specific sand tyre with excellent high speed road durability and stability, suitable for driving on soft sand.",,,,,,,,,,100,0,1,0,0,1,1,1,0,1,1,,,1,0,1,0,1,0,1,0,0,0,1,Grandtrek TG31,0,simple,,
admin,base,Tyre,simple,183,DUN35205-ZNQ,,MAXX 050+,,,/max050.png,/max050.png,/max050.png,,,,No layout updates,Product Info Column,,,,,Use config,Use config,No,255,35,255/35 R18,18,,,2016,Black Wall,"90 Y Load Index 90 =  1,322.76lbs (600kg) per tireSpeed Rating = 186.41mph (300kph)",Black Wall,2016,C,C,65,599,569.05,1,,Enabled,No,"Catalog, Search",Taxable Goods,Yes,No,No,"Max Performance Summer tires are for serious driving enthusiasts who want a combination of a performance appearance, competent handling and Z-speed rated (orhigher) durability with enhanced dry and wet traction. Often used as Original Equipment (O.E.) on powerful sports cars, performance coupes and high performancesedans, Max Performance Summer tires are not intended to be driven in near-freezing temperatures, through snow or on ice.",,,,,,,,,,100,0,1,0,0,1,1,1,0,1,1,,,1,0,1,0,1,0,1,0,0,0,1,MAXX 050+,0,simple,,
admin,base,Tyre,simple,163,DUN35014,,Direzza DZ102,,,/dunlop_direzzadz101_2_1_1_1_1.jpeg,/dunlop_direzzadz101_2_1_1_1_1.jpeg,/dunlop_direzzadz101_2_1_1_1_1.jpeg,,,,No layout updates,Product Info Column,,,,,Use config,Use config,No,255,35,255/35 R18,18,,,2017,Black Wall,"94 W Load Index 94 =  1,477.08lbs (670kg) per tireSpeed Rating = 167.77mph (270kph)",Black Wall,2017,C,C,65,479,455.05,1,,Enabled,No,"Catalog, Search",Taxable Goods,Yes,No,No,"The Direzza DZ102 is Dunlops Ultra High Performance Summer tire for the drivers of sport compact cars. The Direzza DZ102 shares the Direzza name with Dunlop racing tires used in the Japanese SUPER GT Championship and was developed to provide crisp and responsive handling. The Direzza DZ102 is not intended to be driven in near-freezing temperatures, through snow or on ice.",,,,,,,,,,100,0,1,0,0,1,1,1,0,1,1,,,1,0,1,0,1,0,1,0,0,0,1,Direzza DZ102,0,simple,,
admin,base,Tyre,simple,163,DUN35018,,Direzza DZ102,,,/dunlop_direzzadz101_2_1_2.jpeg,/dunlop_direzzadz101_2_1_2.jpeg,/dunlop_direzzadz101_2_1_2.jpeg,,,,No layout updates,Product Info Column,,,,,Use config,Use config,No,255,35,255/35 R20,20,,,2016,Black Wall,"97 W Load Index 97 =  1,609.36lbs (730kg) per tireSpeed Rating = 167.77mph (270kph)",Black Wall,2016,C,C,65,589,559.55,1,,Enabled,No,"Catalog, Search",Taxable Goods,Yes,No,No,"The Direzza DZ102 is Dunlops Ultra High Performance Summer tire for the drivers of sport compact cars. The Direzza DZ102 shares the Direzza name with Dunlop racing tires used in the Japanese SUPER GT Championship and was developed to provide crisp and responsive handling. The Direzza DZ102 is not intended to be driven in near-freezing temperatures, through snow or on ice.",,,,,,,,,,100,0,1,0,0,1,1,1,0,1,1,,,1,0,1,0,1,0,1,0,0,0,1,Direzza DZ102,0,simple,,
admin,base,Tyre,simple,185,DUN40118,,MAXX GT602,,,/dunlop_sp_sport_maxx_gt600_1.jpg,/dunlop_sp_sport_maxx_gt600_1.jpg,/dunlop_sp_sport_maxx_gt600_1.jpg,,,,No layout updates,Product Info Column,,,,,Use config,Use config,No,255,40,255/40 R20,20,,,2017,Run Flat/Black Wall,"97 Y Load Index 97 =  1,609.36lbs (730kg) per tireSpeed Rating = 186.41mph (300kph)",Run Flat/Black Wall,2017,C,C,65,1859,1673.1,1,,Enabled,No,"Catalog, Search",Taxable Goods,Yes,No,No,"The SP Sport Maxx GT 600 DSST CTT is an Extreme Performance Summer run-flat tire featuring Dunlop Self-Supporting Technology (DSST) developed for the all-wheel drive Nissan GT-R super sports car. Merging both car and motorcycle tire development and manufacturing technologies, the SP Sport Maxx GT 600 DSST CTT was created as a Combined Technology Tyre (CTT) to enhance ride quality while providing temporary extended mobility for a distance of 50 miles at up to 50 mph even after a puncture has allowed complete air pressure loss. However, like all Extreme Performance Summer tires, these tires are not intended to be serviced, stored nor driven in near- and below-freezing temperatures, through snow or on ice.",,,,,,,,,,100,0,1,0,0,1,1,1,0,1,1,,,1,0,1,0,1,0,1,0,0,0,1,MAXX GT602,0,simple,,
admin,base,Tyre,simple,178,DUN45052,,MAX GT J XL,,,/dunlop_sportmaxxgt.jpeg,/dunlop_sportmaxxgt.jpeg,/dunlop_sportmaxxgt.jpeg,,,,No layout updates,Product Info Column,,,,,Use config,Use config,No,255,45,255/45 R20,20,,,2016,Black Wall,"101 W Load Index 101 =  1,818.80lbs (825kg) per tireSpeed Rating = 167.77mph (270kph)",Black Wall,2016,C,C,65,1279,1151.1,1,,Enabled,No,"Catalog, Search",Taxable Goods,Yes,No,No,"The SP Sport Maxx GT is Dunlops Max Performance Summer tire developed for the drivers of pure sports cars, powerful coupes and high performance sedans. SP Sport Maxx GT tires are designed to offer outstanding driver feedback and responsive handling, but like all summer tires are not intended to be driven in near-freezing temperatures, through snow or on ice.",,,,,,,,,,100,0,1,0,0,1,1,1,0,1,1,,,1,0,1,0,1,0,1,0,0,0,1,MAX GT J XL,0,simple,,
admin,base,Tyre,simple,182,DUN 255/55R19-111W/ARD,,MAXX 050,,,/max050_28.png,/max050_28.png,/max050_28.png,,,,No layout updates,Product Info Column,,,,,Use config,Use config,No,255,55,255/55 R19,19,,,2017,Black Wall,"111 W Load Index 111 =  2,403.01lbs (1090kg) per tireSpeed Rating = 167.77mph (270kph)",Black Wall,2017,C,C,65,699,664.05,1,,Enabled,No,"Catalog, Search",Taxable Goods,Yes,No,No,"Max Performance Summer tires are for serious driving enthusiasts who want a combination of a performance appearance, competent handling and Z-speed rated (orhigher) durability with enhanced dry and wet traction. Often used as Original Equipment (O.E.) on powerful sports cars, performance coupes and high performancesedans, Max Performance Summer tires are not intended to be driven in near-freezing temperatures, through snow or on ice.",,,,,,,,,,100,0,1,0,0,1,1,1,0,1,1,,,1,0,1,0,1,0,1,0,0,0,1,MAXX 050,0,simple,,
admin,base,Tyre,simple,163,DUN35015,,Direzza DZ102,,,/dunlop_direzzadz101_2_1_1_1.jpeg,/dunlop_direzzadz101_2_1_1_1.jpeg,/dunlop_direzzadz101_2_1_1_1.jpeg,,,,No layout updates,Product Info Column,,,,,Use config,Use config,No,265,35,265/35 R18,18,,,2017,Black Wall,"97 W Load Index 97 =  1,609.36lbs (730kg) per tireSpeed Rating = 167.77mph (270kph)",Black Wall,2017,C,C,65,489,464.55,1,,Enabled,No,"Catalog, Search",Taxable Goods,Yes,No,No,"The Direzza DZ102 is Dunlops Ultra High Performance Summer tire for the drivers of sport compact cars. The Direzza DZ102 shares the Direzza name with Dunlop racing tires used in the Japanese SUPER GT Championship and was developed to provide crisp and responsive handling. The Direzza DZ102 is not intended to be driven in near-freezing temperatures, through snow or on ice.",,,,,,,,,,100,0,1,0,0,1,1,1,0,1,1,,,1,0,1,0,1,0,1,0,0,0,1,Direzza DZ102,0,simple,,
admin,base,Tyre,simple,182,DUN50301-ZNQ,,MAXX 050,,,/max050.png,/max050.png,/max050.png,,,,No layout updates,Product Info Column,,,,,Use config,Use config,No,265,50,265/50 R20,20,,,2017,Black Wall,"111 Y Load Index 111 =  2,403.01lbs (1090kg) per tireSpeed Rating = 186.41mph (300kph)",Black Wall,2017,C,C,65,729,692.55,1,,Enabled,No,"Catalog, Search",Taxable Goods,Yes,No,No,"The MAX050 is Dunlops Max Performance Summer tire developed for the drivers of pure sports cars, powerful coupes and high performance sedans. SP Sport Maxx GT tires are designed to offer outstanding driver feedback and responsive handling, but like all summer tires are not intended to be driven in near-freezing temperatures, through snow or on ice.",,,,,,,,,,100,0,1,0,0,1,1,1,0,1,1,,,1,0,1,0,1,0,1,0,0,0,1,MAXX 050,0,simple,,
admin,base,Tyre,simple,165,DUN545-ZNQ,,Grandtrek AT20,,,/dunlop_grandtrekat20.jpeg,/dunlop_grandtrekat20.jpeg,/dunlop_grandtrekat20.jpeg,,,,No layout updates,Product Info Column,,,,,Use config,Use config,No,265,60,265/60 R18,18,,,2016,Black Wall,"110 H Load Index 110 =  2,336.88lbs (1060kg) per tireSpeed Rating = 130.49mph (210kph)",Black Wall,2016,C,C,65,649,616.55,1,,Enabled,No,"Catalog, Search",Taxable Goods,Yes,No,No,"The Grandtrek AT20 is Dunlops Highway All-Season light truck tire that was developed for the drivers of pickups and sport utility vehicles. The Grandtrek AT20 was designed to deliver low noise, a comfortable ride, and year-round traction, even in light snow.",,,,,,,,,,100,0,1,0,0,1,1,1,0,1,1,,,1,0,1,0,1,0,1,0,0,0,1,Grandtrek AT20,0,simple,,
admin,base,Tyre,simple,166,DUN703,,Grandtrek AT22,,,/dunlop_grandtrek_at22.jpeg,/dunlop_grandtrek_at22.jpeg,/dunlop_grandtrek_at22.jpeg,,,,No layout updates,Product Info Column,,,,,Use config,Use config,No,265,60,265/60 R18,18,,,2017,Black Wall,"110 H Load Index 110 =  2,336.88lbs (1060kg) per tireSpeed Rating = 130.49mph (210kph)",Black Wall,2017,C,C,65,829,787.55,1,,Enabled,No,"Catalog, Search",Taxable Goods,Yes,No,No,"Fitted as original equipment on Toyota LandCruiser for superior 4WD performance. The Grandtrek AT22 features reinforced casing to reduce the risk of sidewall damage in tough off-road conditions. It is suitable for drivers who like to mix up their driving surfaces, on and off-road.",,,,,,,,,,100,0,1,0,0,1,1,1,0,1,1,,,1,0,1,0,1,0,1,0,0,0,1,Grandtrek AT22,0,simple,,
admin,base,Tyre,simple,165,DUN405-ZNQ,,Grandtrek AT20,,,/dunlop_grandtrekat20.jpeg,/dunlop_grandtrekat20.jpeg,/dunlop_grandtrekat20.jpeg,,,,No layout updates,Product Info Column,,,,,Use config,Use config,No,265,65,265/65 R17,17,,,2017,Black Wall,"112 S Load Index 112 =  2,469.15lbs (1120kg) per tireSpeed Rating = 111.85mph (180kph)",Black Wall,2017,C,C,65,549,521.55,1,,Enabled,No,"Catalog, Search",Taxable Goods,Yes,No,No,"The Grandtrek AT20 is Dunlops Highway All-Season light truck tire that was developed for the drivers of pickups and sport utility vehicles. The Grandtrek AT20 was designed to deliver low noise, a comfortable ride, and year-round traction, even in light snow.",,,,,,,,,,100,0,1,0,0,1,1,1,0,1,1,,,1,0,1,0,1,0,1,0,0,0,1,Grandtrek AT20,0,simple,,
admin,base,Tyre,simple,175,DUN472-ZNQ,,Grandtrek TG35-M2,,,/dunlop_grandtrektg35.jpeg,/dunlop_grandtrektg35.jpeg,/dunlop_grandtrektg35.jpeg,,,,No layout updates,Product Info Column,,,,,Use config,Use config,No,265,70,265/70 R16,16,,,2017,Black Wall,"112 S Load Index 112 =  2,469.15lbs (1120kg) per tireSpeed Rating = 111.85mph (180kph)",Black Wall,2017,C,C,65,529,502.55,1,,Enabled,No,"Catalog, Search",Taxable Goods,Yes,No,No,Developed with Toyota and endorsed as original equipment on their popular 4WD models. The TG35 M2 delivers superior on-road performance and solid off-road stability. It also features robust casing for enhanced strength in tough conditions.,,,,,,,,,,100,0,1,0,0,1,1,1,0,1,1,,,1,0,1,0,1,0,1,0,0,0,1,Grandtrek TG35-M2,0,simple,,
admin,base,Tyre,simple,166,DUN040-ZNQ,,Grandtrek AT22,,,/dunlop_grandtrek_at22_1.jpeg,/dunlop_grandtrek_at22_1.jpeg,/dunlop_grandtrek_at22_1.jpeg,,,,No layout updates,Product Info Column,,,,,Use config,Use config,No,265,70,265/70 R17,17,,,2017,Black Wall,"115 S Load Index 115 =  2,678.59lbs (1215kg) per tireSpeed Rating = 111.85mph (180kph)",Black Wall,2017,C,C,65,579,550.05,1,,Enabled,No,"Catalog, Search",Taxable Goods,Yes,No,No,"Fitted as original equipment on Toyota LandCruiser for superior 4WD performance. The Grandtrek AT22 features reinforced casing to reduce the risk of sidewall damage in tough off-road conditions. It is suitable for drivers who like to mix up their driving surfaces, on and off-road.",,,,,,,,,,100,0,1,0,0,1,1,1,0,1,1,,,1,0,1,0,1,0,1,0,0,0,1,Grandtrek AT22,0,simple,,
admin,base,Tyre,simple,169,DUN152-ZNQ,,GrandTrek PT3,,,/grandtrek_pt3_1_5.png,/grandtrek_pt3_1_5.png,/grandtrek_pt3_1_5.png,,,,No layout updates,Product Info Column,,,,,Use config,Use config,No,265,70,265/70 R17,17,,,2017,Black Wall,"115 S  Load Index 115 =  2,678.59lbs (1215kg) per tireSpeed Rating = 111.85mph (180kph)",Black Wall,2017,C,C,65,529,502.55,1,,Enabled,No,"Catalog, Search",Taxable Goods,Yes,No,No,"Highway All-Season light truck tires are for drivers who want a combination of pleasant on-road characteristics, long wear and all-season versatility, including traction in light snow. Highway All-Season tires branded with the M+S symbol are often used as Original Equipment (O.E.) on 2WD and 4WD, light- and medium-duty vans, trucks and pickups, as well as crossover and sport utility vehicles.",,,,,,,,,,100,0,1,0,0,1,1,1,0,1,1,,,1,0,1,0,1,0,1,0,0,0,1,GrandTrek PT3,0,simple,,
