store,websites,attribute_set,type,category_ids,sku,has_options,name,meta_title,meta_description,url_key,url_path,custom_design,page_layout,options_container,image_label,small_image_label,thumbnail_label,country_of_manufacture,msrp_enabled,msrp_display_actual_price_type,gift_message_available,width,ratio,diameter,serv_desc,car_make,car_model,car_year,sidewall_style,utqg,production_year,fuel,weather,sound,size,price,special_price,weight,msrp,status,is_recurring,visibility,tax_class_id,passenger,tyres4_4,vantyres,description,short_description,meta_keyword,custom_layout_update,special_from_date,special_to_date,news_from_date,news_to_date,custom_design_from,custom_design_to,qty,min_qty,use_config_min_qty,is_qty_decimal,backorders,use_config_backorders,min_sale_qty,use_config_min_sale_qty,max_sale_qty,use_config_max_sale_qty,is_in_stock,low_stock_date,notify_stock_qty,use_config_notify_stock_qty,manage_stock,use_config_manage_stock,stock_status_changed_auto,use_config_qty_increments,qty_increments,use_config_enable_qty_inc,enable_qty_increments,is_decimal_divided,stock_status_changed_automatically,use_config_enable_qty_increments,product_name,store_id,product_type_id,product_status_changed,product_changed_websites,website,_media_image,_media_lable,_media_position,_media_is_disabled
admin,base,Tyre,simple,23,BFG0001,0,g-Grip,,,,,,No layout updates,Product Info Column,,,,Poland,Use config,,,185,60,15,84 H,,,,Black Wall,,2017,B,C,65,185/60                                 R15,337.7,,0,,Enabled,No,"Catalog, Search",Taxable Goods,Yes,No,No,BFGoodrich,BFGoodrich,,,,,,,,,100,0,1,0,0,1,1,1,0,1,1,,,1,0,1,0,1,0,1,0,0,0,1,g-Grip,0,simple,,,,,,,
admin,base,Tyre,simple,23,BFG0002,0,g-Grip,,,,,,No layout updates,Product Info Column,,,,Poland,Use config,,,195,60,15,88 H,,,,Black Wall,,2017,B,C,65,195/60                                 R15,337.7,,0,,Enabled,No,"Catalog, Search",Taxable Goods,Yes,No,No,BFGoodrich,BFGoodrich,,,,,,,,,100,0,1,0,0,1,1,1,0,1,1,,,1,0,1,0,1,0,1,0,0,0,1,g-Grip,0,simple,,,,,,,
admin,base,Tyre,simple,23,BFG0003,0,g-Grip,,,,,,No layout updates,Product Info Column,,,,Poland,Use config,,,195,65,15,91 H,,,,Black Wall,,2017,B,C,65,195/65                                 R15,337.7,,0,,Enabled,No,"Catalog, Search",Taxable Goods,Yes,No,No,BFGoodrich,BFGoodrich,,,,,,,,,100,0,1,0,0,1,1,1,0,1,1,,,1,0,1,0,1,0,1,0,0,0,1,g-Grip,0,simple,,,,,,,
admin,base,Tyre,simple,23,BFG0004,0,g-Grip,,,,,,No layout updates,Product Info Column,,,,Poland,Use config,,,205,55,16,91 V,,,,Black Wall,,2017,B,C,65,205/55                                 R16,363,,0,,Enabled,No,"Catalog, Search",Taxable Goods,Yes,No,No,BFGoodrich,BFGoodrich,,,,,,,,,100,0,1,0,0,1,1,1,0,1,1,,,1,0,1,0,1,0,1,0,0,0,1,g-Grip,0,simple,,,,,,,
admin,base,Tyre,simple,23,BFG0005,0,g-Grip,,,,,,No layout updates,Product Info Column,,,,Poland,Use config,,,205,60,16,92 V,,,,Black Wall,,2017,B,C,65,205/60                                 R16,396,,0,,Enabled,No,"Catalog, Search",Taxable Goods,Yes,No,No,BFGoodrich,BFGoodrich,,,,,,,,,100,0,1,0,0,1,1,1,0,1,1,,,1,0,1,0,1,0,1,0,0,0,1,g-Grip,0,simple,,,,,,,
admin,base,Tyre,simple,23,BFG0006,0,g-Grip,,,,,,No layout updates,Product Info Column,,,,Poland,Use config,,,215,55,17,94 W,,,,Black Wall,,2017,B,C,65,215/55                                 R17,478.5,,0,,Enabled,No,"Catalog, Search",Taxable Goods,Yes,No,No,BFGoodrich,BFGoodrich,,,,,,,,,100,0,1,0,0,1,1,1,0,1,1,,,1,0,1,0,1,0,1,0,0,0,1,g-Grip,0,simple,,,,,,,
admin,base,Tyre,simple,23,BFG0007,0,All Terrain T/A KO2,,,,,,No layout updates,Product Info Column,,,,,Use config,,,235,85,16,120/116 S,,,,Black Wall,,2017,B,C,65,235/85                                 R16,1057.1,,0,,Enabled,No,"Catalog, Search",Taxable Goods,Yes,No,No,BFGoodrich,BFGoodrich,,,,,,,,,100,0,1,0,0,1,1,1,0,1,1,,,1,0,1,0,1,0,1,0,0,0,1,All Terrain T/A KO2,0,simple,,,,,,,
admin,base,Tyre,simple,23,BFG0008,0,All Terrain T/A KO2,,,,,,No layout updates,Product Info Column,,,,,Use config,,,245,75,16,120/116 S,,,,Black Wall,,2017,B,C,65,245/75                                 R16,1003.2,,0,,Enabled,No,"Catalog, Search",Taxable Goods,Yes,No,No,BFGoodrich,BFGoodrich,,,,,,,,,100,0,1,0,0,1,1,1,0,1,1,,,1,0,1,0,1,0,1,0,0,0,1,All Terrain T/A KO2,0,simple,,,,,,,
admin,base,Tyre,simple,23,BFG0009,0,All Terrain T/A KO2,,,,,,No layout updates,Product Info Column,,,,,Use config,,,265,60,18,119/116 S,,,,Black Wall,,2017,B,C,65,265/60                                 R18,1158.3,,0,,Enabled,No,"Catalog, Search",Taxable Goods,Yes,No,No,BFGoodrich,BFGoodrich,,,,,,,,,100,0,1,0,0,1,1,1,0,1,1,,,1,0,1,0,1,0,1,0,0,0,1,All Terrain T/A KO2,0,simple,,,,,,,
admin,base,Tyre,simple,23,BFG0010,0,All Terrain T/A KO2,,,,,,No layout updates,Product Info Column,,,,,Use config,,,265,65,17,120/117 S,,,,Black Wall,,2017,B,C,65,265/65                                 R17,1268.3,,0,,Enabled,No,"Catalog, Search",Taxable Goods,Yes,No,No,BFGoodrich,BFGoodrich,,,,,,,,,100,0,1,0,0,1,1,1,0,1,1,,,1,0,1,0,1,0,1,0,0,0,1,All Terrain T/A KO2,0,simple,,,,,,,
admin,base,Tyre,simple,23,BFG0011,0,Long Trail T/A Tour,,,,,,No layout updates,Product Info Column,,,,,Use config,,,265,70,16,111 T,,,,Black Wall,,2017,B,C,65,265/70                                 R16,981.2,,0,,Enabled,No,"Catalog, Search",Taxable Goods,Yes,No,No,BFGoodrich,BFGoodrich,,,,,,,,,100,0,1,0,0,1,1,1,0,1,1,,,1,0,1,0,1,0,1,0,0,0,1,Long Trail T/A Tour,0,simple,,,,,,,
admin,base,Tyre,simple,23,BFG0012,0,All Terrain T/A KO2,,,,,,No layout updates,Product Info Column,,,,,Use config,,,265,70,17,121/118 S,,,,Black Wall,,2017,B,C,65,265/70                                 R17,1235.3,,0,,Enabled,No,"Catalog, Search",Taxable Goods,Yes,No,No,BFGoodrich,BFGoodrich,,,,,,,,,100,0,1,0,0,1,1,1,0,1,1,,,1,0,1,0,1,0,1,0,0,0,1,All Terrain T/A KO2,0,simple,,,,,,,
admin,base,Tyre,simple,23,BFG0013,0,Rugged Terrain T/A,,,,,,No layout updates,Product Info Column,,,,,Use config,,,265,70,18,114 T,,,,Black Wall,,2017,B,C,65,265/70                                 R18,1293.6,,0,,Enabled,No,"Catalog, Search",Taxable Goods,Yes,No,No,BFGoodrich,BFGoodrich,,,,,,,,,100,0,1,0,0,1,1,1,0,1,1,,,1,0,1,0,1,0,1,0,0,0,1,Rugged Terrain T/A,0,simple,,,,,,,
admin,base,Tyre,simple,23,BFG0014,0,All Terrain T/A KO2,,,,,,No layout updates,Product Info Column,,,,,Use config,,,265,75,16,119/116 R,,,,Black Wall,,2017,B,C,65,265/75                                 R16,906.4,,0,,Enabled,No,"Catalog, Search",Taxable Goods,Yes,No,No,BFGoodrich,BFGoodrich,,,,,,,,,100,0,1,0,0,1,1,1,0,1,1,,,1,0,1,0,1,0,1,0,0,0,1,All Terrain T/A KO2,0,simple,,,,,,,
admin,base,Tyre,simple,23,BFG0015,0,All Terrain T/A KO2,,,,,,No layout updates,Product Info Column,,,,,Use config,,,275,55,20,,,,,Black Wall,,2017,B,C,65,275/55                                 R20,1395.9,,0,,Enabled,No,"Catalog, Search",Taxable Goods,Yes,No,No,BFGoodrich,BFGoodrich,,,,,,,,,100,0,1,0,0,1,1,1,0,1,1,,,1,0,1,0,1,0,1,0,0,0,1,All Terrain T/A KO2,0,simple,,,,,,,
admin,base,Tyre,simple,23,BFG0016,0,All Terrain T/A KO2,,,,,,No layout updates,Product Info Column,,,,,Use config,,,275,70,16,119/116 S,,,,Black Wall,,2017,B,C,65,275/70                                 R16,1107.7,,0,,Enabled,No,"Catalog, Search",Taxable Goods,Yes,No,No,BFGoodrich,BFGoodrich,,,,,,,,,100,0,1,0,0,1,1,1,0,1,1,,,1,0,1,0,1,0,1,0,0,0,1,All Terrain T/A KO2,0,simple,,,,,,,
admin,base,Tyre,simple,23,BFG0017,0,All Terrain T/A KO2,,,,,,No layout updates,Product Info Column,,,,,Use config,,,285,70,17,121/118 R,,,,Black Wall,,2017,B,C,65,285/70                                 R17,1074.7,,0,,Enabled,No,"Catalog, Search",Taxable Goods,Yes,No,No,BFGoodrich,BFGoodrich,,,,,,,,,100,0,1,0,0,1,1,1,0,1,1,,,1,0,1,0,1,0,1,0,0,0,1,All Terrain T/A KO2,0,simple,,,,,,,
admin,base,Tyre,simple,23,BFG0018,0,All Terrain T/A KO2,,,,,,No layout updates,Product Info Column,,,,,Use config,,,285,75,16,116/113 R,,,,Black Wall,,2017,B,C,65,285/75                                 R16,979,,0,,Enabled,No,"Catalog, Search",Taxable Goods,Yes,No,No,BFGoodrich,BFGoodrich,,,,,,,,,100,0,1,0,0,1,1,1,0,1,1,,,1,0,1,0,1,0,1,0,0,0,1,All Terrain T/A KO2,0,simple,,,,,,,
admin,base,Tyre,simple,23,BFG0019,0,All Terrain T/A KO2,,,,,,No layout updates,Product Info Column,,,,,Use config,,,33X,12.5,15,108 R,,,,Black Wall,,2017,B,C,65,33X/12.5                                 R15,1260.6,,0,,Enabled,No,"Catalog, Search",Taxable Goods,Yes,No,No,BFGoodrich,BFGoodrich,,,,,,,,,100,0,1,0,0,1,1,1,0,1,1,,,1,0,1,0,1,0,1,0,0,0,1,All Terrain T/A KO2,0,simple,,,,,,,
