sku,name,country_of_manufacture,width,ratio,diameter,serv_desc,sidewall_style,production_year,fuel,weather,sound,size,price,special_price,description,short_description
KH0001,Solus KH17,Japan,165,65,,79 T,Black Wall,2016,B,C,65,165/65                                 R14,241,,Kumho,Kumho
KH0002,KL21,,245,65,17,,Black Wall,2017,B,C,65,245/65,128,,Kumho,Kumho
KH0003,KL21,JAPAN                                             ,245,60,18,,Black Wall,2016,B,C,65,245/60,359,,Kumho,Kumho
KH0004,KL17,JAPAN                                             ,215,65,16,98H,Black Wall,2017,B,C,65,215/65,283,,Kumho,Kumho
KH0005,KL17,,215,55,17,,Black Wall,2016,B,C,65,215/55,255,,Kumho,Kumho
KH0006,KL17,JAPAN                                             ,215,50,17,91V,Black Wall,2016,B,C,65,215/50,295,,Kumho,Kumho
KH0007,KL17,JAPAN                                             ,225,50,17,94V,Black Wall,2016,B,C,65,225/50,330,,Kumho,Kumho
KH0008,KL17,,235,55,17,99H,Black Wall,2017,B,C,65,235/55,324,,Kumho,Kumho
KH0009,KL21,JAPAN                                             ,265,70,18,114T,Black Wall,2017,B,C,65,265/70,503,,Kumho,Kumho
KH0010,KL17,JAPAN                                             ,195,55,16,87H,Black Wall,2017,B,C,65,195/55,278,,Kumho,Kumho
KH0011,KL33,,235,55,19,101H,Black Wall,2017,B,C,65,235/55,405,,Kumho,Kumho
KH0012,KL17,JAPAN                                             ,175,50,15,75H,Black Wall,2017,B,C,65,175/50,231,,Kumho,Kumho
KH0013,KL17,JAPAN                                             ,185,65,15,88H,Black Wall,2017,B,C,65,185/65,191,,Kumho,Kumho
KH0014,KL21,JAPAN                                             ,225,65,17,102H,Black Wall,2017,B,C,65,225/65,307,,Kumho,Kumho
KH0015,KL21,JAPAN                                             ,265,50,20,107V,Black Wall,2017,B,C,65,265/50,538,,Kumho,Kumho
KH0016,KL17,JAPAN                                             ,215,45,17,87H,Black Wall,2017,B,C,65,215/45,266,,Kumho,Kumho
KH0017,KL17,JAPAN                                             ,225,45,18,95V,Black Wall,2017,B,C,65,225/45,347,,Kumho,Kumho
KH0018,KL33,JAPAN                                             ,245,60,18,105V,Black Wall,2017,B,C,65,245/60,387,,Kumho,Kumho
KH0019,HP91,,295,35,21,107Y,Black Wall,2017,B,C,65,295/35,549,,Kumho,Kumho
