sku,short_description
MIC813765-ZNQ,Michelin
MIC813765-ZNQ,Michelin
MIC964349-2016,Michelin
MIC964349,Michelin
MIC762194,Michelin
MIC464752,Michelin
MIC940469,Michelin
MIC000383,Michelin
MIC696372,Michelin
