store,websites,attribute_set,type,category_ids,sku,has_options,name,meta_title,meta_description,image,small_image,thumbnail,url_key,url_path,custom_design,page_layout,options_container,image_label,small_image_label,thumbnail_label,country_of_manufacture,msrp_enabled,msrp_display_actual_price_type,gift_message_available,width,ratio,size,diameter,car_make,car_model,car_year,sidewall_style,serv_desc,utqg,production_year,fuel,weather,sound,price,special_price,weight,msrp,status,is_recurring,visibility,tax_class_id,passenger,tyres4_4,vantyres,description,short_description,meta_keyword,custom_layout_update,special_from_date,special_to_date,news_from_date,news_to_date,custom_design_from,custom_design_to,qty,min_qty,use_config_min_qty,is_qty_decimal,backorders,use_config_backorders,min_sale_qty,use_config_min_sale_qty,max_sale_qty,use_config_max_sale_qty,is_in_stock,low_stock_date,notify_stock_qty,use_config_notify_stock_qty,manage_stock,use_config_manage_stock,stock_status_changed_auto,use_config_qty_increments,qty_increments,use_config_enable_qty_inc,enable_qty_increments,is_decimal_divided,stock_status_changed_automatically,use_config_enable_qty_increments,product_name,store_id,product_type_id,product_status_changed,product_changed_websites
admin,base,Tyre,simple,174,DUN213,0,225/95 R16 118/116R,,,/dunlop_tg20.jpeg,/dunlop_tg20.jpeg,/dunlop_tg20.jpeg,,,,No layout updates,Product Info Column,,,,,Use config,Use config,No,100,,225/95 R16,225/95 R16,,,2017,White Letters,"118/116 R Load Index 118/116 =  2,910.07lbs (1320kg) per tireSpeed Rating = 105.63mph (170kph)",White Letters,2017,C,C,65,583,553.85,1,,Enabled,No,"Catalog, Search",Taxable Goods,Yes,No,No,"Dunlop Grandtrek TG31  is ultra high performance sand SUV tyre. * Revolution in sand performance and on-sand traction * Excellent high speed on-road performance A specific sand tyre with excellent high speed road durability and stability, suitable for driving on soft sand.",,,,,,,,,,100,0,1,0,0,1,1,1,0,1,1,,,1,0,1,0,1,0,1,0,0,0,1,225/95 R16 118/116R,0,simple,,
admin,base,Tyre,simple,192,DUN30005-ZNQ,0,235/35 R19 91Y,,,/dunlop_sportmaxxtt.jpeg,/dunlop_sportmaxxtt.jpeg,/dunlop_sportmaxxtt.jpeg,,,,No layout updates,Product Info Column,,,,,Use config,Use config,No,100,,235/35 R19,235/35 R19,,,2017,Black Wall,"91 Y Load Index 91 =  1,355.83lbs (615kg) per tireSpeed Rating = 186.41mph (300kph)",Black Wall,2017,C,C,65,549,521.55,1,,Enabled,No,"Catalog, Search",Taxable Goods,Yes,No,No,"The SP Sport Maxx TT (Touch Technology) is Dunlops Max Performance Summer tire developed for the drivers of sports cars, sporty coupes and high performance sedans. Dunlop Touch Technology combines sophisticated tire development and manufacturing techniques to enhance road feedback and driving precision. Like all summer tires, the SP Sport Maxx TT is not intended to be driven in near-freezing temperatures, through snow or on ice.",,,,,,,,,,100,0,1,0,0,1,1,1,0,1,1,,,1,0,1,0,1,0,1,0,0,0,1,235/35 R19 91Y,0,simple,,
admin,base,Tyre,simple,163,DUN40172,0,235/40 R18 95W,,,/dunlop_direzzadz101_2_1_1_2_2.jpeg,/dunlop_direzzadz101_2_1_1_2_2.jpeg,/dunlop_direzzadz101_2_1_1_2_2.jpeg,,,,No layout updates,Product Info Column,,,,,Use config,Use config,No,100,,235/40 R18,235/40 R18,,,2016,Black Wall,"95 W Load Index 95 =  1,521.17lbs (690kg) per tireSpeed Rating = 167.77mph (270kph)",Black Wall,2016,C,C,65,469,445.55,1,,Enabled,No,"Catalog, Search",Taxable Goods,Yes,No,No,"The Direzza DZ102 is Dunlops Ultra High Performance Summer tire for the drivers of sport compact cars. The Direzza DZ102 shares the Direzza name with Dunlop racing tires used in the Japanese SUPER GT Championship and was developed to provide crisp and responsive handling. The Direzza DZ102 is not intended to be driven in near-freezing temperatures, through snow or on ice.",,,,,,,,,,100,0,1,0,0,1,1,1,0,1,1,,,1,0,1,0,1,0,1,0,0,0,1,235/40 R18 95W,0,simple,,
admin,base,Tyre,simple,182,DUN55400,0,235/55 R17 103Y,,,/max050.png,/max050.png,/max050.png,,,,No layout updates,Product Info Column,,,,,Use config,Use config,No,100,,235/55 R17,235/55 R17,,,2017,Black Wall,"103 Y Load Index 103 =  1,929.03lbs (875kg) per tireSpeed Rating = 186.41mph (300kph)",Black Wall,2017,C,C,65,489,464.55,1,,Enabled,No,"Catalog, Search",Taxable Goods,Yes,No,No,"The MAX050+ is Dunlops Max Performance Summer tire developed for the drivers of pure sports cars, powerful coupes and high performance sedans. SP Sport Maxx GT tires are designed to offer outstanding driver feedback and responsive handling, but like all summer tires are not intended to be driven in near-freezing temperatures, through snow or on ice.",,,,,,,,,,100,0,1,0,0,1,1,1,0,1,1,,,1,0,1,0,1,0,1,0,0,0,1,235/55 R17 103Y,0,simple,,
admin,base,Tyre,simple,171,DUN55010,0,235/55 R18 100H,,,/dunlop_st30.jpg,/dunlop_st30.jpg,/dunlop_st30.jpg,,,,No layout updates,Product Info Column,,,,,Use config,Use config,No,100,,235/55 R18,235/55 R18,,,2016,Black Wall,"100 H Load Index 100 =  1,763.68lbs (800kg) per tireSpeed Rating = 130.49mph (210kph)",Black Wall,2016,C,C,65,449,426.55,1,,Enabled,No,"Catalog, Search",Taxable Goods,Yes,No,No,"Highway All-Season light truck tires are for drivers who want a combination of pleasant on-road characteristics, long wear and all-season versatility, including traction in light snow. Highway All-Season tires branded with the M/S symbol are often used as Original Equipment (O.E.) on 2WD and 4WD, light- and medium-duty vans, trucks and pickups, as well as crossover and sport utility vehicles.",,,,,,,,,,100,0,1,0,0,1,1,1,0,1,1,,,1,0,1,0,1,0,1,0,0,0,1,235/55 R18 100H,0,simple,,
admin,base,Tyre,simple,187,DUN55518-ARD,0,235/55 R18 100H,,,/dunlop_spsport270.jpg,/dunlop_spsport270.jpg,/dunlop_spsport270.jpg,,,,No layout updates,Product Info Column,,,,,Use config,Use config,No,100,,235/55 R18,235/55 R18,,,2017,Black Wall,"100 H Load Index 100 =  1,763.68lbs (800kg) per tireSpeed Rating = 130.49mph (210kph)",Black Wall,2017,C,C,65,535,508.25,1,,Enabled,No,"Catalog, Search",Taxable Goods,Yes,No,No,"The SP Sport 270 benefits from a stiffer sidewall, giving more stability when cornering. Enjoy good grip in all conditions with our unique high performance tread compound, which responds well to varying road temperatures.",,,,,,,,,,100,0,1,0,0,1,1,1,0,1,1,,,1,0,1,0,1,0,1,0,0,0,1,235/55 R18 100H,0,simple,,
admin,base,Tyre,simple,,DUN55355-ZNQ,0,235/55 R19 101V,,,/dunlop_spsportmaxxa1.jpg,/dunlop_spsportmaxxa1.jpg,/dunlop_spsportmaxxa1.jpg,,,,No layout updates,Product Info Column,,,,,Use config,Use config,No,100,,235/55 R19,235/55 R19,,,2016,Black Wall,"101 V Load Index 101 =  1,818.80lbs (825kg) per tireSpeed Rating = 149.13mph (240kph)",Black Wall,2016,C,C,65,699,664.05,1,,Enabled,No,"Catalog, Search",Taxable Goods,Yes,No,No,"Ultra High Performance All-Season tires are for driving enthusiasts who want a combination of a performance appearance, responsive handling and Z-speed rated (or higher) durability along with all-season traction, including in light snow. Ultra High Performance All-Season tires branded with the M/S symbol are often used as Original Equipment (O.E.) on sports cars, performance coupes and high performance sedans.",,,,,,,,,,100,0,1,0,0,1,1,1,0,1,1,,,1,0,1,0,1,0,1,0,0,0,1,235/55 R19 101V,0,simple,,
admin,base,Tyre,simple,182,DUN55070,0,235/55 R20 102V,,,/max050.png,/max050.png,/max050.png,,,,No layout updates,Product Info Column,,,,,Use config,Use config,No,100,,235/55 R20,235/55 R20,,,2017,Black Wall,"102 V Load Index 102 =  1,873.91lbs (850kg) per tireSpeed Rating = 149.13mph (240kph)",Black Wall,2017,C,C,65,1039,935.1,1,,Enabled,No,"Catalog, Search",Taxable Goods,Yes,No,No,"Max Performance Summer tires are for serious driving enthusiasts who want a combination of a performance appearance, competent handling and Z-speed rated (orhigher) durability with enhanced dry and wet traction. Often used as Original Equipment (O.E.) on powerful sports cars, performance coupes and high performancesedans, Max Performance Summer tires are not intended to be driven in near-freezing temperatures, through snow or on ice.",,,,,,,,,,100,0,1,0,0,1,1,1,0,1,1,,,1,0,1,0,1,0,1,0,0,0,1,235/55 R20 102V,0,simple,,
admin,base,Tyre,simple,190,DUN60342,0,235/60 R16 100W,,,/dunlop_sportmaxx.jpeg,/dunlop_sportmaxx.jpeg,/dunlop_sportmaxx.jpeg,,,,No layout updates,Product Info Column,,,,,Use config,Use config,No,100,,235/60 R16,235/60 R16,,,2016,Black Wall,"100 W Load Index 100 =  1,763.68lbs (800kg) per tireSpeed Rating = 167.77mph (270kph)",Black Wall,2016,C,C,65,445,422.75,1,,Enabled,No,"Catalog, Search",Taxable Goods,Yes,No,No,"The SP Sport Maxx is Dunlops Max Performance Summer tire developed for high-powered sports cars, sporty coupes and luxury performance sedans. Designed to be exhilarating in dry and reassuring in the wet, SP Sport Maxx tires are not intended to be driven in near-freezing temperatures, through snow or on ice.",,,,,,,,,,100,0,1,0,0,1,1,1,0,1,1,,,1,0,1,0,1,0,1,0,0,0,1,235/60 R16 100W,0,simple,,
admin,base,Tyre,simple,,DUN60347-ZNQ,0,235/60 R18 103V,,,/dunlop_spsportmaxxa1.jpg,/dunlop_spsportmaxxa1.jpg,/dunlop_spsportmaxxa1.jpg,,,,No layout updates,Product Info Column,,,,,Use config,Use config,No,100,,235/60 R18,235/60 R18,,,2017,Black Wall,"103 V Load Index 103 =  1,929.03lbs (875kg) per tireSpeed Rating = 149.13mph (240kph)",Black Wall,2017,C,C,65,699,664.05,1,,Enabled,No,"Catalog, Search",Taxable Goods,Yes,No,No,"Ultra High Performance All-Season tires are for driving enthusiasts who want a combination of a performance appearance, responsive handling and Z-speed rated (or higher) durability along with all-season traction, including in light snow. Ultra High Performance All-Season tires branded with the M/S symbol are often used as Original Equipment (O.E.) on sports cars, performance coupes and high performance sedans.",,,,,,,,,,100,0,1,0,0,1,1,1,0,1,1,,,1,0,1,0,1,0,1,0,0,0,1,235/60 R18 103V,0,simple,,
admin,base,Tyre,simple,182,DUN65500,0,235/65 R17 108W,,,/max050.png,/max050.png,/max050.png,,,,No layout updates,Product Info Column,,,,,Use config,Use config,No,100,,235/65 R17,235/65 R17,,,2017,Black Wall,"108 W Load Index 108 =  2,204.60lbs (1000kg) per tireSpeed Rating = 167.77mph (270kph)",Black Wall,2017,C,C,65,549,521.55,1,,Enabled,No,"Catalog, Search",Taxable Goods,Yes,No,No,"MAX050+ is Dunlops Max Performance Summer tire developed for the drivers of sports cars, sporty coupes and high performance sedans. Dunlop Touch Technology combines sophisticated tire development and manufacturing techniques to enhance road feedback and driving precision. Like all summer tires, the SP Sport Maxx TT is not intended to be driven in near-freezing temperatures, through snow or on ice.",,,,,,,,,,100,0,1,0,0,1,1,1,0,1,1,,,1,0,1,0,1,0,1,0,0,0,1,235/65 R17 108W,0,simple,,
admin,base,Tyre,simple,195,DUN701,0,235/85 R16 108/104N,,,/dunlop_tg20.jpeg,/dunlop_tg20.jpeg,/dunlop_tg20.jpeg,,,,No layout updates,Product Info Column,,,,,Use config,Use config,No,100,,235/85 R16,235/85 R16,,,2017,Black Wall,"108/104 N Load Index 108/104 =  2,204.60lbs (1000kg) per tireSpeed Rating = 86.99mph (140kph)",Black Wall,2017,C,C,65,645,612.75,1,,Enabled,No,"Catalog, Search",Taxable Goods,Yes,No,No,"The perfect 4WD tyres for drivers who spend as much time off the road as they do on it. The Road Gripper S is an exceptionally tough tyre, which delivers a superior performance in a variety of demanding conditions. It also meets the stringent tyre requirements of many leading 4WD manufacturers.",,,,,,,,,,100,0,1,0,0,1,1,1,0,1,1,,,1,0,1,0,1,0,1,0,0,0,1,235/85 R16 108/104N,0,simple,,
admin,base,Tyre,simple,183,DUN35305-ZNQ,0,245/35 R19 93Y,,,/max050.png,/max050.png,/max050.png,,,,No layout updates,Product Info Column,,,,,Use config,Use config,No,100,,245/35 R19,245/35 R19,,,2017,Black Wall,"93 Y Load Index 93 =  1,432.99lbs (650kg) per tireSpeed Rating = 186.41mph (300kph)",Black Wall,2017,C,C,65,599,569.05,1,,Enabled,No,"Catalog, Search",Taxable Goods,Yes,No,No,"MAX050+ is Dunlops Max Performance Summer tire developed for the drivers of sports cars, sporty coupes and high performance sedans. Dunlop Touch Technology combines sophisticated tire development and manufacturing techniques to enhance road feedback and driving precision. Like all summer tires, the SP Sport Maxx TT is not intended to be driven in near-freezing temperatures, through snow or on ice.",,,,,,,,,,100,0,1,0,0,1,1,1,0,1,1,,,1,0,1,0,1,0,1,0,0,0,1,245/35 R19 93Y,0,simple,,
admin,base,Tyre,simple,163,DUN40173,0,245/40 R18 97W,,,/dunlop_direzzadz101_2_1_2_1.jpeg,/dunlop_direzzadz101_2_1_2_1.jpeg,/dunlop_direzzadz101_2_1_2_1.jpeg,,,,No layout updates,Product Info Column,,,,,Use config,Use config,No,100,,245/40 R18,245/40 R18,,,2016,Black Wall,"97 W Load Index 97 =  1,609.36lbs (730kg) per tireSpeed Rating = 167.77mph (270kph)",Black Wall,2016,C,C,65,485,460.75,1,,Enabled,No,"Catalog, Search",Taxable Goods,Yes,No,No,"The Direzza DZ102 is Dunlops Ultra High Performance Summer tire for the drivers of sport compact cars. The Direzza DZ102 shares the Direzza name with Dunlop racing tires used in the Japanese SUPER GT Championship and was developed to provide crisp and responsive handling. The Direzza DZ102 is not intended to be driven in near-freezing temperatures, through snow or on ice.",,,,,,,,,,100,0,1,0,0,1,1,1,0,1,1,,,1,0,1,0,1,0,1,0,0,0,1,245/40 R18 97W,0,simple,,
admin,base,Tyre,simple,183,DUN40303-ZNQ,0,245/40 R18 97Y,,,/max050.png,/max050.png,/max050.png,,,,No layout updates,Product Info Column,,,,,Use config,Use config,No,100,,245/40 R18,245/40 R18,,,2017,Black Wall,"97 Y Load Index 97 =  1,609.36lbs (730kg) per tireSpeed Rating = 186.41mph (300kph)",Black Wall,2017,C,C,65,539,512.05,1,,Enabled,No,"Catalog, Search",Taxable Goods,Yes,No,No,"MAX050+ is Dunlops Max Performance Summer tire developed for the drivers of sports cars, sporty coupes and high performance sedans. Dunlop Touch Technology combines sophisticated tire development and manufacturing techniques to enhance road feedback and driving precision. Like all summer tires, the SP Sport Maxx TT is not intended to be driven in near-freezing temperatures, through snow or on ice.",,,,,,,,,,100,0,1,0,0,1,1,1,0,1,1,,,1,0,1,0,1,0,1,0,0,0,1,245/40 R18 97Y,0,simple,,
admin,base,Tyre,simple,177,DUN40019,0,245/40 R19 94W,,,/dunlop_sportmaxxgt.jpeg,/dunlop_sportmaxxgt.jpeg,/dunlop_sportmaxxgt.jpeg,,,,No layout updates,Product Info Column,,,,,Use config,Use config,No,100,,245/40 R19,245/40 R19,,,2017,Black Wall,"94 W Load Index 94 =  1,477.08lbs (670kg) per tireSpeed Rating = 167.77mph (270kph)",Black Wall,2017,C,C,65,649,616.55,1,,Enabled,No,"Catalog, Search",Taxable Goods,Yes,No,No,"The SP Sport Maxx GT is Dunlops Max Performance Summer tire developed for the drivers of pure sports cars, powerful coupes and high performance sedans. SP Sport Maxx GT tires are designed to offer outstanding driver feedback and responsive handling, but like all summer tires are not intended to be driven in near-freezing temperatures, through snow or on ice.",,,,,,,,,,100,0,1,0,0,1,1,1,0,1,1,,,1,0,1,0,1,0,1,0,0,0,1,245/40 R19 94W,0,simple,,
admin,base,Tyre,simple,183,DUN40302-ZNQ,0,245/40 R19 98Y,,,/max050.png,/max050.png,/max050.png,,,,No layout updates,Product Info Column,,,,,Use config,Use config,No,100,,245/40 R19,245/40 R19,,,2017,Black Wall,"98 Y Load Index 98 =  1,653.45lbs (750kg) per tireSpeed Rating = 186.41mph (300kph)",Black Wall,2017,C,C,65,599,569.05,1,,Enabled,No,"Catalog, Search",Taxable Goods,Yes,No,No,"MAX050+ is Dunlops Max Performance Summer tire developed for the drivers of sports cars, sporty coupes and high performance sedans. Dunlop Touch Technology combines sophisticated tire development and manufacturing techniques to enhance road feedback and driving precision. Like all summer tires, the SP Sport Maxx TT is not intended to be driven in near-freezing temperatures, through snow or on ice.",,,,,,,,,,100,0,1,0,0,1,1,1,0,1,1,,,1,0,1,0,1,0,1,0,0,0,1,245/40 R19 98Y,0,simple,,
admin,base,Tyre,simple,192,DUN40018ZNQ,0,245/40 R20 99Y,,,/dunlop_sportmaxxtt.jpeg,/dunlop_sportmaxxtt.jpeg,/dunlop_sportmaxxtt.jpeg,,,,No layout updates,Product Info Column,,,,,Use config,Use config,No,100,,245/40 R20,245/40 R20,,,2017,Black Wall,"99 Y Load Index 99 =  1,708.57lbs (775kg) per tireSpeed Rating = 186.41mph (300kph)",Black Wall,2017,C,C,65,749,711.55,1,,Enabled,No,"Catalog, Search",Taxable Goods,Yes,No,No,"The SP Sport Maxx TT (Touch Technology) is Dunlops Max Performance Summer tire developed for the drivers of sports cars, sporty coupes and high performance sedans. Dunlop Touch Technology combines sophisticated tire development and manufacturing techniques to enhance road feedback and driving precision. Like all summer tires, the SP Sport Maxx TT is not intended to be driven in near-freezing temperatures, through snow or on ice.",,,,,,,,,,100,0,1,0,0,1,1,1,0,1,1,,,1,0,1,0,1,0,1,0,0,0,1,245/40 R20 99Y,0,simple,,
admin,base,Tyre,simple,183,DUN45307,0,245/45 R17 94Y,,,/max050.png,/max050.png,/max050.png,,,,No layout updates,Product Info Column,,,,,Use config,Use config,No,100,,245/45 R17,245/45 R17,,,2017,Black Wall,"94 Y Load Index 94 =  1,477.08lbs (670kg) per tireSpeed Rating = 186.41mph (300kph)",Black Wall,2017,C,C,65,439,417.05,1,,Enabled,No,"Catalog, Search",Taxable Goods,Yes,No,No,"The MAX050+  is Dunlops Max Performance Summer tire developed for the drivers of pure sports cars, powerful coupes and high performance sedans. SP Sport Maxx GT tires are designed to offer outstanding driver feedback and responsive handling, but like all summer tires are not intended to be driven in near-freezing temperatures, through snow or on ice.",,,,,,,,,,100,0,1,0,0,1,1,1,0,1,1,,,1,0,1,0,1,0,1,0,0,0,1,245/45 R17 94Y,0,simple,,
admin,base,Tyre,simple,163,DUN45089,0,245/45 R17 95W,,,/dunlop_direzzadz101_2_1_1_3.jpeg,/dunlop_direzzadz101_2_1_1_3.jpeg,/dunlop_direzzadz101_2_1_1_3.jpeg,,,,No layout updates,Product Info Column,,,,,Use config,Use config,No,100,,245/45 R17,245/45 R17,,,2016,Black Wall,"95 W Load Index 95 =  1,521.17lbs (690kg) per tireSpeed Rating = 167.77mph (270kph)",Black Wall,2016,C,C,65,435,413.25,1,,Enabled,No,"Catalog, Search",Taxable Goods,Yes,No,No,"The Direzza DZ102 is Dunlops Ultra High Performance Summer tire for the drivers of sport compact cars. The Direzza DZ102 shares the Direzza name with Dunlop racing tires used in the Japanese SUPER GT Championship and was developed to provide crisp and responsive handling. The Direzza DZ102 is not intended to be driven in near-freezing temperatures, through snow or on ice.",,,,,,,,,,100,0,1,0,0,1,1,1,0,1,1,,,1,0,1,0,1,0,1,0,0,0,1,245/45 R17 95W,0,simple,,
admin,base,Tyre,simple,183,DUN45306,0,245/45 R17 99Y,,,/max050.png,/max050.png,/max050.png,,,,No layout updates,Product Info Column,,,,,Use config,Use config,No,100,,245/45 R17,245/45 R17,,,2017,Black Wall,"99 Y Load Index 99 =  1,708.57lbs (775kg) per tireSpeed Rating = 186.41mph (300kph)",Black Wall,2017,C,C,65,499,474.05,1,,Enabled,No,"Catalog, Search",Taxable Goods,Yes,No,No,"MAX050+ is Dunlops Max Performance Summer tire developed for the drivers of sports cars, sporty coupes and high performance sedans. Dunlop Touch Technology combines sophisticated tire development and manufacturing techniques to enhance road feedback and driving precision. Like all summer tires, the SP Sport Maxx TT is not intended to be driven in near-freezing temperatures, through snow or on ice.",,,,,,,,,,100,0,1,0,0,1,1,1,0,1,1,,,1,0,1,0,1,0,1,0,0,0,1,245/45 R17 99Y,0,simple,,
admin,base,Tyre,simple,163,DUN45017,0,245/45 R18 100W,,,/dunlop_direzzadz101_2_1_1.jpeg,/dunlop_direzzadz101_2_1_1.jpeg,/dunlop_direzzadz101_2_1_1.jpeg,,,,No layout updates,Product Info Column,,,,,Use config,Use config,No,100,,245/45 R18,245/45 R18,,,2016,Black Wall,"100 W Load Index 100 =  1,763.68lbs (800kg) per tireSpeed Rating = 167.77mph (270kph)",Black Wall,2016,C,C,65,429,407.55,1,,Enabled,No,"Catalog, Search",Taxable Goods,Yes,No,No,"The Direzza DZ102 is Dunlops Ultra High Performance Summer tire for the drivers of sport compact cars. The Direzza DZ102 shares the Direzza name with Dunlop racing tires used in the Japanese SUPER GT Championship and was developed to provide crisp and responsive handling. The Direzza DZ102 is not intended to be driven in near-freezing temperatures, through snow or on ice.",,,,,,,,,,100,0,1,0,0,1,1,1,0,1,1,,,1,0,1,0,1,0,1,0,0,0,1,245/45 R18 100W,0,simple,,
admin,base,Tyre,simple,183,DUN45304-ZNQ,0,245/45 R19 102Y,,,/max050.png,/max050.png,/max050.png,,,,No layout updates,Product Info Column,,,,,Use config,Use config,No,100,,245/45 R19,245/45 R19,,,2017,Black Wall,"102 Y Load Index 102 =  1,873.91lbs (850kg) per tireSpeed Rating = 186.41mph (300kph)",Black Wall,2017,C,C,65,629,597.55,1,,Enabled,No,"Catalog, Search",Taxable Goods,Yes,No,No,"MAX050+ is Dunlops Max Performance Summer tire developed for the drivers of sports cars, sporty coupes and high performance sedans. Dunlop Touch Technology combines sophisticated tire development and manufacturing techniques to enhance road feedback and driving precision. Like all summer tires, the SP Sport Maxx TT is not intended to be driven in near-freezing temperatures, through snow or on ice.",,,,,,,,,,100,0,1,0,0,1,1,1,0,1,1,,,1,0,1,0,1,0,1,0,0,0,1,245/45 R19 102Y,0,simple,,
admin,base,Tyre,simple,182,DUN45045,0,245/45 R19 98Y,,,/max050.png,/max050.png,/max050.png,,,,No layout updates,Product Info Column,,,,,Use config,Use config,No,100,,245/45 R19,245/45 R19,,,2016,Black Wall,"98 Y Load Index 98 =  1,653.45lbs (750kg) per tireSpeed Rating = 186.41mph (300kph)",Black Wall,2016,C,C,65,945,897.75,1,,Enabled,No,"Catalog, Search",Taxable Goods,Yes,No,No,"Max Performance Summer tires are for serious driving enthusiasts who want a combination of a performance appearance, competent handling and Z-speed rated (orhigher) durability with enhanced dry and wet traction. Often used as Original Equipment (O.E.) on powerful sports cars, performance coupes and high performancesedans, Max Performance Summer tires are not intended to be driven in near-freezing temperatures, through snow or on ice.",,,,,,,,,,100,0,1,0,0,1,1,1,0,1,1,,,1,0,1,0,1,0,1,0,0,0,1,245/45 R19 98Y,0,simple,,
admin,base,Tyre,simple,183,DUN45300-ZNQ,0,245/45 R20 103Y,,,/max050.png,/max050.png,/max050.png,,,,No layout updates,Product Info Column,,,,,Use config,Use config,No,100,,245/45 R20,245/45 R20,,,2017,Black Wall,"103 Y Load Index 103 =  1,929.03lbs (875kg) per tireSpeed Rating = 186.41mph (300kph)",Black Wall,2017,C,C,65,649,616.55,1,,Enabled,No,"Catalog, Search",Taxable Goods,Yes,No,No,"MAX050 is Dunlops Max Performance Summer tire developed for the drivers of sports cars, sporty coupes and high performance sedans. Dunlop Touch Technology combines sophisticated tire development and manufacturing techniques to enhance road feedback and driving precision. Like all summer tires, the SP Sport Maxx TT is not intended to be driven in near-freezing temperatures, through snow or on ice.",,,,,,,,,,100,0,1,0,0,1,1,1,0,1,1,,,1,0,1,0,1,0,1,0,0,0,1,245/45 R20 103Y,0,simple,,
admin,base,Tyre,simple,177,DUN50132,0,245/50 R18 100Y,,,/dunlop_sportmaxxgt.jpeg,/dunlop_sportmaxxgt.jpeg,/dunlop_sportmaxxgt.jpeg,,,,No layout updates,Product Info Column,,,,,Use config,Use config,No,100,,245/50 R18,245/50 R18,,,2017,Run Flat/Black Wall,"100 Y Load Index 100 =  1,763.68lbs (800kg) per tireSpeed Rating = 186.41mph (300kph)",Run Flat/Black Wall,2017,C,C,65,950,902.5,1,,Enabled,No,"Catalog, Search",Taxable Goods,Yes,No,No,"The SP Sport Maxx GT is Dunlops Max Performance Summer tire developed for the drivers of pure sports cars, powerful coupes and high performance sedans. SP Sport Maxx GT tires are designed to offer outstanding driver feedback and responsive handling, but like all summer tires are not intended to be driven in near-freezing temperatures, through snow or on ice.",,,,,,,,,,100,0,1,0,0,1,1,1,0,1,1,,,1,0,1,0,1,0,1,0,0,0,1,245/50 R18 100Y,0,simple,,
admin,base,Tyre,simple,175,DUN451,0,245/70 R16 106S,,,/dunlop_grandtrektg35.jpeg,/dunlop_grandtrektg35.jpeg,/dunlop_grandtrektg35.jpeg,,,,No layout updates,Product Info Column,,,,,Use config,Use config,No,100,,245/70 R16,245/70 R16,,,2017,Black Wall,"106 S Load Index 106 =  2,094.37lbs (950kg) per tireSpeed Rating = 111.85mph (180kph)",Black Wall,2017,C,C,65,609,578.55,1,,Enabled,No,"Catalog, Search",Taxable Goods,Yes,No,No,Developed with Toyota and endorsed as original equipment on their popular 4WD models. The TG35 M2 delivers superior on-road performance and solid off-road stability. It also features robust casing for enhanced strength in tough conditions.,,,,,,,,,,100,0,1,0,0,1,1,1,0,1,1,,,1,0,1,0,1,0,1,0,0,0,1,245/70 R16 106S,0,simple,,
admin,base,Tyre,simple,165,DUN699,0,245/70 R17 110S,,,/dunlop_grandtrekat20.jpeg,/dunlop_grandtrekat20.jpeg,/dunlop_grandtrekat20.jpeg,,,,No layout updates,Product Info Column,,,,,Use config,Use config,No,100,,245/70 R17,245/70 R17,,,2017,Black Wall,"110 S Load Index 110 =  2,336.88lbs (1060kg) per tireSpeed Rating = 111.85mph (180kph)",Black Wall,2017,C,C,65,695,660.25,1,,Enabled,No,"Catalog, Search",Taxable Goods,Yes,No,No,"The Grandtrek AT20 is Dunlops Highway All-Season light truck tire that was developed for the drivers of pickups and sport utility vehicles. The Grandtrek AT20 was designed to deliver low noise, a comfortable ride, and year-round traction, even in light snow.",,,,,,,,,,100,0,1,0,0,1,1,1,0,1,1,,,1,0,1,0,1,0,1,0,0,0,1,245/70 R17 110S,0,simple,,
admin,base,Tyre,simple,176,DUN698,0,245/75 R16 120/116S,,,/dunlop_tg20.jpeg,/dunlop_tg20.jpeg,/dunlop_tg20.jpeg,,,,No layout updates,Product Info Column,,,,,Use config,Use config,No,100,,245/75 R16,245/75 R16,,,2017,Black Wall,"120/116 S Load Index 120/116 =  3,086.44lbs (1400kg) per tireSpeed Rating = 111.85mph (180kph)",Black Wall,2017,C,C,65,609,578.55,1,,Enabled,No,"Catalog, Search",Taxable Goods,Yes,No,No,"This Tire has a rather fine tread pattern. Provides a comfortable ride with low noise. Grandtrek TG5 withstand dirt and cold, well controlled on level pavement.",,,,,,,,,,100,0,1,0,0,1,1,1,0,1,1,,,1,0,1,0,1,0,1,0,0,0,1,245/75 R16 120/116S,0,simple,,
admin,base,Tyre,simple,195,DUN713,0,245/75 R17 112H,,,/dunlop_tg20.jpeg,/dunlop_tg20.jpeg,/dunlop_tg20.jpeg,,,,No layout updates,Product Info Column,,,,,Use config,Use config,No,100,,245/75 R17,245/75 R17,,,2017,Black Wall,"112 H Load Index 112 =  2,469.15lbs (1120kg) per tireSpeed Rating = 130.49mph (210kph)",Black Wall,2017,C,C,65,590,560.5,1,,Enabled,No,"Catalog, Search",Taxable Goods,Yes,No,No,"The perfect 4WD tyres for drivers who spend as much time off the road as they do on it. The Road Gripper S is an exceptionally tough tyre, which delivers a superior performance in a variety of demanding conditions. It also meets the stringent tyre requirements of many leading 4WD manufacturers.",,,,,,,,,,100,0,1,0,0,1,1,1,0,1,1,,,1,0,1,0,1,0,1,0,0,0,1,245/75 R17 112H,0,simple,,
