store,websites,attribute_set,type,category_ids,sku,has_options,name,meta_title,meta_description,image,small_image,thumbnail,url_key,url_path,custom_design,page_layout,options_container,image_label,small_image_label,thumbnail_label,country_of_manufacture,msrp_enabled,msrp_display_actual_price_type,gift_message_available,width,ratio,size,diameter,car_make,car_model,car_year,sidewall_style,serv_desc,utqg,production_year,fuel,weather,sound,price,special_price,weight,msrp,status,is_recurring,visibility,tax_class_id,passenger,tyres4_4,vantyres,description,short_description,meta_keyword,custom_layout_update,special_from_date,special_to_date,news_from_date,news_to_date,custom_design_from,custom_design_to,qty,min_qty,use_config_min_qty,is_qty_decimal,backorders,use_config_backorders,min_sale_qty,use_config_min_sale_qty,max_sale_qty,use_config_max_sale_qty,is_in_stock,low_stock_date,notify_stock_qty,use_config_notify_stock_qty,manage_stock,use_config_manage_stock,stock_status_changed_auto,use_config_qty_increments,qty_increments,use_config_enable_qty_inc,enable_qty_increments,is_decimal_divided,stock_status_changed_automatically,use_config_enable_qty_increments,product_name,store_id,product_type_id,product_status_changed,product_changed_websites
admin,base,Tyre,simple,466,MIC789360,0,Energy XM2 GRNX,,,/michelin_mx2_grnx.jpeg,/michelin_mx2_grnx.jpeg,/michelin_mx2_grnx.jpeg,,,,No layout updates,Product Info Column,,,,,Use config,Use config,No,195,65,195/65 R15,15,,,2017,Black Wall,91 H,,2017,C,C,65,365,346.75,1,,Enabled,No,"Catalog, Search",Taxable Goods,Yes,No,No,"Michelin Energy XM2 has been able to achieve longer tyre life without sacrificing other performances; increased mileage compared to the average performance of leading competitors, meaning less frequent tyre replacements and more savings.Rolling resistance reduced by 10%, over its predecessor Michelin Energy XM1+ and features excellent braking performance in the wet. Improved tread grooves to evacuate up to 20% more water compared with Michelin Energy XM1+.",,,,,,,,,,100,0,1,0,0,1,1,1,0,1,1,,,1,0,1,0,1,0,1,0,0,0,1,Energy XM2 GRNX,0,simple,,
admin,base,Tyre,simple,466,MIC789360,0,Energy XM2 GRNX,,,/michelin_mx2_grnx.jpeg,/michelin_mx2_grnx.jpeg,/michelin_mx2_grnx.jpeg,,,,No layout updates,Product Info Column,,,,,Use config,Use config,No,195,65,195/65 R15,15,,,2017,Black Wall,91 H,,2017,C,C,65,365,346.75,1,,Enabled,No,"Catalog, Search",Taxable Goods,Yes,No,No,"Michelin Energy XM2 has been able to achieve longer tyre life without sacrificing other performances; increased mileage compared to the average performance of leading competitors, meaning less frequent tyre replacements and more savings.Rolling resistance reduced by 10%, over its predecessor Michelin Energy XM1+ and features excellent braking performance in the wet. Improved tread grooves to evacuate up to 20% more water compared with Michelin Energy XM1+.",,,,,,,,,,100,0,1,0,0,1,1,1,0,1,1,,,1,0,1,0,1,0,1,0,0,0,1,Energy XM2 GRNX,0,simple,,
admin,base,Tyre,simple,466,MIC784793,0,Agilis GRNX,,,/michelin_agilisgrnx.jpeg,/michelin_agilisgrnx.jpeg,/michelin_agilisgrnx.jpeg,,,,No layout updates,Product Info Column,,,,,Use config,Use config,No,195,70,195/70 R15,15,,,2017,Black Wall,104 R,,2017,C,C,65,499,474.05,1,,Enabled,No,"Catalog, Search",Taxable Goods,Yes,No,No,"Highway Rib Summer light truck tires are for drivers who want a combination of heavy-duty load capacity, even wear and low noise along with traction on dry and wet roads. Sometimes used as Original Equipment (O.E.) on medium and heavy-duty 2WD trucks, vans and pickups, Highway Rib Summer tires are not intended to be driven in near-freezing temperatures, through snow or on ice. O.E. Highway Rib Summer light truck tires are typically purchased as direct replacements for worn-out pairs/sets of the vehicle's original tires. They can also be used for other vehicle applications in complete sets of four or axle pairs if available in an appropriate size, load range and speed rating to match the existing O.E. tires' performance category and specifications.",,,,,,,,,,100,0,1,0,0,1,1,1,0,1,1,,,1,0,1,0,1,0,1,0,0,0,1,Agilis GRNX,0,simple,,
admin,base,Tyre,simple,466,MIC784793,0,Agilis GRNX,,,/michelin_agilisgrnx.jpeg,/michelin_agilisgrnx.jpeg,/michelin_agilisgrnx.jpeg,,,,No layout updates,Product Info Column,,,,,Use config,Use config,No,195,70,195/70 R15,15,,,2017,Black Wall,104 R,,2017,C,C,65,499,474.05,1,,Enabled,No,"Catalog, Search",Taxable Goods,Yes,No,No,"Highway Rib Summer light truck tires are for drivers who want a combination of heavy-duty load capacity, even wear and low noise along with traction on dry and wet roads. Sometimes used as Original Equipment (O.E.) on medium and heavy-duty 2WD trucks, vans and pickups, Highway Rib Summer tires are not intended to be driven in near-freezing temperatures, through snow or on ice. O.E. Highway Rib Summer light truck tires are typically purchased as direct replacements for worn-out pairs/sets of the vehicle's original tires. They can also be used for other vehicle applications in complete sets of four or axle pairs if available in an appropriate size, load range and speed rating to match the existing O.E. tires' performance category and specifications.",,,,,,,,,,100,0,1,0,0,1,1,1,0,1,1,,,1,0,1,0,1,0,1,0,0,0,1,Agilis GRNX,0,simple,,
admin,base,Tyre,simple,466,MIC503842,0,Agilis GRNX,,,/michelin_agilisgrnx.jpeg,/michelin_agilisgrnx.jpeg,/michelin_agilisgrnx.jpeg,,,,No layout updates,Product Info Column,,,,,Use config,Use config,No,195,75,195/75 R16,16,,,2017,Black Wall,107 R,,2017,C,C,65,629,597.55,1,,Enabled,No,"Catalog, Search",Taxable Goods,Yes,No,No,"Highway Rib Summer light truck tires are for drivers who want a combination of heavy-duty load capacity, even wear and low noise along with traction on dry and wet roads. Sometimes used as Original Equipment (O.E.) on medium and heavy-duty 2WD trucks, vans and pickups, Highway Rib Summer tires are not intended to be driven in near-freezing temperatures, through snow or on ice. O.E. Highway Rib Summer light truck tires are typically purchased as direct replacements for worn-out pairs/sets of the vehicle's original tires. They can also be used for other vehicle applications in complete sets of four or axle pairs if available in an appropriate size, load range and speed rating to match the existing O.E. tires' performance category and specifications.",,,,,,,,,,100,0,1,0,0,1,1,1,0,1,1,,,1,0,1,0,1,0,1,0,0,0,1,Agilis GRNX,0,simple,,
admin,base,Tyre,simple,466,MIC503842,0,Agilis GRNX,,,/michelin_agilisgrnx.jpeg,/michelin_agilisgrnx.jpeg,/michelin_agilisgrnx.jpeg,,,,No layout updates,Product Info Column,,,,,Use config,Use config,No,195,75,195/75 R16,16,,,2017,Black Wall,107 R,,2017,C,C,65,629,597.55,1,,Enabled,No,"Catalog, Search",Taxable Goods,Yes,No,No,"Highway Rib Summer light truck tires are for drivers who want a combination of heavy-duty load capacity, even wear and low noise along with traction on dry and wet roads. Sometimes used as Original Equipment (O.E.) on medium and heavy-duty 2WD trucks, vans and pickups, Highway Rib Summer tires are not intended to be driven in near-freezing temperatures, through snow or on ice. O.E. Highway Rib Summer light truck tires are typically purchased as direct replacements for worn-out pairs/sets of the vehicle's original tires. They can also be used for other vehicle applications in complete sets of four or axle pairs if available in an appropriate size, load range and speed rating to match the existing O.E. tires' performance category and specifications.",,,,,,,,,,100,0,1,0,0,1,1,1,0,1,1,,,1,0,1,0,1,0,1,0,0,0,1,Agilis GRNX,0,simple,,
admin,base,Tyre,simple,466,MIC934011,0,Pilot Sport3 GRNX,,,/michelin_pilotsport3grnx_.jpeg,/michelin_pilotsport3grnx_.jpeg,/michelin_pilotsport3grnx_.jpeg,,,,No layout updates,Product Info Column,,,,,Use config,Use config,No,205,45,205/45 R17,17,,,2017,Black Wall,88 V,,2017,C,C,65,645,612.75,1,,Enabled,No,"Catalog, Search",Taxable Goods,Yes,No,No,"The Pilot Sport 3 is Michelin's Max Performance Summer tire developed as Original Equipment for premium high-performance sports cars, coupes and sedans. Based on Michelin expertise from over a dozen consecutive Le Mans 24-Hour Race victories, the Pilot Sport 3 is an eco-friendly sport tire with Green X branded on its sidewalls to guarantee it offers one of the best energy efficiency levels on the market. The Pilot Sport 3 is designed to balance tread life, fuel efficiency and road gripping performance in dry and wet conditions. However, like all summer tires, they are not intended to be driven in near freezing temperatures, through snow or on ice. The Pilot Sport 3 features Michelin's Green Power Compound to combine grip on wet surfaces with fuel savings and greater longevity. This compound is molded into an asymmetric tread design to enhance dry road response and cornering while Michelin's Anti Surf System combines an optimized profile and tread grooves to cut through puddles and standing water to resist hydroplaning and deliver shorter wet braking distances.",,,,,,,,,,100,0,1,0,0,1,1,1,0,1,1,,,1,0,1,0,1,0,1,0,0,0,1,Pilot Sport3 GRNX,0,simple,,
admin,base,Tyre,simple,466,MIC934011,0,Pilot Sport3 GRNX,,,/michelin_pilotsport3grnx_.jpeg,/michelin_pilotsport3grnx_.jpeg,/michelin_pilotsport3grnx_.jpeg,,,,No layout updates,Product Info Column,,,,,Use config,Use config,No,205,45,205/45 R17,17,,,2017,Black Wall,88 V,,2017,C,C,65,645,612.75,1,,Enabled,No,"Catalog, Search",Taxable Goods,Yes,No,No,"The Pilot Sport 3 is Michelin's Max Performance Summer tire developed as Original Equipment for premium high-performance sports cars, coupes and sedans. Based on Michelin expertise from over a dozen consecutive Le Mans 24-Hour Race victories, the Pilot Sport 3 is an eco-friendly sport tire with Green X branded on its sidewalls to guarantee it offers one of the best energy efficiency levels on the market. The Pilot Sport 3 is designed to balance tread life, fuel efficiency and road gripping performance in dry and wet conditions. However, like all summer tires, they are not intended to be driven in near freezing temperatures, through snow or on ice. The Pilot Sport 3 features Michelin's Green Power Compound to combine grip on wet surfaces with fuel savings and greater longevity. This compound is molded into an asymmetric tread design to enhance dry road response and cornering while Michelin's Anti Surf System combines an optimized profile and tread grooves to cut through puddles and standing water to resist hydroplaning and deliver shorter wet braking distances.",,,,,,,,,,100,0,1,0,0,1,1,1,0,1,1,,,1,0,1,0,1,0,1,0,0,0,1,Pilot Sport3 GRNX,0,simple,,
admin,base,Tyre,simple,466,MIC-205/55R1691V/ANF,0,Energy Saver Plus,,,/energy_saver.png,/energy_saver.png,/energy_saver.png,,,,No layout updates,Product Info Column,,,,,Use config,Use config,No,205,55,205/55 R16,16,,,2017,Black Wall,91 V,,2017,C,C,65,390,370.5,1,,Enabled,No,"Catalog, Search",Taxable Goods,Yes,No,No,"The Energy Saver A/S features Michelin's EnergySaver Construction combined with a unique silica-based tread rubber that helps improve engine fuel efficiency by keeping the tire cooler. This compound is molded into a symmetric design that features siped, independent tread blocks to combine predictable handling, no compromise stopping performance and all-season traction without trading fuel efficiency. Circumferential and lateral grooves direct water through the tread design to help resist hydroplaning and enhance wet traction. Michelin Comfort Control Technology uses computer-optimized design and precision manufacturing to reduce vibrations and road noise to keep the vehicle quiet. The tire's internal structure includes twin steel belts reinforced by spirally wrapped polyamide on top of a polyester cord casing to combine strength, efficiency and comfort.",,,,,,,,,,100,0,1,0,0,1,1,1,0,1,1,,,1,0,1,0,1,0,1,0,0,0,1,Energy Saver Plus,0,simple,,
admin,base,Tyre,simple,466,MIC412394,0,Primacy 3 GRNX,,,/michelin_primacy3.jpeg,/michelin_primacy3.jpeg,/michelin_primacy3.jpeg,,,,No layout updates,Product Info Column,,,,,Use config,Use config,No,205,55,205/55 R16,16,,,2017,Black Wall,91 V,,2017,C,C,65,409,388.55,1,,Enabled,No,"Catalog, Search",Taxable Goods,Yes,No,No,"The Primacy 3 is Michelin's Grand Touring Summer tire developed for luxury coupe and sedan drivers looking for warm-weather tires that combine good ride and low noise with better braking, steering control and handling on wet roads. Designed to enhance vehicle fuel efficiency and reduce CO2 gas emissions, Primacy 3 tires meet Michelin's Green X standard* for low rolling resistance. While Primacy 3 tires are designed to offer reliable traction in dry and wet conditions in warm ambient temperatures, they are not intended to be driven in near-freezing temperatures, through snow or on ice. Primacy 3 tires feature a new generation Michelin tread compound molded into a symmetric tread design that has a notched center rib flanked by independent intermediate ribs and large shoulder blocks to combine responsive handling and high-speed stability with traction and even treadwear. The Primacy 3 tire's structure includes twin steel belts reinforced by size-optimized BAZ Technology (spirally-wrapped Polyamide Banded At Zero degrees to tire rotation) to enhance ride quality while providing high-speed durability.",,,,,,,,,,100,0,1,0,0,1,1,1,0,1,1,,,1,0,1,0,1,0,1,0,0,0,1,Primacy 3 GRNX,0,simple,,
admin,base,Tyre,simple,466,MIC412394,0,Primacy 3 GRNX,,,/michelin_primacy3.jpeg,/michelin_primacy3.jpeg,/michelin_primacy3.jpeg,,,,No layout updates,Product Info Column,,,,,Use config,Use config,No,205,55,205/55 R16,16,,,2017,Black Wall,91 V,,2017,C,C,65,409,388.55,1,,Enabled,No,"Catalog, Search",Taxable Goods,Yes,No,No,"The Primacy 3 is Michelin's Grand Touring Summer tire developed for luxury coupe and sedan drivers looking for warm-weather tires that combine good ride and low noise with better braking, steering control and handling on wet roads. Designed to enhance vehicle fuel efficiency and reduce CO2 gas emissions, Primacy 3 tires meet Michelin's Green X standard* for low rolling resistance. While Primacy 3 tires are designed to offer reliable traction in dry and wet conditions in warm ambient temperatures, they are not intended to be driven in near-freezing temperatures, through snow or on ice. Primacy 3 tires feature a new generation Michelin tread compound molded into a symmetric tread design that has a notched center rib flanked by independent intermediate ribs and large shoulder blocks to combine responsive handling and high-speed stability with traction and even treadwear. The Primacy 3 tire's structure includes twin steel belts reinforced by size-optimized BAZ Technology (spirally-wrapped Polyamide Banded At Zero degrees to tire rotation) to enhance ride quality while providing high-speed durability.",,,,,,,,,,100,0,1,0,0,1,1,1,0,1,1,,,1,0,1,0,1,0,1,0,0,0,1,Primacy 3 GRNX,0,simple,,
admin,base,Tyre,simple,466,MIC325838,0,Primacy 3 ZP*,,,/michelin_primacy3_14.jpeg,/michelin_primacy3_14.jpeg,/michelin_primacy3_14.jpeg,,,,No layout updates,Product Info Column,,,,,Use config,Use config,No,205,55,205/55 R16,16,,,2017,Run Flat/Black Wall,91 V,,2017,C,C,65,619,588.05,1,,Enabled,No,"Catalog, Search",Taxable Goods,Yes,No,No,"The Primacy 3 is Michelin's Grand Touring Summer tire developed for luxury coupe and sedan drivers looking for warm-weather tires that combine good ride and low noise with better braking, steering control and handling on wet roads. Designed to enhance vehicle fuel efficiency and reduce CO2 gas emissions, Primacy 3 tires meet Michelin's Green X standard* for low rolling resistance. While Primacy 3 tires are designed to offer reliable traction in dry and wet conditions in warm ambient temperatures, they are not intended to be driven in near-freezing temperatures, through snow or on ice. Primacy 3 tires feature a new generation Michelin tread compound molded into a symmetric tread design that has a notched center rib flanked by independent intermediate ribs and large shoulder blocks to combine responsive handling and high-speed stability with traction and even treadwear. The Primacy 3 tire's structure includes twin steel belts reinforced by size-optimized BAZ Technology (spirally-wrapped Polyamide Banded At Zero degrees to tire rotation) to enhance ride quality while providing high-speed durability.",,,,,,,,,,100,0,1,0,0,1,1,1,0,1,1,,,1,0,1,0,1,0,1,0,0,0,1,Primacy 3 ZP*,0,simple,,
admin,base,Tyre,simple,466,MIC451376,0,Energy XM2 GRNX,,,/michelin_mx2_grnx.jpeg,/michelin_mx2_grnx.jpeg,/michelin_mx2_grnx.jpeg,,,,No layout updates,Product Info Column,,,,,Use config,Use config,No,205,60,205/60 R15,15,,,2017,Black Wall,91 H,,2017,C,C,65,399,379.05,1,,Enabled,No,"Catalog, Search",Taxable Goods,Yes,No,No,"Michelin Energy XM2 has been able to achieve longer tyre life without sacrificing other performances; increased mileage compared to the average performance of leading competitors, meaning less frequent tyre replacements and more savings.Rolling resistance reduced by 10%, over its predecessor Michelin Energy XM1+ and features excellent braking performance in the wet. Improved tread grooves to evacuate up to 20% more water compared with Michelin Energy XM1+.",,,,,,,,,,100,0,1,0,0,1,1,1,0,1,1,,,1,0,1,0,1,0,1,0,0,0,1,Energy XM2 GRNX,0,simple,,
admin,base,Tyre,simple,466,MIC451376,0,Energy XM2 GRNX,,,/michelin_mx2_grnx.jpeg,/michelin_mx2_grnx.jpeg,/michelin_mx2_grnx.jpeg,,,,No layout updates,Product Info Column,,,,,Use config,Use config,No,205,60,205/60 R15,15,,,2017,Black Wall,91 H,,2017,C,C,65,399,379.05,1,,Enabled,No,"Catalog, Search",Taxable Goods,Yes,No,No,"Michelin Energy XM2 has been able to achieve longer tyre life without sacrificing other performances; increased mileage compared to the average performance of leading competitors, meaning less frequent tyre replacements and more savings.Rolling resistance reduced by 10%, over its predecessor Michelin Energy XM1+ and features excellent braking performance in the wet. Improved tread grooves to evacuate up to 20% more water compared with Michelin Energy XM1+.",,,,,,,,,,100,0,1,0,0,1,1,1,0,1,1,,,1,0,1,0,1,0,1,0,0,0,1,Energy XM2 GRNX,0,simple,,
admin,base,Tyre,simple,466,MIC411487,0,Energy SAVER MO,,,/michelinenergysaver_1.jpg,/michelinenergysaver_1.jpg,/michelinenergysaver_1.jpg,,,,No layout updates,Product Info Column,,,,,Use config,Use config,No,205,60,205/60 R16,16,,,2017,Black Wall,92 V,,2017,C,C,65,489,464.55,1,,Enabled,No,"Catalog, Search",Taxable Goods,Yes,No,No,"The Energy Saver A/S features Michelin's EnergySaver Construction combined with a unique silica-based tread rubber that helps improve engine fuel efficiency by keeping the tire cooler. This compound is molded into a symmetric design that features siped, independent tread blocks to combine predictable handling, no compromise stopping performance and all-season traction without trading fuel efficiency. Circumferential and lateral grooves direct water through the tread design to help resist hydroplaning and enhance wet traction. Michelin Comfort Control Technology uses computer-optimized design and precision manufacturing to reduce vibrations and road noise to keep the vehicle quiet. The tire's internal structure includes twin steel belts reinforced by spirally wrapped polyamide on top of a polyester cord casing to combine strength, efficiency and comfort.",,,,,,,,,,100,0,1,0,0,1,1,1,0,1,1,,,1,0,1,0,1,0,1,0,0,0,1,Energy SAVER MO,0,simple,,
admin,base,Tyre,simple,466,MIC546000,0,Energy XM2 GRNX,,,/michelin_mx2_grnx.jpeg,/michelin_mx2_grnx.jpeg,/michelin_mx2_grnx.jpeg,,,,No layout updates,Product Info Column,,,,,Use config,Use config,No,205,65,205/65 R15,15,,,2017,Black Wall,94 H,,2017,C,C,65,389,369.55,1,,Enabled,No,"Catalog, Search",Taxable Goods,Yes,No,No,"Michelin Energy XM2 has been able to achieve longer tyre life without sacrificing other performances; increased mileage compared to the average performance of leading competitors, meaning less frequent tyre replacements and more savings.Rolling resistance reduced by 10%, over its predecessor Michelin Energy XM1+ and features excellent braking performance in the wet. Improved tread grooves to evacuate up to 20% more water compared with Michelin Energy XM1+.",,,,,,,,,,100,0,1,0,0,1,1,1,0,1,1,,,1,0,1,0,1,0,1,0,0,0,1,Energy XM2 GRNX,0,simple,,
admin,base,Tyre,simple,466,MIC546000,0,Energy XM2 GRNX,,,/michelin_mx2_grnx.jpeg,/michelin_mx2_grnx.jpeg,/michelin_mx2_grnx.jpeg,,,,No layout updates,Product Info Column,,,,,Use config,Use config,No,205,65,205/65 R15,15,,,2017,Black Wall,94 H,,2017,C,C,65,389,369.55,1,,Enabled,No,"Catalog, Search",Taxable Goods,Yes,No,No,"Michelin Energy XM2 has been able to achieve longer tyre life without sacrificing other performances; increased mileage compared to the average performance of leading competitors, meaning less frequent tyre replacements and more savings.Rolling resistance reduced by 10%, over its predecessor Michelin Energy XM1+ and features excellent braking performance in the wet. Improved tread grooves to evacuate up to 20% more water compared with Michelin Energy XM1+.",,,,,,,,,,100,0,1,0,0,1,1,1,0,1,1,,,1,0,1,0,1,0,1,0,0,0,1,Energy XM2 GRNX,0,simple,,
admin,base,Tyre,simple,466,MIC987887-2016,0,Energy XM2 GRNX,,,/michelin_mx2_grnx_2.jpeg,/michelin_mx2_grnx_2.jpeg,/michelin_mx2_grnx_2.jpeg,,,,No layout updates,Product Info Column,,,,,Use config,Use config,No,205,65,205/65 R15,15,,,2017,Black Wall,94 V,,2017,C,C,65,403,382.85,1,,Enabled,No,"Catalog, Search",Taxable Goods,Yes,No,No,"Michelin Energy XM2 has been able to achieve longer tyre life without sacrificing other performances; increased mileage compared to the average performance of leading competitors, meaning less frequent tyre replacements and more savings.Rolling resistance reduced by 10%, over its predecessor Michelin Energy XM1+ and features excellent braking performance in the wet. Improved tread grooves to evacuate up to 20% more water compared with Michelin Energy XM1+.",,,,,,,,,,100,0,1,0,0,1,1,1,0,1,1,,,1,0,1,0,1,0,1,0,0,0,1,Energy XM2 GRNX,0,simple,,
admin,base,Tyre,simple,466,MIC987887,0,Energy XM2 GRNX,,,/michelin_mx2_grnx.jpeg,/michelin_mx2_grnx.jpeg,/michelin_mx2_grnx.jpeg,,,,No layout updates,Product Info Column,,,,,Use config,Use config,No,205,65,205/65 R15,15,,,2017,Black Wall,94 V,,2017,C,C,65,417,396.15,1,,Enabled,No,"Catalog, Search",Taxable Goods,Yes,No,No,"Michelin Energy XM2 has been able to achieve longer tyre life without sacrificing other performances; increased mileage compared to the average performance of leading competitors, meaning less frequent tyre replacements and more savings.Rolling resistance reduced by 10%, over its predecessor Michelin Energy XM1+ and features excellent braking performance in the wet. Improved tread grooves to evacuate up to 20% more water compared with Michelin Energy XM1+.",,,,,,,,,,100,0,1,0,0,1,1,1,0,1,1,,,1,0,1,0,1,0,1,0,0,0,1,Energy XM2 GRNX,0,simple,,
admin,base,Tyre,simple,466,MIC987887-2016,0,Energy XM2 GRNX,,,/michelin_mx2_grnx_2.jpeg,/michelin_mx2_grnx_2.jpeg,/michelin_mx2_grnx_2.jpeg,,,,No layout updates,Product Info Column,,,,,Use config,Use config,No,205,65,205/65 R15,15,,,2017,Black Wall,94 V,,2017,C,C,65,403,382.85,1,,Enabled,No,"Catalog, Search",Taxable Goods,Yes,No,No,"Michelin Energy XM2 has been able to achieve longer tyre life without sacrificing other performances; increased mileage compared to the average performance of leading competitors, meaning less frequent tyre replacements and more savings.Rolling resistance reduced by 10%, over its predecessor Michelin Energy XM1+ and features excellent braking performance in the wet. Improved tread grooves to evacuate up to 20% more water compared with Michelin Energy XM1+.",,,,,,,,,,100,0,1,0,0,1,1,1,0,1,1,,,1,0,1,0,1,0,1,0,0,0,1,Energy XM2 GRNX,0,simple,,
admin,base,Tyre,simple,466,MIC987887,0,Energy XM2 GRNX,,,/michelin_mx2_grnx.jpeg,/michelin_mx2_grnx.jpeg,/michelin_mx2_grnx.jpeg,,,,No layout updates,Product Info Column,,,,,Use config,Use config,No,205,65,205/65 R15,15,,,2017,Black Wall,94 V,,2017,C,C,65,417,396.15,1,,Enabled,No,"Catalog, Search",Taxable Goods,Yes,No,No,"Michelin Energy XM2 has been able to achieve longer tyre life without sacrificing other performances; increased mileage compared to the average performance of leading competitors, meaning less frequent tyre replacements and more savings.Rolling resistance reduced by 10%, over its predecessor Michelin Energy XM1+ and features excellent braking performance in the wet. Improved tread grooves to evacuate up to 20% more water compared with Michelin Energy XM1+.",,,,,,,,,,100,0,1,0,0,1,1,1,0,1,1,,,1,0,1,0,1,0,1,0,0,0,1,Energy XM2 GRNX,0,simple,,
admin,base,Tyre,simple,466,MIC837582,0,Agilis GRNX,,,/michelin_agilisgrnx.jpeg,/michelin_agilisgrnx.jpeg,/michelin_agilisgrnx.jpeg,,,,No layout updates,Product Info Column,,,,,Use config,Use config,No,205,65,205/65 R16,16,,,2017,Black Wall,107 T,,2017,C,C,65,599,569.05,1,,Enabled,No,"Catalog, Search",Taxable Goods,Yes,No,No,"Highway Rib Summer light truck tires are for drivers who want a combination of heavy-duty load capacity, even wear and low noise along with traction on dry and wet roads. Sometimes used as Original Equipment (O.E.) on medium and heavy-duty 2WD trucks, vans and pickups, Highway Rib Summer tires are not intended to be driven in near-freezing temperatures, through snow or on ice. O.E. Highway Rib Summer light truck tires are typically purchased as direct replacements for worn-out pairs/sets of the vehicle's original tires. They can also be used for other vehicle applications in complete sets of four or axle pairs if available in an appropriate size, load range and speed rating to match the existing O.E. tires' performance category and specifications.",,,,,,,,,,100,0,1,0,0,1,1,1,0,1,1,,,1,0,1,0,1,0,1,0,0,0,1,Agilis GRNX,0,simple,,
admin,base,Tyre,simple,466,MIC837582,0,Agilis GRNX,,,/michelin_agilisgrnx.jpeg,/michelin_agilisgrnx.jpeg,/michelin_agilisgrnx.jpeg,,,,No layout updates,Product Info Column,,,,,Use config,Use config,No,205,65,205/65 R16,16,,,2017,Black Wall,107 T,,2017,C,C,65,599,569.05,1,,Enabled,No,"Catalog, Search",Taxable Goods,Yes,No,No,"Highway Rib Summer light truck tires are for drivers who want a combination of heavy-duty load capacity, even wear and low noise along with traction on dry and wet roads. Sometimes used as Original Equipment (O.E.) on medium and heavy-duty 2WD trucks, vans and pickups, Highway Rib Summer tires are not intended to be driven in near-freezing temperatures, through snow or on ice. O.E. Highway Rib Summer light truck tires are typically purchased as direct replacements for worn-out pairs/sets of the vehicle's original tires. They can also be used for other vehicle applications in complete sets of four or axle pairs if available in an appropriate size, load range and speed rating to match the existing O.E. tires' performance category and specifications.",,,,,,,,,,100,0,1,0,0,1,1,1,0,1,1,,,1,0,1,0,1,0,1,0,0,0,1,Agilis GRNX,0,simple,,
admin,base,Tyre,simple,466,MIC382988,0,Agilis GRNX,,,/michelin_agilisgrnx.jpeg,/michelin_agilisgrnx.jpeg,/michelin_agilisgrnx.jpeg,,,,No layout updates,Product Info Column,,,,,Use config,Use config,No,205,70,205/70 R15,15,,,2017,Black Wall,106 R,,2017,C,C,65,519,493.05,1,,Enabled,No,"Catalog, Search",Taxable Goods,Yes,No,No,"Highway Rib Summer light truck tires are for drivers who want a combination of heavy-duty load capacity, even wear and low noise along with traction on dry and wet roads. Sometimes used as Original Equipment (O.E.) on medium and heavy-duty 2WD trucks, vans and pickups, Highway Rib Summer tires are not intended to be driven in near-freezing temperatures, through snow or on ice. O.E. Highway Rib Summer light truck tires are typically purchased as direct replacements for worn-out pairs/sets of the vehicle's original tires. They can also be used for other vehicle applications in complete sets of four or axle pairs if available in an appropriate size, load range and speed rating to match the existing O.E. tires' performance category and specifications.",,,,,,,,,,100,0,1,0,0,1,1,1,0,1,1,,,1,0,1,0,1,0,1,0,0,0,1,Agilis GRNX,0,simple,,
admin,base,Tyre,simple,466,MIC382988,0,Agilis GRNX,,,/michelin_agilisgrnx.jpeg,/michelin_agilisgrnx.jpeg,/michelin_agilisgrnx.jpeg,,,,No layout updates,Product Info Column,,,,,Use config,Use config,No,205,70,205/70 R15,15,,,2017,Black Wall,106 R,,2017,C,C,65,519,493.05,1,,Enabled,No,"Catalog, Search",Taxable Goods,Yes,No,No,"Highway Rib Summer light truck tires are for drivers who want a combination of heavy-duty load capacity, even wear and low noise along with traction on dry and wet roads. Sometimes used as Original Equipment (O.E.) on medium and heavy-duty 2WD trucks, vans and pickups, Highway Rib Summer tires are not intended to be driven in near-freezing temperatures, through snow or on ice. O.E. Highway Rib Summer light truck tires are typically purchased as direct replacements for worn-out pairs/sets of the vehicle's original tires. They can also be used for other vehicle applications in complete sets of four or axle pairs if available in an appropriate size, load range and speed rating to match the existing O.E. tires' performance category and specifications.",,,,,,,,,,100,0,1,0,0,1,1,1,0,1,1,,,1,0,1,0,1,0,1,0,0,0,1,Agilis GRNX,0,simple,,
