sku,short_description
DUN65021,Dunlop
DUN65269,Dunlop
DUN60012,Dunlop
DUN65023,Dunlop
DUN55014,Dunlop
DUN60007,Dunlop
DUN65178,Dunlop
DUN65024,Dunlop
DUN541,Dunlop
DUN55009,Dunlop
DUN60338,Dunlop
DUN60005,Dunlop
DUN65026,Dunlop
DUN65025,Dunlop
DUN542,Dunlop
DUN45019,Dunlop
DUN50022,Dunlop
DUN55020,Dunlop
DUN60006,Dunlop
DUN70018,Dunlop
DUN40241-ZNQ,Dunlop
DUN40021,Dunlop
DUN45016,Dunlop
DUN45018,Dunlop
