store,websites,attribute_set,type,category_ids,sku,has_options,name,meta_title,meta_description,url_key,url_path,custom_design,page_layout,options_container,image_label,small_image_label,thumbnail_label,country_of_manufacture,msrp_enabled,msrp_display_actual_price_type,gift_message_available,width,ratio,diameter,car_make,car_model,car_year,sidewall_style,serv_desc,utqg,production_year,fuel,weather,sound,size,price,special_price,weight,msrp,status,is_recurring,visibility,tax_class_id,passenger,tyres4_4,vantyres,description,short_description,meta_keyword,custom_layout_update,special_from_date,special_to_date,news_from_date,news_to_date,custom_design_from,custom_design_to,qty,min_qty,use_config_min_qty,is_qty_decimal,backorders,use_config_backorders,min_sale_qty,use_config_min_sale_qty,max_sale_qty,use_config_max_sale_qty,is_in_stock,low_stock_date,notify_stock_qty,use_config_notify_stock_qty,manage_stock,use_config_manage_stock,stock_status_changed_auto,use_config_qty_increments,qty_increments,use_config_enable_qty_inc,enable_qty_increments,is_decimal_divided,stock_status_changed_automatically,use_config_enable_qty_increments,product_name,store_id,product_type_id,product_status_changed,product_changed_websites,website,_media_image,_media_lable,_media_position,_media_is_disabled
admin,base,Tyre,simple,38,PIR0120,0,PZ ROSSO N1 ,,,,,,No layout updates,Product Info Column,,,,,Use config,,,275,40,20,,,,Black Wall,106Y,,2017,B,C,65,275/40,798,760,0,,Enabled,No,"Catalog, Search",Taxable Goods,Yes,No,No,Pirelli,Pirelli,,,,,,,,,100,0,1,0,0,1,1,1,0,1,1,,,1,0,1,0,1,0,1,0,0,0,1,PZ ROSSO N1 ,0,simple,,,,,,,
admin,base,Tyre,simple,38,PIR0121,0,SCO VRD A/S LR NC,,,,,,No layout updates,Product Info Column,,,,,Use config,,,275,40,22,,,,Black Wall,108Y,,2017,B,C,65,275/40,1302,"1,240.00",0,,Enabled,No,"Catalog, Search",Taxable Goods,Yes,No,No,Pirelli,Pirelli,,,,,,,,,100,0,1,0,0,1,1,1,0,1,1,,,1,0,1,0,1,0,1,0,0,0,1,SCO VRD A/S LR NC,0,simple,,,,,,,
admin,base,Tyre,simple,38,PIR0122,0,XL SC-VERDEAS,,,,,,No layout updates,Product Info Column,,,,,Use config,,,275,45,20,,,,Black Wall,110V,,2017,B,C,65,275/45,777,740,0,,Enabled,No,"Catalog, Search",Taxable Goods,Yes,No,No,Pirelli,Pirelli,,,,,,,,,100,0,1,0,0,1,1,1,0,1,1,,,1,0,1,0,1,0,1,0,0,0,1,XL SC-VERDEAS,0,simple,,,,,,,
admin,base,Tyre,simple,38,PIR0123,0,PZ-ROSSO AO ,,,,,,No layout updates,Product Info Column,,,,,Use config,,,275,45,20,,,,Black Wall,110Y,,2017,B,C,65,275/45,903,860,0,,Enabled,No,"Catalog, Search",Taxable Goods,Yes,No,No,Pirelli,Pirelli,,,,,,,,,100,0,1,0,0,1,1,1,0,1,1,,,1,0,1,0,1,0,1,0,0,0,1,PZ-ROSSO AO ,0,simple,,,,,,,
admin,base,Tyre,simple,38,PIR0124,0,SCORP VERDE AS XL,,,,,,No layout updates,Product Info Column,,,,,Use config,,,275,45,21,,,,Black Wall,110Y,,2017,B,C,65,275/45,798,760,0,,Enabled,No,"Catalog, Search",Taxable Goods,Yes,No,No,Pirelli,Pirelli,,,,,,,,,100,0,1,0,0,1,1,1,0,1,1,,,1,0,1,0,1,0,1,0,0,0,1,SCORP VERDE AS XL,0,simple,,,,,,,
admin,base,Tyre,simple,38,PIR0125,0,SC-VERDEAS ,,,,,,No layout updates,Product Info Column,,,,,Use config,,,275,50,20,,,,Black Wall,109H,,2017,B,C,65,275/50,882,840,0,,Enabled,No,"Catalog, Search",Taxable Goods,Yes,No,No,Pirelli,Pirelli,,,,,,,,,100,0,1,0,0,1,1,1,0,1,1,,,1,0,1,0,1,0,1,0,0,0,1,SC-VERDEAS ,0,simple,,,,,,,
admin,base,Tyre,simple,38,PIR0126,0,SC-VERDEAS MO ,,,,,,No layout updates,Product Info Column,,,,,Use config,,,275,50,20,,,,Black Wall,109W,,2017,B,C,65,275/50,934.5,890,0,,Enabled,No,"Catalog, Search",Taxable Goods,Yes,No,No,Pirelli,Pirelli,,,,,,,,,100,0,1,0,0,1,1,1,0,1,1,,,1,0,1,0,1,0,1,0,0,0,1,SC-VERDEAS MO ,0,simple,,,,,,,
admin,base,Tyre,simple,38,PIR0127,0,SC-VERDEAS B ,,,,,,No layout updates,Product Info Column,,,,,Use config,,,275,50,20,,,,Black Wall,113W,,2017,B,C,65,275/50,714,680,0,,Enabled,No,"Catalog, Search",Taxable Goods,Yes,No,No,Pirelli,Pirelli,,,,,,,,,100,0,1,0,0,1,1,1,0,1,1,,,1,0,1,0,1,0,1,0,0,0,1,SC-VERDEAS B ,0,simple,,,,,,,
admin,base,Tyre,simple,38,PIR0128,0,SORPION VERDE A/S+,,,,,,No layout updates,Product Info Column,,,,,Use config,,,275,50,22,,,,Black Wall,111H,,2017,B,C,65,275/50,682.5,650,0,,Enabled,No,"Catalog, Search",Taxable Goods,Yes,No,No,Pirelli,Pirelli,,,,,,,,,100,0,1,0,0,1,1,1,0,1,1,,,1,0,1,0,1,0,1,0,0,0,1,SORPION VERDE A/S+,0,simple,,,,,,,
admin,base,Tyre,simple,38,PIR0129,0,SCORPION STR,,,,,,No layout updates,Product Info Column,,,,,Use config,,,275,55,20,,,,Black Wall,111H,,2017,B,C,65,275/55,420,400,0,,Enabled,No,"Catalog, Search",Taxable Goods,Yes,No,No,Pirelli,Pirelli,,,,,,,,,100,0,1,0,0,1,1,1,0,1,1,,,1,0,1,0,1,0,1,0,0,0,1,SCORPION STR,0,simple,,,,,,,
admin,base,Tyre,simple,38,PIR0130,0,SCORPION STR ,,,,,,No layout updates,Product Info Column,,,,,Use config,,,275,55,20,,,,Black Wall,111H,,2017,B,C,65,275/55,556.5,530,0,,Enabled,No,"Catalog, Search",Taxable Goods,Yes,No,No,Pirelli,Pirelli,,,,,,,,,100,0,1,0,0,1,1,1,0,1,1,,,1,0,1,0,1,0,1,0,0,0,1,SCORPION STR ,0,simple,,,,,,,
admin,base,Tyre,simple,38,PIR0131,0,PZERO XL MO ,,,,,,No layout updates,Product Info Column,,,,,Use config,,,285,30,19,,,,Black Wall,98Y,,2017,B,C,65,285/30,945,900,0,,Enabled,No,"Catalog, Search",Taxable Goods,Yes,No,No,Pirelli,Pirelli,,,,,,,,,100,0,1,0,0,1,1,1,0,1,1,,,1,0,1,0,1,0,1,0,0,0,1,PZERO XL MO ,0,simple,,,,,,,
admin,base,Tyre,simple,38,PIR0132,0,PZERO,,,,,,No layout updates,Product Info Column,,,,,Use config,,,285,30,20,,,,Black Wall,99Y,,2017,B,C,65,285/30,1260,"1,200.00",0,,Enabled,No,"Catalog, Search",Taxable Goods,Yes,No,No,Pirelli,Pirelli,,,,,,,,,100,0,1,0,0,1,1,1,0,1,1,,,1,0,1,0,1,0,1,0,0,0,1,PZERO,0,simple,,,,,,,
admin,base,Tyre,simple,38,PIR0133,0, PZERO  MGT,,,,,,No layout updates,Product Info Column,,,,,Use config,,,285,30,21,,,,Black Wall,100Y,,2017,B,C,65,285/30,1291.5,"1,230.00",0,,Enabled,No,"Catalog, Search",Taxable Goods,Yes,No,No,Pirelli,Pirelli,,,,,,,,,100,0,1,0,0,1,1,1,0,1,1,,,1,0,1,0,1,0,1,0,0,0,1, PZERO  MGT,0,simple,,,,,,,
admin,base,Tyre,simple,38,PIR0134,0,PZERO MO -,,,,,,No layout updates,Product Info Column,,,,,Use config,,,285,35,18,,,,Black Wall,97Y,,2017,B,C,65,285/35,934.5,890,0,,Enabled,No,"Catalog, Search",Taxable Goods,Yes,No,No,Pirelli,Pirelli,,,,,,,,,100,0,1,0,0,1,1,1,0,1,1,,,1,0,1,0,1,0,1,0,0,0,1,PZERO MO -,0,simple,,,,,,,
admin,base,Tyre,simple,38,PIR0135,0,PZ-ROSSO F,,,,,,No layout updates,Product Info Column,,,,,Use config,,,285,35,19,,,,Black Wall,99Y,,2017,B,C,65,285/35,1291.5,"1,230.00",0,,Enabled,No,"Catalog, Search",Taxable Goods,Yes,No,No,Pirelli,Pirelli,,,,,,,,,100,0,1,0,0,1,1,1,0,1,1,,,1,0,1,0,1,0,1,0,0,0,1,PZ-ROSSO F,0,simple,,,,,,,
admin,base,Tyre,simple,38,PIR0136,0,PZERO B ,,,,,,No layout updates,Product Info Column,,,,,Use config,,,285,40,22,,,,Black Wall,110Y,,2017,B,C,65,285/40,1575,"1,500.00",0,,Enabled,No,"Catalog, Search",Taxable Goods,Yes,No,No,Pirelli,Pirelli,,,,,,,,,100,0,1,0,0,1,1,1,0,1,1,,,1,0,1,0,1,0,1,0,0,0,1,PZERO B ,0,simple,,,,,,,
admin,base,Tyre,simple,38,PIR0137,0,SORPION VERDE A/S,,,,,,No layout updates,Product Info Column,,,,,Use config,,,285,45,22,,,,Black Wall,114H,,2017,B,C,65,285/45,682.5,650,0,,Enabled,No,"Catalog, Search",Taxable Goods,Yes,No,No,Pirelli,Pirelli,,,,,,,,,100,0,1,0,0,1,1,1,0,1,1,,,1,0,1,0,1,0,1,0,0,0,1,SORPION VERDE A/S,0,simple,,,,,,,
admin,base,Tyre,simple,38,PIR0138,0,PZERO NERO ,,,,,,No layout updates,Product Info Column,,,,,Use config,,,295,25,22,,,,Black Wall,97Y,,2017,B,C,65,295/25,1260,"1,200.00",0,,Enabled,No,"Catalog, Search",Taxable Goods,Yes,No,No,Pirelli,Pirelli,,,,,,,,,100,0,1,0,0,1,1,1,0,1,1,,,1,0,1,0,1,0,1,0,0,0,1,PZERO NERO ,0,simple,,,,,,,
admin,base,Tyre,simple,38,PIR0139,0,PZERO (XL) AMS,,,,,,No layout updates,Product Info Column,,,,,Use config,,,295,30,20,,,,Black Wall,101Y,,2017,B,C,65,295/30,1181.25,"1,125.00",0,,Enabled,No,"Catalog, Search",Taxable Goods,Yes,No,No,Pirelli,Pirelli,,,,,,,,,100,0,1,0,0,1,1,1,0,1,1,,,1,0,1,0,1,0,1,0,0,0,1,PZERO (XL) AMS,0,simple,,,,,,,
admin,base,Tyre,simple,38,PIR0140,0,ERO ASIM 103W ,,,,,,No layout updates,Product Info Column,,,,,Use config,,,295,30,22,,,,Black Wall,103W,,2017,B,C,65,295/30,651,620,0,,Enabled,No,"Catalog, Search",Taxable Goods,Yes,No,No,Pirelli,Pirelli,,,,,,,,,100,0,1,0,0,1,1,1,0,1,1,,,1,0,1,0,1,0,1,0,0,0,1,ERO ASIM 103W ,0,simple,,,,,,,
admin,base,Tyre,simple,38,PIR0141,0,ERO ASIM 103W XL,,,,,,No layout updates,Product Info Column,,,,,Use config,,,295,30,22,,,,Black Wall,103W,,2017,B,C,65,295/30,714,680,0,,Enabled,No,"Catalog, Search",Taxable Goods,Yes,No,No,Pirelli,Pirelli,,,,,,,,,100,0,1,0,0,1,1,1,0,1,1,,,1,0,1,0,1,0,1,0,0,0,1,ERO ASIM 103W XL,0,simple,,,,,,,
admin,base,Tyre,simple,38,PIR0142,0,PZERO XL* -,,,,,,No layout updates,Product Info Column,,,,,Use config,,,295,35,19,,,,Black Wall,104Y,,2017,B,C,65,295/35,1344,"1,280.00",0,,Enabled,No,"Catalog, Search",Taxable Goods,Yes,No,No,Pirelli,Pirelli,,,,,,,,,100,0,1,0,0,1,1,1,0,1,1,,,1,0,1,0,1,0,1,0,0,0,1,PZERO XL* -,0,simple,,,,,,,
admin,base,Tyre,simple,38,PIR0143,0,XL N1,,,,,,No layout updates,Product Info Column,,,,,Use config,,,295,35,20,,,,Black Wall,105Y,,2017,B,C,65,295/35,1181.25,"1,125.00",0,,Enabled,No,"Catalog, Search",Taxable Goods,Yes,No,No,Pirelli,Pirelli,,,,,,,,,100,0,1,0,0,1,1,1,0,1,1,,,1,0,1,0,1,0,1,0,0,0,1,XL N1,0,simple,,,,,,,
admin,base,Tyre,simple,38,PIR0144,0,O 107Y XL  N1 ,,,,,,No layout updates,Product Info Column,,,,,Use config,,,295,35,21,,,,Black Wall,107Y,,2017,B,C,65,295/35,892.5,850,0,,Enabled,No,"Catalog, Search",Taxable Goods,Yes,No,No,Pirelli,Pirelli,,,,,,,,,100,0,1,0,0,1,1,1,0,1,1,,,1,0,1,0,1,0,1,0,0,0,1,O 107Y XL  N1 ,0,simple,,,,,,,
admin,base,Tyre,simple,38,PIR0145,0,PZERO RO1  ,,,,,,No layout updates,Product Info Column,,,,,Use config,,,295,35,21,,,,Black Wall,107Y,,2017,B,C,65,295/35,798,760,0,,Enabled,No,"Catalog, Search",Taxable Goods,Yes,No,No,Pirelli,Pirelli,,,,,,,,,100,0,1,0,0,1,1,1,0,1,1,,,1,0,1,0,1,0,1,0,0,0,1,PZERO RO1  ,0,simple,,,,,,,
admin,base,Tyre,simple,38,PIR0146,0,0Y PZERO ROSSO AO,,,,,,No layout updates,Product Info Column,,,,,Use config,,,295,40,2,,,,Black Wall,110Y,,2017,B,C,65,295/40,945,900,0,,Enabled,No,"Catalog, Search",Taxable Goods,Yes,No,No,Pirelli,Pirelli,,,,,,,,,100,0,1,0,0,1,1,1,0,1,1,,,1,0,1,0,1,0,1,0,0,0,1,0Y PZERO ROSSO AO,0,simple,,,,,,,
admin,base,Tyre,simple,38,PIR0147,0,PZERO N0 ,,,,,,No layout updates,Product Info Column,,,,,Use config,,,295,40,20,,,,Black Wall,106Y,,2017,B,C,65,295/40,945,900,0,,Enabled,No,"Catalog, Search",Taxable Goods,Yes,No,No,Pirelli,Pirelli,,,,,,,,,100,0,1,0,0,1,1,1,0,1,1,,,1,0,1,0,1,0,1,0,0,0,1,PZERO N0 ,0,simple,,,,,,,
admin,base,Tyre,simple,38,PIR0148,0,PZERO XL R01,,,,,,No layout updates,Product Info Column,,,,,Use config,,,305,30,19,,,,Black Wall,102Y,,2017,B,C,65,305/30,861,820,0,,Enabled,No,"Catalog, Search",Taxable Goods,Yes,No,No,Pirelli,Pirelli,,,,,,,,,100,0,1,0,0,1,1,1,0,1,1,,,1,0,1,0,1,0,1,0,0,0,1,PZERO XL R01,0,simple,,,,,,,
admin,base,Tyre,simple,38,PIR0149,0,P-ZERO N1,,,,,,No layout updates,Product Info Column,,,,,Use config,,,305,30,20,,,,Black Wall,103Y,,2017,B,C,65,305/30,1344,"1,280.00",0,,Enabled,No,"Catalog, Search",Taxable Goods,Yes,No,No,Pirelli,Pirelli,,,,,,,,,100,0,1,0,0,1,1,1,0,1,1,,,1,0,1,0,1,0,1,0,0,0,1,P-ZERO N1,0,simple,,,,,,,
admin,base,Tyre,simple,38,PIR0150,0,PZERO  MC1-2017,,,,,,No layout updates,Product Info Column,,,,,Use config,,,305,30,20,,,,Black Wall,99Y,,2017,B,C,65,305/30,1554,"1,480.00",0,,Enabled,No,"Catalog, Search",Taxable Goods,Yes,No,No,Pirelli,Pirelli,,,,,,,,,100,0,1,0,0,1,1,1,0,1,1,,,1,0,1,0,1,0,1,0,0,0,1,PZERO  MC1-2017,0,simple,,,,,,,
admin,base,Tyre,simple,38,PIR0151,0,P-ZERO PZ4 NO -20,,,,,,No layout updates,Product Info Column,,,,,Use config,,,315,30,21,,,,Black Wall,105Y,,2017,B,C,65,315/30,1785,"1,700.00",0,,Enabled,No,"Catalog, Search",Taxable Goods,Yes,No,No,Pirelli,Pirelli,,,,,,,,,100,0,1,0,0,1,1,1,0,1,1,,,1,0,1,0,1,0,1,0,0,0,1,P-ZERO PZ4 NO -20,0,simple,,,,,,,
admin,base,Tyre,simple,38,PIR0152,0,PZERO F ,,,,,,No layout updates,Product Info Column,,,,,Use config,,,315,35,20,,,,Black Wall,106Y,,2017,B,C,65,315/35,1417.5,"1,350.00",0,,Enabled,No,"Catalog, Search",Taxable Goods,Yes,No,No,Pirelli,Pirelli,,,,,,,,,100,0,1,0,0,1,1,1,0,1,1,,,1,0,1,0,1,0,1,0,0,0,1,PZERO F ,0,simple,,,,,,,
admin,base,Tyre,simple,38,PIR0153,0,06Y  PCORSA,,,,,,No layout updates,Product Info Column,,,,,Use config,,,315,35,20,,,,Black Wall,106Y,,2017,B,C,65,315/35,1785,"1,700.00",0,,Enabled,No,"Catalog, Search",Taxable Goods,Yes,No,No,Pirelli,Pirelli,,,,,,,,,100,0,1,0,0,1,1,1,0,1,1,,,1,0,1,0,1,0,1,0,0,0,1,06Y  PCORSA,0,simple,,,,,,,
admin,base,Tyre,simple,38,PIR0154,0,06Y  PCORSA,,,,,,No layout updates,Product Info Column,,,,,Use config,,,315,35,20,,,,Black Wall,106Y,,2017,B,C,65,315/35,1722,"1,640.00",0,,Enabled,No,"Catalog, Search",Taxable Goods,Yes,No,No,Pirelli,Pirelli,,,,,,,,,100,0,1,0,0,1,1,1,0,1,1,,,1,0,1,0,1,0,1,0,0,0,1,06Y  PCORSA,0,simple,,,,,,,
admin,base,Tyre,simple,38,PIR0155,0,PZERO MO ,,,,,,No layout updates,Product Info Column,,,,,Use config,,,315,40,21,,,,Black Wall,111Y,,2017,B,C,65,315/40,1575,"1,500.00",0,,Enabled,No,"Catalog, Search",Taxable Goods,Yes,No,No,Pirelli,Pirelli,,,,,,,,,100,0,1,0,0,1,1,1,0,1,1,,,1,0,1,0,1,0,1,0,0,0,1,PZERO MO ,0,simple,,,,,,,
admin,base,Tyre,simple,38,PIR0156,0,TR D121/118S RB,,,,,,No layout updates,Product Info Column,,,,,Use config,,,325,60,20,,,,Black Wall,,,2017,B,C,65,325/60,1113,"1,060.00",0,,Enabled,No,"Catalog, Search",Taxable Goods,Yes,No,No,Pirelli,Pirelli,,,,,,,,,100,0,1,0,0,1,1,1,0,1,1,,,1,0,1,0,1,0,1,0,0,0,1,TR D121/118S RB,0,simple,,,,,,,
