store,websites,attribute_set,type,category_ids,sku,has_options,name,meta_title,meta_description,image,small_image,thumbnail,url_key,url_path,custom_design,page_layout,options_container,image_label,small_image_label,thumbnail_label,country_of_manufacture,msrp_enabled,msrp_display_actual_price_type,gift_message_available,width,ratio,size,diameter,car_make,car_model,car_year,sidewall_style,serv_desc,utqg,production_year,fuel,weather,sound,price,special_price,weight,msrp,status,is_recurring,visibility,tax_class_id,passenger,tyres4_4,vantyres,description,short_description,meta_keyword,custom_layout_update,special_from_date,special_to_date,news_from_date,news_to_date,custom_design_from,custom_design_to,qty,min_qty,use_config_min_qty,is_qty_decimal,backorders,use_config_backorders,min_sale_qty,use_config_min_sale_qty,max_sale_qty,use_config_max_sale_qty,is_in_stock,low_stock_date,notify_stock_qty,use_config_notify_stock_qty,manage_stock,use_config_manage_stock,stock_status_changed_auto,use_config_qty_increments,qty_increments,use_config_enable_qty_inc,enable_qty_increments,is_decimal_divided,stock_status_changed_automatically,use_config_enable_qty_increments,product_name,store_id,product_type_id,product_status_changed,product_changed_websites
admin,base,Tyre,simple,127,CON03519630000 / ARD,0,235/50 R18 101V,,,/continental_sportcontact5.jpg,/continental_sportcontact5.jpg,/continental_sportcontact5.jpg,,,,No layout updates,Product Info Column,,,,,Use config,Use config,No,,,235/50 R18,235/50 R18,,,2017,Blackwall,"101 V Load Index 101 =  1,818.80lbs (825kg) per tire Speed Rating = 149.13mph (240kph)",Blackwall,2017,B,C,65,893,794.77,1,,Enabled,No,"Catalog, Search",Taxable Goods,Yes,No,No,This tyre is excellent road grip and handling just as safety when cornering and shorter braking distances in all weather conditions. Also reduced fuel consumption and high mileage.,,,,,,,,,,95,0,1,0,0,1,1,1,0,1,1,,,1,0,1,0,1,0,1,0,0,0,1,235/50 R18 101V,0,simple,,
admin,base,Tyre,simple,98,CONC15494430000,0,235/50 R18 97H,,,/continental_procontact.jpg,/continental_procontact.jpg,/continental_procontact.jpg,,,,No layout updates,Product Info Column,,,,,Use config,Use config,No,,,235/50 R18,235/50 R18,,,2017,Blackwall,"97 H Load Index 97 =  1,609.36lbs (730kg) per tire Speed Rating = 130.49mph (210kph)",Blackwall,2017,B,C,65,1350,1201.5,1,,Enabled,No,"Catalog, Search",Taxable Goods,Yes,No,No,"The ContiProContact tyre is excellent designed to blend good looks and handling with low noise and smooth ride while providing all-season versatility and year-round traction, even in light snow.",,,,,,,,,,95,0,1,0,0,1,1,1,0,1,1,,,1,0,1,0,1,0,1,0,0,0,1,235/50 R18 97H,0,simple,,
admin,base,Tyre,simple,126,CON03541790000,0,235/50 R18 97V,,,/continental_sportcontact5.jpg,/continental_sportcontact5.jpg,/continental_sportcontact5.jpg,,,,No layout updates,Product Info Column,,,,,Use config,Use config,No,,,235/50 R18,235/50 R18,,,2017,Run Flat/Blackwall,"97 V Load Index 97 =  1,609.36lbs (730kg) per tire Speed Rating = 149.13mph (240kph)",Run Flat/Blackwall,2017,B,C,65,1026,913.14,1,,Enabled,No,"Catalog, Search",Taxable Goods,Yes,No,No,This tyre is excellent road grip and handling just as safety when cornering and shorter braking distances in all weather conditions. Also reduced fuel consumption and high mileage.,,,,,,,,,,95,0,1,0,0,1,1,1,0,1,1,,,1,0,1,0,1,0,1,0,0,0,1,235/50 R18 97V,0,simple,,
admin,base,Tyre,simple,118,CON03565290000,0,235/50 R18 97Y,,,/continental_sportcontact5mgt.jpg,/continental_sportcontact5mgt.jpg,/continental_sportcontact5mgt.jpg,,,,No layout updates,Product Info Column,,,,,Use config,Use config,No,,,235/50 R18,235/50 R18,,,2017,Black Wall,"97 Y Load Index 97 =  1,609.36lbs (730kg) per tire Speed Rating = 186.41mph (300kph)",Black Wall,2017,B,C,65,952,847.28,1,,Enabled,No,"Catalog, Search",Taxable Goods,Yes,No,No,"With the launch of the ContiSportContact 5, Continental has developed a tyre which is equally suitable for sporty cars & SUVs with sporty driving characteristics. With this new development, the tyre engineers have made significant progress in comparison to the popular predecessor ContiSportContact 3.Its Features are: Shorter braking distances in all weather conditions, Excellent road grip and safety when cornering, Reduced fuel consumption and high mileage. This was made possible due to a new compound which focuses on maximum power transmission and provides low rolling resistance whilst driving normally. This rubber compound which carries the name BlackChilli uses the various vibrations of the tyre. The ContiSportContact 5 is available in a range of sizes from 17 inch upwards for cars and 18 inch upwards for SUV.",,,,,,,,,,95,0,1,0,0,1,1,1,0,1,1,,,1,0,1,0,1,0,1,0,0,0,1,235/50 R18 97Y,0,simple,,
admin,base,Tyre,simple,98,CONC15484790000,0,235/55 R17 99H,,,/continental_procontact.jpg,/continental_procontact.jpg,/continental_procontact.jpg,,,,No layout updates,Product Info Column,,,,,Use config,Use config,No,,,235/55 R17,235/55 R17,,,2017,Blackwall,"99 H Load Index 99 =  1,708.57lbs (775kg) per tire Speed Rating = 130.49mph (210kph)",Blackwall,2017,B,C,65,780,694.2,1,,Enabled,No,"Catalog, Search",Taxable Goods,Yes,No,No,"The ContiProContact tyre is excellent designed to blend good looks and handling with low noise and smooth ride while providing all-season versatility and year-round traction, even in light snow.",,,,,,,,,,95,0,1,0,0,1,1,1,0,1,1,,,1,0,1,0,1,0,1,0,0,0,1,235/55 R17 99H,0,simple,,
admin,base,Tyre,simple,150,CON03563380000,0,235/55 R17 99V,,,/continental_crosscontactlxsport.jpg,/continental_crosscontactlxsport.jpg,/continental_crosscontactlxsport.jpg,,,,No layout updates,Product Info Column,,,,,Use config,Use config,No,,,235/55 R17,235/55 R17,,,2017,Blackwall,"99 V Load Index 99 =  1,708.57lbs (775kg) per tire Speed Rating = 149.13mph (240kph)",Blackwall,2017,B,C,65,1001,890.89,1,,Enabled,No,"Catalog, Search",Taxable Goods,Yes,No,No,This tyre is outstanding handling for on-road and general off-road use and also excellent braking performance on dry and wet roads.In addition with this tyre is optimised forrolling resistance.,,,,,,,,,,95,0,1,0,0,1,1,1,0,1,1,,,1,0,1,0,1,0,1,0,0,0,1,235/55 R17 99V,0,simple,,
admin,base,Tyre,simple,102,CONC03520420000/AAT,0,235/55 R17 99W,,,/continental_sportcontact2mo.jpeg,/continental_sportcontact2mo.jpeg,/continental_sportcontact2mo.jpeg,,,,No layout updates,Product Info Column,,,,,Use config,Use config,No,,,235/55 R17,235/55 R17,,,2017,Black Wall,"99 W Load Index 99 =  1,708.57lbs (775kg) per tire Speed Rating = 167.77mph (270kph)",Black Wall,2017,B,C,65,707,629.23,1,,Enabled,No,"Catalog, Search",Taxable Goods,Yes,No,No,"Continental ContiSportContact 2 MO tires use an Advanced Mould Concept (AMC) that helps distribute the pressure of the tire on the road more evenly. The AMC creates a larger area that grips the road when you hit your brake pedal. A very important part of the unique tread pattern of Continental ContiSportContact 2 MO tires is the closed outer shoulder, which helps make these tires stable. Furthermore, they're made of a newly developed bionic compound-a mix of two different materials-to add greater stability. High stability creates better handling no matter what conditions you are driving in. By choosing Continental ContiSportContact 2 MO tires for your Mercedes-Benz, you give yourself better ability to maintain precise control of your vehicle when you accelerate on long straightaways and when you corner at high speeds.",,,,,,,,,,95,0,1,0,0,1,1,1,0,1,1,,,1,0,1,0,1,0,1,0,0,0,1,235/55 R17 99W,0,simple,,
admin,base,Tyre,simple,127,CONC3564940000,0,235/55 R18 100V,,,/continental_sportcontact5suv_2.jpg,/continental_sportcontact5suv_2.jpg,/continental_sportcontact5suv_2.jpg,,,,No layout updates,Product Info Column,,,,,Use config,Use config,No,,,235/55 R18,235/55 R18,,,2017,Black Wall,"100 V Load Index 100 =  1,763.68lbs (800kg) per tire Speed Rating = 149.13mph (240kph)",Black Wall,2017,B,C,65,922,820.58,1,,Enabled,No,"Catalog, Search",Taxable Goods,Yes,No,No,"Designed for sports and high-performance vehicles. Its features are: Perfect steering precision and sporty handling, outstanding grip and stability during cornering, optimised to meet the specific requirements of front and rear axle positions, and short braking distances on both wet and dry roads.",,,,,,,,,,95,0,1,0,0,1,1,1,0,1,1,,,1,0,1,0,1,0,1,0,0,0,1,235/55 R18 100V,0,simple,,
admin,base,Tyre,simple,91,CON3560930000,0,235/55 R18 100Y,,,/continental_premiumcontact2_3.jpg,/continental_premiumcontact2_3.jpg,/continental_premiumcontact2_3.jpg,,,,No layout updates,Product Info Column,,,,,Use config,Use config,No,,,235/55 R18,235/55 R18,,,2017,Black Wall,"100 Y Load Index 100 =  1,763.68lbs (800kg) per tire Speed Rating = 186.41mph (300kph)",Black Wall,2017,B,C,65,1144,1018.16,1,,Enabled,No,"Catalog, Search",Taxable Goods,Yes,No,No,"The ContiPremiumContact 2 has a unique 3D tread groove which gives it optimal braking performance on both wet and dry surfaces, excellent protection against aquaplaning, precise handling and unbeatable driving stability.",,,,,,,,,,95,0,1,0,0,1,1,1,0,1,1,,,1,0,1,0,1,0,1,0,0,0,1,235/55 R18 100Y,0,simple,,
admin,base,Tyre,simple,91,CON3502440000,0,235/55 R18 104Y,,,/continental_premiumcontact2_1.jpeg,/continental_premiumcontact2_1.jpeg,/continental_premiumcontact2_1.jpeg,,,,No layout updates,Product Info Column,,,,,Use config,Use config,No,,,235/55 R18,235/55 R18,,,2017,Black Wall,"104 Y Load Index 104 =  1,984.14lbs (900kg) per tire Speed Rating = 186.41mph (300kph)",Black Wall,2017,B,C,65,1202,1069.78,1,,Enabled,No,"Catalog, Search",Taxable Goods,Yes,No,No,"The distinctive feature of the new ContiPremiumContactTM 2 is its unique 3D tread grooves, which optimise braking performance on both wet and dry roads and achieve optimum protection against aquaplaning. The shallow side of the 3D groove gives greater tread block stability and improved road contact, which results in shorter braking distances on dry roads. Even when placed under great strain the tread blocks do not bend away and so the tyre retains maximum contact with the road. This more even contact pressure ensures maximum transmission of power to the dry road. The steep side of the 3D groove makes the edge of the tread block extremely angular. This enables it to cut through the water on the road, much like a windscreen wiper. The direct contact between the tyre and road means exceptionally short braking distances, even in the wet.",,,,,,,,,,95,0,1,0,0,1,1,1,0,1,1,,,1,0,1,0,1,0,1,0,0,0,1,235/55 R18 104Y,0,simple,,
admin,base,Tyre,simple,122,CON03542100000,0,235/55 R19 101Y,,,/continental_sportcontact5.jpg,/continental_sportcontact5.jpg,/continental_sportcontact5.jpg,,,,No layout updates,Product Info Column,,,,,Use config,Use config,No,,,235/55 R19,235/55 R19,,,2017,Blackwall,"101 Y Load Index 101 =  1,818.80lbs (825kg) per tire Speed Rating = 186.41mph (300kph)",Blackwall,2017,B,C,65,1208,1075.12,1,,Enabled,No,"Catalog, Search",Taxable Goods,Yes,No,No,This tyre is excellent road grip and handling just as safety when cornering and shorter braking distances in all weather conditions. Also reduced fuel consumption and high mileage.,,,,,,,,,,95,0,1,0,0,1,1,1,0,1,1,,,1,0,1,0,1,0,1,0,0,0,1,235/55 R19 101Y,0,simple,,
admin,base,Tyre,simple,86,CON3545730000,0,235/55 R19 105V,,,/continental_crosscontactuhp_1.jpeg,/continental_crosscontactuhp_1.jpeg,/continental_crosscontactuhp_1.jpeg,,,,No layout updates,Product Info Column,,,,,Use config,Use config,No,,,235/55 R19,235/55 R19,,,2017,Black Wall,"105 V Load Index 105 =  2,039.26lbs (925kg) per tire Speed Rating = 149.13mph (240kph)",Black Wall,2017,B,C,65,1145,1019.05,1,,Enabled,No,"Catalog, Search",Taxable Goods,Yes,No,No,"The CrossContact UHP is Continental's Street/Sport Truck Summer tire designed for luxury-oriented and high-performance four-wheel drive sport utility vehicles. Like all summer tires, CrossContact UHP tires are not intended to be driven in near-freezing temperatures, through snow or on ice. CrossContact UHP tires use a silica-enhanced tread compound to combine wet and dry road grip with rolling resistance comparable to passenger car tires. The compound is molded into an asymmetric tread pattern that features stable outboard shoulder blocks linked to a continuous rib to promote steering precision and cornering stability. Independent tread blocks flank a circumferential center rib to enhance directional stability and straight-line tracking. Multiple lateral grooves are combined with four, wide circumferential grooves to promote efficient water drainage that enhances hydroplaning resistance and wet traction.",,,,,,,,,,95,0,1,0,0,1,1,1,0,1,1,,,1,0,1,0,1,0,1,0,0,0,1,235/55 R19 105V,0,simple,,
admin,base,Tyre,simple,77,CON3546750000,0,235/60 R17 102V,,,/continental_4x4contact_1.jpeg,/continental_4x4contact_1.jpeg,/continental_4x4contact_1.jpeg,,,,No layout updates,Product Info Column,,,,,Use config,Use config,No,,,235/60 R17,235/60 R17,,,2017,Blackwall,"102 V Load Index 102 =  1,873.91lbs (850kg) per tire Speed Rating = 149.13mph (240kph)",Blackwall,2017,B,C,65,948,843.72,1,,Enabled,No,"Catalog, Search",Taxable Goods,Yes,No,No,This tye is excellent noise levels and comfort in on-road use and good protection against aquaplaning. This tyre is  superb traction both on- and off-road.,,,,,,,,,,95,0,1,0,0,1,1,1,0,1,1,,,1,0,1,0,1,0,1,0,0,0,1,235/60 R17 102V,0,simple,,
admin,base,Tyre,simple,122,CON03542270000,0,235/60 R18 103W,,,/continental_sportcontact5.jpg,/continental_sportcontact5.jpg,/continental_sportcontact5.jpg,,,,No layout updates,Product Info Column,,,,,Use config,Use config,No,,,235/60 R18,235/60 R18,,,2017,Blackwall,"103 W Load Index 103 =  1,929.03lbs (875kg) per tire Speed Rating = 167.77mph (270kph)",Blackwall,2017,B,C,65,1074,955.86,1,,Enabled,No,"Catalog, Search",Taxable Goods,Yes,No,No,This tyre is excellent road grip and handling just as safety when cornering and shorter braking distances in all weather conditions. Also reduced fuel consumption and high mileage.,,,,,,,,,,95,0,1,0,0,1,1,1,0,1,1,,,1,0,1,0,1,0,1,0,0,0,1,235/60 R18 103W,0,simple,,
admin,base,Tyre,simple,154,CON3507880000,0,235/60 R18 107W,,,/continental_crosscontactuhp_2.jpg,/continental_crosscontactuhp_2.jpg,/continental_crosscontactuhp_2.jpg,,,,No layout updates,Product Info Column,,,,,Use config,Use config,No,,,235/60 R18,235/60 R18,,,2017,Blackwall,"107 W Load Index 107 =  2,149.49lbs (975kg) per tire Speed Rating = 167.77mph (270kph)",Blackwall,2017,B,C,65,1122,998.58,1,,Enabled,No,"Catalog, Search",Taxable Goods,Yes,No,No,This  tyre is short braking distances and very high cornering stability and safety reserves for outstanding handling and fun at the wheel Low rolling resistance and outstanding grip.,,,,,,,,,,95,0,1,0,0,1,1,1,0,1,1,,,1,0,1,0,1,0,1,0,0,0,1,235/60 R18 107W,0,simple,,
admin,base,Tyre,simple,78,CON03546830000/3549060000,0,235/65 R17 108V,,,/continental_4x4contact.jpeg,/continental_4x4contact.jpeg,/continental_4x4contact.jpeg,,,,No layout updates,Product Info Column,,,,,Use config,Use config,No,,,235/65 R17,235/65 R17,,,2017,Blackwall,"108 V Load Index 108 =  2,204.60lbs (1000kg) per tire Speed Rating = 149.13mph (240kph)",Blackwall,2017,B,C,65,799,711.11,1,,Enabled,No,"Catalog, Search",Taxable Goods,Yes,No,No,This tye is excellent noise levels and comfort in on-road use and good protection against aquaplaning. This tyre is  superb traction both on- and off-road.,,,,,,,,,,95,0,1,0,0,1,1,1,0,1,1,,,1,0,1,0,1,0,1,0,0,0,1,235/65 R17 108V,0,simple,,
admin,base,Tyre,simple,157,CON3544280000,0,235/65 R17 108V,,,/continental_crosscontactuhp.jpg,/continental_crosscontactuhp.jpg,/continental_crosscontactuhp.jpg,,,,No layout updates,Product Info Column,,,,,Use config,Use config,No,,,235/65 R17,235/65 R17,,,2017,Blackwall,"108 V Load Index 108 =  2,204.60lbs (1000kg) per tire Speed Rating = 149.13mph (240kph)",Blackwall,2017,B,C,65,870,774.3,1,,Enabled,No,"Catalog, Search",Taxable Goods,Yes,No,No,This  tyre is short braking distances and very high cornering stability and safety reserves for outstanding handling and fun at the wheel Low rolling resistance and outstanding grip.,,,,,,,,,,95,0,1,0,0,1,1,1,0,1,1,,,1,0,1,0,1,0,1,0,0,0,1,235/65 R17 108V,0,simple,,
admin,base,Tyre,simple,148,CON3564410000,0,235/65 R18 106T,,,/continental_crosscontactlx.jpg,/continental_crosscontactlx.jpg,/continental_crosscontactlx.jpg,,,,No layout updates,Product Info Column,,,,,Use config,Use config,No,,,235/65 R18,235/65 R18,,,2017,White letters,"106 T Load Index 106 =  2,094.37lbs (950kg) per tire Speed Rating = 118.06mph (190kph)",White letters,2017,B,C,65,1369,1218.41,1,,Enabled,No,"Catalog, Search",Taxable Goods,Yes,No,No,This tyre is excellent handling and braking performance for on-road and off-road use and very good protection against aquaplaning. Also precise steering response and superb straight-line tracking.,,,,,,,,,,95,0,1,0,0,1,1,1,0,1,1,,,1,0,1,0,1,0,1,0,0,0,1,235/65 R18 106T,0,simple,,
admin,base,Tyre,simple,150,CON15496410000,0,235/65 R18 106T,,,/continental_crosscontactlxsport_1.jpg,/continental_crosscontactlxsport_1.jpg,/continental_crosscontactlxsport_1.jpg,,,,No layout updates,Product Info Column,,,,,Use config,Use config,No,,,235/65 R18,235/65 R18,,,2017,Blackwall,"106 T Load Index 106 =  2,094.37lbs (950kg) per tire Speed Rating = 118.06mph (190kph)",Blackwall,2017,B,C,65,997,887.33,1,,Enabled,No,"Catalog, Search",Taxable Goods,Yes,No,No,This tyre is outstanding handling for on-road and general off-road use and also excellent braking performance on dry and wet roads.In addition with this tyre is optimised forrolling resistance.,,,,,,,,,,95,0,1,0,0,1,1,1,0,1,1,,,1,0,1,0,1,0,1,0,0,0,1,235/65 R18 106T,0,simple,,
admin,base,Tyre,simple,83,CON15492790000,0,235/70 R16 106H,,,/continental_crosscontactlx2.png,/continental_crosscontactlx2.png,/continental_crosscontactlx2.png,,,,No layout updates,Product Info Column,,,,,Use config,Use config,No,,,235/70 R16,235/70 R16,,,2017,Blackwall,"106 H Load Index 106 =  2,094.37lbs (950kg) per tire Speed Rating = 130.49mph (210kph)",Blackwall,2017,B,C,65,636,566.04,1,,Enabled,No,"Catalog, Search",Taxable Goods,Yes,No,No,This trye is excellent dry and wet braking performance and outclass handling properties with  high mileage and high level of driving comfort and  outstanding traction in light for off-road use.,,,,,,,,,,95,0,1,0,0,1,1,1,0,1,1,,,1,0,1,0,1,0,1,0,0,0,1,235/70 R16 106H,0,simple,,
admin,base,Tyre,simple,132,CON3575970000,0,245/35 R20 95Y,,,/continental_sportcontact5p.jpg,/continental_sportcontact5p.jpg,/continental_sportcontact5p.jpg,,,,No layout updates,Product Info Column,,,,,Use config,Use config,No,,,245/35 R20,245/35 R20,,,2017,Black Wall,"95 Y Load Index 95 =  1,521.17lbs (690kg) per tire Speed Rating = 186.41mph (300kph)",Black Wall,2017,B,C,65,1363,1213.07,1,,Enabled,No,"Catalog, Search",Taxable Goods,Yes,No,No,"The ContiSportContact 5P is Continental Tire's Max Performance Summer tire developed for the drivers of some of the world's most prestigious high performance sports cars, coupes and sedans. Tires in sizes used for staggered fitments are optimized to meet the specific performance requirements of front or rear axle positions.* The ContiSportContact 5P is designed to deliver steering precision, cornering stability and short stopping distances in dry and wet conditions, However, like all summer tires, they are not intended to be driven in near freezing temperatures, through snow or on ice.",,,,,,,,,,95,0,1,0,0,1,1,1,0,1,1,,,1,0,1,0,1,0,1,0,0,0,1,245/35 R20 95Y,0,simple,,
admin,base,Tyre,simple,119,CON03561780000,0,245/40 R17 91Y,,,/continental_sportcontact5_mo.jpg,/continental_sportcontact5_mo.jpg,/continental_sportcontact5_mo.jpg,,,,No layout updates,Product Info Column,,,,,Use config,Use config,No,,,245/40 R17,245/40 R17,,,2017,Black Wall,"91 Y Load Index 91 =  1,355.83lbs (615kg) per tire Speed Rating = 186.41mph (300kph)",Black Wall,2017,B,C,65,768,683.52,1,,Enabled,No,"Catalog, Search",Taxable Goods,Yes,No,No,"With the launch of the ContiSportContact 5, Continental has developed a tyre which is equally suitable for sporty cars & SUVs with sporty driving characteristics. With this new development, the tyre engineers have made significant progress in comparison to the popular predecessor ContiSportContact 3.Its Features are: Shorter braking distances in all weather conditions, Excellent road grip and safety when cornering, Reduced fuel consumption and high mileage. This was made possible due to a new compound which focuses on maximum power transmission and provides low rolling resistance whilst driving normally. This rubber compound which carries the name BlackChilli uses the various vibrations of the tyre. The ContiSportContact 5 is available in a range of sizes from 17 inch upwards for cars and 18 inch upwards for SUV.",,,,,,,,,,95,0,1,0,0,1,1,1,0,1,1,,,1,0,1,0,1,0,1,0,0,0,1,245/40 R17 91Y,0,simple,,
