sku,image,small_image,thumbnail
PIR0030,/pirelli/pirelli_pzero.jpeg,/pirelli/pirelli_pzero.jpeg,/pirelli/pirelli_pzero.jpeg
PIR0031,/pirelli/s-l640.jpg,/pirelli/s-l640.jpg,/pirelli/s-l640.jpg
PIR0032,/pirelli/8d5666e0-92ea-46c5-a70d-d8efb5ace89e_1.77027e48894ffe495bfe9fdfe6254516.jpeg?odnHeight=450&odnWidth=450&odnBg=FFFFFF,/pirelli/8d5666e0-92ea-46c5-a70d-d8efb5ace89e_1.77027e48894ffe495bfe9fdfe6254516.jpeg?odnHeight=450&odnWidth=450&odnBg=FFFFFF,/pirelli/8d5666e0-92ea-46c5-a70d-d8efb5ace89e_1.77027e48894ffe495bfe9fdfe6254516.jpeg?odnHeight=450&odnWidth=450&odnBg=FFFFFF
PIR0033,/pirelli/pirelli_pzero.jpeg,/pirelli/pirelli_pzero.jpeg,/pirelli/pirelli_pzero.jpeg
PIR0034,/pirelli/59bbaaf1-d25a-4b95-93bd-577c322ba191_1.2d0bc765e92590d581936d3d24badac0.jpeg?odnHeight=450&odnWidth=450&odnBg=FFFFFF,/pirelli/59bbaaf1-d25a-4b95-93bd-577c322ba191_1.2d0bc765e92590d581936d3d24badac0.jpeg?odnHeight=450&odnWidth=450&odnBg=FFFFFF,/pirelli/59bbaaf1-d25a-4b95-93bd-577c322ba191_1.2d0bc765e92590d581936d3d24badac0.jpeg?odnHeight=450&odnWidth=450&odnBg=FFFFFF
PIR0035,/pirelli/102809-pirelli-pzero-pz4.jpg,/pirelli/102809-pirelli-pzero-pz4.jpg,/pirelli/102809-pirelli-pzero-pz4.jpg
PIR0036,/pirelli/pirelli_pzero.jpeg,/pirelli/pirelli_pzero.jpeg,/pirelli/pirelli_pzero.jpeg
PIR0037,/pirelli/pirelli_pzero.jpeg,/pirelli/pirelli_pzero.jpeg,/pirelli/pirelli_pzero.jpeg
PIR0038,/pirelli/pirelli_pzero.jpeg,/pirelli/pirelli_pzero.jpeg,/pirelli/pirelli_pzero.jpeg
PIR0039,/pirelli/pirelli_pzero.jpeg,/pirelli/pirelli_pzero.jpeg,/pirelli/pirelli_pzero.jpeg
PIR0040,/pirelli/0045586_pirelli-p-zero-n1-passenger-car-summer-tyre-24535-r20-91y-245-35-20_320.jpeg,/pirelli/0045586_pirelli-p-zero-n1-passenger-car-summer-tyre-24535-r20-91y-245-35-20_320.jpeg,/pirelli/0045586_pirelli-p-zero-n1-passenger-car-summer-tyre-24535-r20-91y-245-35-20_320.jpeg
PIR0041,/pirelli/pirelli_pzero.jpeg,/pirelli/pirelli_pzero.jpeg,/pirelli/pirelli_pzero.jpeg
PIR0042,/pirelli/pirelli_pzero.jpeg,/pirelli/pirelli_pzero.jpeg,/pirelli/pirelli_pzero.jpeg
PIR0043,,,
PIR0044,/pirelli/pirelli_scorpionverde.jpeg,/pirelli/pirelli_scorpionverde.jpeg,/pirelli/pirelli_scorpionverde.jpeg
PIR0045,/pirelli/pirelli_pzero_1.jpeg,/pirelli/pirelli_pzero_1.jpeg,/pirelli/pirelli_pzero_1.jpeg
PIR0046,/pirelli/Pirelli_Cinturato_P7_KolayOtoLastik_main_50.png,/pirelli/Pirelli_Cinturato_P7_KolayOtoLastik_main_50.png,/pirelli/Pirelli_Cinturato_P7_KolayOtoLastik_main_50.png
PIR0047,/pirelli/P%20Zero-500x500-product_thumb.jpg,/pirelli/P%20Zero-500x500-product_thumb.jpg,/pirelli/P%20Zero-500x500-product_thumb.jpg
PIR0048,/pirelli/pirelli_pzero.jpeg,/pirelli/pirelli_pzero.jpeg,/pirelli/pirelli_pzero.jpeg
PIR0049,/pirelli/Cinturato%20P7-500x500-product_popup.jpg,/pirelli/Cinturato%20P7-500x500-product_popup.jpg,/pirelli/Cinturato%20P7-500x500-product_popup.jpg
PIR0050,/pirelli/pirelli_pzero.jpeg,/pirelli/pirelli_pzero.jpeg,/pirelli/pirelli_pzero.jpeg
PIR0051,/pirelli/pirelli-scorpion-verde-a-s_2.jpg,/pirelli/pirelli-scorpion-verde-a-s_2.jpg,/pirelli/pirelli-scorpion-verde-a-s_2.jpg
PIR0052,/pirelli/pirelli_pzero.jpeg,/pirelli/pirelli_pzero.jpeg,/pirelli/pirelli_pzero.jpeg
PIR0053,/pirelli/image.php?i=img1_17230.jpg&maxw=484&maxh=662&type=&looksmall=0,/pirelli/image.php?i=img1_17230.jpg&maxw=484&maxh=662&type=&looksmall=0,/pirelli/image.php?i=img1_17230.jpg&maxw=484&maxh=662&type=&looksmall=0
PIR0054,/pirelli/245-40r20-zr-99y-xl-p-zero-mgt-pirelli.jpg,/pirelli/245-40r20-zr-99y-xl-p-zero-mgt-pirelli.jpg,/pirelli/245-40r20-zr-99y-xl-p-zero-mgt-pirelli.jpg
PIR0055,/pirelli/pirelli_pzero_19.jpeg,/pirelli/pirelli_pzero_19.jpeg,/pirelli/pirelli_pzero_19.jpeg
PIR0056,/pirelli/pirelli_pzero.jpeg,/pirelli/pirelli_pzero.jpeg,/pirelli/pirelli_pzero.jpeg
PIR0057,/pirelli/471a54938674ae2dce108ce7011d417c.jpg,/pirelli/471a54938674ae2dce108ce7011d417c.jpg,/pirelli/471a54938674ae2dce108ce7011d417c.jpg
PIR0058,/pirelli/s-l640.jpg,/pirelli/s-l640.jpg,/pirelli/s-l640.jpg
PIR0059,/pirelli/pirelli_scorpionstr.jpg,/pirelli/pirelli_scorpionstr.jpg,/pirelli/pirelli_scorpionstr.jpg
