sku,short_description
BS202010,Bridgestone
BS201726,Bridgestone
BS202115,Bridgestone
BS202024,Bridgestone
BS202190,Bridgestone
BS202113,Bridgestone
BS202053-ZNQ,Bridgestone
BS201831,Bridgestone
BS201823,Bridgestone
BS201816-ZNQ,Bridgestone
BS202006,Bridgestone
BS202164,Bridgestone
BS201975,Bridgestone
BS201978,Bridgestone
BR275/40R20106W-DHPA-RFT-ZNQ,Bridgestone
BS201735,Bridgestone
BR275/50R22111H-D684,Bridgestone
BR275/55R20113H-DALN-ZNQ,Bridgestone
BS202099-ZNQ,Bridgestone
BS201737,Bridgestone
BS202102,Bridgestone
BS201764-ZNQ,Bridgestone
BS202011,Bridgestone
BS201970,Bridgestone
BS201960-ZNQ,Bridgestone
BS202105-ZNQ,Bridgestone
BS202004,Bridgestone
BS202123-ZNQ,Bridgestone
