store,websites,attribute_set,type,category_ids,sku,has_options,name,meta_title,meta_description,image,small_image,thumbnail,url_key,url_path,custom_design,page_layout,options_container,image_label,small_image_label,thumbnail_label,country_of_manufacture,msrp_enabled,msrp_display_actual_price_type,gift_message_available,width,ratio,size,diameter,car_make,car_model,car_year,sidewall_style,serv_desc,utqg,production_year,fuel,weather,sound,price,special_price,weight,msrp,status,is_recurring,visibility,tax_class_id,passenger,tyres4_4,vantyres,description,short_description,meta_keyword,custom_layout_update,special_from_date,special_to_date,news_from_date,news_to_date,custom_design_from,custom_design_to,qty,min_qty,use_config_min_qty,is_qty_decimal,backorders,use_config_backorders,min_sale_qty,use_config_min_sale_qty,max_sale_qty,use_config_max_sale_qty,is_in_stock,low_stock_date,notify_stock_qty,use_config_notify_stock_qty,manage_stock,use_config_manage_stock,stock_status_changed_auto,use_config_qty_increments,qty_increments,use_config_enable_qty_inc,enable_qty_increments,is_decimal_divided,stock_status_changed_automatically,use_config_enable_qty_increments,product_name,store_id,product_type_id,product_status_changed,product_changed_websites
admin,base,Tyre,simple,466,MIC326281-2016,,Primacy HP MO GRNX,,,/michelin_primacyhpgrnx_8.jpeg,/michelin_primacyhpgrnx_8.jpeg,/michelin_primacyhpgrnx_8.jpeg,,,,No layout updates,Product Info Column,,,,,Use config,Use config,No,225,50,225/50 R16,16,,,2017,Black Wall,92 W,,2017,C,C,65,487,462.65,1,,Enabled,No,"Catalog, Search",Taxable Goods,Yes,No,No,"The Primacy HP is Michelin's Grand Touring Summer tire developed to provide longer tread life and lasting performance throughout the tire's life, as well as better braking, steering control and handling on wet roads. The Primacy HP meets Michelin's Green X standard* for low rolling resistance that confirms the tire's contribution to reducing vehicle fuel consumption and emissions of CO2 gases. While Primacy HP tires are designed to offer reliable traction in dry and wet conditions, they are not intended to be driven in near-freezing temperatures, through snow or on ice.",,,,,,,,,,100,0,1,0,0,1,1,1,0,1,1,,,1,0,1,0,1,0,1,0,0,0,1,Primacy HP MO GRNX,0,simple,,
admin,base,Tyre,simple,466,MIC326281-2016,,Primacy HP MO GRNX,,,/michelin_primacyhpgrnx_8.jpeg,/michelin_primacyhpgrnx_8.jpeg,/michelin_primacyhpgrnx_8.jpeg,,,,No layout updates,Product Info Column,,,,,Use config,Use config,No,225,50,225/50 R16,16,,,2017,Black Wall,92 W,,2017,C,C,65,487,462.65,1,,Enabled,No,"Catalog, Search",Taxable Goods,Yes,No,No,"The Primacy HP is Michelin's Grand Touring Summer tire developed to provide longer tread life and lasting performance throughout the tire's life, as well as better braking, steering control and handling on wet roads. The Primacy HP meets Michelin's Green X standard* for low rolling resistance that confirms the tire's contribution to reducing vehicle fuel consumption and emissions of CO2 gases. While Primacy HP tires are designed to offer reliable traction in dry and wet conditions, they are not intended to be driven in near-freezing temperatures, through snow or on ice.",,,,,,,,,,100,0,1,0,0,1,1,1,0,1,1,,,1,0,1,0,1,0,1,0,0,0,1,Primacy HP MO GRNX,0,simple,,
admin,base,Tyre,simple,466,MIC148043-2016,,Pilot HX MXM4,,,/michelin_primacymxm4_8.jpeg,/michelin_primacymxm4_8.jpeg,/michelin_primacymxm4_8.jpeg,,,,No layout updates,Product Info Column,,,,,Use config,Use config,No,225,50,225/50 R17,17,,,2017,Black Wall,93 V,,2017,C,C,65,631,599.45,1,,Enabled,No,"Catalog, Search",Taxable Goods,Yes,No,No,"The Primacy MXM4 is Michelin's Grand Touring All-Season tire developed for luxury sedan and coupe drivers looking to combine all-weather handling and traction with good noise and ride comfort. Most Primacy MXM4 tires meet Michelin's Green X standard* for low rolling resistance that confirms the tire's contribution to reducing vehicle fuel consumption and emissions of CO2 gases. The Primacy MXM4 is designed to blend a quiet, comfortable ride, responsive handling and enhanced fuel efficiency with year-round all-season traction, even in light snow. The Primacy MXM4 features Michelin's first use of their patented sunflower oil-enriched Helio Compound technology in an all-season tire to increase traction at low temperatures for improved braking and handling in the wet, as well as better overall performance in the snow. The Helio Compound is molded into an asymmetric tread design featuring a European handling profile with rounder shoulders that are designed to provide progressive, predictable cornering. Circumferential grooves evacuate water out from under the tire's footprint to reduce hydroplaning while Michelin's 3-D Variable Thickness Sipe Technology provides additional biting edges to enhance wet and wintertime traction.",,,,,,,,,,100,0,1,0,0,1,1,1,0,1,1,,,1,0,1,0,1,0,1,0,0,0,1,Pilot HX MXM4,0,simple,,
admin,base,Tyre,simple,466,MIC193890,,Primacy 3 GRNX,,,/michelin_primacy3.jpeg,/michelin_primacy3.jpeg,/michelin_primacy3.jpeg,,,,No layout updates,Product Info Column,,,,,Use config,Use config,No,225,50,225/50 R17,17,,,2017,Black Wall,94 V,,2017,C,C,65,525,498.75,1,,Enabled,No,"Catalog, Search",Taxable Goods,Yes,No,No,"The Primacy 3 is Michelin's Grand Touring Summer tire developed for luxury coupe and sedan drivers looking for warm-weather tires that combine good ride and low noise with better braking, steering control and handling on wet roads. Designed to enhance vehicle fuel efficiency and reduce CO2 gas emissions, Primacy 3 tires meet Michelin's Green X standard* for low rolling resistance. While Primacy 3 tires are designed to offer reliable traction in dry and wet conditions in warm ambient temperatures, they are not intended to be driven in near-freezing temperatures, through snow or on ice. Primacy 3 tires feature a new generation Michelin tread compound molded into a symmetric tread design that has a notched center rib flanked by independent intermediate ribs and large shoulder blocks to combine responsive handling and high-speed stability with traction and even treadwear. The Primacy 3 tire's structure includes twin steel belts reinforced by size-optimized BAZ Technology (spirally-wrapped Polyamide Banded At Zero degrees to tire rotation) to enhance ride quality while providing high-speed durability.",,,,,,,,,,100,0,1,0,0,1,1,1,0,1,1,,,1,0,1,0,1,0,1,0,0,0,1,Primacy 3 GRNX,0,simple,,
admin,base,Tyre,simple,466,MIC193890,,Primacy 3 GRNX,,,/michelin_primacy3.jpeg,/michelin_primacy3.jpeg,/michelin_primacy3.jpeg,,,,No layout updates,Product Info Column,,,,,Use config,Use config,No,225,50,225/50 R17,17,,,2017,Black Wall,94 V,,2017,C,C,65,525,498.75,1,,Enabled,No,"Catalog, Search",Taxable Goods,Yes,No,No,"The Primacy 3 is Michelin's Grand Touring Summer tire developed for luxury coupe and sedan drivers looking for warm-weather tires that combine good ride and low noise with better braking, steering control and handling on wet roads. Designed to enhance vehicle fuel efficiency and reduce CO2 gas emissions, Primacy 3 tires meet Michelin's Green X standard* for low rolling resistance. While Primacy 3 tires are designed to offer reliable traction in dry and wet conditions in warm ambient temperatures, they are not intended to be driven in near-freezing temperatures, through snow or on ice. Primacy 3 tires feature a new generation Michelin tread compound molded into a symmetric tread design that has a notched center rib flanked by independent intermediate ribs and large shoulder blocks to combine responsive handling and high-speed stability with traction and even treadwear. The Primacy 3 tire's structure includes twin steel belts reinforced by size-optimized BAZ Technology (spirally-wrapped Polyamide Banded At Zero degrees to tire rotation) to enhance ride quality while providing high-speed durability.",,,,,,,,,,100,0,1,0,0,1,1,1,0,1,1,,,1,0,1,0,1,0,1,0,0,0,1,Primacy 3 GRNX,0,simple,,
admin,base,Tyre,simple,466,MIC710007-2016,,Primacy 3 ST GRNX,,,/primacy_3st_persp.png,/primacy_3st_persp.png,/primacy_3st_persp.png,,,,No layout updates,Product Info Column,,,,,Use config,Use config,No,225,50,225/50 R17,17,,,2017,Black Wall,94 V,,2017,C,C,65,610,579.5,1,,Enabled,No,"Catalog, Search",Taxable Goods,Yes,No,No,"The Primacy 3 is Michelin's Grand Touring Summer tire developed for luxury coupe and sedan drivers looking for warm-weather tires that combine good ride and low noise with better braking, steering control and handling on wet roads. Designed to enhance vehicle fuel efficiency and reduce CO2 gas emissions, Primacy 3 tires meet Michelin's Green X standard* for low rolling resistance. While Primacy 3 tires are designed to offer reliable traction in dry and wet conditions in warm ambient temperatures, they are not intended to be driven in near-freezing temperatures, through snow or on ice. Primacy 3 tires feature a new generation Michelin tread compound molded into a symmetric tread design that has a notched center rib flanked by independent intermediate ribs and large shoulder blocks to combine responsive handling and high-speed stability with traction and even treadwear. The Primacy 3 tire's structure includes twin steel belts reinforced by size-optimized BAZ Technology (spirally-wrapped Polyamide Banded At Zero degrees to tire rotation) to enhance ride quality while providing high-speed durability.",,,,,,,,,,100,0,1,0,0,1,1,1,0,1,1,,,1,0,1,0,1,0,1,0,0,0,1,Primacy 3 ST GRNX,0,simple,,
admin,base,Tyre,simple,466,MIC710007,,Primacy 3 ST GRNX,,,/michelin_primacy3.jpeg,/michelin_primacy3.jpeg,/michelin_primacy3.jpeg,,,,No layout updates,Product Info Column,,,,,Use config,Use config,No,225,50,225/50 R17,17,,,2017,Black Wall,94 V,,2017,C,C,65,689,654.55,1,,Enabled,No,"Catalog, Search",Taxable Goods,Yes,No,No,"The Primacy 3 is Michelin's Grand Touring Summer tire developed for luxury coupe and sedan drivers looking for warm-weather tires that combine good ride and low noise with better braking, steering control and handling on wet roads. Designed to enhance vehicle fuel efficiency and reduce CO2 gas emissions, Primacy 3 tires meet Michelin's Green X standard* for low rolling resistance. While Primacy 3 tires are designed to offer reliable traction in dry and wet conditions in warm ambient temperatures, they are not intended to be driven in near-freezing temperatures, through snow or on ice. Primacy 3 tires feature a new generation Michelin tread compound molded into a symmetric tread design that has a notched center rib flanked by independent intermediate ribs and large shoulder blocks to combine responsive handling and high-speed stability with traction and even treadwear. The Primacy 3 tire's structure includes twin steel belts reinforced by size-optimized BAZ Technology (spirally-wrapped Polyamide Banded At Zero degrees to tire rotation) to enhance ride quality while providing high-speed durability.",,,,,,,,,,100,0,1,0,0,1,1,1,0,1,1,,,1,0,1,0,1,0,1,0,0,0,1,Primacy 3 ST GRNX,0,simple,,
admin,base,Tyre,simple,466,MIC721907,,Primacy 3 MOE ZP,,,/michelin_primacy3.jpeg,/michelin_primacy3.jpeg,/michelin_primacy3.jpeg,,,,No layout updates,Product Info Column,,,,,Use config,Use config,No,225,50,225/50 R17,17,,,2017,Run Flat/Black Wall,94 W,,2017,C,C,65,809,768.55,1,,Enabled,No,"Catalog, Search",Taxable Goods,Yes,No,No,"The Primacy 3 is Michelin's Grand Touring Summer tire developed for luxury coupe and sedan drivers looking for warm-weather tires that combine good ride and low noise with better braking, steering control and handling on wet roads. Designed to enhance vehicle fuel efficiency and reduce CO2 gas emissions, Primacy 3 tires meet Michelin's Green X standard* for low rolling resistance. While Primacy 3 tires are designed to offer reliable traction in dry and wet conditions in warm ambient temperatures, they are not intended to be driven in near-freezing temperatures, through snow or on ice. Primacy 3 tires feature a new generation Michelin tread compound molded into a symmetric tread design that has a notched center rib flanked by independent intermediate ribs and large shoulder blocks to combine responsive handling and high-speed stability with traction and even treadwear. The Primacy 3 tire's structure includes twin steel belts reinforced by size-optimized BAZ Technology (spirally-wrapped Polyamide Banded At Zero degrees to tire rotation) to enhance ride quality while providing high-speed durability.",,,,,,,,,,100,0,1,0,0,1,1,1,0,1,1,,,1,0,1,0,1,0,1,0,0,0,1,Primacy 3 MOE ZP,0,simple,,
admin,base,Tyre,simple,466,MIC440644-2016,,Primacy 3 GRNX,,,/michelin_primacy3_25.jpeg,/michelin_primacy3_25.jpeg,/michelin_primacy3_25.jpeg,,,,No layout updates,Product Info Column,,,,,Use config,Use config,No,225,55,225/55 R16,16,,,2017,Black Wall,95 W,,2017,C,C,65,499,474.05,1,,Enabled,No,"Catalog, Search",Taxable Goods,Yes,No,No,"The Primacy 3 is Michelin's Grand Touring Summer tire developed for luxury coupe and sedan drivers looking for warm-weather tires that combine good ride and low noise with better braking, steering control and handling on wet roads. Designed to enhance vehicle fuel efficiency and reduce CO2 gas emissions, Primacy 3 tires meet Michelin's Green X standard* for low rolling resistance. While Primacy 3 tires are designed to offer reliable traction in dry and wet conditions in warm ambient temperatures, they are not intended to be driven in near-freezing temperatures, through snow or on ice. Primacy 3 tires feature a new generation Michelin tread compound molded into a symmetric tread design that has a notched center rib flanked by independent intermediate ribs and large shoulder blocks to combine responsive handling and high-speed stability with traction and even treadwear. The Primacy 3 tire's structure includes twin steel belts reinforced by size-optimized BAZ Technology (spirally-wrapped Polyamide Banded At Zero degrees to tire rotation) to enhance ride quality while providing high-speed durability.",,,,,,,,,,100,0,1,0,0,1,1,1,0,1,1,,,1,0,1,0,1,0,1,0,0,0,1,Primacy 3 GRNX,0,simple,,
admin,base,Tyre,simple,466,MIC440644-2016,,Primacy 3 GRNX,,,/michelin_primacy3_25.jpeg,/michelin_primacy3_25.jpeg,/michelin_primacy3_25.jpeg,,,,No layout updates,Product Info Column,,,,,Use config,Use config,No,225,55,225/55 R16,16,,,2017,Black Wall,95 W,,2017,C,C,65,499,474.05,1,,Enabled,No,"Catalog, Search",Taxable Goods,Yes,No,No,"The Primacy 3 is Michelin's Grand Touring Summer tire developed for luxury coupe and sedan drivers looking for warm-weather tires that combine good ride and low noise with better braking, steering control and handling on wet roads. Designed to enhance vehicle fuel efficiency and reduce CO2 gas emissions, Primacy 3 tires meet Michelin's Green X standard* for low rolling resistance. While Primacy 3 tires are designed to offer reliable traction in dry and wet conditions in warm ambient temperatures, they are not intended to be driven in near-freezing temperatures, through snow or on ice. Primacy 3 tires feature a new generation Michelin tread compound molded into a symmetric tread design that has a notched center rib flanked by independent intermediate ribs and large shoulder blocks to combine responsive handling and high-speed stability with traction and even treadwear. The Primacy 3 tire's structure includes twin steel belts reinforced by size-optimized BAZ Technology (spirally-wrapped Polyamide Banded At Zero degrees to tire rotation) to enhance ride quality while providing high-speed durability.",,,,,,,,,,100,0,1,0,0,1,1,1,0,1,1,,,1,0,1,0,1,0,1,0,0,0,1,Primacy 3 GRNX,0,simple,,
admin,base,Tyre,simple,466,MIC123949-2016,,Primacy 3 GRNX,,,/michelin_primacy3_22.jpeg,/michelin_primacy3_22.jpeg,/michelin_primacy3_22.jpeg,,,,No layout updates,Product Info Column,,,,,Use config,Use config,No,225,55,225/55 R17,17,,,2017,Black Wall,101 W,,2017,C,C,65,621,589.95,1,,Enabled,No,"Catalog, Search",Taxable Goods,Yes,No,No,"The Primacy 3 is Michelin's Grand Touring Summer tire developed for luxury coupe and sedan drivers looking for warm-weather tires that combine good ride and low noise with better braking, steering control and handling on wet roads. Designed to enhance vehicle fuel efficiency and reduce CO2 gas emissions, Primacy 3 tires meet Michelin's Green X standard* for low rolling resistance. While Primacy 3 tires are designed to offer reliable traction in dry and wet conditions in warm ambient temperatures, they are not intended to be driven in near-freezing temperatures, through snow or on ice. Primacy 3 tires feature a new generation Michelin tread compound molded into a symmetric tread design that has a notched center rib flanked by independent intermediate ribs and large shoulder blocks to combine responsive handling and high-speed stability with traction and even treadwear. The Primacy 3 tire's structure includes twin steel belts reinforced by size-optimized BAZ Technology (spirally-wrapped Polyamide Banded At Zero degrees to tire rotation) to enhance ride quality while providing high-speed durability.",,,,,,,,,,100,0,1,0,0,1,1,1,0,1,1,,,1,0,1,0,1,0,1,0,0,0,1,Primacy 3 GRNX,0,simple,,
admin,base,Tyre,simple,466,MIC123949,,Primacy 3 GRNX,,,/michelin_primacy3.jpeg,/michelin_primacy3.jpeg,/michelin_primacy3.jpeg,,,,No layout updates,Product Info Column,,,,,Use config,Use config,No,225,55,225/55 R17,17,,,2017,Black Wall,101 W,,2017,C,C,65,709,673.55,1,,Enabled,No,"Catalog, Search",Taxable Goods,Yes,No,No,"The Primacy 3 is Michelin's Grand Touring Summer tire developed for luxury coupe and sedan drivers looking for warm-weather tires that combine good ride and low noise with better braking, steering control and handling on wet roads. Designed to enhance vehicle fuel efficiency and reduce CO2 gas emissions, Primacy 3 tires meet Michelin's Green X standard* for low rolling resistance. While Primacy 3 tires are designed to offer reliable traction in dry and wet conditions in warm ambient temperatures, they are not intended to be driven in near-freezing temperatures, through snow or on ice. Primacy 3 tires feature a new generation Michelin tread compound molded into a symmetric tread design that has a notched center rib flanked by independent intermediate ribs and large shoulder blocks to combine responsive handling and high-speed stability with traction and even treadwear. The Primacy 3 tire's structure includes twin steel belts reinforced by size-optimized BAZ Technology (spirally-wrapped Polyamide Banded At Zero degrees to tire rotation) to enhance ride quality while providing high-speed durability.",,,,,,,,,,100,0,1,0,0,1,1,1,0,1,1,,,1,0,1,0,1,0,1,0,0,0,1,Primacy 3 GRNX,0,simple,,
admin,base,Tyre,simple,466,MIC123949-2016,,Primacy 3 GRNX,,,/michelin_primacy3_22.jpeg,/michelin_primacy3_22.jpeg,/michelin_primacy3_22.jpeg,,,,No layout updates,Product Info Column,,,,,Use config,Use config,No,225,55,225/55 R17,17,,,2017,Black Wall,101 W,,2017,C,C,65,621,589.95,1,,Enabled,No,"Catalog, Search",Taxable Goods,Yes,No,No,"The Primacy 3 is Michelin's Grand Touring Summer tire developed for luxury coupe and sedan drivers looking for warm-weather tires that combine good ride and low noise with better braking, steering control and handling on wet roads. Designed to enhance vehicle fuel efficiency and reduce CO2 gas emissions, Primacy 3 tires meet Michelin's Green X standard* for low rolling resistance. While Primacy 3 tires are designed to offer reliable traction in dry and wet conditions in warm ambient temperatures, they are not intended to be driven in near-freezing temperatures, through snow or on ice. Primacy 3 tires feature a new generation Michelin tread compound molded into a symmetric tread design that has a notched center rib flanked by independent intermediate ribs and large shoulder blocks to combine responsive handling and high-speed stability with traction and even treadwear. The Primacy 3 tire's structure includes twin steel belts reinforced by size-optimized BAZ Technology (spirally-wrapped Polyamide Banded At Zero degrees to tire rotation) to enhance ride quality while providing high-speed durability.",,,,,,,,,,100,0,1,0,0,1,1,1,0,1,1,,,1,0,1,0,1,0,1,0,0,0,1,Primacy 3 GRNX,0,simple,,
admin,base,Tyre,simple,466,MIC351657,,Primacy 3 AO GRNX,,,/michelin_primacy3.jpeg,/michelin_primacy3.jpeg,/michelin_primacy3.jpeg,,,,No layout updates,Product Info Column,,,,,Use config,Use config,No,225,55,225/55 R17,17,,,2017,Black Wall,97 Y,,2017,C,C,65,675,641.25,1,,Enabled,No,"Catalog, Search",Taxable Goods,Yes,No,No,"The Primacy 3 is Michelin's Grand Touring Summer tire developed for luxury coupe and sedan drivers looking for warm-weather tires that combine good ride and low noise with better braking, steering control and handling on wet roads. Designed to enhance vehicle fuel efficiency and reduce CO2 gas emissions, Primacy 3 tires meet Michelin's Green X standard* for low rolling resistance. While Primacy 3 tires are designed to offer reliable traction in dry and wet conditions in warm ambient temperatures, they are not intended to be driven in near-freezing temperatures, through snow or on ice. Primacy 3 tires feature a new generation Michelin tread compound molded into a symmetric tread design that has a notched center rib flanked by independent intermediate ribs and large shoulder blocks to combine responsive handling and high-speed stability with traction and even treadwear. The Primacy 3 tire's structure includes twin steel belts reinforced by size-optimized BAZ Technology (spirally-wrapped Polyamide Banded At Zero degrees to tire rotation) to enhance ride quality while providing high-speed durability.",,,,,,,,,,100,0,1,0,0,1,1,1,0,1,1,,,1,0,1,0,1,0,1,0,0,0,1,Primacy 3 AO GRNX,0,simple,,
admin,base,Tyre,simple,466,MIC343993,,Primacy 3 GRNX,,,/michelin_primacy3.jpeg,/michelin_primacy3.jpeg,/michelin_primacy3.jpeg,,,,No layout updates,Product Info Column,,,,,Use config,Use config,No,225,60,225/60 R16,16,,,2017,Black Wall,98 V,,2017,C,C,65,549,521.55,1,,Enabled,No,"Catalog, Search",Taxable Goods,Yes,No,No,"The Primacy 3 is Michelin's Grand Touring Summer tire developed for luxury coupe and sedan drivers looking for warm-weather tires that combine good ride and low noise with better braking, steering control and handling on wet roads. Designed to enhance vehicle fuel efficiency and reduce CO2 gas emissions, Primacy 3 tires meet Michelin's Green X standard* for low rolling resistance. While Primacy 3 tires are designed to offer reliable traction in dry and wet conditions in warm ambient temperatures, they are not intended to be driven in near-freezing temperatures, through snow or on ice. Primacy 3 tires feature a new generation Michelin tread compound molded into a symmetric tread design that has a notched center rib flanked by independent intermediate ribs and large shoulder blocks to combine responsive handling and high-speed stability with traction and even treadwear. The Primacy 3 tire's structure includes twin steel belts reinforced by size-optimized BAZ Technology (spirally-wrapped Polyamide Banded At Zero degrees to tire rotation) to enhance ride quality while providing high-speed durability.",,,,,,,,,,100,0,1,0,0,1,1,1,0,1,1,,,1,0,1,0,1,0,1,0,0,0,1,Primacy 3 GRNX,0,simple,,
admin,base,Tyre,simple,466,MIC343993,,Primacy 3 GRNX,,,/michelin_primacy3.jpeg,/michelin_primacy3.jpeg,/michelin_primacy3.jpeg,,,,No layout updates,Product Info Column,,,,,Use config,Use config,No,225,60,225/60 R16,16,,,2017,Black Wall,98 V,,2017,C,C,65,549,521.55,1,,Enabled,No,"Catalog, Search",Taxable Goods,Yes,No,No,"The Primacy 3 is Michelin's Grand Touring Summer tire developed for luxury coupe and sedan drivers looking for warm-weather tires that combine good ride and low noise with better braking, steering control and handling on wet roads. Designed to enhance vehicle fuel efficiency and reduce CO2 gas emissions, Primacy 3 tires meet Michelin's Green X standard* for low rolling resistance. While Primacy 3 tires are designed to offer reliable traction in dry and wet conditions in warm ambient temperatures, they are not intended to be driven in near-freezing temperatures, through snow or on ice. Primacy 3 tires feature a new generation Michelin tread compound molded into a symmetric tread design that has a notched center rib flanked by independent intermediate ribs and large shoulder blocks to combine responsive handling and high-speed stability with traction and even treadwear. The Primacy 3 tire's structure includes twin steel belts reinforced by size-optimized BAZ Technology (spirally-wrapped Polyamide Banded At Zero degrees to tire rotation) to enhance ride quality while providing high-speed durability.",,,,,,,,,,100,0,1,0,0,1,1,1,0,1,1,,,1,0,1,0,1,0,1,0,0,0,1,Primacy 3 GRNX,0,simple,,
admin,base,Tyre,simple,466,MIC322238-2016,,Latitude Tour HP GRNX,,,/michelin_latitudetourhp_10.jpeg,/michelin_latitudetourhp_10.jpeg,/michelin_latitudetourhp_10.jpeg,,,,No layout updates,Product Info Column,,,,,Use config,Use config,No,225,60,225/60 R18,18,,,2017,Black Wall,100 H,,2017,C,C,65,734,697.3,1,,Enabled,No,"Catalog, Search",Taxable Goods,Yes,No,No,"Michelin uses a range of advanced technologies to bring top handling, comfort and traction to one great crossover tire. The makers' choice for many Acura, Lexus, Mercedes and BMW CVUs as well as the Porsche Cayenne. The all-season compound balances dry, wet and wintertime traction with low rolling resistance for great fuel efficiency. Aramid fiber beneath the tread (with 10 times the tensile strength of steel) provides extra stability and traction. Stable shoulder blocks and a continuous center rib make these tires responsive and stable on the highway. Wide grooves around the circumference help resist hydroplaning; multiple sipes provide biting edges in snow. Precision manufacturing contributes to a smooth, comfortable ride.",,,,,,,,,,100,0,1,0,0,1,1,1,0,1,1,,,1,0,1,0,1,0,1,0,0,0,1,Latitude Tour HP GRNX,0,simple,,
admin,base,Tyre,simple,466,MIC322238,,Latitude Tour HP GRNX,,,/michelin_latitudetourhp.jpeg,/michelin_latitudetourhp.jpeg,/michelin_latitudetourhp.jpeg,,,,No layout updates,Product Info Column,,,,,Use config,Use config,No,225,60,225/60 R18,18,,,2017,Black Wall,100 H,,2017,C,C,65,819,778.05,1,,Enabled,No,"Catalog, Search",Taxable Goods,Yes,No,No,"Michelin uses a range of advanced technologies to bring top handling, comfort and traction to one great crossover tire. The makers' choice for many Acura, Lexus, Mercedes and BMW CVUs as well as the Porsche Cayenne. The all-season compound balances dry, wet and wintertime traction with low rolling resistance for great fuel efficiency. Aramid fiber beneath the tread (with 10 times the tensile strength of steel) provides extra stability and traction. Stable shoulder blocks and a continuous center rib make these tires responsive and stable on the highway. Wide grooves around the circumference help resist hydroplaning; multiple sipes provide biting edges in snow. Precision manufacturing contributes to a smooth, comfortable ride.",,,,,,,,,,100,0,1,0,0,1,1,1,0,1,1,,,1,0,1,0,1,0,1,0,0,0,1,Latitude Tour HP GRNX,0,simple,,
admin,base,Tyre,simple,466,MIC834879,,Primacy SUV,,,/primacy_suv_2.png,/primacy_suv_2.png,/primacy_suv_2.png,,,,No layout updates,Product Info Column,,,,,Use config,Use config,No,225,65,225/65 R17,17,,,2017,Black Wall,102 H,,2017,C,C,65,669,635.55,1,,Enabled,No,"Catalog, Search",Taxable Goods,Yes,No,No,"Michelin Primacy SUV tyres - the most important safety feature on your SUV, bringing you confidence and a peaceful ride even in the most unpredictable driving conditions. Browse our website for more tyre sizes and tyre prices.       Better Holding on Wet Roads - Thanks to an optimised tread pattern design combined with grip-enhancing Flexmax 2.0 rubber compound, the Michelin Primacy SUV tyre has 6% better road holding on bends compared to its previous generation and 10% better when compared against leading competitors.      Smooth & Comfortable Ride - CushionGuard and EvenPeak technologies absorb road imperfections for a smoother ride.      New Tyre Compound & Tread Design - New FlexMax 2.0 rubber compound and StabiliGrip tread sipe design enhance safety.",,,,,,,,,,100,0,1,0,0,1,1,1,0,1,1,,,1,0,1,0,1,0,1,0,0,0,1,Primacy SUV,0,simple,,
admin,base,Tyre,simple,466,MIC225515,,Latitude Cross,,,/michelin_latitudecross.jpg,/michelin_latitudecross.jpg,/michelin_latitudecross.jpg,,,,No layout updates,Product Info Column,,,,,Use config,Use config,No,225,70,225/70 R16,16,,,2017,Black Wall,103 H,,2017,C,C,65,679,645.05,1,,Enabled,No,"Catalog, Search",Taxable Goods,Yes,No,No,"Michelin's new Latitude Cross tyre gives drivers of city slicker SUVs a chance to expand their horizons to enjoy the off-road experience their vehicles were designed for - with excellent performance both on and off-road. It provides the same traction as an off-road tyre, and superior steering control. Its ability to grip in mud and to hold and advance on loose ground are comparable to that of an all-terrain tyre.",,,,,,,,,,100,0,1,0,0,1,1,1,0,1,1,,,1,0,1,0,1,0,1,0,0,0,1,Latitude Cross,0,simple,,
admin,base,Tyre,simple,466,MIC225515,,Latitude Cross,,,/michelin_latitudecross.jpg,/michelin_latitudecross.jpg,/michelin_latitudecross.jpg,,,,No layout updates,Product Info Column,,,,,Use config,Use config,No,225,70,225/70 R16,16,,,2017,Black Wall,103 H,,2017,C,C,65,679,645.05,1,,Enabled,No,"Catalog, Search",Taxable Goods,Yes,No,No,"Michelin's new Latitude Cross tyre gives drivers of city slicker SUVs a chance to expand their horizons to enjoy the off-road experience their vehicles were designed for - with excellent performance both on and off-road. It provides the same traction as an off-road tyre, and superior steering control. Its ability to grip in mud and to hold and advance on loose ground are comparable to that of an all-terrain tyre.",,,,,,,,,,100,0,1,0,0,1,1,1,0,1,1,,,1,0,1,0,1,0,1,0,0,0,1,Latitude Cross,0,simple,,
admin,base,Tyre,simple,466,MIC397696,,LTX AT2 LRE DT,,,/michelin_ltx_at2.jpeg,/michelin_ltx_at2.jpeg,/michelin_ltx_at2.jpeg,,,,No layout updates,Product Info Column,,,,,Use config,Use config,No,225,75,225/75 R16,16,,,2017,Black Wall,115 R,,2017,C,C,65,734,697.3,1,,Enabled,No,"Catalog, Search",Taxable Goods,Yes,No,No,"The LTX A/T2 is Michelin's On-/Off-Road All-Terrain light truck tire developed to meet the needs of today's recreational and commercial pickup, van and SUV drivers. It was designed to provide even wear, low noise and good fuel efficiency, even in demanding commercial applications while delivering the year-round traction and durability expected from rugged off-road tires without forsaking the on-road comfort and handling expected of a Michelin tire.",,,,,,,,,,100,0,1,0,0,1,1,1,0,1,1,,,1,0,1,0,1,0,1,0,0,0,1,LTX AT2 LRE DT,0,simple,,
admin,base,Tyre,simple,466,MIC531615/ANF,,Pilot Sport PS2 N2,,,/michelin_pilotsportps.jpg,/michelin_pilotsportps.jpg,/michelin_pilotsportps.jpg,,,,No layout updates,Product Info Column,,,,,Use config,Use config,No,235,35,235/35 R19,19,,,2017,Black Wall,87 Y,,2017,C,C,65,1124,977.88,1,,Enabled,No,"Catalog, Search",Taxable Goods,Yes,No,No,"The Pilot Sport PS2 is a Max Performance Summer tire member of the Michelin Pilot family of low profile, high-speed tires. Initially developed for Original Equipment (O.E.) on some of the world's most prestigious sports cars and performance sedans, the Pilot Sport PS2 combines world-class dry road traction, handling and cornering. Some of the first Pilot Sport PS2 O.E. fitments included the BMW Alpina Z8, McLaren SLR and Porsche GT2/GT3 models. The Pilot Sport PS2 is not intended to be driven in near-freezing temperatures, through snow or on ice. On the outside, Pilot Sport PS2 features two different tread rubber compounds (a hybrid silica/carbon black compound that begins at the tire's outer shoulder and continues across the tread until it joins a high-silica compound that continues to the tire's inside shoulder) molded into an asymmetric design with large outer shoulder blocks and continuous intermediate and center ribs to enhance steering response and cornering stability. Both tread compounds are specifically formulated for their location to combine dry and wet traction with crisp corning and high speed capability. The tread design also features wide circumferential grooves and lateral notches that help channel water through the footprint to enhance wet road traction.",,,,,,,,,,100,0,1,0,0,1,1,1,0,1,1,,,1,0,1,0,1,0,1,0,0,0,1,Pilot Sport PS2 N2,0,simple,,
admin,base,Tyre,simple,466,MIC531615/ANF,,Pilot Sport PS2 N2,,,/michelin_pilotsportps.jpg,/michelin_pilotsportps.jpg,/michelin_pilotsportps.jpg,,,,No layout updates,Product Info Column,,,,,Use config,Use config,No,235,35,235/35 R19,19,,,2017,Black Wall,87 Y,,2017,C,C,65,1124,977.88,1,,Enabled,No,"Catalog, Search",Taxable Goods,Yes,No,No,"The Pilot Sport PS2 is a Max Performance Summer tire member of the Michelin Pilot family of low profile, high-speed tires. Initially developed for Original Equipment (O.E.) on some of the world's most prestigious sports cars and performance sedans, the Pilot Sport PS2 combines world-class dry road traction, handling and cornering. Some of the first Pilot Sport PS2 O.E. fitments included the BMW Alpina Z8, McLaren SLR and Porsche GT2/GT3 models. The Pilot Sport PS2 is not intended to be driven in near-freezing temperatures, through snow or on ice. On the outside, Pilot Sport PS2 features two different tread rubber compounds (a hybrid silica/carbon black compound that begins at the tire's outer shoulder and continues across the tread until it joins a high-silica compound that continues to the tire's inside shoulder) molded into an asymmetric design with large outer shoulder blocks and continuous intermediate and center ribs to enhance steering response and cornering stability. Both tread compounds are specifically formulated for their location to combine dry and wet traction with crisp corning and high speed capability. The tread design also features wide circumferential grooves and lateral notches that help channel water through the footprint to enhance wet road traction.",,,,,,,,,,100,0,1,0,0,1,1,1,0,1,1,,,1,0,1,0,1,0,1,0,0,0,1,Pilot Sport PS2 N2,0,simple,,
admin,base,Tyre,simple,466,MIC239716,,Pilot Sport CUP2 N0,,,/michelin_pilotsportcup2.png,/michelin_pilotsportcup2.png,/michelin_pilotsportcup2.png,,,,No layout updates,Product Info Column,,,,,Use config,Use config,No,235,35,235/35 R19,19,,,2017,Black Wall,91 Y,,2017,C,C,65,1249,1086.63,1,,Enabled,No,"Catalog, Search",Taxable Goods,Yes,No,No,"The Pilot Sport Cup 2 is Michelin's Streetable Track & Competition tire originally developed for Original Equipment use on the Ferrari 458 Speciale, Mercedes SLS AMG Coupe Black Series and Porsche 918 Spyder hybrid super sports car. Designed to provide faster circuit times and consistent performance lap after lap, the Pilot Sport Cup 2 allows these supercars to achieve their full potential in dry conditions. Like all summer tires they are not intended to be driven in near-freezing temperatures, through slush, snow or on ice. The Pilot Sport Cup 2's tread molds Michelin's Bi-Compound technology into an asymmetric design. Bi-Compound technology features different rubber compounds on the tread's outboard and inboard regions. Massive outboard shoulders feature a tread rubber whose hardness has been specially designed to deliver maximum adherence and outstanding dry grip on curves, especially on tight corners. Notched center ribs and an inboard shoulder use tread rubber featuring a more rigid elastomer to ensure precision steering.",,,,,,,,,,100,0,1,0,0,1,1,1,0,1,1,,,1,0,1,0,1,0,1,0,0,0,1,Pilot Sport CUP2 N0,0,simple,,
