sku,short_description
MIC452837-2016,Michelin
MIC452837,Michelin
MIC139282-2016,Michelin
MIC139282-2016,Michelin
MIC527846-2016,Michelin
MIC527846,Michelin
MIC527846-2016,Michelin
MIC527846,Michelin
MIC007444-2016,Michelin
MIC560577-2016,Michelin
MIC560577-2016,Michelin
MIC368600,Michelin
MIC395272,Michelin
MIC453682,Michelin
MIC453682,Michelin
MIC194157-2016,Michelin
MIC194157-2016,Michelin
MIC945315,Michelin
MIC945315,Michelin
MIC139305-2016,Michelin
MIC144062,Michelin
MIC245/35R2196Y-ZNQ,Michelin
MIC223971,Michelin
MIC545550,Michelin
MIC454045,Michelin
