store,websites,attribute_set,type,category_ids,sku,has_options,name,meta_title,meta_description,image,small_image,thumbnail,url_key,url_path,custom_design,page_layout,options_container,image_label,small_image_label,thumbnail_label,country_of_manufacture,msrp_enabled,msrp_display_actual_price_type,gift_message_available,width,ratio,size,diameter,car_make,car_model,car_year,sidewall_style,serv_desc,utqg,production_year,fuel,weather,sound,price,special_price,weight,msrp,status,is_recurring,visibility,tax_class_id,passenger,tyres4_4,vantyres,description,short_description,meta_keyword,custom_layout_update,special_from_date,special_to_date,news_from_date,news_to_date,custom_design_from,custom_design_to,qty,min_qty,use_config_min_qty,is_qty_decimal,backorders,use_config_backorders,min_sale_qty,use_config_min_sale_qty,max_sale_qty,use_config_max_sale_qty,is_in_stock,low_stock_date,notify_stock_qty,use_config_notify_stock_qty,manage_stock,use_config_manage_stock,stock_status_changed_auto,use_config_qty_increments,qty_increments,use_config_enable_qty_inc,enable_qty_increments,is_decimal_divided,stock_status_changed_automatically,use_config_enable_qty_increments,product_name,store_id,product_type_id,product_status_changed,product_changed_websites
admin,base,Tyre,simple,121,CON03562080000,0,275/45 R18 103Y,,,/continental_sportcontact5n0.jpg,/continental_sportcontact5n0.jpg,/continental_sportcontact5n0.jpg,,,,No layout updates,Product Info Column,,,,,Use config,Use config,No,,,275/45 R18,275/45 R18,,,2017,Black Wall,"103 Y Load Index 103 =  1,929.03lbs (875kg) per tire Speed Rating = 186.41mph (300kph)",Black Wall,2017,B,C,65,1154,1003.98,1,,Enabled,No,"Catalog, Search",Taxable Goods,Yes,No,No,"With the launch of the ContiSportContact 5, Continental has developed a tyre which is equally suitable for sporty cars & SUVs with sporty driving characteristics. With this new development, the tyre engineers have made significant progress in comparison to the popular predecessor ContiSportContact 3.Its Features are: Shorter braking distances in all weather conditions, Excellent road grip and safety when cornering, Reduced fuel consumption and high mileage. This was made possible due to a new compound which focuses on maximum power transmission and provides low rolling resistance whilst driving normally. This rubber compound which carries the name BlackChilli uses the various vibrations of the tyre. The ContiSportContact 5 is available in a range of sizes from 17 inch upwards for cars and 18 inch upwards for SUV.",,,,,,,,,,95,0,1,0,0,1,1,1,0,1,1,,,1,0,1,0,1,0,1,0,0,0,1,275/45 R18 103Y,0,simple,,
admin,base,Tyre,simple,79,CON03546030000,0,275/45 R19 108V,,,/continental_4x4contact.jpeg,/continental_4x4contact.jpeg,/continental_4x4contact.jpeg,,,,No layout updates,Product Info Column,,,,,Use config,Use config,No,,,275/45 R19,275/45 R19,,,2017,Blackwall,"108 V Load Index 108 =  2,204.60lbs (1000kg) per tire Speed Rating = 149.13mph (240kph)",Blackwall,2017,B,C,65,1162,1010.94,1,,Enabled,No,"Catalog, Search",Taxable Goods,Yes,No,No,This tye is excellent noise levels and comfort in on-road use and good protection against aquaplaning. This tyre is  superb traction both on- and off-road.,,,,,,,,,,95,0,1,0,0,1,1,1,0,1,1,,,1,0,1,0,1,0,1,0,0,0,1,275/45 R19 108V,0,simple,,
admin,base,Tyre,simple,151,CON03540880000,0,275/45 R20 110V,,,/continental_crosscontactlxsport.jpg,/continental_crosscontactlxsport.jpg,/continental_crosscontactlxsport.jpg,,,,No layout updates,Product Info Column,,,,,Use config,Use config,No,,,275/45 R20,275/45 R20,,,2017,Blackwall,"110 V Load Index 110 =  2,336.88lbs (1060kg) per tire Speed Rating = 149.13mph (240kph)",Blackwall,2017,B,C,65,1533,1333.71,1,,Enabled,No,"Catalog, Search",Taxable Goods,Yes,No,No,This tyre is outstanding handling for on-road and general off-road use and also excellent braking performance on dry and wet roads.In addition with this tyre is optimised forrolling resistance.,,,,,,,,,,95,0,1,0,0,1,1,1,0,1,1,,,1,0,1,0,1,0,1,0,0,0,1,275/45 R20 110V,0,simple,,
admin,base,Tyre,simple,127,CON03541760000,0,275/45 R20 110Y,,,/continental_sportcontact5.jpg,/continental_sportcontact5.jpg,/continental_sportcontact5.jpg,,,,No layout updates,Product Info Column,,,,,Use config,Use config,No,,,275/45 R20,275/45 R20,,,2017,Blackwall,"110 Y Load Index 110 =  2,336.88lbs (1060kg) per tire Speed Rating = 186.41mph (300kph)",Blackwall,2017,B,C,65,1312,1141.44,1,,Enabled,No,"Catalog, Search",Taxable Goods,Yes,No,No,This tyre is excellent road grip and handling just as safety when cornering and shorter braking distances in all weather conditions. Also reduced fuel consumption and high mileage.,,,,,,,,,,95,0,1,0,0,1,1,1,0,1,1,,,1,0,1,0,1,0,1,0,0,0,1,275/45 R20 110Y,0,simple,,
admin,base,Tyre,simple,85,CON3544520000,0,275/60 R20 119H,,,/continental_crosscontactlx2_1.png,/continental_crosscontactlx2_1.png,/continental_crosscontactlx2_1.png,,,,No layout updates,Product Info Column,,,,,Use config,Use config,No,,,275/60 R20,275/60 R20,,,2017,Blackwall,"119 H Load Index 119 =  2,998.26lbs (1360kg) per tire Speed Rating = 130.49mph (210kph)",Blackwall,2017,B,C,65,1155,1004.85,1,,Enabled,No,"Catalog, Search",Taxable Goods,Yes,No,No,This trye is excellent dry and wet braking performance and outclass handling properties with  high mileage and high level of driving comfort and  outstanding traction in light for off-road use.,,,,,,,,,,95,0,1,0,0,1,1,1,0,1,1,,,1,0,1,0,1,0,1,0,0,0,1,275/60 R20 119H,0,simple,,
admin,base,Tyre,simple,83,CON15491920000,0,275/65 R17 115H,,,/continental_crosscontactlx2.png,/continental_crosscontactlx2.png,/continental_crosscontactlx2.png,,,,No layout updates,Product Info Column,,,,,Use config,Use config,No,,,275/65 R17,275/65 R17,,,2017,Blackwall,"115 H Load Index 115 =  2,678.59lbs (1215kg) per tire Speed Rating = 130.49mph (210kph)",Blackwall,2017,B,C,65,905,787.35,1,,Enabled,No,"Catalog, Search",Taxable Goods,Yes,No,No,This trye is excellent dry and wet braking performance and outclass handling properties with  high mileage and high level of driving comfort and  outstanding traction in light for off-road use.,,,,,,,,,,95,0,1,0,0,1,1,1,0,1,1,,,1,0,1,0,1,0,1,0,0,0,1,275/65 R17 115H,0,simple,,
admin,base,Tyre,simple,145,CON4320230000,0,275/65 R18 123/120S,,,/continental_contitrac.jpg,/continental_contitrac.jpg,/continental_contitrac.jpg,,,,No layout updates,Product Info Column,,,,,Use config,Use config,No,,,275/65 R18,275/65 R18,,,2017,White letters,"123/120 S Load Index 123/120 =  3,417.13lbs (1550kg) per tire Speed Rating = 111.85mph (180kph)",White letters,2017,B,C,65,1385,1204.95,1,,Enabled,No,"Catalog, Search",Taxable Goods,Yes,No,No,This trye is suitable for on-road and general off-road use. It has outstanding handling and braking performance and also good protection against aquaplaning and minimal stone retention. It has excellent traction and high ride comfort.,,,,,,,,,,95,0,1,0,0,1,1,1,0,1,1,,,1,0,1,0,1,0,1,0,0,0,1,275/65 R18 123/120S,0,simple,,
admin,base,Tyre,simple,138,CON03519570000,0,285/30 R19 98Y,,,/continental_sportcontact5p.jpg,/continental_sportcontact5p.jpg,/continental_sportcontact5p.jpg,,,,No layout updates,Product Info Column,,,,,Use config,Use config,No,,,285/30 R19,285/30 R19,,,2017,Run Flat/Black Wall,"98 Y Load Index 98 =  1,653.45lbs (750kg) per tire Speed Rating = 186.41mph (300kph)",Run Flat/Black Wall,2017,B,C,65,1935,1683.45,1,,Enabled,No,"Catalog, Search",Taxable Goods,Yes,No,No,"The ContiSportContact 5P SSR (Self Supporting Runflat) is Continental Tire's Max Performance Summer run-flat tire designed to provide temporary extended mobility in case of complete air loss due to a puncture. Tires in sizes used for staggered fitments are optimized to meet the specific performance requirements of front or rear axle positions.The ContiSportContact 5P SSR is designed to deliver steering precision, cornering stability and short stopping distances in dry and wet conditions, However, like all summer tires, they are not intended to be driven in near freezing temperatures, through snow or on ice. ContiSportContact 5P SSR tires permit drivers to remain mobile in the event of a flat tire by allowing them to reach their destination or tire service facility without having to replace a flat tire with the spare tire. The ContiSportContact 5P SSR's reinforced sidewall enables the car to continue on its way at a maximum speed of 50 mph (80 km/h) for up to 50 miles (80 km), depending on road conditions and vehicle weight.",,,,,,,,,,95,0,1,0,0,1,1,1,0,1,1,,,1,0,1,0,1,0,1,0,0,0,1,285/30 R19 98Y,0,simple,,
admin,base,Tyre,simple,134,CON3565640000,0,285/30 R20 99Y,,,/continental_sportcontact5p.jpg,/continental_sportcontact5p.jpg,/continental_sportcontact5p.jpg,,,,No layout updates,Product Info Column,,,,,Use config,Use config,No,,,285/30 R20,285/30 R20,,,2017,Black Wall,"99 Y Load Index 99 =  1,708.57lbs (775kg) per tire Speed Rating = 186.41mph (300kph)",Black Wall,2017,B,C,65,1725,1500.75,1,,Enabled,No,"Catalog, Search",Taxable Goods,Yes,No,No,"With the launch of the ContiSportContact 5, Continental has developed a tyre which is equally suitable for sporty cars & SUVs with sporty driving characteristics. With this new development, the tyre engineers have made significant progress in comparison to the popular predecessor ContiSportContact 3.Its Features are: Shorter braking distances in all weather conditions, Excellent road grip and safety when cornering, Reduced fuel consumption and high mileage. This was made possible due to a new compound which focuses on maximum power transmission and provides low rolling resistance whilst driving normally. This rubber compound which carries the name BlackChilli uses the various vibrations of the tyre. The ContiSportContact 5 is available in a range of sizes from 17 inch upwards for cars and 18 inch upwards for SUV.",,,,,,,,,,95,0,1,0,0,1,1,1,0,1,1,,,1,0,1,0,1,0,1,0,0,0,1,285/30 R20 99Y,0,simple,,
admin,base,Tyre,simple,118,CON03571190000,0,285/30 R21 100Y,,,/continental_sportcontact5p_4.jpg,/continental_sportcontact5p_4.jpg,/continental_sportcontact5p_4.jpg,,,,No layout updates,Product Info Column,,,,,Use config,Use config,No,,,285/30 R21,285/30 R21,,,2017,Black Wall,"100 Y Load Index 100 =  1,763.68lbs (800kg) per tire Speed Rating = 186.41mph (300kph)",Black Wall,2017,B,C,65,2054,1786.98,1,,Enabled,No,"Catalog, Search",Taxable Goods,Yes,No,No,The latest innovation from the Continental experts. A high performance tyre that offers maximum safety and driving pleasure for highly tuned cars. The ContiSportContact,,,,,,,,,,95,0,1,0,0,1,1,1,0,1,1,,,1,0,1,0,1,0,1,0,0,0,1,285/30 R21 100Y,0,simple,,
admin,base,Tyre,simple,136,CON03562380000,0,285/30 R21 100Y,,,/continental_sportcontact5p.jpg,/continental_sportcontact5p.jpg,/continental_sportcontact5p.jpg,,,,No layout updates,Product Info Column,,,,,Use config,Use config,No,,,285/30 R21,285/30 R21,,,2017,Black Wall,"100 Y Load Index 100 =  1,763.68lbs (800kg) per tire Speed Rating = 186.41mph (300kph)",Black Wall,2017,B,C,65,2070,1800.9,1,,Enabled,No,"Catalog, Search",Taxable Goods,Yes,No,No,The latest innovation from the Continental experts. A high performance tyre that offers maximum safety and driving pleasure for highly tuned cars. The ContiSportContact,,,,,,,,,,95,0,1,0,0,1,1,1,0,1,1,,,1,0,1,0,1,0,1,0,0,0,1,285/30 R21 100Y,0,simple,,
admin,base,Tyre,simple,108,CON03502580000,0,285/35 R18 101Y,,,/continental_sportcontact3mo.jpeg,/continental_sportcontact3mo.jpeg,/continental_sportcontact3mo.jpeg,,,,No layout updates,Product Info Column,,,,,Use config,Use config,No,,,285/35 R18,285/35 R18,,,2017,Black Wall,"101 Y Load Index 101 =  1,818.80lbs (825kg) per tire Speed Rating = 186.41mph (300kph)",Black Wall,2017,B,C,65,1510,1313.7,1,,Enabled,No,"Catalog, Search",Taxable Goods,Yes,No,No,"One of the most crucial requirements of tyres fitted on high performance, sports cars is agile steering precision. This ensures your vehicle maintains good adherence to the road in face of the considerable forces acting on the tyres when driving at high speeds, making abrupt manoeuvres or changes in road surfaces. The asymmetric tread ribs on the ContiSportContact",,,,,,,,,,95,0,1,0,0,1,1,1,0,1,1,,,1,0,1,0,1,0,1,0,0,0,1,285/35 R18 101Y,0,simple,,
admin,base,Tyre,simple,143,CON3571170000,0,285/35 R20 100Y,,,/continental_sportcontact5p_2_1.jpg,/continental_sportcontact5p_2_1.jpg,/continental_sportcontact5p_2_1.jpg,,,,No layout updates,Product Info Column,,,,,Use config,Use config,No,,,285/35 R20,285/35 R20,,,2017,Black Wall,"100 Y Load Index 100 =  1,763.68lbs (800kg) per tire Speed Rating = 186.41mph (300kph)",Black Wall,2017,B,C,65,1705,1483.35,1,,Enabled,No,"Catalog, Search",Taxable Goods,Yes,No,No,The latest innovation from the Continental experts. A high performance tyre that offers maximum safety and driving pleasure for highly tuned cars. The ContiSportContact,,,,,,,,,,95,0,1,0,0,1,1,1,0,1,1,,,1,0,1,0,1,0,1,0,0,0,1,285/35 R20 100Y,0,simple,,
admin,base,Tyre,simple,134,CON03563000000,0,285/35 R20 104Y,,,/continental_sportcontact5p.jpg,/continental_sportcontact5p.jpg,/continental_sportcontact5p.jpg,,,,No layout updates,Product Info Column,,,,,Use config,Use config,No,,,285/35 R20,285/35 R20,,,2017,Black Wall,"104 Y Load Index 104 =  1,984.14lbs (900kg) per tire Speed Rating = 186.41mph (300kph)",Black Wall,2017,B,C,65,1589,1382.43,1,,Enabled,No,"Catalog, Search",Taxable Goods,Yes,No,No,"With the launch of the ContiSportContact 5, Continental has developed a tyre which is equally suitable for sporty cars & SUVs with sporty driving characteristics. With this new development, the tyre engineers have made significant progress in comparison to the popular predecessor ContiSportContact 3.Its Features are: Shorter braking distances in all weather conditions, Excellent road grip and safety when cornering, Reduced fuel consumption and high mileage. This was made possible due to a new compound which focuses on maximum power transmission and provides low rolling resistance whilst driving normally. This rubber compound which carries the name BlackChilli uses the various vibrations of the tyre. The ContiSportContact 5 is available in a range of sizes from 17 inch upwards for cars and 18 inch upwards for SUV.",,,,,,,,,,95,0,1,0,0,1,1,1,0,1,1,,,1,0,1,0,1,0,1,0,0,0,1,285/35 R20 104Y,0,simple,,
admin,base,Tyre,simple,117,CON03563080000,0,285/35 R21 105Y,,,/continental_sportcontact5contiseal.jpg,/continental_sportcontact5contiseal.jpg,/continental_sportcontact5contiseal.jpg,,,,No layout updates,Product Info Column,,,,,Use config,Use config,No,,,285/35 R21,285/35 R21,,,2017,Black Wall,"105 Y Load Index 105 =  2,039.26lbs (925kg) per tire Speed Rating = 186.41mph (300kph)",Black Wall,2017,B,C,65,1905,1657.35,1,,Enabled,No,"Catalog, Search",Taxable Goods,Yes,No,No,"Max Performance Summer tires are for serious driving enthusiasts who want a combination of a performance appearance, competent handling and Z-speed rated (orhigher) durability with enhanced dry and wet traction. Often used as Original Equipment (O.E.) on powerful sports cars, performance coupes and high performancesedans, Max Performance Summer tires are not intended to be driven in near-freezing temperatures, through snow or on ice. O.E. Max Performance Summer tires are typically purchased as direct replacements for worn-out pairs/sets of thevehicle's original tires. They can also be used for other vehicle applications in complete sets of four or axle pairs if available in an appropriate size, loadrange and speed rating to match the existing O.E. tires' performance category and specifications.",,,,,,,,,,95,0,1,0,0,1,1,1,0,1,1,,,1,0,1,0,1,0,1,0,0,0,1,285/35 R21 105Y,0,simple,,
admin,base,Tyre,simple,113,CON3564310000,0,285/40 R19 103Y,,,/continental_sportcontact3_1.jpeg,/continental_sportcontact3_1.jpeg,/continental_sportcontact3_1.jpeg,,,,No layout updates,Product Info Column,,,,,Use config,Use config,No,,,285/40 R19,285/40 R19,,,2017,Black Wall,"103 Y Load Index 103 =  1,929.03lbs (875kg) per tire Speed Rating = 186.41mph (300kph)",Black Wall,2017,B,C,65,1553,1351.11,1,,Enabled,No,"Catalog, Search",Taxable Goods,Yes,No,No,"ContiSportContact 3 tires feature an asymmetric design with solid tread blocks and a continuous rib on the outboard shoulder to improve responsiveness and cornering stability, while continuous intermediate ribs provide constant rubber-to-road contact to reduce noise and control the longitudinal forces experienced when braking. The continuous circumferential tread grooves help disperse water to resist hydroplaning and their asymmetrically angled walls further stabilize the tread ribs, increasing steering precision and reducing deformation while cornering. The notched shoulder blocks on the inboard portion enhance wet weather traction.",,,,,,,,,,95,0,1,0,0,1,1,1,0,1,1,,,1,0,1,0,1,0,1,0,0,0,1,285/40 R19 103Y,0,simple,,
admin,base,Tyre,simple,134,C03564830000-ANF,0,285/40 R22 106Y,,,/continental_contisportcontact5p.jpg,/continental_contisportcontact5p.jpg,/continental_contisportcontact5p.jpg,,,,No layout updates,Product Info Column,,,,,Use config,Use config,No,,,285/40 R22,285/40 R22,,,2017,Black Wall,"106 Y Load Index 106 =  2,094.37lbs (950kg) per tire Speed Rating = 186.41mph (300kph)",Black Wall,2017,B,C,65,1966,1710.42,1,,Enabled,No,"Catalog, Search",Taxable Goods,Yes,No,No,"The ContiSportContact 5P is Continental Tires Max Performance Summer tire developed for the drivers of some of the worlds most prestigious high performance sports cars, coupes and sedans. Tires in sizes used for staggered fitments are optimized to meet the specific performance requirements of front or rear axle positions. The ContiSportContact 5P is designed to deliver steering precision, cornering stability and short stopping distances in dry and wet conditions, However, like all summer tires, they are not intended to be driven in near freezing temperatures, through snow or on ice.",,,,,,,,,,95,0,1,0,0,1,1,1,0,1,1,,,1,0,1,0,1,0,1,0,0,0,1,285/40 R22 106Y,0,simple,,
admin,base,Tyre,simple,119,CON03564800000,0,285/45 R21 109Y,,,/continental_sportcontact5_mo_2.jpg,/continental_sportcontact5_mo_2.jpg,/continental_sportcontact5_mo_2.jpg,,,,No layout updates,Product Info Column,,,,,Use config,Use config,No,,,285/45 R21,285/45 R21,,,2017,Black Wall,"109 Y Load Index 109 =  2,270.74lbs (1030kg) per tire Speed Rating = 186.41mph (300kph)",Black Wall,2017,B,C,65,2220,1931.4,1,,Enabled,No,"Catalog, Search",Taxable Goods,Yes,No,No,"With the launch of the ContiSportContact 5, Continental has developed a tyre which is equally suitable for sporty cars & SUVs with sporty driving characteristics. With this new development, the tyre engineers have made significant progress in comparison to the popular predecessor ContiSportContact 3.Its Features are: Shorter braking distances in all weather conditions, Excellent road grip and safety when cornering, Reduced fuel consumption and high mileage. This was made possible due to a new compound which focuses on maximum power transmission and provides low rolling resistance whilst driving normally. This rubber compound which carries the name BlackChilli uses the various vibrations of the tyre. The ContiSportContact 5 is available in a range of sizes from 17 inch upwards for cars and 18 inch upwards for SUV.",,,,,,,,,,95,0,1,0,0,1,1,1,0,1,1,,,1,0,1,0,1,0,1,0,0,0,1,285/45 R21 109Y,0,simple,,
admin,base,Tyre,simple,153,CON3548810000,0,285/50 R20 116W,,,/continental_crosscontactuhp_6.jpg,/continental_crosscontactuhp_6.jpg,/continental_crosscontactuhp_6.jpg,,,,No layout updates,Product Info Column,,,,,Use config,Use config,No,,,285/50 R20,285/50 R20,,,2017,Blackwall,"116 W Load Index 116 =  2,755.75lbs (1250kg) per tire Speed Rating = 167.77mph (270kph)",Blackwall,2017,B,C,65,1163,1011.81,1,,Enabled,No,"Catalog, Search",Taxable Goods,Yes,No,No,This  tyre is short braking distances and very high cornering stability and safety reserves for outstanding handling and fun at the wheel Low rolling resistance and outstanding grip.,,,,,,,,,,95,0,1,0,0,1,1,1,0,1,1,,,1,0,1,0,1,0,1,0,0,0,1,285/50 R20 116W,0,simple,,
admin,base,Tyre,simple,83,CON15493410000,0,285/60 R18 116V,,,/continental_crosscontactlx2.png,/continental_crosscontactlx2.png,/continental_crosscontactlx2.png,,,,No layout updates,Product Info Column,,,,,Use config,Use config,No,,,285/60 R18,285/60 R18,,,2017,Blackwall,"116 V Load Index 116 =  2,755.75lbs (1250kg) per tire Speed Rating = 149.13mph (240kph)",Blackwall,2017,B,C,65,961,836.07,1,,Enabled,No,"Catalog, Search",Taxable Goods,Yes,No,No,This trye is excellent dry and wet braking performance and outclass handling properties with  high mileage and high level of driving comfort and  outstanding traction in light for off-road use.,,,,,,,,,,95,0,1,0,0,1,1,1,0,1,1,,,1,0,1,0,1,0,1,0,0,0,1,285/60 R18 116V,0,simple,,
admin,base,Tyre,simple,83,CON15491530000,0,285/65 R17 116H,,,/continental_crosscontactlx2.png,/continental_crosscontactlx2.png,/continental_crosscontactlx2.png,,,,No layout updates,Product Info Column,,,,,Use config,Use config,No,,,285/65 R17,285/65 R17,,,2017,Blackwall,"116 H Load Index 116 =  2,755.75lbs (1250kg) per tire Speed Rating = 130.49mph (210kph)",Blackwall,2017,B,C,65,845,735.15,1,,Enabled,No,"Catalog, Search",Taxable Goods,Yes,No,No,This trye is excellent dry and wet braking performance and outclass handling properties with  high mileage and high level of driving comfort and  outstanding traction in light for off-road use.,,,,,,,,,,95,0,1,0,0,1,1,1,0,1,1,,,1,0,1,0,1,0,1,0,0,0,1,285/65 R17 116H,0,simple,,
admin,base,Tyre,simple,134,CON03507500000,0,295/30 R20 101Y,,,/continental_sportcontact5p.jpg,/continental_sportcontact5p.jpg,/continental_sportcontact5p.jpg,,,,No layout updates,Product Info Column,,,,,Use config,Use config,No,,,295/30 R20,295/30 R20,,,2017,Black Wall,"101 Y Load Index 101 =  1,818.80lbs (825kg) per tire Speed Rating = 186.41mph (300kph)",Black Wall,2017,B,C,65,1623,1412.01,1,,Enabled,No,"Catalog, Search",Taxable Goods,Yes,No,No,"With the launch of the ContiSportContact 5, Continental has developed a tyre which is equally suitable for sporty cars & SUVs with sporty driving characteristics. With this new development, the tyre engineers have made significant progress in comparison to the popular predecessor ContiSportContact 3.Its Features are: Shorter braking distances in all weather conditions, Excellent road grip and safety when cornering, Reduced fuel consumption and high mileage. This was made possible due to a new compound which focuses on maximum power transmission and provides low rolling resistance whilst driving normally. This rubber compound which carries the name BlackChilli uses the various vibrations of the tyre. The ContiSportContact 5 is available in a range of sizes from 17 inch upwards for cars and 18 inch upwards for SUV.",,,,,,,,,,95,0,1,0,0,1,1,1,0,1,1,,,1,0,1,0,1,0,1,0,0,0,1,295/30 R20 101Y,0,simple,,
admin,base,Tyre,simple,140,CON3572000000,0,295/30 R22 103Y,,,/continental-sportcontact-6_3.jpg,/continental-sportcontact-6_3.jpg,/continental-sportcontact-6_3.jpg,,,,No layout updates,Product Info Column,,,,,Use config,Use config,No,,,295/30 R22,295/30 R22,,,2017,Black Wall,"103 Y Load Index 103 =  1,929.03lbs (875kg) per tire Speed Rating = 186.41mph (300kph)",Black Wall,2017,B,C,65,1763,1533.81,1,,Enabled,No,"Catalog, Search",Taxable Goods,Yes,No,No,"Designed for sports and high-performance vehicles.  Black Chili for maximum grip in all directions enables supreme driving experience, Vectoring for maximum control, a new era in tread pattern development, Aralon350",,,,,,,,,,95,0,1,0,0,1,1,1,0,1,1,,,1,0,1,0,1,0,1,0,0,0,1,295/30 R22 103Y,0,simple,,
admin,base,Tyre,simple,135,CON03562050000,0,295/35 R20 105Y,,,/continental_sportcontact5p.jpg,/continental_sportcontact5p.jpg,/continental_sportcontact5p.jpg,,,,No layout updates,Product Info Column,,,,,Use config,Use config,No,,,295/35 R20,295/35 R20,,,2017,Black Wall,"105 Y Load Index 105 =  2,039.26lbs (925kg) per tire Speed Rating = 186.41mph (300kph)",Black Wall,2017,B,C,65,1621,1410.27,1,,Enabled,No,"Catalog, Search",Taxable Goods,Yes,No,No,"With the launch of the ContiSportContact 5, Continental has developed a tyre which is equally suitable for sporty cars & SUVs with sporty driving characteristics. With this new development, the tyre engineers have made significant progress in comparison to the popular predecessor ContiSportContact 3.Its Features are: Shorter braking distances in all weather conditions, Excellent road grip and safety when cornering, Reduced fuel consumption and high mileage. This was made possible due to a new compound which focuses on maximum power transmission and provides low rolling resistance whilst driving normally. This rubber compound which carries the name BlackChilli uses the various vibrations of the tyre. The ContiSportContact 5 is available in a range of sizes from 17 inch upwards for cars and 18 inch upwards for SUV.",,,,,,,,,,95,0,1,0,0,1,1,1,0,1,1,,,1,0,1,0,1,0,1,0,0,0,1,295/35 R20 105Y,0,simple,,
admin,base,Tyre,simple,158,CON3544310000,0,295/35 R21 107Y,,,/continental_crosscontactuhp.jpg,/continental_crosscontactuhp.jpg,/continental_crosscontactuhp.jpg,,,,No layout updates,Product Info Column,,,,,Use config,Use config,No,,,295/35 R21,295/35 R21,,,2017,Blackwall,"107 Y Load Index 107 =  2,149.49lbs (975kg) per tire Speed Rating = 186.41mph (300kph)",Blackwall,2017,B,C,65,1414,1230.18,1,,Enabled,No,"Catalog, Search",Taxable Goods,Yes,No,No,This  tyre is short braking distances and very high cornering stability and safety reserves for outstanding handling and fun at the wheel Low rolling resistance and outstanding grip.,,,,,,,,,,95,0,1,0,0,1,1,1,0,1,1,,,1,0,1,0,1,0,1,0,0,0,1,295/35 R21 107Y,0,simple,,
