store,websites,attribute_set,type,category_ids,sku,has_options,name,meta_title,meta_description,url_key,url_path,custom_design,page_layout,options_container,image_label,small_image_label,thumbnail_label,country_of_manufacture,msrp_enabled,msrp_display_actual_price_type,gift_message_available,width,ratio,diameter,serv_desc,car_make,car_model,car_year,sidewall_style,utqg,production_year,fuel,weather,sound,size,price,special_price,weight,msrp,status,is_recurring,visibility,tax_class_id,passenger,tyres4_4,vantyres,description,short_description,meta_keyword,custom_layout_update,special_from_date,special_to_date,news_from_date,news_to_date,custom_design_from,custom_design_to,qty,min_qty,use_config_min_qty,is_qty_decimal,backorders,use_config_backorders,min_sale_qty,use_config_min_sale_qty,max_sale_qty,use_config_max_sale_qty,is_in_stock,low_stock_date,notify_stock_qty,use_config_notify_stock_qty,manage_stock,use_config_manage_stock,stock_status_changed_auto,use_config_qty_increments,qty_increments,use_config_enable_qty_inc,enable_qty_increments,is_decimal_divided,stock_status_changed_automatically,use_config_enable_qty_increments,product_name,store_id,product_type_id,product_status_changed,product_changed_websites,website,_media_image,_media_lable,_media_position,_media_is_disabled
admin,base,Tyre,simple,24,BS300047,0,,,,,,,No layout updates,Product Info Column,,,,,Use config,,,195,65,15,91H,,,,Black Wall,,2017,B,C,65,195/65,196.35,,0,,Enabled,No,"Catalog, Search",Taxable Goods,Yes,No,No,Bridgestone,Bridgestone,,,,,,,,,100,0,1,0,0,1,1,1,0,1,1,,,1,0,1,0,1,0,1,0,0,0,1,,0,simple,,,,,,,
admin,base,Tyre,simple,24,BS300048,0,,,,,,,No layout updates,Product Info Column,,,,,Use config,,,195,,15,,,,,Black Wall,,2017,B,C,65,195R15,282.98,,0,,Enabled,No,"Catalog, Search",Taxable Goods,Yes,No,No,Bridgestone,Bridgestone,,,,,,,,,100,0,1,0,0,1,1,1,0,1,1,,,1,0,1,0,1,0,1,0,0,0,1,,0,simple,,,,,,,
admin,base,Tyre,simple,24,BS300049,0,,,,,,,No layout updates,Product Info Column,,,,,Use config,,,205,70,15,,,,,Black Wall,,2017,B,C,65,205/70,306.08,,0,,Enabled,No,"Catalog, Search",Taxable Goods,Yes,No,No,Bridgestone,Bridgestone,,,,,,,,,100,0,1,0,0,1,1,1,0,1,1,,,1,0,1,0,1,0,1,0,0,0,1,,0,simple,,,,,,,
admin,base,Tyre,simple,24,BS300050,0,,,,,,,No layout updates,Product Info Column,,,,,Use config,,,215,55,17,,,,,Black Wall,,2017,B,C,65,215/55,404.25,,0,,Enabled,No,"Catalog, Search",Taxable Goods,Yes,No,No,Bridgestone,Bridgestone,,,,,,,,,100,0,1,0,0,1,1,1,0,1,1,,,1,0,1,0,1,0,1,0,0,0,1,,0,simple,,,,,,,
admin,base,Tyre,simple,24,BS300051,0,,,,,,,No layout updates,Product Info Column,,,,,Use config,,,215,60,16,95V,,,,Black Wall,,2017,B,C,65,215/60,346.5,,0,,Enabled,No,"Catalog, Search",Taxable Goods,Yes,No,No,Bridgestone,Bridgestone,,,,,,,,,100,0,1,0,0,1,1,1,0,1,1,,,1,0,1,0,1,0,1,0,0,0,1,,0,simple,,,,,,,
admin,base,Tyre,simple,24,BS300052,0,,,,,,,No layout updates,Product Info Column,,,,,Use config,,,215,65,16,,,,,Black Wall,,2017,B,C,65,215/65,450.45,,0,,Enabled,No,"Catalog, Search",Taxable Goods,Yes,No,No,Bridgestone,Bridgestone,,,,,,,,,100,0,1,0,0,1,1,1,0,1,1,,,1,0,1,0,1,0,1,0,0,0,1,,0,simple,,,,,,,
admin,base,Tyre,simple,24,BS300053,0,,,,,,,No layout updates,Product Info Column,,,,,Use config,,,225,40,18,88W,,,,Black Wall,,2017,B,C,65,225/40,646.8,,0,,Enabled,No,"Catalog, Search",Taxable Goods,Yes,No,No,Bridgestone,Bridgestone,,,,,,,,,100,0,1,0,0,1,1,1,0,1,1,,,1,0,1,0,1,0,1,0,0,0,1,,0,simple,,,,,,,
admin,base,Tyre,simple,24,BS300054,0,,,,,,,No layout updates,Product Info Column,,,,,Use config,,,225,40,19,89Y,,,,Black Wall,,2017,B,C,65,225/40,1085.7,,0,,Enabled,No,"Catalog, Search",Taxable Goods,Yes,No,No,Bridgestone,Bridgestone,,,,,,,,,100,0,1,0,0,1,1,1,0,1,1,,,1,0,1,0,1,0,1,0,0,0,1,,0,simple,,,,,,,
admin,base,Tyre,simple,24,BS300055,0,,,,,,,No layout updates,Product Info Column,,,,,Use config,,,225,45,18,91V,,,,Black Wall,,2017,B,C,65,225/45,773.85,,0,,Enabled,No,"Catalog, Search",Taxable Goods,Yes,No,No,Bridgestone,Bridgestone,,,,,,,,,100,0,1,0,0,1,1,1,0,1,1,,,1,0,1,0,1,0,1,0,0,0,1,,0,simple,,,,,,,
admin,base,Tyre,simple,24,BS300056,0,,,,,,,No layout updates,Product Info Column,,,,,Use config,,,235,40,19,96W,,,,Black Wall,,2017,B,C,65,235/40,866.25,,0,,Enabled,No,"Catalog, Search",Taxable Goods,Yes,No,No,Bridgestone,Bridgestone,,,,,,,,,100,0,1,0,0,1,1,1,0,1,1,,,1,0,1,0,1,0,1,0,0,0,1,,0,simple,,,,,,,
admin,base,Tyre,simple,24,BS300057,0,,,,,,,No layout updates,Product Info Column,,,,,Use config,,,235,45,19,95V,,,,Black Wall,,2017,B,C,65,235/45,750.75,,0,,Enabled,No,"Catalog, Search",Taxable Goods,Yes,No,No,Bridgestone,Bridgestone,,,,,,,,,100,0,1,0,0,1,1,1,0,1,1,,,1,0,1,0,1,0,1,0,0,0,1,,0,simple,,,,,,,
admin,base,Tyre,simple,24,BS300058,0,,,,,,,No layout updates,Product Info Column,,,,,Use config,,,235,45,19,95V,,,,Black Wall,,2017,B,C,65,235/45,854.7,,0,,Enabled,No,"Catalog, Search",Taxable Goods,Yes,No,No,Bridgestone,Bridgestone,,,,,,,,,100,0,1,0,0,1,1,1,0,1,1,,,1,0,1,0,1,0,1,0,0,0,1,,0,simple,,,,,,,
admin,base,Tyre,simple,24,BS300059,0,,,,,,,No layout updates,Product Info Column,,,,,Use config,,,245,35,20,95Y,,,,Black Wall,,2017,B,C,65,245/35,1235.85,,0,,Enabled,No,"Catalog, Search",Taxable Goods,Yes,No,No,Bridgestone,Bridgestone,,,,,,,,,100,0,1,0,0,1,1,1,0,1,1,,,1,0,1,0,1,0,1,0,0,0,1,,0,simple,,,,,,,
admin,base,Tyre,simple,24,BS300060,0,,,,,,,No layout updates,Product Info Column,,,,,Use config,,,245,40,19,94W,,,,Black Wall,,2017,B,C,65,245/40,577.5,,0,,Enabled,No,"Catalog, Search",Taxable Goods,Yes,No,No,Bridgestone,Bridgestone,,,,,,,,,100,0,1,0,0,1,1,1,0,1,1,,,1,0,1,0,1,0,1,0,0,0,1,,0,simple,,,,,,,
admin,base,Tyre,simple,24,BS300061,0,,,,,,,No layout updates,Product Info Column,,,,,Use config,,,245,40,20,95W,,,,Black Wall,,2017,B,C,65,245/40,993.3,,0,,Enabled,No,"Catalog, Search",Taxable Goods,Yes,No,No,Bridgestone,Bridgestone,,,,,,,,,100,0,1,0,0,1,1,1,0,1,1,,,1,0,1,0,1,0,1,0,0,0,1,,0,simple,,,,,,,
admin,base,Tyre,simple,24,BS300062,0,,,,,,,No layout updates,Product Info Column,,,,,Use config,,,245,40,20,95Y,,,,Black Wall,,2017,B,C,65,245/40,993.3,,0,,Enabled,No,"Catalog, Search",Taxable Goods,Yes,No,No,Bridgestone,Bridgestone,,,,,,,,,100,0,1,0,0,1,1,1,0,1,1,,,1,0,1,0,1,0,1,0,0,0,1,,0,simple,,,,,,,
admin,base,Tyre,simple,24,BS300063,0,,,,,,,No layout updates,Product Info Column,,,,,Use config,,,245,45,17,95Y,,,,Black Wall,,2017,B,C,65,245/45,808.5,,0,,Enabled,No,"Catalog, Search",Taxable Goods,Yes,No,No,Bridgestone,Bridgestone,,,,,,,,,100,0,1,0,0,1,1,1,0,1,1,,,1,0,1,0,1,0,1,0,0,0,1,,0,simple,,,,,,,
admin,base,Tyre,simple,24,BS300064,0,,,,,,,No layout updates,Product Info Column,,,,,Use config,,,245,45,19,102Y,,,,Black Wall,,2017,B,C,65,245/45,877.8,,0,,Enabled,No,"Catalog, Search",Taxable Goods,Yes,No,No,Bridgestone,Bridgestone,,,,,,,,,100,0,1,0,0,1,1,1,0,1,1,,,1,0,1,0,1,0,1,0,0,0,1,,0,simple,,,,,,,
admin,base,Tyre,simple,24,BS300065,0,,,,,,,No layout updates,Product Info Column,,,,,Use config,,,245,65,17,,,,,Black Wall,,2017,B,C,65,245/65,554.4,,0,,Enabled,No,"Catalog, Search",Taxable Goods,Yes,No,No,Bridgestone,Bridgestone,,,,,,,,,100,0,1,0,0,1,1,1,0,1,1,,,1,0,1,0,1,0,1,0,0,0,1,,0,simple,,,,,,,
admin,base,Tyre,simple,24,BS300066,0,,,,,,,No layout updates,Product Info Column,,,,,Use config,,,245,75,17,,,,,Black Wall,,2017,B,C,65,245/75,404.25,,0,,Enabled,No,"Catalog, Search",Taxable Goods,Yes,No,No,Bridgestone,Bridgestone,,,,,,,,,100,0,1,0,0,1,1,1,0,1,1,,,1,0,1,0,1,0,1,0,0,0,1,,0,simple,,,,,,,
admin,base,Tyre,simple,24,BS300067,0,,,,,,,No layout updates,Product Info Column,,,,,Use config,,,245,75,17,,,,,Black Wall,,2017,B,C,65,245/75,265.65,,0,,Enabled,No,"Catalog, Search",Taxable Goods,Yes,No,No,Bridgestone,Bridgestone,,,,,,,,,100,0,1,0,0,1,1,1,0,1,1,,,1,0,1,0,1,0,1,0,0,0,1,,0,simple,,,,,,,
admin,base,Tyre,simple,24,BS300068,0,,,,,,,No layout updates,Product Info Column,,,,,Use config,,,255,30,19,91Y,,,,Black Wall,,2017,B,C,65,255/30,935.55,,0,,Enabled,No,"Catalog, Search",Taxable Goods,Yes,No,No,Bridgestone,Bridgestone,,,,,,,,,100,0,1,0,0,1,1,1,0,1,1,,,1,0,1,0,1,0,1,0,0,0,1,,0,simple,,,,,,,
admin,base,Tyre,simple,24,BS300069,0,,,,,,,No layout updates,Product Info Column,,,,,Use config,,,255,35,18,90Y,,,,Black Wall,,2017,B,C,65,255/35,935.55,,0,,Enabled,No,"Catalog, Search",Taxable Goods,Yes,No,No,Bridgestone,Bridgestone,,,,,,,,,100,0,1,0,0,1,1,1,0,1,1,,,1,0,1,0,1,0,1,0,0,0,1,,0,simple,,,,,,,
admin,base,Tyre,simple,24,BS300070,0,,,,,,,No layout updates,Product Info Column,,,,,Use config,,,255,35,18,94Y,,,,Black Wall,,2017,B,C,65,255/35,693,,0,,Enabled,No,"Catalog, Search",Taxable Goods,Yes,No,No,Bridgestone,Bridgestone,,,,,,,,,100,0,1,0,0,1,1,1,0,1,1,,,1,0,1,0,1,0,1,0,0,0,1,,0,simple,,,,,,,
admin,base,Tyre,simple,24,BS300071,0,,,,,,,No layout updates,Product Info Column,,,,,Use config,,,255,35,19,96Y,,,,Black Wall,,2017,B,C,65,255/35,779.63,,0,,Enabled,No,"Catalog, Search",Taxable Goods,Yes,No,No,Bridgestone,Bridgestone,,,,,,,,,100,0,1,0,0,1,1,1,0,1,1,,,1,0,1,0,1,0,1,0,0,0,1,,0,simple,,,,,,,
admin,base,Tyre,simple,24,BS300072,0,,,,,,,No layout updates,Product Info Column,,,,,Use config,,,255,35,19,96Y,,,,Black Wall,,2017,B,C,65,255/35,600.6,,0,,Enabled,No,"Catalog, Search",Taxable Goods,Yes,No,No,Bridgestone,Bridgestone,,,,,,,,,100,0,1,0,0,1,1,1,0,1,1,,,1,0,1,0,1,0,1,0,0,0,1,,0,simple,,,,,,,
admin,base,Tyre,simple,24,BS300073,0,,,,,,,No layout updates,Product Info Column,,,,,Use config,,,255,35,20,97Y,,,,Black Wall,,2017,B,C,65,255/35,924,,0,,Enabled,No,"Catalog, Search",Taxable Goods,Yes,No,No,Bridgestone,Bridgestone,,,,,,,,,100,0,1,0,0,1,1,1,0,1,1,,,1,0,1,0,1,0,1,0,0,0,1,,0,simple,,,,,,,
admin,base,Tyre,simple,24,BS300074,0,,,,,,,No layout updates,Product Info Column,,,,,Use config,,,255,35,20,97Y,,,,Black Wall,,2017,B,C,65,255/35,675.68,,0,,Enabled,No,"Catalog, Search",Taxable Goods,Yes,No,No,Bridgestone,Bridgestone,,,,,,,,,100,0,1,0,0,1,1,1,0,1,1,,,1,0,1,0,1,0,1,0,0,0,1,,0,simple,,,,,,,
admin,base,Tyre,simple,24,BS300075,0,,,,,,,No layout updates,Product Info Column,,,,,Use config,,,265,45,21,104V,,,,Black Wall,,2017,B,C,65,265/45,889.35,,0,,Enabled,No,"Catalog, Search",Taxable Goods,Yes,No,No,Bridgestone,Bridgestone,,,,,,,,,100,0,1,0,0,1,1,1,0,1,1,,,1,0,1,0,1,0,1,0,0,0,1,,0,simple,,,,,,,
admin,base,Tyre,simple,24,BS300076,0,,,,,,,No layout updates,Product Info Column,,,,,Use config,,,265,50,20,,,,,Black Wall,,2017,B,C,65,265/50,808.5,,0,,Enabled,No,"Catalog, Search",Taxable Goods,Yes,No,No,Bridgestone,Bridgestone,,,,,,,,,100,0,1,0,0,1,1,1,0,1,1,,,1,0,1,0,1,0,1,0,0,0,1,,0,simple,,,,,,,
admin,base,Tyre,simple,24,BS300077,0,,,,,,,No layout updates,Product Info Column,,,,,Use config,,,265,65,17,112H,,,,Black Wall,,2017,B,C,65,265/65,554.4,,0,,Enabled,No,"Catalog, Search",Taxable Goods,Yes,No,No,Bridgestone,Bridgestone,,,,,,,,,100,0,1,0,0,1,1,1,0,1,1,,,1,0,1,0,1,0,1,0,0,0,1,,0,simple,,,,,,,
admin,base,Tyre,simple,24,BS300078,0,,,,,,,No layout updates,Product Info Column,,,,,Use config,,,275,30,20,97Y,,,,Black Wall,,2017,B,C,65,275/30,1270.5,,0,,Enabled,No,"Catalog, Search",Taxable Goods,Yes,No,No,Bridgestone,Bridgestone,,,,,,,,,100,0,1,0,0,1,1,1,0,1,1,,,1,0,1,0,1,0,1,0,0,0,1,,0,simple,,,,,,,
admin,base,Tyre,simple,24,BS300079,0,,,,,,,No layout updates,Product Info Column,,,,,Use config,,,275,40,19,101Y,,,,Black Wall,,2017,B,C,65,275/40,1212.75,,0,,Enabled,No,"Catalog, Search",Taxable Goods,Yes,No,No,Bridgestone,Bridgestone,,,,,,,,,100,0,1,0,0,1,1,1,0,1,1,,,1,0,1,0,1,0,1,0,0,0,1,,0,simple,,,,,,,
admin,base,Tyre,simple,24,BS300080,0,,,,,,,No layout updates,Product Info Column,,,,,Use config,,,275,40,20,106W,,,,Black Wall,,2017,B,C,65,275/40,970.2,,0,,Enabled,No,"Catalog, Search",Taxable Goods,Yes,No,No,Bridgestone,Bridgestone,,,,,,,,,100,0,1,0,0,1,1,1,0,1,1,,,1,0,1,0,1,0,1,0,0,0,1,,0,simple,,,,,,,
admin,base,Tyre,simple,24,BS300081,0,,,,,,,No layout updates,Product Info Column,,,,,Use config,,,275,45,20,110Y,,,,Black Wall,,2017,B,C,65,275/45,993.3,,0,,Enabled,No,"Catalog, Search",Taxable Goods,Yes,No,No,Bridgestone,Bridgestone,,,,,,,,,100,0,1,0,0,1,1,1,0,1,1,,,1,0,1,0,1,0,1,0,0,0,1,,0,simple,,,,,,,
admin,base,Tyre,simple,24,BS300082,0,,,,,,,No layout updates,Product Info Column,,,,,Use config,,,285,35,20,100Y,,,,Black Wall,,2017,B,C,65,285/35,1674.75,,0,,Enabled,No,"Catalog, Search",Taxable Goods,Yes,No,No,Bridgestone,Bridgestone,,,,,,,,,100,0,1,0,0,1,1,1,0,1,1,,,1,0,1,0,1,0,1,0,0,0,1,,0,simple,,,,,,,
admin,base,Tyre,simple,24,BS300083,0,,,,,,,No layout updates,Product Info Column,,,,,Use config,,,305,30,20,,,,,Black Wall,,2017,B,C,65,305/30,0,,0,,Enabled,No,"Catalog, Search",Taxable Goods,Yes,No,No,Bridgestone,Bridgestone,,,,,,,,,100,0,1,0,0,1,1,1,0,1,1,,,1,0,1,0,1,0,1,0,0,0,1,,0,simple,,,,,,,
admin,base,Tyre,simple,24,BS300084,0,,,,,,,No layout updates,Product Info Column,,,,,Use config,,,315,35,20,110Y,,,,Black Wall,,2017,B,C,65,315/35,997.5,950,0,,Enabled,No,"Catalog, Search",Taxable Goods,Yes,No,No,Bridgestone,Bridgestone,,,,,,,,,100,0,1,0,0,1,1,1,0,1,1,,,1,0,1,0,1,0,1,0,0,0,1,,0,simple,,,,,,,
