sku,image,small_image,thumbnail
DUN0030,/dunlop/Dunlop-Sport-Maxx-RT.jpg,/dunlop/Dunlop-Sport-Maxx-RT.jpg,/dunlop/Dunlop-Sport-Maxx-RT.jpg
DUN0031,/dunlop/21550r17-dunlop-sp-sport-maxx-050-95w_grande.jpg?v=1509567940,/dunlop/21550r17-dunlop-sp-sport-maxx-050-95w_grande.jpg?v=1509567940,/dunlop/21550r17-dunlop-sp-sport-maxx-050-95w_grande.jpg?v=1509567940
DUN0032,,,
DUN0033,,,
DUN0034,/dunlop/neumatico-dunlop-215-55-r17-sport-sp270-93v-cavallino-D_NQ_NP_12785-MLA20065611951_032014-F.jpg,/dunlop/neumatico-dunlop-215-55-r17-sport-sp270-93v-cavallino-D_NQ_NP_12785-MLA20065611951_032014-F.jpg,/dunlop/neumatico-dunlop-215-55-r17-sport-sp270-93v-cavallino-D_NQ_NP_12785-MLA20065611951_032014-F.jpg
DUN0035,/dunlop/100245-dunlop-sp-sport-230.jpg,/dunlop/100245-dunlop-sp-sport-230.jpg,/dunlop/100245-dunlop-sp-sport-230.jpg
DUN0036,/dunlop/9hq,/dunlop/9hq,/dunlop/9hq
DUN0037,,,
DUN0038,,,
DUN0039,/dunlop/22540r18-dunlop-sp-sport-maxx-050-92y_large.jpg?v=1509570549,/dunlop/22540r18-dunlop-sp-sport-maxx-050-92y_large.jpg?v=1509570549,/dunlop/22540r18-dunlop-sp-sport-maxx-050-92y_large.jpg?v=1509570549
DUN0040,/dunlop/direzza_dz101.jpg,/dunlop/direzza_dz101.jpg,/dunlop/direzza_dz101.jpg
DUN0041,/dunlop/max050.jpg?revision=1488972631,/dunlop/max050.jpg?revision=1488972631,/dunlop/max050.jpg?revision=1488972631
DUN0042,/dunlop/max050.jpg?revision=1488972631,/dunlop/max050.jpg?revision=1488972631,/dunlop/max050.jpg?revision=1488972631
DUN0043,/dunlop/SP-Sport-6060.png,/dunlop/SP-Sport-6060.png,/dunlop/SP-Sport-6060.png
DUN0044,/dunlop/sp270-500x500.jpg,/dunlop/sp270-500x500.jpg,/dunlop/sp270-500x500.jpg
DUN0045,/dunlop/22560r17-dunlop-grandtrek-st20-99h_1024x1024.jpg?v=1506631003,/dunlop/22560r17-dunlop-grandtrek-st20-99h_1024x1024.jpg?v=1506631003,/dunlop/22560r17-dunlop-grandtrek-st20-99h_1024x1024.jpg?v=1506631003
DUN0046,/dunlop/102097-dunlop-grandtrek-pt3.jpg,/dunlop/102097-dunlop-grandtrek-pt3.jpg,/dunlop/102097-dunlop-grandtrek-pt3.jpg
DUN0047,/dunlop/161_GrandtrekST30.jpg,/dunlop/161_GrandtrekST30.jpg,/dunlop/161_GrandtrekST30.jpg
DUN0048,/dunlop/Dunlop_St20.jpg,/dunlop/Dunlop_St20.jpg,/dunlop/Dunlop_St20.jpg
DUN0049,,,
DUN0050,/dunlop/Dunlop-SP-Sport-Maxx-RT-Tyre.jpg,/dunlop/Dunlop-SP-Sport-Maxx-RT-Tyre.jpg,/dunlop/Dunlop-SP-Sport-Maxx-RT-Tyre.jpg
DUN0051,/dunlop/$_20.JPG,/dunlop/$_20.JPG,/dunlop/$_20.JPG
DUN0052,/dunlop/15dbbbf8-694d-41a4-896d-e21d052db021_1.db5338ee249247e267ed6fcc339a5e6c.jpeg?odnHeight=450&odnWidth=450&odnBg=FFFFFF,/dunlop/15dbbbf8-694d-41a4-896d-e21d052db021_1.db5338ee249247e267ed6fcc339a5e6c.jpeg?odnHeight=450&odnWidth=450&odnBg=FFFFFF,/dunlop/15dbbbf8-694d-41a4-896d-e21d052db021_1.db5338ee249247e267ed6fcc339a5e6c.jpeg?odnHeight=450&odnWidth=450&odnBg=FFFFFF
DUN0053,/dunlop/max050.jpg?revision=1488972634,/dunlop/max050.jpg?revision=1488972634,/dunlop/max050.jpg?revision=1488972634
DUN0054,/dunlop/max050.jpg?revision=1488972628,/dunlop/max050.jpg?revision=1488972628,/dunlop/max050.jpg?revision=1488972628
DUN0055,/dunlop/s-l640.jpg,/dunlop/s-l640.jpg,/dunlop/s-l640.jpg
DUN0056,/dunlop/23550r18-dunlop-sp-sport-maxx-050-101w_large.jpg?v=1509568320,/dunlop/23550r18-dunlop-sp-sport-maxx-050-101w_large.jpg?v=1509568320,/dunlop/23550r18-dunlop-sp-sport-maxx-050-101w_large.jpg?v=1509568320
DUN0057,/dunlop/101056-dunlop-sp-sport-maxx-050.jpg,/dunlop/101056-dunlop-sp-sport-maxx-050.jpg,/dunlop/101056-dunlop-sp-sport-maxx-050.jpg
DUN0058,/dunlop/sportmaxxtt.jpg,/dunlop/sportmaxxtt.jpg,/dunlop/sportmaxxtt.jpg
DUN0059,/dunlop/sp_sport_maxx_a1.jpg,/dunlop/sp_sport_maxx_a1.jpg,/dunlop/sp_sport_maxx_a1.jpg
