sku,image,small_image,thumbnail
KH0001,/khumo/kumho_soluskh17.jpeg,/khumo/kumho_soluskh17.jpeg,/khumo/kumho_soluskh17.jpeg
KH0002,/khumo/KL21_11.jpg,/khumo/KL21_11.jpg,/khumo/KL21_11.jpg
KH0003,/khumo/KL21_12.jpg,/khumo/KL21_12.jpg,/khumo/KL21_12.jpg
KH0004,/khumo/ecowing_es01_kh27.jpg,/khumo/ecowing_es01_kh27.jpg,/khumo/ecowing_es01_kh27.jpg
KH0005,/khumo/,/khumo/,/khumo/
KH0006,/khumo/61lnyg8Qa2L._SY550_.jpg,/khumo/61lnyg8Qa2L._SY550_.jpg,/khumo/61lnyg8Qa2L._SY550_.jpg
KH0007,/khumo/Kumho_PA31_thumb.gif,/khumo/Kumho_PA31_thumb.gif,/khumo/Kumho_PA31_thumb.gif
KH0008,/khumo/98813768866.png,/khumo/98813768866.png,/khumo/98813768866.png
KH0009,/khumo/51atytkJIuL._SY355_.jpg,/khumo/51atytkJIuL._SY355_.jpg,/khumo/51atytkJIuL._SY355_.jpg
KH0010,/khumo/kumho_solus_kh17_195_55r16_87h_185123.jpg,/khumo/kumho_solus_kh17_195_55r16_87h_185123.jpg,/khumo/kumho_solus_kh17_195_55r16_87h_185123.jpg
KH0011,/khumo/city_venture_comfort_kl33.jpg,/khumo/city_venture_comfort_kl33.jpg,/khumo/city_venture_comfort_kl33.jpg
KH0012,/khumo/Kumho_Kh17_Solus.jpg,/khumo/Kumho_Kh17_Solus.jpg,/khumo/Kumho_Kh17_Solus.jpg
KH0013,/khumo/Kumho_Kh27.jpg,/khumo/Kumho_Kh27.jpg,/khumo/Kumho_Kh27.jpg
KH0014,/khumo/4c91a86c-3a8a-471e-9852-990cfe8839c0_1.3568e5334a53b2f066a512c2edc36d5e.jpeg?odnHeight=450&odnWidth=450&odnBg=FFFFFF,/khumo/4c91a86c-3a8a-471e-9852-990cfe8839c0_1.3568e5334a53b2f066a512c2edc36d5e.jpeg?odnHeight=450&odnWidth=450&odnBg=FFFFFF,/khumo/4c91a86c-3a8a-471e-9852-990cfe8839c0_1.3568e5334a53b2f066a512c2edc36d5e.jpeg?odnHeight=450&odnWidth=450&odnBg=FFFFFF
KH0015,/khumo/1944-500x500.jpg,/khumo/1944-500x500.jpg,/khumo/1944-500x500.jpg
KH0016,/khumo/100565-kumho-solus-kh25.png,/khumo/100565-kumho-solus-kh25.png,/khumo/100565-kumho-solus-kh25.png
KH0017,/khumo/kumho%20solus%20harmony%20sports%20hs51.jpg,/khumo/kumho%20solus%20harmony%20sports%20hs51.jpg,/khumo/kumho%20solus%20harmony%20sports%20hs51.jpg
KH0018,/khumo/1923d519-d9f7-43a7-b0eb-ffa3fef626b1_1.d95586dc71c1cda1c308b888b8ecd0a5.jpeg?odnHeight=450&odnWidth=450&odnBg=FFFFFF,/khumo/1923d519-d9f7-43a7-b0eb-ffa3fef626b1_1.d95586dc71c1cda1c308b888b8ecd0a5.jpeg?odnHeight=450&odnWidth=450&odnBg=FFFFFF,/khumo/1923d519-d9f7-43a7-b0eb-ffa3fef626b1_1.d95586dc71c1cda1c308b888b8ecd0a5.jpeg?odnHeight=450&odnWidth=450&odnBg=FFFFFF
KH0019,/khumo/prd_3_7708291__35r21-kumho-hp91-suv-107y-xl.JPG,/khumo/prd_3_7708291__35r21-kumho-hp91-suv-107y-xl.JPG,/khumo/prd_3_7708291__35r21-kumho-hp91-suv-107y-xl.JPG
