store,websites,attribute_set,type,category_ids,sku,has_options,name,meta_title,meta_description,image,small_image,thumbnail,url_key,url_path,custom_design,page_layout,options_container,image_label,small_image_label,thumbnail_label,country_of_manufacture,msrp_enabled,msrp_display_actual_price_type,gift_message_available,width,ratio,size,diameter,car_make,car_model,car_year,sidewall_style,serv_desc,utqg,production_year,fuel,weather,sound,price,special_price,weight,msrp,status,is_recurring,visibility,tax_class_id,passenger,tyres4_4,vantyres,description,short_description,meta_keyword,custom_layout_update,special_from_date,special_to_date,news_from_date,news_to_date,custom_design_from,custom_design_to,qty,min_qty,use_config_min_qty,is_qty_decimal,backorders,use_config_backorders,min_sale_qty,use_config_min_sale_qty,max_sale_qty,use_config_max_sale_qty,is_in_stock,low_stock_date,notify_stock_qty,use_config_notify_stock_qty,manage_stock,use_config_manage_stock,stock_status_changed_auto,use_config_qty_increments,qty_increments,use_config_enable_qty_inc,enable_qty_increments,is_decimal_divided,stock_status_changed_automatically,use_config_enable_qty_increments,product_name,store_id,product_type_id,product_status_changed,product_changed_websites
admin,base,Tyre,simple,115,CON03565830000,0,225/45 R19 96W,,,/continental_sportcontact5.jpeg,/continental_sportcontact5.jpeg,/continental_sportcontact5.jpeg,,,,No layout updates,Product Info Column,,,,,Use config,Use config,No,,,225/45 R19,225/45 R19,,,2017,Black Wall,"96 W Load Index 96 =  1,565.27lbs (710kg) per tire Speed Rating = 167.77mph (270kph)",Black Wall,2017,B,C,65,1472,1339.52,1,,Enabled,No,"Catalog, Search",Taxable Goods,Yes,No,No,"With the launch of the ContiSportContact 5, Continental has developed a tyre which is equally suitable for sporty cars & SUVs with sporty driving characteristics. With this new development, the tyre engineers have made significant progress in comparison to the popular predecessor ContiSportContact 3.Its Features are: Shorter braking distances in all weather conditions, Excellent road grip and safety when cornering, Reduced fuel consumption and high mileage. This was made possible due to a new compound which focuses on maximum power transmission and provides low rolling resistance whilst driving normally. This rubber compound which carries the name BlackChilli uses the various vibrations of the tyre. The ContiSportContact 5 is available in a range of sizes from 17 inch upwards for cars and 18 inch upwards for SUV.",,,,,,,,,,95,0,1,0,0,1,1,1,0,1,1,,,1,0,1,0,1,0,1,0,0,0,1,225/45 R19 96W,0,simple,,
admin,base,Tyre,simple,92,CON03502260000,0,225/50 R16 92V,,,/continental_premiumcontact2mo.jpg,/continental_premiumcontact2mo.jpg,/continental_premiumcontact2mo.jpg,,,,No layout updates,Product Info Column,,,,,Use config,Use config,No,,,225/50 R16,225/50 R16,,,2017,Black Wall,"92 V Load Index 92 =  1,388.90lbs (630kg) per tire Speed Rating = 149.13mph (240kph)",Black Wall,2017,B,C,65,820,746.2,1,,Enabled,No,"Catalog, Search",Taxable Goods,Yes,No,No,"The distinctive feature of the new ContiPremiumContactTM 2 is its unique 3D tread grooves, which optimise braking performance on both wet and dry roads and achieve optimum protection against aquaplaning. The shallow side of the 3D groove gives greater tread block stability and improved road contact, which results in shorter braking distances on dry roads. Even when placed under great strain the tread blocks do not bend away and so the tyre retains maximum contact with the road. This more even contact pressure ensures maximum transmission of power to the dry road. The steep side of the 3D groove makes the edge of the tread block extremely angular. This enables it to cut through the water on the road, much like a windscreen wiper. The direct contact between the tyre and road means exceptionally short braking distances, even in the wet.",,,,,,,,,,95,0,1,0,0,1,1,1,0,1,1,,,1,0,1,0,1,0,1,0,0,0,1,225/50 R16 92V,0,simple,,
admin,base,Tyre,simple,100,CON3519280000,0,225/50 R17 98Y,,,/continental_sportcontact2_3.jpg,/continental_sportcontact2_3.jpg,/continental_sportcontact2_3.jpg,,,,No layout updates,Product Info Column,,,,,Use config,Use config,No,,,225/50 R17,225/50 R17,,,2017,Black Wall,"98 Y Load Index 98 =  1,653.45lbs (750kg) per tire Speed Rating = 186.41mph (300kph)",Black Wall,2017,B,C,65,929,845.39,1,,Enabled,No,"Catalog, Search",Taxable Goods,Yes,No,No,"The ContiSportContact 2 features Continental's bionic tread compound technology molded into an asymmetric design that enhances steering response and precision while the tire's continuous ribs provide the circumferential stiffness to transmit drive and braking forces. The continuous circumferential tread grooves between the ribs help disperse water to resist hydroplaning. The tire's internal structure features Continental's Advanced Mold Contour (AMC), which allows the tire to become wider during braking to help shorten stopping distances. The ContiSportContact 2 features twin steel belts reinforced by nylon to stabilize the tread area and enhance handling as well as high-speed capability.",,,,,,,,,,95,0,1,0,0,1,1,1,0,1,1,,,1,0,1,0,1,0,1,0,0,0,1,225/50 R17 98Y,0,simple,,
admin,base,Tyre,simple,123,CONC03561530000,0,225/50 R18 95W,,,/continental_sportcontact5ssr.jpg,/continental_sportcontact5ssr.jpg,/continental_sportcontact5ssr.jpg,,,,No layout updates,Product Info Column,,,,,Use config,Use config,No,,,225/50 R18,225/50 R18,,,2017,Run Flat/Black Wall,"95 W Load Index 95 =  1,521.17lbs (690kg) per tire Speed Rating = 167.77mph (270kph)",Run Flat/Black Wall,2017,B,C,65,1249,1136.59,1,,Enabled,No,"Catalog, Search",Taxable Goods,Yes,No,No,"The ContiSportContact 5 SSR is Continental's Max Performance Summer run-flat tire designed to provide temporary extended mobility in case of complete air loss due to a puncture. ContiSportContact 5 SSR tires are designed to combine short braking distances and good cornering traction with reduced fuel consumption and good treadwear. However like all summer tires, they are not intended to be driven in near freezing temperatures, through snow or on ice. ContiSportContact 5 SSR tires permit drivers to remain mobile in the event of a flat tire by allowing them to reach their destination or tire service facility without having to replace a flat tire with the spare tire. The ContiSportContact 5 SSR''s reinforced sidewall enables the car to continue on its way at a maximum speed of 50 mph (80 km/h) for up to 50 miles (80 km), depending on road conditions and vehicle weight.",,,,,,,,,,95,0,1,0,0,1,1,1,0,1,1,,,1,0,1,0,1,0,1,0,0,0,1,225/50 R18 95W,0,simple,,
admin,base,Tyre,simple,123,CONC03561530000,0,225/50 R18 95W,,,/continental_sportcontact5ssr.jpg,/continental_sportcontact5ssr.jpg,/continental_sportcontact5ssr.jpg,,,,No layout updates,Product Info Column,,,,,Use config,Use config,No,,,225/50 R18,225/50 R18,,,2017,Run Flat/Black Wall,"95 W Load Index 95 =  1,521.17lbs (690kg) per tire Speed Rating = 167.77mph (270kph)",Run Flat/Black Wall,2017,B,C,65,1249,1136.59,1,,Enabled,No,"Catalog, Search",Taxable Goods,Yes,No,No,"The ContiSportContact 5 SSR is Continental's Max Performance Summer run-flat tire designed to provide temporary extended mobility in case of complete air loss due to a puncture. ContiSportContact 5 SSR tires are designed to combine short braking distances and good cornering traction with reduced fuel consumption and good treadwear. However like all summer tires, they are not intended to be driven in near freezing temperatures, through snow or on ice. ContiSportContact 5 SSR tires permit drivers to remain mobile in the event of a flat tire by allowing them to reach their destination or tire service facility without having to replace a flat tire with the spare tire. The ContiSportContact 5 SSR''s reinforced sidewall enables the car to continue on its way at a maximum speed of 50 mph (80 km/h) for up to 50 miles (80 km), depending on road conditions and vehicle weight.",,,,,,,,,,95,0,1,0,0,1,1,1,0,1,1,,,1,0,1,0,1,0,1,0,0,0,1,225/50 R18 95W,0,simple,,
admin,base,Tyre,simple,94,CONC03566180000,0,225/55 R17 101W,,,/continental_premiumcontact5.jpg,/continental_premiumcontact5.jpg,/continental_premiumcontact5.jpg,,,,No layout updates,Product Info Column,,,,,Use config,Use config,No,,,225/55 R17,225/55 R17,,,2017,Black Wall,"101 W Load Index 101 =  1,818.80lbs (825kg) per tire Speed Rating = 167.77mph (270kph)",Black Wall,2017,B,C,65,686,624.26,1,,Enabled,No,"Catalog, Search",Taxable Goods,Yes,No,No,"The ContiPremiumContact 5 is the new allround premium Tyre for vehicles in the compact, mid-size and full-size category, which combines comfort and safety at the highest stage. The optimized 3D edges of the Tyre are what make for shorter braking distances than in the case of the predecessor model. ",,,,,,,,,,95,0,1,0,0,1,1,1,0,1,1,,,1,0,1,0,1,0,1,0,0,0,1,225/55 R17 101W,0,simple,,
admin,base,Tyre,simple,90,CON3509550000,0,225/55 R17 97W,,,/continental_premiumcontact2_2.jpg,/continental_premiumcontact2_2.jpg,/continental_premiumcontact2_2.jpg,,,,No layout updates,Product Info Column,,,,,Use config,Use config,No,,,225/55 R17,225/55 R17,,,2017,Black Wall,"97 W Load Index 97 =  1,609.36lbs (730kg) per tire Speed Rating = 167.77mph (270kph)",Black Wall,2017,B,C,65,800,728,1,,Enabled,No,"Catalog, Search",Taxable Goods,Yes,No,No,"The ContiPremiumContact 2 has a unique 3D tread groove which gives it optimal braking performance on both wet and dry surfaces, excellent protection against aquaplaning, precise handling and unbeatable driving stability.",,,,,,,,,,95,0,1,0,0,1,1,1,0,1,1,,,1,0,1,0,1,0,1,0,0,0,1,225/55 R17 97W,0,simple,,
admin,base,Tyre,simple,90,CON3509550000,0,225/55 R17 97W,,,/continental_premiumcontact2_2.jpg,/continental_premiumcontact2_2.jpg,/continental_premiumcontact2_2.jpg,,,,No layout updates,Product Info Column,,,,,Use config,Use config,No,,,225/55 R17,225/55 R17,,,2017,Black Wall,"97 W Load Index 97 =  1,609.36lbs (730kg) per tire Speed Rating = 167.77mph (270kph)",Black Wall,2017,B,C,65,800,728,1,,Enabled,No,"Catalog, Search",Taxable Goods,Yes,No,No,"The ContiPremiumContact 2 has a unique 3D tread groove which gives it optimal braking performance on both wet and dry surfaces, excellent protection against aquaplaning, precise handling and unbeatable driving stability.",,,,,,,,,,95,0,1,0,0,1,1,1,0,1,1,,,1,0,1,0,1,0,1,0,0,0,1,225/55 R17 97W,0,simple,,
admin,base,Tyre,simple,93,CON3561810000,0,225/55 R17 97Y,,,/continental_premiumcontact2ssr_1.jpeg,/continental_premiumcontact2ssr_1.jpeg,/continental_premiumcontact2ssr_1.jpeg,,,,No layout updates,Product Info Column,,,,,Use config,Use config,No,,,225/55 R17,225/55 R17,,,2017,Run Flat/Black Wall,"97 Y Load Index 97 =  1,609.36lbs (730kg) per tire Speed Rating = 186.41mph (300kph)",Run Flat/Black Wall,2017,B,C,65,1057,961.87,1,,Enabled,No,"Catalog, Search",Taxable Goods,Yes,No,No,"The Continental ContiPremiumContact 2 SSR is a tire designed for a superior appearance. The ContiPremiumContact 2 SSR comes as original equipment on luxurious sedans and similar vehicles. This is a summer tire and though it handles well in wet and dry conditions, it is not made for driving in icy or snowy environments. Grand Touring Summer tires are for drivers who want a combination of sophisticated appearance, competent handling and H-speed rated (or higher) durability, along with dry and wet traction from their tires. Often used as Original Equipment (O.E.) on sophisticated coupes and luxurious performance sedans, Grand Touring Summer tires are not intended to be driven in near-freezing temperatures, through snow or on ice. O.E. Grand Touring Summer tires are typically purchased as direct replacements for worn-out pairs/sets of the vehicle's original tires. They can also be used for other vehicle applications in complete sets of four or axle pairs if available in an appropriate size, load range and speed rating to match the existing O.E. tires' performance category and specifications.",,,,,,,,,,95,0,1,0,0,1,1,1,0,1,1,,,1,0,1,0,1,0,1,0,0,0,1,225/55 R17 97Y,0,simple,,
admin,base,Tyre,simple,95,CON3568390000,0,225/55 R17 97Y,,,/continental_premiumcontact5_5.jpg,/continental_premiumcontact5_5.jpg,/continental_premiumcontact5_5.jpg,,,,No layout updates,Product Info Column,,,,,Use config,Use config,No,,,225/55 R17,225/55 R17,,,2017,Black Wall,"97 Y Load Index 97 =  1,609.36lbs (730kg) per tire Speed Rating = 186.41mph (300kph)",Black Wall,2017,B,C,65,648,589.68,1,,Enabled,No,"Catalog, Search",Taxable Goods,Yes,No,No,"The ContiPremiumContact 5 is the new allround premium Tyre for vehicles in the compact, mid-size and full-size category, which combines comfort and safety at the highest stage. The optimized 3D edges of the Tyre are what make for shorter braking distances than in the case of the predecessor model. ",,,,,,,,,,95,0,1,0,0,1,1,1,0,1,1,,,1,0,1,0,1,0,1,0,0,0,1,225/55 R17 97Y,0,simple,,
admin,base,Tyre,simple,155,CON03541940000,0,225/55 R18 98V,,,/continental_crosscontactuhp.jpg,/continental_crosscontactuhp.jpg,/continental_crosscontactuhp.jpg,,,,No layout updates,Product Info Column,,,,,Use config,Use config,No,,,225/55 R18,225/55 R18,,,2017,Blackwall,"98 V Load Index 98 =  1,653.45lbs (750kg) per tire Speed Rating = 149.13mph (240kph)",Blackwall,2017,B,C,65,965,878.15,1,,Enabled,No,"Catalog, Search",Taxable Goods,Yes,No,No,This tyre is excellent road grip and handling just as safety when cornering and shorter braking distances in all weather conditions. Also reduced fuel consumption and high mileage.,,,,,,,,,,95,0,1,0,0,1,1,1,0,1,1,,,1,0,1,0,1,0,1,0,0,0,1,225/55 R18 98V,0,simple,,
admin,base,Tyre,simple,147,CONC04511270000,0,225/65 R16 112/110R,,,/continental_vancontact100.jpg,/continental_vancontact100.jpg,/continental_vancontact100.jpg,,,,No layout updates,Product Info Column,,,,,Use config,Use config,No,,,225/65 R16,225/65 R16,,,2017,Black Wall,"112/110 R Load Index 112/110 =  2,469.15lbs (1120kg) per tire Speed Rating = 105.63mph (170kph)",Black Wall,2017,B,C,65,770,700.7,1,,Enabled,No,"Catalog, Search",Taxable Goods,Yes,No,No,"The ContiVanContact 100 is an all-round talent that can not only easily cope with poor road surfaces and heavy loads, but which also offers a high mileage. Its specially reinforced carcass and sturdy sidewall, the stone-deflecting tread design, and the strong scuff protection strip on the sidewall make the tyre a particularly robust load carrier.",,,,,,,,,,95,0,1,0,0,1,1,1,0,1,1,,,1,0,1,0,1,0,1,0,0,0,1,225/65 R16 112/110R,0,simple,,
admin,base,Tyre,simple,85,CON15493400000,0,225/65 R17 102H,,,/whatsapp_image_2017-09-05_at_1.54.18_pm.jpeg,/whatsapp_image_2017-09-05_at_1.54.18_pm.jpeg,/whatsapp_image_2017-09-05_at_1.54.18_pm.jpeg,,,,No layout updates,Product Info Column,,,,,Use config,Use config,No,,,225/65 R17,225/65 R17,,,2017,Black Wall,"102 H Load Index 102 =  1,873.91lbs (850kg) per tire Speed Rating = 130.49mph (210kph)",Black Wall,2017,B,C,65,539,490.49,1,,Enabled,No,"Catalog, Search",Taxable Goods,Yes,No,No,"Designed for 50% off-road and 50% on-road use, the ContiCrossContact AT feels at home on any terrain. The open shoulder provides good handling characteristics and traction off-road, whilst the wear resistant tread compound creates the potential for high mileage performance and the tread pattern design guarantees a quiet and smooth ride on road.",,,,,,,,,,95,0,1,0,0,1,1,1,0,1,1,,,1,0,1,0,1,0,1,0,0,0,1,225/65 R17 102H,0,simple,,
admin,base,Tyre,simple,83,CON15491860000,0,225/70 R16 103H,,,/continental_crosscontactlx2.png,/continental_crosscontactlx2.png,/continental_crosscontactlx2.png,,,,No layout updates,Product Info Column,,,,,Use config,Use config,No,,,225/70 R16,225/70 R16,,,2017,Blackwall,"103 H Load Index 103 =  1,929.03lbs (875kg) per tire Speed Rating = 130.49mph (210kph)",Blackwall,2017,B,C,65,679,617.89,1,,Enabled,No,"Catalog, Search",Taxable Goods,Yes,No,No,This trye is excellent dry and wet braking performance and outclass handling properties with  high mileage and high level of driving comfort and  outstanding traction in light for off-road use.,,,,,,,,,,95,0,1,0,0,1,1,1,0,1,1,,,1,0,1,0,1,0,1,0,0,0,1,225/70 R16 103H,0,simple,,
admin,base,Tyre,simple,133,CON03562860000,0,235/35 R19 91Y,,,/continental_sportcontact5p_3.jpg,/continental_sportcontact5p_3.jpg,/continental_sportcontact5p_3.jpg,,,,No layout updates,Product Info Column,,,,,Use config,Use config,No,,,235/35 R19,235/35 R19,,,2017,Black Wall,"91 Y Load Index 91 =  1,355.83lbs (615kg) per tire Speed Rating = 186.41mph (300kph)",Black Wall,2017,B,C,65,1033,919.37,1,,Enabled,No,"Catalog, Search",Taxable Goods,Yes,No,No,"The ContiSportContact 5P is Continental Tire's Max Performance Summer tire developed for the drivers of some of the world's most prestigious high performance sports cars, coupes and sedans. Tires in sizes used for staggered fitments are optimized to meet the specific performance requirements of front or rear axle positions.* The ContiSportContact 5P is designed to deliver steering precision, cornering stability and short stopping distances in dry and wet conditions, However, like all summer tires, they are not intended to be driven in near freezing temperatures, through snow or on ice.",,,,,,,,,,95,0,1,0,0,1,1,1,0,1,1,,,1,0,1,0,1,0,1,0,0,0,1,235/35 R19 91Y,0,simple,,
admin,base,Tyre,simple,134,CON3567200000,0,235/35 R19 91Y,,,/continental_sportcontact5p.jpg,/continental_sportcontact5p.jpg,/continental_sportcontact5p.jpg,,,,No layout updates,Product Info Column,,,,,Use config,Use config,No,,,235/35 R19,235/35 R19,,,2017,Black Wall,"91 Y Load Index 91 =  1,355.83lbs (615kg) per tire Speed Rating = 186.41mph (300kph)",Black Wall,2017,B,C,65,1035,921.15,1,,Enabled,No,"Catalog, Search",Taxable Goods,Yes,No,No,"With the launch of the ContiSportContact 5, Continental has developed a tyre which is equally suitable for sporty cars & SUVs with sporty driving characteristics. With this new development, the tyre engineers have made significant progress in comparison to the popular predecessor ContiSportContact 3.Its Features are: Shorter braking distances in all weather conditions, Excellent road grip and safety when cornering, Reduced fuel consumption and high mileage. This was made possible due to a new compound which focuses on maximum power transmission and provides low rolling resistance whilst driving normally. This rubber compound which carries the name BlackChilli uses the various vibrations of the tyre. The ContiSportContact 5 is available in a range of sizes from 17 inch upwards for cars and 18 inch upwards for SUV.",,,,,,,,,,95,0,1,0,0,1,1,1,0,1,1,,,1,0,1,0,1,0,1,0,0,0,1,235/35 R19 91Y,0,simple,,
admin,base,Tyre,simple,136,CON3566640000,0,235/35 R19 91Y,,,/continental_sportcontact5p_5.jpg,/continental_sportcontact5p_5.jpg,/continental_sportcontact5p_5.jpg,,,,No layout updates,Product Info Column,,,,,Use config,Use config,No,,,235/35 R19,235/35 R19,,,2017,Black Wall,"91 Y Load Index 91 =  1,355.83lbs (615kg) per tire Speed Rating = 186.41mph (300kph)",Black Wall,2017,B,C,65,1060,943.4,1,,Enabled,No,"Catalog, Search",Taxable Goods,Yes,No,No,The latest innovation from the Continental experts. A high performance tyre that offers maximum safety and driving pleasure for highly tuned cars. The ContiSportContact,,,,,,,,,,95,0,1,0,0,1,1,1,0,1,1,,,1,0,1,0,1,0,1,0,0,0,1,235/35 R19 91Y,0,simple,,
admin,base,Tyre,simple,111,CON3564510000,0,235/40 R18 91V,,,/continental_sportcontact3_n1.jpg,/continental_sportcontact3_n1.jpg,/continental_sportcontact3_n1.jpg,,,,No layout updates,Product Info Column,,,,,Use config,Use config,No,,,235/40 R18,235/40 R18,,,2017,Black Wall,"91 V Load Index 91 =  1,355.83lbs (615kg) per tire Speed Rating = 149.13mph (240kph)",Black Wall,2017,B,C,65,882,784.98,1,,Enabled,No,"Catalog, Search",Taxable Goods,Yes,No,No,"One of the most crucial requirements of tyres fitted on high performance, sports cars is agile steering precision. This ensures your vehicle maintains good adherence to the road in face of the considerable forces acting on the tyres when driving at high speeds, making abrupt manoeuvres or changes in road surfaces.",,,,,,,,,,95,0,1,0,0,1,1,1,0,1,1,,,1,0,1,0,1,0,1,0,0,0,1,235/40 R18 91V,0,simple,,
admin,base,Tyre,simple,109,CON03500390000/ANF,0,235/40 R18 91Y,,,/continental_sportcontact3mo.jpeg,/continental_sportcontact3mo.jpeg,/continental_sportcontact3mo.jpeg,,,,No layout updates,Product Info Column,,,,,Use config,Use config,No,,,235/40 R18,235/40 R18,,,2017,Black Wall,"91 Y Load Index 91 =  1,355.83lbs (615kg) per tire Speed Rating = 186.41mph (300kph)",Black Wall,2017,B,C,65,891,792.99,1,,Enabled,No,"Catalog, Search",Taxable Goods,Yes,No,No,"One of the most crucial requirements of tyres fitted on high performance, sports cars is agile steering precision. This ensures your vehicle maintains good adherence to the road in face of the considerable forces acting on the tyres when driving at high speeds, making abrupt manoeuvres or changes in road surfaces. The asymmetric tread ribs on the ContiSportContact",,,,,,,,,,95,0,1,0,0,1,1,1,0,1,1,,,1,0,1,0,1,0,1,0,0,0,1,235/40 R18 91Y,0,simple,,
admin,base,Tyre,simple,115,CON03566190000,0,235/40 R18 95Y,,,/continental_sportcontact5.jpeg,/continental_sportcontact5.jpeg,/continental_sportcontact5.jpeg,,,,No layout updates,Product Info Column,,,,,Use config,Use config,No,,,235/40 R18,235/40 R18,,,2017,Black Wall,"95 Y Load Index 95 =  1,521.17lbs (690kg) per tire Speed Rating = 186.41mph (300kph)",Black Wall,2017,B,C,65,778,692.42,1,,Enabled,No,"Catalog, Search",Taxable Goods,Yes,No,No,"With the launch of the ContiSportContact 5, Continental has developed a tyre which is equally suitable for sporty cars & SUVs with sporty driving characteristics. With this new development, the tyre engineers have made significant progress in comparison to the popular predecessor ContiSportContact 3.Its Features are: Shorter braking distances in all weather conditions, Excellent road grip and safety when cornering, Reduced fuel consumption and high mileage. This was made possible due to a new compound which focuses on maximum power transmission and provides low rolling resistance whilst driving normally. This rubber compound which carries the name BlackChilli uses the various vibrations of the tyre. The ContiSportContact 5 is available in a range of sizes from 17 inch upwards for cars and 18 inch upwards for SUV.",,,,,,,,,,95,0,1,0,0,1,1,1,0,1,1,,,1,0,1,0,1,0,1,0,0,0,1,235/40 R18 95Y,0,simple,,
admin,base,Tyre,simple,134,CON03507100000/ANF,0,235/40 R18 95Y,,,/continental_sportcontact5p.jpg,/continental_sportcontact5p.jpg,/continental_sportcontact5p.jpg,,,,No layout updates,Product Info Column,,,,,Use config,Use config,No,,,235/40 R18,235/40 R18,,,2017,Black Wall,"95 Y Load Index 95 =  1,521.17lbs (690kg) per tire Speed Rating = 186.41mph (300kph)",Black Wall,2017,B,C,65,802,713.78,1,,Enabled,No,"Catalog, Search",Taxable Goods,Yes,No,No,"With the launch of the ContiSportContact 5, Continental has developed a tyre which is equally suitable for sporty cars & SUVs with sporty driving characteristics. With this new development, the tyre engineers have made significant progress in comparison to the popular predecessor ContiSportContact 3.Its Features are: Shorter braking distances in all weather conditions, Excellent road grip and safety when cornering, Reduced fuel consumption and high mileage. This was made possible due to a new compound which focuses on maximum power transmission and provides low rolling resistance whilst driving normally. This rubber compound which carries the name BlackChilli uses the various vibrations of the tyre. The ContiSportContact 5 is available in a range of sizes from 17 inch upwards for cars and 18 inch upwards for SUV.",,,,,,,,,,95,0,1,0,0,1,1,1,0,1,1,,,1,0,1,0,1,0,1,0,0,0,1,235/40 R18 95Y,0,simple,,
admin,base,Tyre,simple,134,CON03569410000,0,235/40 R20 96Y,,,/continental_sportcontact5p.jpg,/continental_sportcontact5p.jpg,/continental_sportcontact5p.jpg,,,,No layout updates,Product Info Column,,,,,Use config,Use config,No,,,235/40 R20,235/40 R20,,,2017,Black Wall,"96 Y Load Index 96 =  1,565.27lbs (710kg) per tire Speed Rating = 186.41mph (300kph)",Black Wall,2017,B,C,65,1647,1465.83,1,,Enabled,No,"Catalog, Search",Taxable Goods,Yes,No,No,"With the launch of the ContiSportContact 5, Continental has developed a tyre which is equally suitable for sporty cars & SUVs with sporty driving characteristics. With this new development, the tyre engineers have made significant progress in comparison to the popular predecessor ContiSportContact 3.Its Features are: Shorter braking distances in all weather conditions, Excellent road grip and safety when cornering, Reduced fuel consumption and high mileage. This was made possible due to a new compound which focuses on maximum power transmission and provides low rolling resistance whilst driving normally. This rubber compound which carries the name BlackChilli uses the various vibrations of the tyre. The ContiSportContact 5 is available in a range of sizes from 17 inch upwards for cars and 18 inch upwards for SUV.",,,,,,,,,,95,0,1,0,0,1,1,1,0,1,1,,,1,0,1,0,1,0,1,0,0,0,1,235/40 R20 96Y,0,simple,,
admin,base,Tyre,simple,115,CON03529260000,0,235/45 R17 97Y,,,/continental_sportcontact5.jpeg,/continental_sportcontact5.jpeg,/continental_sportcontact5.jpeg,,,,No layout updates,Product Info Column,,,,,Use config,Use config,No,,,235/45 R17,235/45 R17,,,2017,Black Wall,"97 Y Load Index 97 =  1,609.36lbs (730kg) per tire Speed Rating = 186.41mph (300kph)",Black Wall,2017,B,C,65,577,513.53,1,,Enabled,No,"Catalog, Search",Taxable Goods,Yes,No,No,"With the launch of the ContiSportContact 5, Continental has developed a tyre which is equally suitable for sporty cars & SUVs with sporty driving characteristics. With this new development, the tyre engineers have made significant progress in comparison to the popular predecessor ContiSportContact 3.Its Features are: Shorter braking distances in all weather conditions, Excellent road grip and safety when cornering, Reduced fuel consumption and high mileage. This was made possible due to a new compound which focuses on maximum power transmission and provides low rolling resistance whilst driving normally. This rubber compound which carries the name BlackChilli uses the various vibrations of the tyre. The ContiSportContact 5 is available in a range of sizes from 17 inch upwards for cars and 18 inch upwards for SUV.",,,,,,,,,,95,0,1,0,0,1,1,1,0,1,1,,,1,0,1,0,1,0,1,0,0,0,1,235/45 R17 97Y,0,simple,,
admin,base,Tyre,simple,97,CON15484960000,0,235/45 R19 95H,,,/continental_procontact.jpg,/continental_procontact.jpg,/continental_procontact.jpg,,,,No layout updates,Product Info Column,,,,,Use config,Use config,No,,,235/45 R19,235/45 R19,,,2017,Blackwall,"95 H Load Index 95 =  1,521.17lbs (690kg) per tire Speed Rating = 130.49mph (210kph)",Blackwall,2017,B,C,65,1199,1067.11,1,,Enabled,No,"Catalog, Search",Taxable Goods,Yes,No,No,"The ContiProContact tyre is excellent designed to blend good looks and handling with low noise and smooth ride while providing all-season versatility and year-round traction, even in light snow.",,,,,,,,,,95,0,1,0,0,1,1,1,0,1,1,,,1,0,1,0,1,0,1,0,0,0,1,235/45 R19 95H,0,simple,,
admin,base,Tyre,simple,#N/A,CON03541780000,0,235/45 R19 95V,,,/continental_sportcontact5.jpg,/continental_sportcontact5.jpg,/continental_sportcontact5.jpg,,,,No layout updates,Product Info Column,,,,,Use config,Use config,No,,,235/45 R19,235/45 R19,,,2017,Run Flat/Blackwall,"95 V Load Index 95 =  1,521.17lbs (690kg) per tire Speed Rating = 149.13mph (240kph)",Run Flat/Blackwall,2017,B,C,65,1630,1450.7,1,,Enabled,No,"Catalog, Search",Taxable Goods,Yes,No,No,This tyre is excellent road grip and handling just as safety when cornering and shorter braking distances in all weather conditions. Also reduced fuel consumption and high mileage.,,,,,,,,,,95,0,1,0,0,1,1,1,0,1,1,,,1,0,1,0,1,0,1,0,0,0,1,235/45 R19 95V,0,simple,,
admin,base,Tyre,simple,127,CON03542160000,0,235/45 R20 100W,,,/continental_sportcontact5.jpg,/continental_sportcontact5.jpg,/continental_sportcontact5.jpg,,,,No layout updates,Product Info Column,,,,,Use config,Use config,No,,,235/45 R20,235/45 R20,,,2017,Blackwall,"100 W Load Index 100 =  1,763.68lbs (800kg) per tire Speed Rating = 167.77mph (270kph)",Blackwall,2017,B,C,65,1540,1370.6,1,,Enabled,No,"Catalog, Search",Taxable Goods,Yes,No,No,This tyre is excellent road grip and handling just as safety when cornering and shorter braking distances in all weather conditions. Also reduced fuel consumption and high mileage.,,,,,,,,,,95,0,1,0,0,1,1,1,0,1,1,,,1,0,1,0,1,0,1,0,0,0,1,235/45 R20 100W,0,simple,,
