store,websites,attribute_set,type,category_ids,sku,has_options,name,meta_title,meta_description,url_key,url_path,custom_design,page_layout,options_container,image_label,small_image_label,thumbnail_label,country_of_manufacture,msrp_enabled,msrp_display_actual_price_type,gift_message_available,width,ratio,diameter,car_make,car_model,car_year,sidewall_style,serv_desc,utqg,production_year,fuel,weather,sound,size,price,special_price,weight,msrp,status,is_recurring,visibility,tax_class_id,passenger,tyres4_4,vantyres,description,short_description,meta_keyword,custom_layout_update,special_from_date,special_to_date,news_from_date,news_to_date,custom_design_from,custom_design_to,qty,min_qty,use_config_min_qty,is_qty_decimal,backorders,use_config_backorders,min_sale_qty,use_config_min_sale_qty,max_sale_qty,use_config_max_sale_qty,is_in_stock,low_stock_date,notify_stock_qty,use_config_notify_stock_qty,manage_stock,use_config_manage_stock,stock_status_changed_auto,use_config_qty_increments,qty_increments,use_config_enable_qty_inc,enable_qty_increments,is_decimal_divided,stock_status_changed_automatically,use_config_enable_qty_increments,product_name,store_id,product_type_id,product_status_changed,product_changed_websites,website,_media_image,_media_lable,_media_position,_media_is_disabled
admin,base,Tyre,simple,27,DUN0120,0,SP MAXX GT B ,,,,,,No layout updates,Product Info Column,,,,GERMANY                                           ,Use config,,,275,40,20,,,,Black Wall,106Y,,2017,B,C,65,275/40,970,101.9,0,,Enabled,No,"Catalog, Search",Taxable Goods,Yes,No,No,Dunlop,Dunlop,,,,,,,,,100,0,1,0,0,1,1,1,0,1,1,,,1,0,1,0,1,0,1,0,0,0,1,SP MAXX GT B ,0,simple,,,,,,,
admin,base,Tyre,simple,27,DUN0121,0,SPORTMA XX RO1 ,,,,,,No layout updates,Product Info Column,,,,GERMANY                                           ,Use config,,,275,40,21,,,,Black Wall,107Y,,2017,B,C,65,275/40,780,81.9,0,,Enabled,No,"Catalog, Search",Taxable Goods,Yes,No,No,Dunlop,Dunlop,,,,,,,,,100,0,1,0,0,1,1,1,0,1,1,,,1,0,1,0,1,0,1,0,0,0,1,SPORTMA XX RO1 ,0,simple,,,,,,,
admin,base,Tyre,simple,27,DUN0122,0,SPORTMA XX RO1,,,,,,No layout updates,Product Info Column,,,,GERMANY                                           ,Use config,,,275,40,21,,,,Black Wall,107Y,,2017,B,C,65,275/40,"1,200.00",126,0,,Enabled,No,"Catalog, Search",Taxable Goods,Yes,No,No,Dunlop,Dunlop,,,,,,,,,100,0,1,0,0,1,1,1,0,1,1,,,1,0,1,0,1,0,1,0,0,0,1,SPORTMA XX RO1,0,simple,,,,,,,
admin,base,Tyre,simple,27,DUN0123,0,MAX 050+,,,,,,No layout updates,Product Info Column,,,,JAPAN                                             ,Use config,,,275,45,19,,,,Black Wall,,,2017,B,C,65,275/45,470,49.4,0,,Enabled,No,"Catalog, Search",Taxable Goods,Yes,No,No,Dunlop,Dunlop,,,,,,,,,100,0,1,0,0,1,1,1,0,1,1,,,1,0,1,0,1,0,1,0,0,0,1,MAX 050+,0,simple,,,,,,,
admin,base,Tyre,simple,27,DUN0124,0,MAX 050+,,,,,,No layout updates,Product Info Column,,,,JAPAN                                             ,Use config,,,275,45,20,,,,Black Wall,,,2017,B,C,65,275/45,500,52.5,0,,Enabled,No,"Catalog, Search",Taxable Goods,Yes,No,No,Dunlop,Dunlop,,,,,,,,,100,0,1,0,0,1,1,1,0,1,1,,,1,0,1,0,1,0,1,0,0,0,1,MAX 050+,0,simple,,,,,,,
admin,base,Tyre,simple,27,DUN0125,0,050+,,,,,,No layout updates,Product Info Column,,,,JAPAN                                             ,Use config,,,275,45,20,,,,Black Wall,101Y,,2017,B,C,65,275/45,540,56.7,0,,Enabled,No,"Catalog, Search",Taxable Goods,Yes,No,No,Dunlop,Dunlop,,,,,,,,,100,0,1,0,0,1,1,1,0,1,1,,,1,0,1,0,1,0,1,0,0,0,1,050+,0,simple,,,,,,,
admin,base,Tyre,simple,27,DUN0126,0,PT3A - ,,,,,,No layout updates,Product Info Column,,,,JAPAN                                             ,Use config,,,275,50,21,,,,Black Wall,113V,,2017,B,C,65,275/50,670,70.4,0,,Enabled,No,"Catalog, Search",Taxable Goods,Yes,No,No,Dunlop,Dunlop,,,,,,,,,100,0,1,0,0,1,1,1,0,1,1,,,1,0,1,0,1,0,1,0,0,0,1,PT3A - ,0,simple,,,,,,,
admin,base,Tyre,simple,27,DUN0127,0,PT3A,,,,,,No layout updates,Product Info Column,,,,JAPAN                                             ,Use config,,,275,50,21,,,,Black Wall,113V,,2017,B,C,65,275/50,900,94.5,0,,Enabled,No,"Catalog, Search",Taxable Goods,Yes,No,No,Dunlop,Dunlop,,,,,,,,,100,0,1,0,0,1,1,1,0,1,1,,,1,0,1,0,1,0,1,0,0,0,1,PT3A,0,simple,,,,,,,
admin,base,Tyre,simple,27,DUN0128,0,MAXX050 ,,,,,,No layout updates,Product Info Column,,,,JAPAN                                             ,Use config,,,275,55,19,,,,Black Wall,111W,,2017,B,C,65,275/55,530,55.7,0,,Enabled,No,"Catalog, Search",Taxable Goods,Yes,No,No,Dunlop,Dunlop,,,,,,,,,100,0,1,0,0,1,1,1,0,1,1,,,1,0,1,0,1,0,1,0,0,0,1,MAXX050 ,0,simple,,,,,,,
admin,base,Tyre,simple,27,DUN0129,0,AT23 - ,,,,,,No layout updates,Product Info Column,,,,JAPAN                                             ,Use config,,,275,60,20,,,,Black Wall,115H,,2017,B,C,65,275/60,370,38.9,0,,Enabled,No,"Catalog, Search",Taxable Goods,Yes,No,No,Dunlop,Dunlop,,,,,,,,,100,0,1,0,0,1,1,1,0,1,1,,,1,0,1,0,1,0,1,0,0,0,1,AT23 - ,0,simple,,,,,,,
admin,base,Tyre,simple,27,DUN0130,0,AT22 OWL,,,,,,No layout updates,Product Info Column,,,,JAPAN                                             ,Use config,,,275,65,17,,,,Black Wall,115T,,2017,B,C,65,275/65,430,45.2,0,,Enabled,No,"Catalog, Search",Taxable Goods,Yes,No,No,Dunlop,Dunlop,,,,,,,,,100,0,1,0,0,1,1,1,0,1,1,,,1,0,1,0,1,0,1,0,0,0,1,AT22 OWL,0,simple,,,,,,,
admin,base,Tyre,simple,27,DUN0131,0,TG28 M2 ,,,,,,No layout updates,Product Info Column,,,,,Use config,,,275,70,16,,,,Black Wall,114T,,2017,B,C,65,275/70,370,38.9,0,,Enabled,No,"Catalog, Search",Taxable Goods,Yes,No,No,Dunlop,Dunlop,,,,,,,,,100,0,1,0,0,1,1,1,0,1,1,,,1,0,1,0,1,0,1,0,0,0,1,TG28 M2 ,0,simple,,,,,,,
admin,base,Tyre,simple,27,DUN0132,0,Y XL MAX X (TT) T,,,,,,No layout updates,Product Info Column,,,,JAPAN                                             ,Use config,,,285,30Z,2,,,,Black Wall,99Y,,2017,B,C,65,285/30,230,24.2,0,,Enabled,No,"Catalog, Search",Taxable Goods,Yes,No,No,Dunlop,Dunlop,,,,,,,,,100,0,1,0,0,1,1,1,0,1,1,,,1,0,1,0,1,0,1,0,0,0,1,Y XL MAX X (TT) T,0,simple,,,,,,,
admin,base,Tyre,simple,27,DUN0133,0,MAX050+,,,,,,No layout updates,Product Info Column,,,,JAPAN                                             ,Use config,,,285,35,21,,,,Black Wall,,,2017,B,C,65,285/35,550,57.8,0,,Enabled,No,"Catalog, Search",Taxable Goods,Yes,No,No,Dunlop,Dunlop,,,,,,,,,100,0,1,0,0,1,1,1,0,1,1,,,1,0,1,0,1,0,1,0,0,0,1,MAX050+,0,simple,,,,,,,
admin,base,Tyre,simple,27,DUN0134,0,MAX 050+,,,,,,No layout updates,Product Info Column,,,,JAPAN                                             ,Use config,,,285,45,19,,,,Black Wall,,,2017,B,C,65,285/45,550,57.8,0,,Enabled,No,"Catalog, Search",Taxable Goods,Yes,No,No,Dunlop,Dunlop,,,,,,,,,100,0,1,0,0,1,1,1,0,1,1,,,1,0,1,0,1,0,1,0,0,0,1,MAX 050+,0,simple,,,,,,,
admin,base,Tyre,simple,27,DUN0135,0,GRANDTR EK PT2A,,,,,,No layout updates,Product Info Column,,,,JAPAN                                             ,Use config,,,285,50,20,,,,Black Wall,112V,,2017,B,C,65,285/50,490,51.5,0,,Enabled,No,"Catalog, Search",Taxable Goods,Yes,No,No,Dunlop,Dunlop,,,,,,,,,100,0,1,0,0,1,1,1,0,1,1,,,1,0,1,0,1,0,1,0,0,0,1,GRANDTR EK PT2A,0,simple,,,,,,,
admin,base,Tyre,simple,27,DUN0136,0,PT3,,,,,,No layout updates,Product Info Column,,,,JAPAN                                             ,Use config,,,285,60,18,,,,Black Wall,,,2017,B,C,65,285/60,500,52.5,0,,Enabled,No,"Catalog, Search",Taxable Goods,Yes,No,No,Dunlop,Dunlop,,,,,,,,,100,0,1,0,0,1,1,1,0,1,1,,,1,0,1,0,1,0,1,0,0,0,1,PT3,0,simple,,,,,,,
admin,base,Tyre,simple,27,DUN0137,0,AT22,,,,,,No layout updates,Product Info Column,,,,JAPAN                                             ,Use config,,,285,60,18,,,,Black Wall,116V,,2017,B,C,65,285/60,430,45.2,0,,Enabled,No,"Catalog, Search",Taxable Goods,Yes,No,No,Dunlop,Dunlop,,,,,,,,,100,0,1,0,0,1,1,1,0,1,1,,,1,0,1,0,1,0,1,0,0,0,1,AT22,0,simple,,,,,,,
admin,base,Tyre,simple,27,DUN0138,0,AT22 (W HITE),,,,,,No layout updates,Product Info Column,,,,JAPAN                                             ,Use config,,,285,60,18,,,,Black Wall,116V,,2017,B,C,65,285/60,520,54.6,0,,Enabled,No,"Catalog, Search",Taxable Goods,Yes,No,No,Dunlop,Dunlop,,,,,,,,,100,0,1,0,0,1,1,1,0,1,1,,,1,0,1,0,1,0,1,0,0,0,1,AT22 (W HITE),0,simple,,,,,,,
admin,base,Tyre,simple,27,DUN0139,0,AT2,,,,,,No layout updates,Product Info Column,,,,JAPAN                                             ,Use config,,,285,65,17,,,,Black Wall,115S,,2017,B,C,65,285/65,410,43.1,0,,Enabled,No,"Catalog, Search",Taxable Goods,Yes,No,No,Dunlop,Dunlop,,,,,,,,,100,0,1,0,0,1,1,1,0,1,1,,,1,0,1,0,1,0,1,0,0,0,1,AT2,0,simple,,,,,,,
admin,base,Tyre,simple,27,DUN0140,0,AT22 (B LACK),,,,,,No layout updates,Product Info Column,,,,JAPAN                                             ,Use config,,,285,65,17,,,,Black Wall,116H,,2017,B,C,65,285/65,465,48.8,0,,Enabled,No,"Catalog, Search",Taxable Goods,Yes,No,No,Dunlop,Dunlop,,,,,,,,,100,0,1,0,0,1,1,1,0,1,1,,,1,0,1,0,1,0,1,0,0,0,1,AT22 (B LACK),0,simple,,,,,,,
admin,base,Tyre,simple,27,DUN0141,0,AT22 (W HITE) ,,,,,,No layout updates,Product Info Column,,,,JAPAN                                             ,Use config,,,285,65,17,,,,Black Wall,116H,,2017,B,C,65,285/65,460,48.3,0,,Enabled,No,"Catalog, Search",Taxable Goods,Yes,No,No,Dunlop,Dunlop,,,,,,,,,100,0,1,0,0,1,1,1,0,1,1,,,1,0,1,0,1,0,1,0,0,0,1,AT22 (W HITE) ,0,simple,,,,,,,
admin,base,Tyre,simple,27,DUN0142,0,MAXX050+ XL,,,,,,No layout updates,Product Info Column,,,,JAPAN                                             ,Use config,,,295,40,20,,,,Black Wall,,,2017,B,C,65,295/40,550,57.8,0,,Enabled,No,"Catalog, Search",Taxable Goods,Yes,No,No,Dunlop,Dunlop,,,,,,,,,100,0,1,0,0,1,1,1,0,1,1,,,1,0,1,0,1,0,1,0,0,0,1,MAXX050+ XL,0,simple,,,,,,,
admin,base,Tyre,simple,27,DUN0143,0,MAX050 ,,,,,,No layout updates,Product Info Column,,,,JAPAN                                             ,Use config,,,295,40,21,,,,Black Wall,111W,,2017,B,C,65,295/40,640,67.2,0,,Enabled,No,"Catalog, Search",Taxable Goods,Yes,No,No,Dunlop,Dunlop,,,,,,,,,100,0,1,0,0,1,1,1,0,1,1,,,1,0,1,0,1,0,1,0,0,0,1,MAX050 ,0,simple,,,,,,,
admin,base,Tyre,simple,27,DUN0144,0,MAXX050 ,,,,,,No layout updates,Product Info Column,,,,,Use config,,,295,40,21,,,,Black Wall,111W,,2017,B,C,65,295/40,630,66.2,0,,Enabled,No,"Catalog, Search",Taxable Goods,Yes,No,No,Dunlop,Dunlop,,,,,,,,,100,0,1,0,0,1,1,1,0,1,1,,,1,0,1,0,1,0,1,0,0,0,1,MAXX050 ,0,simple,,,,,,,
admin,base,Tyre,simple,27,DUN0145,0,MAX050 ,,,,,,No layout updates,Product Info Column,,,,JAPAN                                             ,Use config,,,315,35,20,,,,Black Wall,110Y,,2017,B,C,65,315/35,560,58.8,0,,Enabled,No,"Catalog, Search",Taxable Goods,Yes,No,No,Dunlop,Dunlop,,,,,,,,,100,0,1,0,0,1,1,1,0,1,1,,,1,0,1,0,1,0,1,0,0,0,1,MAX050 ,0,simple,,,,,,,
admin,base,Tyre,simple,27,DUN0146,0,SP MAXX GT* ROF,,,,,,No layout updates,Product Info Column,,,,,Use config,,,325,30,21,,,,Black Wall,108Y,,2017,B,C,65,325/30,"1,570.00",164.9,0,,Enabled,No,"Catalog, Search",Taxable Goods,Yes,No,No,Dunlop,Dunlop,,,,,,,,,100,0,1,0,0,1,1,1,0,1,1,,,1,0,1,0,1,0,1,0,0,0,1,SP MAXX GT* ROF,0,simple,,,,,,,
admin,base,Tyre,simple,27,DUN0147,0,SP185,,,,,,No layout updates,Product Info Column,,,,JAPAN                                             ,Use config,,,700,,16,,,,Black Wall,,,2017,B,C,65,700R16,380,39.9,0,,Enabled,No,"Catalog, Search",Taxable Goods,Yes,No,No,Dunlop,Dunlop,,,,,,,,,100,0,1,0,0,1,1,1,0,1,1,,,1,0,1,0,1,0,1,0,0,0,1,SP185,0,simple,,,,,,,
admin,base,Tyre,simple,27,DUN0148,0,1N 10P S P185,,,,,,No layout updates,Product Info Column,,,,JAPAN                                             ,Use config,,,700,,16,,,,Black Wall,93Y,,2017,B,C,65,700R16,400,42,0,,Enabled,No,"Catalog, Search",Taxable Goods,Yes,No,No,Dunlop,Dunlop,,,,,,,,,100,0,1,0,0,1,1,1,0,1,1,,,1,0,1,0,1,0,1,0,0,0,1,1N 10P S P185,0,simple,,,,,,,
admin,base,Tyre,simple,27,DUN0149,0,,,,,,,No layout updates,Product Info Column,,,,JAPAN                                             ,Use config,,,750,,16,,,,Black Wall,,,2017,B,C,65,750,350,36.8,0,,Enabled,No,"Catalog, Search",Taxable Goods,Yes,No,No,Dunlop,Dunlop,,,,,,,,,100,0,1,0,0,1,1,1,0,1,1,,,1,0,1,0,1,0,1,0,0,0,1,,0,simple,,,,,,,
