store,websites,attribute_set,type,category_ids,sku,has_options,name,meta_title,meta_description,url_key,url_path,custom_design,page_layout,options_container,image_label,small_image_label,thumbnail_label,country_of_manufacture,msrp_enabled,msrp_display_actual_price_type,gift_message_available,width,ratio,diameter,serv_desc,car_make,car_model,car_year,sidewall_style,utqg,production_year,fuel,weather,sound,size,price,special_price,weight,msrp,status,is_recurring,visibility,tax_class_id,passenger,tyres4_4,vantyres,description,short_description,meta_keyword,custom_layout_update,special_from_date,special_to_date,news_from_date,news_to_date,custom_design_from,custom_design_to,qty,min_qty,use_config_min_qty,is_qty_decimal,backorders,use_config_backorders,min_sale_qty,use_config_min_sale_qty,max_sale_qty,use_config_max_sale_qty,is_in_stock,low_stock_date,notify_stock_qty,use_config_notify_stock_qty,manage_stock,use_config_manage_stock,stock_status_changed_auto,use_config_qty_increments,qty_increments,use_config_enable_qty_inc,enable_qty_increments,is_decimal_divided,stock_status_changed_automatically,use_config_enable_qty_increments,product_name,store_id,product_type_id,product_status_changed,product_changed_websites,website,_media_image,_media_lable,_media_position,_media_is_disabled
admin,base,Tyre,simple,36,NEX-10142,0,CP661,,,,,,No layout updates,Product Info Column,,,,Korea,Use config,,,165,65,13,77T,,,,Black Wall,,2017,B,C,65,165/65,120,,0,,Enabled,No,"Catalog, Search",Taxable Goods,Yes,No,No,Nexen,Nexen,,,,,,,,,100,0,1,0,0,1,1,1,0,1,1,,,1,0,1,0,1,0,1,0,0,0,1,CP661,0,simple,,,,,,,
admin,base,Tyre,simple,36,NEX-10143,0,N-BLUE HD PLU,,,,,,No layout updates,Product Info Column,,,,Korea,Use config,,,165,65,14,79T,,,,Black Wall,,2017,B,C,65,165/65,165,,0,,Enabled,No,"Catalog, Search",Taxable Goods,Yes,No,No,Nexen,Nexen,,,,,,,,,100,0,1,0,0,1,1,1,0,1,1,,,1,0,1,0,1,0,1,0,0,0,1,N-BLUE HD PLU,0,simple,,,,,,,
admin,base,Tyre,simple,36,NEX-10145,0,N-BLUE HD PLU,,,,,,No layout updates,Product Info Column,,,,Korea,Use config,,,185,60,15,84H,,,,Black Wall,,2017,B,C,65,185/60,165,,0,,Enabled,No,"Catalog, Search",Taxable Goods,Yes,No,No,Nexen,Nexen,,,,,,,,,100,0,1,0,0,1,1,1,0,1,1,,,1,0,1,0,1,0,1,0,0,0,1,N-BLUE HD PLU,0,simple,,,,,,,
admin,base,Tyre,simple,36,NEX-10146,0,CP672,,,,,,No layout updates,Product Info Column,,,,Korea,Use config,,,185,65,14,86H,,,,Black Wall,,2017,B,C,65,185/65,135,,0,,Enabled,No,"Catalog, Search",Taxable Goods,Yes,No,No,Nexen,Nexen,,,,,,,,,100,0,1,0,0,1,1,1,0,1,1,,,1,0,1,0,1,0,1,0,0,0,1,CP672,0,simple,,,,,,,
admin,base,Tyre,simple,36,NEX-10147,0,CP672,,,,,,No layout updates,Product Info Column,,,,Korea,Use config,,,185,65,15,88H,,,,Black Wall,,2017,B,C,65,185/65,180,,0,,Enabled,No,"Catalog, Search",Taxable Goods,Yes,No,No,Nexen,Nexen,,,,,,,,,100,0,1,0,0,1,1,1,0,1,1,,,1,0,1,0,1,0,1,0,0,0,1,CP672,0,simple,,,,,,,
admin,base,Tyre,simple,36,NEX-10148,0,NFERA SU1,,,,,,No layout updates,Product Info Column,,,,Korea,Use config,,,195,45,16,84W,,,,Black Wall,,2017,B,C,65,195/45,230,,0,,Enabled,No,"Catalog, Search",Taxable Goods,Yes,No,No,Nexen,Nexen,,,,,,,,,100,0,1,0,0,1,1,1,0,1,1,,,1,0,1,0,1,0,1,0,0,0,1,NFERA SU1,0,simple,,,,,,,
admin,base,Tyre,simple,36,NEX-10149,0,CP672,,,,,,No layout updates,Product Info Column,,,,Korea,Use config,,,195,60,14,86H,,,,Black Wall,,2017,B,C,65,195/60,225,,0,,Enabled,No,"Catalog, Search",Taxable Goods,Yes,No,No,Nexen,Nexen,,,,,,,,,100,0,1,0,0,1,1,1,0,1,1,,,1,0,1,0,1,0,1,0,0,0,1,CP672,0,simple,,,,,,,
admin,base,Tyre,simple,36,NEX-10150,0,CP672,,,,,,No layout updates,Product Info Column,,,,Korea,Use config,,,195,60,14,86H,,,,Black Wall,,2017,B,C,65,195/60,225,,0,,Enabled,No,"Catalog, Search",Taxable Goods,Yes,No,No,Nexen,Nexen,,,,,,,,,100,0,1,0,0,1,1,1,0,1,1,,,1,0,1,0,1,0,1,0,0,0,1,CP672,0,simple,,,,,,,
admin,base,Tyre,simple,36,NEX-10151,0,CP672,,,,,,No layout updates,Product Info Column,,,,Korea,Use config,,,195,65,15,91H,,,,Black Wall,,2017,B,C,65,195/65,185,,0,,Enabled,No,"Catalog, Search",Taxable Goods,Yes,No,No,Nexen,Nexen,,,,,,,,,100,0,1,0,0,1,1,1,0,1,1,,,1,0,1,0,1,0,1,0,0,0,1,CP672,0,simple,,,,,,,
admin,base,Tyre,simple,36,NEX-10152,0,NPR1Z AH8,,,,,,No layout updates,Product Info Column,,,,Korea,Use config,,,195,65,15,91T,,,,Black Wall,,2017,B,C,65,195/65,170,,0,,Enabled,No,"Catalog, Search",Taxable Goods,Yes,No,No,Nexen,Nexen,,,,,,,,,100,0,1,0,0,1,1,1,0,1,1,,,1,0,1,0,1,0,1,0,0,0,1,NPR1Z AH8,0,simple,,,,,,,
admin,base,Tyre,simple,36,NEX-10153,0,RODIAN C,,,,,,No layout updates,Product Info Column,,,,Korea,Use config,,,195,,14,106/104R,,,,Black Wall,,2017,B,C,65,195R14,250,,0,,Enabled,No,"Catalog, Search",Taxable Goods,Yes,No,No,Nexen,Nexen,,,,,,,,,100,0,1,0,0,1,1,1,0,1,1,,,1,0,1,0,1,0,1,0,0,0,1,RODIAN C,0,simple,,,,,,,
admin,base,Tyre,simple,36,NEX-10154,0,RODIAN C,,,,,,No layout updates,Product Info Column,,,,Korea,Use config,,,195,,15,106/104R,,,,Black Wall,,2017,B,C,65,195R15,310,,0,,Enabled,No,"Catalog, Search",Taxable Goods,Yes,No,No,Nexen,Nexen,,,,,,,,,100,0,1,0,0,1,1,1,0,1,1,,,1,0,1,0,1,0,1,0,0,0,1,RODIAN C,0,simple,,,,,,,
admin,base,Tyre,simple,36,NEX-10155,0,CP672,,,,,,No layout updates,Product Info Column,,,,Korea,Use config,,,205,40,17,84H,,,,Black Wall,,2017,B,C,65,205/40,235,,0,,Enabled,No,"Catalog, Search",Taxable Goods,Yes,No,No,Nexen,Nexen,,,,,,,,,100,0,1,0,0,1,1,1,0,1,1,,,1,0,1,0,1,0,1,0,0,0,1,CP672,0,simple,,,,,,,
admin,base,Tyre,simple,36,NEX-10156,0,NFERA SU1,,,,,,No layout updates,Product Info Column,,,,Korea,Use config,,,205,40,17,84W,,,,Black Wall,,2017,B,C,65,205/40,230,,0,,Enabled,No,"Catalog, Search",Taxable Goods,Yes,No,No,Nexen,Nexen,,,,,,,,,100,0,1,0,0,1,1,1,0,1,1,,,1,0,1,0,1,0,1,0,0,0,1,NFERA SU1,0,simple,,,,,,,
admin,base,Tyre,simple,36,NEX-10157,0,NFERA SUI,,,,,,No layout updates,Product Info Column,,,,Korea,Use config,,,205,45,17,88W,,,,Black Wall,,2017,B,C,65,205/45,250,,0,,Enabled,No,"Catalog, Search",Taxable Goods,Yes,No,No,Nexen,Nexen,,,,,,,,,100,0,1,0,0,1,1,1,0,1,1,,,1,0,1,0,1,0,1,0,0,0,1,NFERA SUI,0,simple,,,,,,,
admin,base,Tyre,simple,36,NEX-10158,0,CP672,,,,,,No layout updates,Product Info Column,,,,Korea,Use config,,,205,55,16,91V,,,,Black Wall,,2017,B,C,65,205/55,180,,0,,Enabled,No,"Catalog, Search",Taxable Goods,Yes,No,No,Nexen,Nexen,,,,,,,,,100,0,1,0,0,1,1,1,0,1,1,,,1,0,1,0,1,0,1,0,0,0,1,CP672,0,simple,,,,,,,
admin,base,Tyre,simple,36,NEX-10159,0,NBLUE ECO,,,,,,No layout updates,Product Info Column,,,,Korea,Use config,,,205,55,16,94V,,,,Black Wall,,2017,B,C,65,205/55,230,,0,,Enabled,No,"Catalog, Search",Taxable Goods,Yes,No,No,Nexen,Nexen,,,,,,,,,100,0,1,0,0,1,1,1,0,1,1,,,1,0,1,0,1,0,1,0,0,0,1,NBLUE ECO,0,simple,,,,,,,
admin,base,Tyre,simple,36,NEX-10160,0,CP672,,,,,,No layout updates,Product Info Column,,,,Korea,Use config,,,205,60,15,92H,,,,Black Wall,,2017,B,C,65,205/60,160,,0,,Enabled,No,"Catalog, Search",Taxable Goods,Yes,No,No,Nexen,Nexen,,,,,,,,,100,0,1,0,0,1,1,1,0,1,1,,,1,0,1,0,1,0,1,0,0,0,1,CP672,0,simple,,,,,,,
admin,base,Tyre,simple,36,NEX-10161,0,CP672,,,,,,No layout updates,Product Info Column,,,,Korea,Use config,,,205,60,15,91H,,,,Black Wall,,2017,B,C,65,205/60,190,,0,,Enabled,No,"Catalog, Search",Taxable Goods,Yes,No,No,Nexen,Nexen,,,,,,,,,100,0,1,0,0,1,1,1,0,1,1,,,1,0,1,0,1,0,1,0,0,0,1,CP672,0,simple,,,,,,,
admin,base,Tyre,simple,36,NEX-10162,0,CP672,,,,,,No layout updates,Product Info Column,,,,Korea,Use config,,,205,60,16,92H,,,,Black Wall,,2017,B,C,65,205/60,265,,0,,Enabled,No,"Catalog, Search",Taxable Goods,Yes,No,No,Nexen,Nexen,,,,,,,,,100,0,1,0,0,1,1,1,0,1,1,,,1,0,1,0,1,0,1,0,0,0,1,CP672,0,simple,,,,,,,
admin,base,Tyre,simple,36,NEX-10163,0,N-BLUE HD PLU,,,,,,No layout updates,Product Info Column,,,,Korea,Use config,,,205,60,16,92V,,,,Black Wall,,2017,B,C,65,205/60,220,,0,,Enabled,No,"Catalog, Search",Taxable Goods,Yes,No,No,Nexen,Nexen,,,,,,,,,100,0,1,0,0,1,1,1,0,1,1,,,1,0,1,0,1,0,1,0,0,0,1,N-BLUE HD PLU,0,simple,,,,,,,
admin,base,Tyre,simple,36,NEX-10164,0,CP672,,,,,,No layout updates,Product Info Column,,,,Korea,Use config,,,205,65,15,94H,,,,Black Wall,,2017,B,C,65,205/65,200,,0,,Enabled,No,"Catalog, Search",Taxable Goods,Yes,No,No,Nexen,Nexen,,,,,,,,,100,0,1,0,0,1,1,1,0,1,1,,,1,0,1,0,1,0,1,0,0,0,1,CP672,0,simple,,,,,,,
admin,base,Tyre,simple,36,NEX-10165,0,CP672,,,,,,No layout updates,Product Info Column,,,,Korea,Use config,,,205,65,15,94H,,,,Black Wall,,2017,B,C,65,205/65,200,,0,,Enabled,No,"Catalog, Search",Taxable Goods,Yes,No,No,Nexen,Nexen,,,,,,,,,100,0,1,0,0,1,1,1,0,1,1,,,1,0,1,0,1,0,1,0,0,0,1,CP672,0,simple,,,,,,,
admin,base,Tyre,simple,36,NEX-10166,0,NFERA-AU5,,,,,,No layout updates,Product Info Column,,,,Korea,Use config,,,205,65,16,95Y,,,,Black Wall,,2017,B,C,65,205/65,235,,0,,Enabled,No,"Catalog, Search",Taxable Goods,Yes,No,No,Nexen,Nexen,,,,,,,,,100,0,1,0,0,1,1,1,0,1,1,,,1,0,1,0,1,0,1,0,0,0,1,NFERA-AU5,0,simple,,,,,,,
admin,base,Tyre,simple,36,NEX-10167,0,10/108S ROADIAN C,,,,,,No layout updates,Product Info Column,,,,Korea,Use config,,,205,,16,110/108s,,,,Black Wall,,2017,B,C,65,205R16,325,,0,,Enabled,No,"Catalog, Search",Taxable Goods,Yes,No,No,Nexen,Nexen,,,,,,,,,100,0,1,0,0,1,1,1,0,1,1,,,1,0,1,0,1,0,1,0,0,0,1,10/108S ROADIAN C,0,simple,,,,,,,
admin,base,Tyre,simple,36,NEX-10168,0,NFERA SU1,,,,,,No layout updates,Product Info Column,,,,Korea,Use config,,,215,35,18,84Y,,,,Black Wall,,2017,B,C,65,215/35,205,,0,,Enabled,No,"Catalog, Search",Taxable Goods,Yes,No,No,Nexen,Nexen,,,,,,,,,100,0,1,0,0,1,1,1,0,1,1,,,1,0,1,0,1,0,1,0,0,0,1,NFERA SU1,0,simple,,,,,,,
admin,base,Tyre,simple,36,NEX-10169,0,NFERA SU1,,,,,,No layout updates,Product Info Column,,,,Korea,Use config,,,215,40,17,,,,,Black Wall,,2017,B,C,65,215/40,160,,0,,Enabled,No,"Catalog, Search",Taxable Goods,Yes,No,No,Nexen,Nexen,,,,,,,,,100,0,1,0,0,1,1,1,0,1,1,,,1,0,1,0,1,0,1,0,0,0,1,NFERA SU1,0,simple,,,,,,,
admin,base,Tyre,simple,36,NEX-10170,0,CP672,,,,,,No layout updates,Product Info Column,,,,Korea,Use config,,,215,40,18,85V,,,,Black Wall,,2017,B,C,65,215/40,200,,0,,Enabled,No,"Catalog, Search",Taxable Goods,Yes,No,No,Nexen,Nexen,,,,,,,,,100,0,1,0,0,1,1,1,0,1,1,,,1,0,1,0,1,0,1,0,0,0,1,CP672,0,simple,,,,,,,
admin,base,Tyre,simple,36,NEX-10171,0,CP672,,,,,,No layout updates,Product Info Column,,,,Korea,Use config,,,215,40,18,85V,,,,Black Wall,,2017,B,C,65,215/40,255,,0,,Enabled,No,"Catalog, Search",Taxable Goods,Yes,No,No,Nexen,Nexen,,,,,,,,,100,0,1,0,0,1,1,1,0,1,1,,,1,0,1,0,1,0,1,0,0,0,1,CP672,0,simple,,,,,,,
admin,base,Tyre,simple,36,NEX-10172,0,CP672,,,,,,No layout updates,Product Info Column,,,,Korea,Use config,,,215,45,17,91H,,,,Black Wall,,2017,B,C,65,215/45,235,,0,,Enabled,No,"Catalog, Search",Taxable Goods,Yes,No,No,Nexen,Nexen,,,,,,,,,100,0,1,0,0,1,1,1,0,1,1,,,1,0,1,0,1,0,1,0,0,0,1,CP672,0,simple,,,,,,,
admin,base,Tyre,simple,36,NEX-10173,0,CP672,,,,,,No layout updates,Product Info Column,,,,Korea,Use config,,,215,45,18,93H,,,,Black Wall,,2017,B,C,65,215/45,260,,0,,Enabled,No,"Catalog, Search",Taxable Goods,Yes,No,No,Nexen,Nexen,,,,,,,,,100,0,1,0,0,1,1,1,0,1,1,,,1,0,1,0,1,0,1,0,0,0,1,CP672,0,simple,,,,,,,
admin,base,Tyre,simple,36,NEX-10174,0,CP672 -,,,,,,No layout updates,Product Info Column,,,,Korea,Use config,,,215,55,18,94H,,,,Black Wall,,2017,B,C,65,215/55,220,,0,,Enabled,No,"Catalog, Search",Taxable Goods,Yes,No,No,Nexen,Nexen,,,,,,,,,100,0,1,0,0,1,1,1,0,1,1,,,1,0,1,0,1,0,1,0,0,0,1,CP672 -,0,simple,,,,,,,
admin,base,Tyre,simple,36,NEX-10175,0,CP672,,,,,,No layout updates,Product Info Column,,,,Korea,Use config,,,215,60,16,95H,,,,Black Wall,,2017,B,C,65,215/60,230,,0,,Enabled,No,"Catalog, Search",Taxable Goods,Yes,No,No,Nexen,Nexen,,,,,,,,,100,0,1,0,0,1,1,1,0,1,1,,,1,0,1,0,1,0,1,0,0,0,1,CP672,0,simple,,,,,,,
admin,base,Tyre,simple,36,NEX-10176,0,CP672,,,,,,No layout updates,Product Info Column,,,,Korea,Use config,,,215,60,16,95H,,,,Black Wall,,2017,B,C,65,215/60,240,,0,,Enabled,No,"Catalog, Search",Taxable Goods,Yes,No,No,Nexen,Nexen,,,,,,,,,100,0,1,0,0,1,1,1,0,1,1,,,1,0,1,0,1,0,1,0,0,0,1,CP672,0,simple,,,,,,,
admin,base,Tyre,simple,36,NEX-10177,0,CP672,,,,,,No layout updates,Product Info Column,,,,Korea,Use config,,,215,60,17,96H,,,,Black Wall,,2017,B,C,65,215/60,280,,0,,Enabled,No,"Catalog, Search",Taxable Goods,Yes,No,No,Nexen,Nexen,,,,,,,,,100,0,1,0,0,1,1,1,0,1,1,,,1,0,1,0,1,0,1,0,0,0,1,CP672,0,simple,,,,,,,
admin,base,Tyre,simple,36,NEX-10178,0,N-BLUE HD PLU,,,,,,No layout updates,Product Info Column,,,,Korea,Use config,,,215,60,17,96H,,,,Black Wall,,2017,B,C,65,215/60,270,,0,,Enabled,No,"Catalog, Search",Taxable Goods,Yes,No,No,Nexen,Nexen,,,,,,,,,100,0,1,0,0,1,1,1,0,1,1,,,1,0,1,0,1,0,1,0,0,0,1,N-BLUE HD PLU,0,simple,,,,,,,
admin,base,Tyre,simple,36,NEX-10179,0,CP521,,,,,,No layout updates,Product Info Column,,,,Korea,Use config,,,215,70,16,108/106T,,,,Black Wall,,2017,B,C,65,215/70,300,,0,,Enabled,No,"Catalog, Search",Taxable Goods,Yes,No,No,Nexen,Nexen,,,,,,,,,100,0,1,0,0,1,1,1,0,1,1,,,1,0,1,0,1,0,1,0,0,0,1,CP521,0,simple,,,,,,,
admin,base,Tyre,simple,36,NEX-10180,0,NFERA SU1,,,,,,No layout updates,Product Info Column,,,,Korea,Use config,,,225,35,18,,,,,Black Wall,,2017,B,C,65,225/35,300,,0,,Enabled,No,"Catalog, Search",Taxable Goods,Yes,No,No,Nexen,Nexen,,,,,,,,,100,0,1,0,0,1,1,1,0,1,1,,,1,0,1,0,1,0,1,0,0,0,1,NFERA SU1,0,simple,,,,,,,
admin,base,Tyre,simple,36,NEX-10181,0,CP672,,,,,,No layout updates,Product Info Column,,,,Korea,Use config,,,225,40,18,92H,,,,Black Wall,,2017,B,C,65,225/40,235,,0,,Enabled,No,"Catalog, Search",Taxable Goods,Yes,No,No,Nexen,Nexen,,,,,,,,,100,0,1,0,0,1,1,1,0,1,1,,,1,0,1,0,1,0,1,0,0,0,1,CP672,0,simple,,,,,,,
admin,base,Tyre,simple,36,NEX-10182,0,CP672,,,,,,No layout updates,Product Info Column,,,,Korea,Use config,,,225,40,18,92H,,,,Black Wall,,2017,B,C,65,225/40,285,,0,,Enabled,No,"Catalog, Search",Taxable Goods,Yes,No,No,Nexen,Nexen,,,,,,,,,100,0,1,0,0,1,1,1,0,1,1,,,1,0,1,0,1,0,1,0,0,0,1,CP672,0,simple,,,,,,,
admin,base,Tyre,simple,36,NEX-10183,0,NFERA SU1,,,,,,No layout updates,Product Info Column,,,,Korea,Use config,,,225,45,17,94Y,,,,Black Wall,,2017,B,C,65,225/45,270,,0,,Enabled,No,"Catalog, Search",Taxable Goods,Yes,No,No,Nexen,Nexen,,,,,,,,,100,0,1,0,0,1,1,1,0,1,1,,,1,0,1,0,1,0,1,0,0,0,1,NFERA SU1,0,simple,,,,,,,
admin,base,Tyre,simple,36,NEX-10184,0,NBLUE ECO,,,,,,No layout updates,Product Info Column,,,,Korea,Use config,,,225,55,17,95V,,,,Black Wall,,2017,B,C,65,225/55,285,,0,,Enabled,No,"Catalog, Search",Taxable Goods,Yes,No,No,Nexen,Nexen,,,,,,,,,100,0,1,0,0,1,1,1,0,1,1,,,1,0,1,0,1,0,1,0,0,0,1,NBLUE ECO,0,simple,,,,,,,
admin,base,Tyre,simple,36,NEX-10185,0,CP672,,,,,,No layout updates,Product Info Column,,,,Korea,Use config,,,225,55,17,97H,,,,Black Wall,,2017,B,C,65,225/55,295,,0,,Enabled,No,"Catalog, Search",Taxable Goods,Yes,No,No,Nexen,Nexen,,,,,,,,,100,0,1,0,0,1,1,1,0,1,1,,,1,0,1,0,1,0,1,0,0,0,1,CP672,0,simple,,,,,,,
admin,base,Tyre,simple,36,NEX-10186,0,CP643 -,,,,,,No layout updates,Product Info Column,,,,Korea,Use config,,,225,55,17,97V,,,,Black Wall,,2017,B,C,65,225/55,300,,0,,Enabled,No,"Catalog, Search",Taxable Goods,Yes,No,No,Nexen,Nexen,,,,,,,,,100,0,1,0,0,1,1,1,0,1,1,,,1,0,1,0,1,0,1,0,0,0,1,CP643 -,0,simple,,,,,,,
admin,base,Tyre,simple,36,NEX-10187,0,CP672,,,,,,No layout updates,Product Info Column,,,,Korea,Use config,,,225,60,16,98H,,,,Black Wall,,2017,B,C,65,225/60,290,,0,,Enabled,No,"Catalog, Search",Taxable Goods,Yes,No,No,Nexen,Nexen,,,,,,,,,100,0,1,0,0,1,1,1,0,1,1,,,1,0,1,0,1,0,1,0,0,0,1,CP672,0,simple,,,,,,,
admin,base,Tyre,simple,36,NEX-10188,0,CP672,,,,,,No layout updates,Product Info Column,,,,Korea,Use config,,,225,60,17,98H,,,,Black Wall,,2017,B,C,65,225/60,290,,0,,Enabled,No,"Catalog, Search",Taxable Goods,Yes,No,No,Nexen,Nexen,,,,,,,,,100,0,1,0,0,1,1,1,0,1,1,,,1,0,1,0,1,0,1,0,0,0,1,CP672,0,simple,,,,,,,
admin,base,Tyre,simple,36,NEX-10189,0,N-BLUE HD PLU,,,,,,No layout updates,Product Info Column,,,,Korea,Use config,,,225,60,17,99H,,,,Black Wall,,2017,B,C,65,225/60,270,,0,,Enabled,No,"Catalog, Search",Taxable Goods,Yes,No,No,Nexen,Nexen,,,,,,,,,100,0,1,0,0,1,1,1,0,1,1,,,1,0,1,0,1,0,1,0,0,0,1,N-BLUE HD PLU,0,simple,,,,,,,
admin,base,Tyre,simple,36,NEX-10190,0,CP672,,,,,,No layout updates,Product Info Column,,,,Korea,Use config,,,225,60,18,99H,,,,Black Wall,,2017,B,C,65,225/60,320,,0,,Enabled,No,"Catalog, Search",Taxable Goods,Yes,No,No,Nexen,Nexen,,,,,,,,,100,0,1,0,0,1,1,1,0,1,1,,,1,0,1,0,1,0,1,0,0,0,1,CP672,0,simple,,,,,,,
admin,base,Tyre,simple,36,NEX-10191,0,NBLUE ECO -,,,,,,No layout updates,Product Info Column,,,,Korea,Use config,,,225,65,17,100H,,,,Black Wall,,2017,B,C,65,225/65,280,,0,,Enabled,No,"Catalog, Search",Taxable Goods,Yes,No,No,Nexen,Nexen,,,,,,,,,100,0,1,0,0,1,1,1,0,1,1,,,1,0,1,0,1,0,1,0,0,0,1,NBLUE ECO -,0,simple,,,,,,,
admin,base,Tyre,simple,36,NEX-10192,0,NFERA-RU1,,,,,,No layout updates,Product Info Column,,,,Korea,Use config,,,225,65,18,103V,,,,Black Wall,,2017,B,C,65,225/65,325,,0,,Enabled,No,"Catalog, Search",Taxable Goods,Yes,No,No,Nexen,Nexen,,,,,,,,,100,0,1,0,0,1,1,1,0,1,1,,,1,0,1,0,1,0,1,0,0,0,1,NFERA-RU1,0,simple,,,,,,,
admin,base,Tyre,simple,36,NEX-10193,0,CP661 ,,,,,,No layout updates,Product Info Column,,,,Korea,Use config,,,225,70,16,103T,,,,Black Wall,,2017,B,C,65,225/70,300,,0,,Enabled,No,"Catalog, Search",Taxable Goods,Yes,No,No,Nexen,Nexen,,,,,,,,,100,0,1,0,0,1,1,1,0,1,1,,,1,0,1,0,1,0,1,0,0,0,1,CP661 ,0,simple,,,,,,,
admin,base,Tyre,simple,36,NEX-10194,0,NFERA-AU5,,,,,,No layout updates,Product Info Column,,,,Korea,Use config,,,235,35,19,91W,,,,Black Wall,,2017,B,C,65,235/35,280,,0,,Enabled,No,"Catalog, Search",Taxable Goods,Yes,No,No,Nexen,Nexen,,,,,,,,,100,0,1,0,0,1,1,1,0,1,1,,,1,0,1,0,1,0,1,0,0,0,1,NFERA-AU5,0,simple,,,,,,,
admin,base,Tyre,simple,36,NEX-10195,0,NFERA SU1,,,,,,No layout updates,Product Info Column,,,,Korea,Use config,,,235,40,17,,,,,Black Wall,,2017,B,C,65,235/40,165,,0,,Enabled,No,"Catalog, Search",Taxable Goods,Yes,No,No,Nexen,Nexen,,,,,,,,,100,0,1,0,0,1,1,1,0,1,1,,,1,0,1,0,1,0,1,0,0,0,1,NFERA SU1,0,simple,,,,,,,
admin,base,Tyre,simple,36,NEX-10196,0,CP672,,,,,,No layout updates,Product Info Column,,,,Korea,Use config,,,235,40,18,97W,,,,Black Wall,,2017,B,C,65,235/40,220,,0,,Enabled,No,"Catalog, Search",Taxable Goods,Yes,No,No,Nexen,Nexen,,,,,,,,,100,0,1,0,0,1,1,1,0,1,1,,,1,0,1,0,1,0,1,0,0,0,1,CP672,0,simple,,,,,,,
admin,base,Tyre,simple,36,NEX-10197,0,NFERA-AU5,,,,,,No layout updates,Product Info Column,,,,Korea,Use config,,,235,40,18,95W,,,,Black Wall,,2017,B,C,65,235/40,280,,0,,Enabled,No,"Catalog, Search",Taxable Goods,Yes,No,No,Nexen,Nexen,,,,,,,,,100,0,1,0,0,1,1,1,0,1,1,,,1,0,1,0,1,0,1,0,0,0,1,NFERA-AU5,0,simple,,,,,,,
admin,base,Tyre,simple,36,NEX-10198,0,NFERA-AU5,,,,,,No layout updates,Product Info Column,,,,Korea,Use config,,,235,40,18,95W,,,,Black Wall,,2017,B,C,65,235/40,280,,0,,Enabled,No,"Catalog, Search",Taxable Goods,Yes,No,No,Nexen,Nexen,,,,,,,,,100,0,1,0,0,1,1,1,0,1,1,,,1,0,1,0,1,0,1,0,0,0,1,NFERA-AU5,0,simple,,,,,,,
admin,base,Tyre,simple,36,NEX-10200,0,NFERA SU1,,,,,,No layout updates,Product Info Column,,,,Korea,Use config,,,235,40,19,96Y,,,,Black Wall,,2017,B,C,65,235/40,350,,0,,Enabled,No,"Catalog, Search",Taxable Goods,Yes,No,No,Nexen,Nexen,,,,,,,,,100,0,1,0,0,1,1,1,0,1,1,,,1,0,1,0,1,0,1,0,0,0,1,NFERA SU1,0,simple,,,,,,,
admin,base,Tyre,simple,36,NEX-10201,0,CP672,,,,,,No layout updates,Product Info Column,,,,Korea,Use config,,,235,45,17,94H,,,,Black Wall,,2017,B,C,65,235/45,275,,0,,Enabled,No,"Catalog, Search",Taxable Goods,Yes,No,No,Nexen,Nexen,,,,,,,,,100,0,1,0,0,1,1,1,0,1,1,,,1,0,1,0,1,0,1,0,0,0,1,CP672,0,simple,,,,,,,
admin,base,Tyre,simple,36,NEX-10202,0,CP672,,,,,,No layout updates,Product Info Column,,,,Korea,Use config,,,235,45,17,94H,,,,Black Wall,,2017,B,C,65,235/45,285,,0,,Enabled,No,"Catalog, Search",Taxable Goods,Yes,No,No,Nexen,Nexen,,,,,,,,,100,0,1,0,0,1,1,1,0,1,1,,,1,0,1,0,1,0,1,0,0,0,1,CP672,0,simple,,,,,,,
admin,base,Tyre,simple,36,NEX-10203,0,NFERA SU1 ,,,,,,No layout updates,Product Info Column,,,,Korea,Use config,,,235,45,18,94V,,,,Black Wall,,2017,B,C,65,235/45,295,,0,,Enabled,No,"Catalog, Search",Taxable Goods,Yes,No,No,Nexen,Nexen,,,,,,,,,100,0,1,0,0,1,1,1,0,1,1,,,1,0,1,0,1,0,1,0,0,0,1,NFERA SU1 ,0,simple,,,,,,,
admin,base,Tyre,simple,36,NEX-10204,0,CP672,,,,,,No layout updates,Product Info Column,,,,Korea,Use config,,,235,50,18,97V,,,,Black Wall,,2017,B,C,65,235/50,325,,0,,Enabled,No,"Catalog, Search",Taxable Goods,Yes,No,No,Nexen,Nexen,,,,,,,,,100,0,1,0,0,1,1,1,0,1,1,,,1,0,1,0,1,0,1,0,0,0,1,CP672,0,simple,,,,,,,
admin,base,Tyre,simple,36,NEX-10205,0,NFERA-RU1,,,,,,No layout updates,Product Info Column,,,,Korea,Use config,,,235,50,19,99V,,,,Black Wall,,2017,B,C,65,235/50,365,,0,,Enabled,No,"Catalog, Search",Taxable Goods,Yes,No,No,Nexen,Nexen,,,,,,,,,100,0,1,0,0,1,1,1,0,1,1,,,1,0,1,0,1,0,1,0,0,0,1,NFERA-RU1,0,simple,,,,,,,
admin,base,Tyre,simple,36,NEX-10206,0,NFERA SU1 -,,,,,,No layout updates,Product Info Column,,,,Korea,Use config,,,235,55,17,103W,,,,Black Wall,,2017,B,C,65,235/55,305,,0,,Enabled,No,"Catalog, Search",Taxable Goods,Yes,No,No,Nexen,Nexen,,,,,,,,,100,0,1,0,0,1,1,1,0,1,1,,,1,0,1,0,1,0,1,0,0,0,1,NFERA SU1 -,0,simple,,,,,,,
admin,base,Tyre,simple,36,NEX-10207,0,CP672,,,,,,No layout updates,Product Info Column,,,,Korea,Use config,,,235,55,17,99H,,,,Black Wall,,2017,B,C,65,235/55,300,,0,,Enabled,No,"Catalog, Search",Taxable Goods,Yes,No,No,Nexen,Nexen,,,,,,,,,100,0,1,0,0,1,1,1,0,1,1,,,1,0,1,0,1,0,1,0,0,0,1,CP672,0,simple,,,,,,,
admin,base,Tyre,simple,36,NEX-10208,0,NFERA SU1,,,,,,No layout updates,Product Info Column,,,,Korea,Use config,,,235,55,18,104W,,,,Black Wall,,2017,B,C,65,235/55,325,,0,,Enabled,No,"Catalog, Search",Taxable Goods,Yes,No,No,Nexen,Nexen,,,,,,,,,100,0,1,0,0,1,1,1,0,1,1,,,1,0,1,0,1,0,1,0,0,0,1,NFERA SU1,0,simple,,,,,,,
admin,base,Tyre,simple,36,NEX-10209,0,NBLUE ECO,,,,,,No layout updates,Product Info Column,,,,Korea,Use config,,,235,55,18,99V,,,,Black Wall,,2017,B,C,65,235/55,320,,0,,Enabled,No,"Catalog, Search",Taxable Goods,Yes,No,No,Nexen,Nexen,,,,,,,,,100,0,1,0,0,1,1,1,0,1,1,,,1,0,1,0,1,0,1,0,0,0,1,NBLUE ECO,0,simple,,,,,,,
admin,base,Tyre,simple,36,NEX-10210,0,NFERA SU1 -,,,,,,No layout updates,Product Info Column,,,,Korea,Use config,,,235,55,19,105W,,,,Black Wall,,2017,B,C,65,235/55,350,,0,,Enabled,No,"Catalog, Search",Taxable Goods,Yes,No,No,Nexen,Nexen,,,,,,,,,100,0,1,0,0,1,1,1,0,1,1,,,1,0,1,0,1,0,1,0,0,0,1,NFERA SU1 -,0,simple,,,,,,,
admin,base,Tyre,simple,36,NEX-10211,0,CP672,,,,,,No layout updates,Product Info Column,,,,Korea,Use config,,,235,60,16,100H,,,,Black Wall,,2017,B,C,65,235/60,280,,0,,Enabled,No,"Catalog, Search",Taxable Goods,Yes,No,No,Nexen,Nexen,,,,,,,,,100,0,1,0,0,1,1,1,0,1,1,,,1,0,1,0,1,0,1,0,0,0,1,CP672,0,simple,,,,,,,
admin,base,Tyre,simple,36,NEX-10212,0,NBLUE ECO -,,,,,,No layout updates,Product Info Column,,,,Korea,Use config,,,235,60,17,100H,,,,Black Wall,,2017,B,C,65,235/60,290,,0,,Enabled,No,"Catalog, Search",Taxable Goods,Yes,No,No,Nexen,Nexen,,,,,,,,,100,0,1,0,0,1,1,1,0,1,1,,,1,0,1,0,1,0,1,0,0,0,1,NBLUE ECO -,0,simple,,,,,,,
admin,base,Tyre,simple,36,NEX-10213,0,RO-581,,,,,,No layout updates,Product Info Column,,,,Korea,Use config,,,235,60,18,103H,,,,Black Wall,,2017,B,C,65,235/60,335,,0,,Enabled,No,"Catalog, Search",Taxable Goods,Yes,No,No,Nexen,Nexen,,,,,,,,,100,0,1,0,0,1,1,1,0,1,1,,,1,0,1,0,1,0,1,0,0,0,1,RO-581,0,simple,,,,,,,
admin,base,Tyre,simple,36,NEX-10214,0,NFERA-RU1 -,,,,,,No layout updates,Product Info Column,,,,Korea,Use config,,,235,60,18,103W,,,,Black Wall,,2017,B,C,65,235/60,335,,0,,Enabled,No,"Catalog, Search",Taxable Goods,Yes,No,No,Nexen,Nexen,,,,,,,,,100,0,1,0,0,1,1,1,0,1,1,,,1,0,1,0,1,0,1,0,0,0,1,NFERA-RU1 -,0,simple,,,,,,,
admin,base,Tyre,simple,36,NEX-10215,0,NFERA-RU5 -,,,,,,No layout updates,Product Info Column,,,,Korea,Use config,,,235,60,18,107V,,,,Black Wall,,2017,B,C,65,235/60,330,,0,,Enabled,No,"Catalog, Search",Taxable Goods,Yes,No,No,Nexen,Nexen,,,,,,,,,100,0,1,0,0,1,1,1,0,1,1,,,1,0,1,0,1,0,1,0,0,0,1,NFERA-RU5 -,0,simple,,,,,,,
admin,base,Tyre,simple,36,NEX-10216,0,N8000,,,,,,No layout updates,Product Info Column,,,,Korea,Use config,,,235,65,17,104H,,,,Black Wall,,2017,B,C,65,235/65,265,,0,,Enabled,No,"Catalog, Search",Taxable Goods,Yes,No,No,Nexen,Nexen,,,,,,,,,100,0,1,0,0,1,1,1,0,1,1,,,1,0,1,0,1,0,1,0,0,0,1,N8000,0,simple,,,,,,,
admin,base,Tyre,simple,36,NEX-10217,0,ROHTX RH5,,,,,,No layout updates,Product Info Column,,,,Korea,Use config,,,235,65,18,110H,,,,Black Wall,,2017,B,C,65,235/65,345,,0,,Enabled,No,"Catalog, Search",Taxable Goods,Yes,No,No,Nexen,Nexen,,,,,,,,,100,0,1,0,0,1,1,1,0,1,1,,,1,0,1,0,1,0,1,0,0,0,1,ROHTX RH5,0,simple,,,,,,,
admin,base,Tyre,simple,36,NEX-10218,0,ROHTX RH5 -,,,,,,No layout updates,Product Info Column,,,,Korea,Use config,,,235,70,16,106T,,,,Black Wall,,2017,B,C,65,235/70,330,,0,,Enabled,No,"Catalog, Search",Taxable Goods,Yes,No,No,Nexen,Nexen,,,,,,,,,100,0,1,0,0,1,1,1,0,1,1,,,1,0,1,0,1,0,1,0,0,0,1,ROHTX RH5 -,0,simple,,,,,,,
admin,base,Tyre,simple,36,NEX-10219,0,R0-541,,,,,,No layout updates,Product Info Column,,,,Korea,Use config,,,235,75,16,108H,,,,Black Wall,,2017,B,C,65,235/75,375,,0,,Enabled,No,"Catalog, Search",Taxable Goods,Yes,No,No,Nexen,Nexen,,,,,,,,,100,0,1,0,0,1,1,1,0,1,1,,,1,0,1,0,1,0,1,0,0,0,1,R0-541,0,simple,,,,,,,
admin,base,Tyre,simple,36,NEX-10220,0,NFERA-AU5,,,,,,No layout updates,Product Info Column,,,,Korea,Use config,,,245,35,19,93W,,,,Black Wall,,2017,B,C,65,245/35,330,,0,,Enabled,No,"Catalog, Search",Taxable Goods,Yes,No,No,Nexen,Nexen,,,,,,,,,100,0,1,0,0,1,1,1,0,1,1,,,1,0,1,0,1,0,1,0,0,0,1,NFERA-AU5,0,simple,,,,,,,
admin,base,Tyre,simple,36,NEX-10221,0,NFERA-RU1,,,,,,No layout updates,Product Info Column,,,,Korea,Use config,,,245,35,19,93Y,,,,Black Wall,,2017,B,C,65,245/35,300,,0,,Enabled,No,"Catalog, Search",Taxable Goods,Yes,No,No,Nexen,Nexen,,,,,,,,,100,0,1,0,0,1,1,1,0,1,1,,,1,0,1,0,1,0,1,0,0,0,1,NFERA-RU1,0,simple,,,,,,,
admin,base,Tyre,simple,36,NEX-10222,0,NFERA-AU5,,,,,,No layout updates,Product Info Column,,,,Korea,Use config,,,245,35,20,95W,,,,Black Wall,,2017,B,C,65,245/35,345,,0,,Enabled,No,"Catalog, Search",Taxable Goods,Yes,No,No,Nexen,Nexen,,,,,,,,,100,0,1,0,0,1,1,1,0,1,1,,,1,0,1,0,1,0,1,0,0,0,1,NFERA-AU5,0,simple,,,,,,,
admin,base,Tyre,simple,36,NEX-10223,0,NFERA-AU5,,,,,,No layout updates,Product Info Column,,,,Korea,Use config,,,245,40,18,97W,,,,Black Wall,,2017,B,C,65,245/40,275,,0,,Enabled,No,"Catalog, Search",Taxable Goods,Yes,No,No,Nexen,Nexen,,,,,,,,,100,0,1,0,0,1,1,1,0,1,1,,,1,0,1,0,1,0,1,0,0,0,1,NFERA-AU5,0,simple,,,,,,,
admin,base,Tyre,simple,36,NEX-10224,0,NFERA SUI,,,,,,No layout updates,Product Info Column,,,,Korea,Use config,,,245,40,19,98Y,,,,Black Wall,,2017,B,C,65,245/40,320,,0,,Enabled,No,"Catalog, Search",Taxable Goods,Yes,No,No,Nexen,Nexen,,,,,,,,,100,0,1,0,0,1,1,1,0,1,1,,,1,0,1,0,1,0,1,0,0,0,1,NFERA SUI,0,simple,,,,,,,
admin,base,Tyre,simple,36,NEX-10225,0,NFERA  AU5 -,,,,,,No layout updates,Product Info Column,,,,Korea,Use config,,,245,40,20,99W,,,,Black Wall,,2017,B,C,65,245/40,330,,0,,Enabled,No,"Catalog, Search",Taxable Goods,Yes,No,No,Nexen,Nexen,,,,,,,,,100,0,1,0,0,1,1,1,0,1,1,,,1,0,1,0,1,0,1,0,0,0,1,NFERA  AU5 -,0,simple,,,,,,,
admin,base,Tyre,simple,36,NEX-10226,0,NFERA SUl,,,,,,No layout updates,Product Info Column,,,,Korea,Use config,,,245,45,17,99Y,,,,Black Wall,,2017,B,C,65,245/45,285,,0,,Enabled,No,"Catalog, Search",Taxable Goods,Yes,No,No,Nexen,Nexen,,,,,,,,,100,0,1,0,0,1,1,1,0,1,1,,,1,0,1,0,1,0,1,0,0,0,1,NFERA SUl,0,simple,,,,,,,
admin,base,Tyre,simple,36,NEX-10227,0,NFERA SU1,,,,,,No layout updates,Product Info Column,,,,Korea,Use config,,,245,45,19,102Y,,,,Black Wall,,2017,B,C,65,245/45,375,,0,,Enabled,No,"Catalog, Search",Taxable Goods,Yes,No,No,Nexen,Nexen,,,,,,,,,100,0,1,0,0,1,1,1,0,1,1,,,1,0,1,0,1,0,1,0,0,0,1,NFERA SU1,0,simple,,,,,,,
