store,websites,attribute_set,type,category_ids,has_options,meta_title,meta_description,url_key,url_path,custom_design,page_layout,options_container,image_label,small_image_label,thumbnail_label,msrp_enabled,msrp_display_actual_price_type,gift_message_available,car_make,car_model,car_year,utqg,weight,msrp,status,is_recurring,visibility,tax_class_id,passenger,tyres4_4,vantyres,meta_keyword,custom_layout_update,special_from_date,special_to_date,news_from_date,news_to_date,custom_design_from,custom_design_to,qty,min_qty,use_config_min_qty,is_qty_decimal,backorders,use_config_backorders,min_sale_qty,use_config_min_sale_qty,max_sale_qty,use_config_max_sale_qty,is_in_stock,low_stock_date,notify_stock_qty,use_config_notify_stock_qty,manage_stock,use_config_manage_stock,stock_status_changed_auto,use_config_qty_increments,qty_increments,use_config_enable_qty_inc,enable_qty_increments,is_decimal_divided,stock_status_changed_automatically,use_config_enable_qty_increments,store_id,product_type_id,product_status_changed,product_changed_websites,website,_media_image,_media_lable,_media_position,_media_is_disabled,sku,name,product_name,country_of_manufacture,width,ratio,diameter,serv_desc,sidewall_style,production_year,fuel,weather,sound,size,price,special_price,description,short_description
admin,base,Tyre,simple,24,0,,,,,,No layout updates,Product Info Column,,,,Use config,,,,,,,0,,Enabled,No,"Catalog, Search",Taxable Goods,Yes,No,No,,,,,,,,,100,0,1,0,0,1,1,1,0,1,1,,,1,0,1,0,1,0,1,0,0,0,1,0,simple,,,,,,,,BS300070,,,,255,35,18,94Y,Black Wall,2017,B,C,65,255/35,760,,Bridgestone,Bridgestone
admin,base,Tyre,simple,24,0,,,,,,No layout updates,Product Info Column,,,,Use config,,,,,,,0,,Enabled,No,"Catalog, Search",Taxable Goods,Yes,No,No,,,,,,,,,100,0,1,0,0,1,1,1,0,1,1,,,1,0,1,0,1,0,1,0,0,0,1,0,simple,,,,,,,,BS300071,,,,255,35,19,96Y,Black Wall,2017,B,C,65,255/35,785,,Bridgestone,Bridgestone
admin,base,Tyre,simple,24,0,,,,,,No layout updates,Product Info Column,,,,Use config,,,,,,,0,,Enabled,No,"Catalog, Search",Taxable Goods,Yes,No,No,,,,,,,,,100,0,1,0,0,1,1,1,0,1,1,,,1,0,1,0,1,0,1,0,0,0,1,0,simple,,,,,,,,BS300072,,,,255,35,19,96Y,Black Wall,2017,B,C,65,255/35,610,,Bridgestone,Bridgestone
admin,base,Tyre,simple,24,0,,,,,,No layout updates,Product Info Column,,,,Use config,,,,,,,0,,Enabled,No,"Catalog, Search",Taxable Goods,Yes,No,No,,,,,,,,,100,0,1,0,0,1,1,1,0,1,1,,,1,0,1,0,1,0,1,0,0,0,1,0,simple,,,,,,,,BS300073,,,,255,35,20,97Y,Black Wall,2017,B,C,65,255/35,925,,Bridgestone,Bridgestone
admin,base,Tyre,simple,24,0,,,,,,No layout updates,Product Info Column,,,,Use config,,,,,,,0,,Enabled,No,"Catalog, Search",Taxable Goods,Yes,No,No,,,,,,,,,100,0,1,0,0,1,1,1,0,1,1,,,1,0,1,0,1,0,1,0,0,0,1,0,simple,,,,,,,,BS300074,,,,255,35,20,97Y,Black Wall,2017,B,C,65,255/35,680,,Bridgestone,Bridgestone
admin,base,Tyre,simple,24,0,,,,,,No layout updates,Product Info Column,,,,Use config,,,,,,,0,,Enabled,No,"Catalog, Search",Taxable Goods,Yes,No,No,,,,,,,,,100,0,1,0,0,1,1,1,0,1,1,,,1,0,1,0,1,0,1,0,0,0,1,0,simple,,,,,,,,BS300075,,,,265,45,21,104V,Black Wall,2017,B,C,65,265/45,900,,Bridgestone,Bridgestone
admin,base,Tyre,simple,24,0,,,,,,No layout updates,Product Info Column,,,,Use config,,,,,,,0,,Enabled,No,"Catalog, Search",Taxable Goods,Yes,No,No,,,,,,,,,100,0,1,0,0,1,1,1,0,1,1,,,1,0,1,0,1,0,1,0,0,0,1,0,simple,,,,,,,,BS300076,,,,265,50,20,,Black Wall,2017,B,C,65,265/50,835,,Bridgestone,Bridgestone
admin,base,Tyre,simple,24,0,,,,,,No layout updates,Product Info Column,,,,Use config,,,,,,,0,,Enabled,No,"Catalog, Search",Taxable Goods,Yes,No,No,,,,,,,,,100,0,1,0,0,1,1,1,0,1,1,,,1,0,1,0,1,0,1,0,0,0,1,0,simple,,,,,,,,BS300077,,,,265,65,17,112H,Black Wall,2017,B,C,65,265/65,550,,Bridgestone,Bridgestone
admin,base,Tyre,simple,24,0,,,,,,No layout updates,Product Info Column,,,,Use config,,,,,,,0,,Enabled,No,"Catalog, Search",Taxable Goods,Yes,No,No,,,,,,,,,100,0,1,0,0,1,1,1,0,1,1,,,1,0,1,0,1,0,1,0,0,0,1,0,simple,,,,,,,,BS300078,,,,275,30,20,97Y,Black Wall,2017,B,C,65,275/30,1310,,Bridgestone,Bridgestone
admin,base,Tyre,simple,24,0,,,,,,No layout updates,Product Info Column,,,,Use config,,,,,,,0,,Enabled,No,"Catalog, Search",Taxable Goods,Yes,No,No,,,,,,,,,100,0,1,0,0,1,1,1,0,1,1,,,1,0,1,0,1,0,1,0,0,0,1,0,simple,,,,,,,,BS300079,,,,275,40,19,101Y,Black Wall,2017,B,C,65,275/40,1265,,Bridgestone,Bridgestone
admin,base,Tyre,simple,24,0,,,,,,No layout updates,Product Info Column,,,,Use config,,,,,,,0,,Enabled,No,"Catalog, Search",Taxable Goods,Yes,No,No,,,,,,,,,100,0,1,0,0,1,1,1,0,1,1,,,1,0,1,0,1,0,1,0,0,0,1,0,simple,,,,,,,,BS300080,,,,275,40,20,106W,Black Wall,2017,B,C,65,275/40,995,,Bridgestone,Bridgestone
admin,base,Tyre,simple,24,0,,,,,,No layout updates,Product Info Column,,,,Use config,,,,,,,0,,Enabled,No,"Catalog, Search",Taxable Goods,Yes,No,No,,,,,,,,,100,0,1,0,0,1,1,1,0,1,1,,,1,0,1,0,1,0,1,0,0,0,1,0,simple,,,,,,,,BS300081,,,,275,45,20,110Y,Black Wall,2017,B,C,65,275/45,995,,Bridgestone,Bridgestone
admin,base,Tyre,simple,24,0,,,,,,No layout updates,Product Info Column,,,,Use config,,,,,,,0,,Enabled,No,"Catalog, Search",Taxable Goods,Yes,No,No,,,,,,,,,100,0,1,0,0,1,1,1,0,1,1,,,1,0,1,0,1,0,1,0,0,0,1,0,simple,,,,,,,,BS300082,,,,285,35,20,100Y,Black Wall,2017,B,C,65,285/35,1680,,Bridgestone,Bridgestone
admin,base,Tyre,simple,24,0,,,,,,No layout updates,Product Info Column,,,,Use config,,,,,,,0,,Enabled,No,"Catalog, Search",Taxable Goods,Yes,No,No,,,,,,,,,100,0,1,0,0,1,1,1,0,1,1,,,1,0,1,0,1,0,1,0,0,0,1,0,simple,,,,,,,,BS300084,,,,315,35,20,110Y,Black Wall,2017,B,C,65,315/35,1235,,Bridgestone,Bridgestone
admin,base,Tyre,simple,24,0,,,,,,No layout updates,Product Info Column,,,,Use config,,,,,,,0,,Enabled,No,"Catalog, Search",Taxable Goods,Yes,No,No,,,,,,,,,100,0,1,0,0,1,1,1,0,1,1,,,1,0,1,0,1,0,1,0,0,0,1,0,simple,,,,,,,,BS300085,,,,285,50,20,112V,Black Wall,2017,B,C,65,285/50,690,,Bridgestone,Bridgestone
