sku,image,small_image,thumbnail
MIC3060,/mic/28550r20-michelin-latitude-tour-hp-112v_large.jpg,/mic/28550r20-michelin-latitude-tour-hp-112v_large.jpg,/mic/28550r20-michelin-latitude-tour-hp-112v_large.jpg
MIC3061,/mic/27570r16-michelin-primacy-suv-114h_grande.jpg,/mic/27570r16-michelin-primacy-suv-114h_grande.jpg,/mic/27570r16-michelin-primacy-suv-114h_grande.jpg
MIC3062,/mic/28550r20-michelin-latitude-tour-hp-112v_large.jpg,/mic/28550r20-michelin-latitude-tour-hp-112v_large.jpg,/mic/28550r20-michelin-latitude-tour-hp-112v_large.jpg
MIC3063,/mic/28550r20-michelin-latitude-tour-hp-112v_large.jpg,/mic/28550r20-michelin-latitude-tour-hp-112v_large.jpg,/mic/28550r20-michelin-latitude-tour-hp-112v_large.jpg
MIC3064,/mic/28550r20-michelin-latitude-tour-hp-112v_large.jpg,/mic/28550r20-michelin-latitude-tour-hp-112v_large.jpg,/mic/28550r20-michelin-latitude-tour-hp-112v_large.jpg
MIC3065,/mic/michelin-latitudetour-hp-png-f-f-l800-sk4.png,/mic/michelin-latitudetour-hp-png-f-f-l800-sk4.png,/mic/michelin-latitudetour-hp-png-f-f-l800-sk4.png
MIC3066,/mic/29530r18-michelin-pilot-sport-2-98y_large.jpg,/mic/29530r18-michelin-pilot-sport-2-98y_large.jpg,/mic/29530r18-michelin-pilot-sport-2-98y_large.jpg
MIC3067,/mic/pilotsportps2.png,/mic/pilotsportps2.png,/mic/pilotsportps2.png
MIC3068,/mic/103286-michelin-pilot-super-sport-mo.jpg,/mic/103286-michelin-pilot-super-sport-mo.jpg,/mic/103286-michelin-pilot-super-sport-mo.jpg
MIC3069,/mic/29535r20-michelin-pilot-super-sport-105y_large.jpg,/mic/29535r20-michelin-pilot-super-sport-105y_large.jpg,/mic/29535r20-michelin-pilot-super-sport-105y_large.jpg
MIC3070,/mic/0030511_michelin-latitude-sport-3-car-summer-tyre-29535r21-103y-porsche-n0-a-wet-grip-4x4-suv.jpeg,/mic/0030511_michelin-latitude-sport-3-car-summer-tyre-29535r21-103y-porsche-n0-a-wet-grip-4x4-suv.jpeg,/mic/0030511_michelin-latitude-sport-3-car-summer-tyre-29535r21-103y-porsche-n0-a-wet-grip-4x4-suv.jpeg
MIC3071,/mic/520x540_desktop_latitude_sport_3.png,/mic/520x540_desktop_latitude_sport_3.png,/mic/520x540_desktop_latitude_sport_3.png
MIC3072,/mic/latitude_sport_3.jpg,/mic/latitude_sport_3.jpg,/mic/latitude_sport_3.jpg
MIC3073,,,
MIC3074,/mic/61xMiK4xjSL._SY450_.jpg,/mic/61xMiK4xjSL._SY450_.jpg,/mic/61xMiK4xjSL._SY450_.jpg
MIC3075,/mic/20671-9406343-large.jpg,/mic/20671-9406343-large.jpg,/mic/20671-9406343-large.jpg
MIC3076,/mic/s-l225.jpg,/mic/s-l225.jpg,/mic/s-l225.jpg
MIC3077,/mic/7845-michelin-pilot-super-sport.jpg,/mic/7845-michelin-pilot-super-sport.jpg,/mic/7845-michelin-pilot-super-sport.jpg
MIC3078,/mic/0005458_michelin-latitude-diamaris_320.jpeg,/mic/0005458_michelin-latitude-diamaris_320.jpeg,/mic/0005458_michelin-latitude-diamaris_320.jpeg
MIC3079,/mic/mi-latidiamao.jpg,/mic/mi-latidiamao.jpg,/mic/mi-latidiamao.jpg
MIC3080,/mic/Pilot-Sport-Cup-2.png,/mic/Pilot-Sport-Cup-2.png,/mic/Pilot-Sport-Cup-2.png
MIC3081,/mic/michelin_pilotsupersport14601270185707c52aa76d5.jpg,/mic/michelin_pilotsupersport14601270185707c52aa76d5.jpg,/mic/michelin_pilotsupersport14601270185707c52aa76d5.jpg
