sku,short_description
GY-225/55R1797Y-EX,Goodyear
GY-225/55R1897H,Goodyear
GY-235/40R1895Y,Goodyear
GY-235/55R1899V,Goodyear
GY-235/55R17105V-EFFGRIP,Goodyear
GY-235/60R18103V,Goodyear
GY-235/60R18107W,Goodyear
GY-245/40R1998Y-F1A2XL,Goodyear
GY-245/40R2099Y-MOXL-ZNQ,Goodyear
GY-245/45R1795W-EAGSP,Goodyear
GY-245/45R1998Y,Goodyear
GY-245/45R2099Y-RS-A2,Goodyear
GY-245/50R20102V,Goodyear
GY-245/60R18105H,Goodyear
GY-245/65R17107H,Goodyear
GY-245/75R17110T,Goodyear
GY-255/45R19100V,Goodyear
GY-255/55R18109Y,Goodyear
GY-255/55R20110W-ZNQ,Goodyear
GY-255/60R17106V,Goodyear
GY-255/60R18112V,Goodyear
GY-255/60R19108H,Goodyear
GY-265/50R20106V,Goodyear
GY-265/60R18110H,Goodyear
GY-265/65R17112H-SUV,Goodyear
