store,websites,attribute_set,type,category_ids,sku,has_options,name,meta_title,meta_description,url_key,url_path,custom_design,page_layout,options_container,image_label,small_image_label,thumbnail_label,country_of_manufacture,msrp_enabled,msrp_display_actual_price_type,gift_message_available,width,ratio,diameter,serv_desc,car_make,car_model,car_year,sidewall_style,utqg,production_year,fuel,weather,sound,size,price,special_price,weight,msrp,status,is_recurring,visibility,tax_class_id,passenger,tyres4_4,vantyres,description,short_description,meta_keyword,custom_layout_update,special_from_date,special_to_date,news_from_date,news_to_date,custom_design_from,custom_design_to,qty,min_qty,use_config_min_qty,is_qty_decimal,backorders,use_config_backorders,min_sale_qty,use_config_min_sale_qty,max_sale_qty,use_config_max_sale_qty,is_in_stock,low_stock_date,notify_stock_qty,use_config_notify_stock_qty,manage_stock,use_config_manage_stock,stock_status_changed_auto,use_config_qty_increments,qty_increments,use_config_enable_qty_inc,enable_qty_increments,is_decimal_divided,stock_status_changed_automatically,use_config_enable_qty_increments,product_name,store_id,product_type_id,product_status_changed,product_changed_websites,website,_media_image,_media_lable,_media_position,_media_is_disabled
admin,base,Tyre,simple,25,CON400090,0,,,,,,,No layout updates,Product Info Column,,,,,Use config,,,265,35,19,98Y,,,,Black Wall,,2017,B,C,65,245/40,1113,"1,060.00",0,,Enabled,No,"Catalog, Search",Taxable Goods,Yes,No,No,Continental,Continental,,,,,,,,,100,0,1,0,0,1,1,1,0,1,1,,,1,0,1,0,1,0,1,0,0,0,1,,0,simple,,,,,,,
admin,base,Tyre,simple,25,CON400091,0,,,,,,,No layout updates,Product Info Column,,,,,Use config,,,265,35,21,101Y,,,,Black Wall,,2017,B,C,65,245/40,1155,"1,100.00",0,,Enabled,No,"Catalog, Search",Taxable Goods,Yes,No,No,Continental,Continental,,,,,,,,,100,0,1,0,0,1,1,1,0,1,1,,,1,0,1,0,1,0,1,0,0,0,1,,0,simple,,,,,,,
admin,base,Tyre,simple,25,CON400092,0,,,,,,,No layout updates,Product Info Column,,,,,Use config,,,265,40,21,101Y,,,,Black Wall,,2017,B,C,65,285/30,1008,960,0,,Enabled,No,"Catalog, Search",Taxable Goods,Yes,No,No,Continental,Continental,,,,,,,,,100,0,1,0,0,1,1,1,0,1,1,,,1,0,1,0,1,0,1,0,0,0,1,,0,simple,,,,,,,
admin,base,Tyre,simple,25,CON400093,0,,,,,,,No layout updates,Product Info Column,,,,,Use config,,,265,40,21,105Y,,,,Black Wall,,2017,B,C,65,245/45,1018.5,970,0,,Enabled,No,"Catalog, Search",Taxable Goods,Yes,No,No,Continental,Continental,,,,,,,,,100,0,1,0,0,1,1,1,0,1,1,,,1,0,1,0,1,0,1,0,0,0,1,,0,simple,,,,,,,
admin,base,Tyre,simple,25,CON400094,0,,,,,,,No layout updates,Product Info Column,,,,,Use config,,,265,40,21,105Y,,,,Black Wall,,2017,B,C,65,275/35,1039.5,990,0,,Enabled,No,"Catalog, Search",Taxable Goods,Yes,No,No,Continental,Continental,,,,,,,,,100,0,1,0,0,1,1,1,0,1,1,,,1,0,1,0,1,0,1,0,0,0,1,,0,simple,,,,,,,
admin,base,Tyre,simple,25,CON400095,0,,,,,,,No layout updates,Product Info Column,,,,,Use config,,,265,45,20,104Y,,,,Black Wall,,2017,B,C,65,265/45,1029,980,0,,Enabled,No,"Catalog, Search",Taxable Goods,Yes,No,No,Continental,Continental,,,,,,,,,100,0,1,0,0,1,1,1,0,1,1,,,1,0,1,0,1,0,1,0,0,0,1,,0,simple,,,,,,,
admin,base,Tyre,simple,25,CON400096,0,,,,,,,No layout updates,Product Info Column,,,,,Use config,,,265,45,20,108Y,,,,Black Wall,,2017,B,C,65,285/35,1029,980,0,,Enabled,No,"Catalog, Search",Taxable Goods,Yes,No,No,Continental,Continental,,,,,,,,,100,0,1,0,0,1,1,1,0,1,1,,,1,0,1,0,1,0,1,0,0,0,1,,0,simple,,,,,,,
admin,base,Tyre,simple,25,CON400097,0,,,,,,,No layout updates,Product Info Column,,,,,Use config,,,265,50,19,110H,,,,Black Wall,,2017,B,C,65,255/35,777,740,0,,Enabled,No,"Catalog, Search",Taxable Goods,Yes,No,No,Continental,Continental,,,,,,,,,100,0,1,0,0,1,1,1,0,1,1,,,1,0,1,0,1,0,1,0,0,0,1,,0,simple,,,,,,,
admin,base,Tyre,simple,25,CON400098,0,,,,,,,No layout updates,Product Info Column,,,,,Use config,,,275,30,21,98Y,,,,Black Wall,,2016,B,C,65,245/30,1134,"1,080.00",0,,Enabled,No,"Catalog, Search",Taxable Goods,Yes,No,No,Continental,Continental,,,,,,,,,100,0,1,0,0,1,1,1,0,1,1,,,1,0,1,0,1,0,1,0,0,0,1,,0,simple,,,,,,,
admin,base,Tyre,simple,25,CON400099,0,,,,,,,No layout updates,Product Info Column,,,,,Use config,,,275,30,21,98Y,,,,Black Wall,,2017,B,C,65,255/30,1134,"1,080.00",0,,Enabled,No,"Catalog, Search",Taxable Goods,Yes,No,No,Continental,Continental,,,,,,,,,100,0,1,0,0,1,1,1,0,1,1,,,1,0,1,0,1,0,1,0,0,0,1,,0,simple,,,,,,,
admin,base,Tyre,simple,25,CON400100,0,,,,,,,No layout updates,Product Info Column,,,,,Use config,,,275,35,18,95Y,,,,Black Wall,,2016,B,C,65,225/40,719.25,685,0,,Enabled,No,"Catalog, Search",Taxable Goods,Yes,No,No,Continental,Continental,,,,,,,,,100,0,1,0,0,1,1,1,0,1,1,,,1,0,1,0,1,0,1,0,0,0,1,,0,simple,,,,,,,
admin,base,Tyre,simple,25,CON400101,0,,,,,,,No layout updates,Product Info Column,,,,,Use config,,,275,35,21,103Y,,,,Black Wall,,2017,B,C,65,255/30,1113,"1,060.00",0,,Enabled,No,"Catalog, Search",Taxable Goods,Yes,No,No,Continental,Continental,,,,,,,,,100,0,1,0,0,1,1,1,0,1,1,,,1,0,1,0,1,0,1,0,0,0,1,,0,simple,,,,,,,
admin,base,Tyre,simple,25,CON400102,0,,,,,,,No layout updates,Product Info Column,,,,,Use config,,,275,40,18,99Y,,,,Black Wall,,2017,B,C,65,245/40,1092,"1,040.00",0,,Enabled,No,"Catalog, Search",Taxable Goods,Yes,No,No,Continental,Continental,,,,,,,,,100,0,1,0,0,1,1,1,0,1,1,,,1,0,1,0,1,0,1,0,0,0,1,,0,simple,,,,,,,
admin,base,Tyre,simple,25,CON400103,0,,,,,,,No layout updates,Product Info Column,,,,,Use config,,,275,40,19,101W,,,,Black Wall,,2017,B,C,65,215/45,1071,"1,020.00",0,,Enabled,No,"Catalog, Search",Taxable Goods,Yes,No,No,Continental,Continental,,,,,,,,,100,0,1,0,0,1,1,1,0,1,1,,,1,0,1,0,1,0,1,0,0,0,1,,0,simple,,,,,,,
admin,base,Tyre,simple,25,CON400104,0,,,,,,,No layout updates,Product Info Column,,,,,Use config,,,275,40,19,101Y,,,,Black Wall,,2017,B,C,65,225/40,861,820,0,,Enabled,No,"Catalog, Search",Taxable Goods,Yes,No,No,Continental,Continental,,,,,,,,,100,0,1,0,0,1,1,1,0,1,1,,,1,0,1,0,1,0,1,0,0,0,1,,0,simple,,,,,,,
admin,base,Tyre,simple,25,CON400105,0,,,,,,,No layout updates,Product Info Column,,,,,Use config,,,275,40,20,106W,,,,Black Wall,,2016,B,C,65,245/45,714,680,0,,Enabled,No,"Catalog, Search",Taxable Goods,Yes,No,No,Continental,Continental,,,,,,,,,100,0,1,0,0,1,1,1,0,1,1,,,1,0,1,0,1,0,1,0,0,0,1,,0,simple,,,,,,,
admin,base,Tyre,simple,25,CON400106,0,,,,,,,No layout updates,Product Info Column,,,,,Use config,,,275,40,20,106W,,,,Black Wall,,2017,B,C,65,265/35,934.5,890,0,,Enabled,No,"Catalog, Search",Taxable Goods,Yes,No,No,Continental,Continental,,,,,,,,,100,0,1,0,0,1,1,1,0,1,1,,,1,0,1,0,1,0,1,0,0,0,1,,0,simple,,,,,,,
admin,base,Tyre,simple,25,CON400107,0,,,,,,,No layout updates,Product Info Column,,,,,Use config,,,275,40,20,106Y,,,,Black Wall,,2017,B,C,65,285/40,882,840,0,,Enabled,No,"Catalog, Search",Taxable Goods,Yes,No,No,Continental,Continental,,,,,,,,,100,0,1,0,0,1,1,1,0,1,1,,,1,0,1,0,1,0,1,0,0,0,1,,0,simple,,,,,,,
admin,base,Tyre,simple,25,CON400108,0,,,,,,,No layout updates,Product Info Column,,,,,Use config,,,275,40,22,108Y,,,,Black Wall,,2017,B,C,65,245/40,1071,"1,020.00",0,,Enabled,No,"Catalog, Search",Taxable Goods,Yes,No,No,Continental,Continental,,,,,,,,,100,0,1,0,0,1,1,1,0,1,1,,,1,0,1,0,1,0,1,0,0,0,1,,0,simple,,,,,,,
admin,base,Tyre,simple,25,CON400109,0,,,,,,,No layout updates,Product Info Column,,,,,Use config,,,275,45,18,103Y,,,,Black Wall,,2017,B,C,65,215/40,987,940,0,,Enabled,No,"Catalog, Search",Taxable Goods,Yes,No,No,Continental,Continental,,,,,,,,,100,0,1,0,0,1,1,1,0,1,1,,,1,0,1,0,1,0,1,0,0,0,1,,0,simple,,,,,,,
admin,base,Tyre,simple,25,CON400110,0,,,,,,,No layout updates,Product Info Column,,,,,Use config,,,275,45,20,110V,,,,Black Wall,,2016,B,C,65,255/45,824.25,785,0,,Enabled,No,"Catalog, Search",Taxable Goods,Yes,No,No,Continental,Continental,,,,,,,,,100,0,1,0,0,1,1,1,0,1,1,,,1,0,1,0,1,0,1,0,0,0,1,,0,simple,,,,,,,
admin,base,Tyre,simple,25,CON400111,0,,,,,,,No layout updates,Product Info Column,,,,,Use config,,,275,45,21,107Y,,,,Black Wall,,2017,B,C,65,315/40,1134,"1,080.00",0,,Enabled,No,"Catalog, Search",Taxable Goods,Yes,No,No,Continental,Continental,,,,,,,,,100,0,1,0,0,1,1,1,0,1,1,,,1,0,1,0,1,0,1,0,0,0,1,,0,simple,,,,,,,
admin,base,Tyre,simple,25,CON400112,0,,,,,,,No layout updates,Product Info Column,,,,,Use config,,,285,30,19,,,,,Black Wall,,2016,B,C,65,255/30,924,880,0,,Enabled,No,"Catalog, Search",Taxable Goods,Yes,No,No,Continental,Continental,,,,,,,,,100,0,1,0,0,1,1,1,0,1,1,,,1,0,1,0,1,0,1,0,0,0,1,,0,simple,,,,,,,
admin,base,Tyre,simple,25,CON400113,0,,,,,,,No layout updates,Product Info Column,,,,,Use config,,,285,30,19,98Y,,,,Black Wall,,2017,B,C,65,285/30,1144.5,"1,090.00",0,,Enabled,No,"Catalog, Search",Taxable Goods,Yes,No,No,Continental,Continental,,,,,,,,,100,0,1,0,0,1,1,1,0,1,1,,,1,0,1,0,1,0,1,0,0,0,1,,0,simple,,,,,,,
admin,base,Tyre,simple,25,CON400114,0,,,,,,,No layout updates,Product Info Column,,,,,Use config,,,285,30,19,98Y,,,,Black Wall,,2017,B,C,65,255/45,997.5,950,0,,Enabled,No,"Catalog, Search",Taxable Goods,Yes,No,No,Continental,Continental,,,,,,,,,100,0,1,0,0,1,1,1,0,1,1,,,1,0,1,0,1,0,1,0,0,0,1,,0,simple,,,,,,,
admin,base,Tyre,simple,25,CON400115,0,,,,,,,No layout updates,Product Info Column,,,,,Use config,,,285,30,21,100Y,,,,Black Wall,,2017,B,C,65,235/40,1260,"1,200.00",0,,Enabled,No,"Catalog, Search",Taxable Goods,Yes,No,No,Continental,Continental,,,,,,,,,100,0,1,0,0,1,1,1,0,1,1,,,1,0,1,0,1,0,1,0,0,0,1,,0,simple,,,,,,,
admin,base,Tyre,simple,25,CON400116,0,,,,,,,No layout updates,Product Info Column,,,,,Use config,,,285,35,20,104Y,,,,Black Wall,,2017,B,C,65,315/30,1134,"1,080.00",0,,Enabled,No,"Catalog, Search",Taxable Goods,Yes,No,No,Continental,Continental,,,,,,,,,100,0,1,0,0,1,1,1,0,1,1,,,1,0,1,0,1,0,1,0,0,0,1,,0,simple,,,,,,,
admin,base,Tyre,simple,25,CON400117,0,,,,,,,No layout updates,Product Info Column,,,,,Use config,,,285,35,21,105Y,,,,Black Wall,,2017,B,C,65,275/40,1443.75,"1,375.00",0,,Enabled,No,"Catalog, Search",Taxable Goods,Yes,No,No,Continental,Continental,,,,,,,,,100,0,1,0,0,1,1,1,0,1,1,,,1,0,1,0,1,0,1,0,0,0,1,,0,simple,,,,,,,
admin,base,Tyre,simple,25,CON400118,0,,,,,,,No layout updates,Product Info Column,,,,,Use config,,,285,40,22,106Y,,,,Black Wall,,2017,B,C,65,225/45,1344,"1,280.00",0,,Enabled,No,"Catalog, Search",Taxable Goods,Yes,No,No,Continental,Continental,,,,,,,,,100,0,1,0,0,1,1,1,0,1,1,,,1,0,1,0,1,0,1,0,0,0,1,,0,simple,,,,,,,
admin,base,Tyre,simple,25,CON400119,0,,,,,,,No layout updates,Product Info Column,,,,,Use config,,,285,40,22,110Y,,,,Black Wall,,2017,B,C,65,255/30,1312.5,"1,250.00",0,,Enabled,No,"Catalog, Search",Taxable Goods,Yes,No,No,Continental,Continental,,,,,,,,,100,0,1,0,0,1,1,1,0,1,1,,,1,0,1,0,1,0,1,0,0,0,1,,0,simple,,,,,,,
