store,websites,attribute_set,type,category_ids,sku,has_options,name,meta_title,meta_description,image,small_image,thumbnail,url_key,url_path,custom_design,page_layout,options_container,image_label,small_image_label,thumbnail_label,country_of_manufacture,msrp_enabled,msrp_display_actual_price_type,gift_message_available,width,ratio,size,diameter,car_make,car_model,car_year,sidewall_style,serv_desc,utqg,production_year,fuel,weather,sound,price,special_price,weight,msrp,status,is_recurring,visibility,tax_class_id,passenger,tyres4_4,vantyres,description,short_description,meta_keyword,custom_layout_update,special_from_date,special_to_date,news_from_date,news_to_date,custom_design_from,custom_design_to,qty,min_qty,use_config_min_qty,is_qty_decimal,backorders,use_config_backorders,min_sale_qty,use_config_min_sale_qty,max_sale_qty,use_config_max_sale_qty,is_in_stock,low_stock_date,notify_stock_qty,use_config_notify_stock_qty,manage_stock,use_config_manage_stock,stock_status_changed_auto,use_config_qty_increments,qty_increments,use_config_enable_qty_inc,enable_qty_increments,is_decimal_divided,stock_status_changed_automatically,use_config_enable_qty_increments,product_name,store_id,product_type_id,product_status_changed,product_changed_websites
admin,base,Tyre,simple,25,CON03548730000,0,CrossContact UHP MO,,,/continental_crosscontactuhp.jpg,/continental_crosscontactuhp.jpg,/continental_crosscontactuhp.jpg,,,,No layout updates,Product Info Column,,,,,Use config,Use config,No,265,40,265/40 R21,21,,,2017,Blackwall,105 Y ,Blackwall,2017,B,C,65,1581,1375.47,1,,Enabled,No,"Catalog, Search",Taxable Goods,Yes,No,No,This  tyre is short braking distances and very high cornering stability and safety reserves for outstanding handling and fun at the wheel Low rolling resistance and outstanding grip.,Continental,,,,,,,,,95,0,1,0,0,1,1,1,0,1,1,,,1,0,1,0,1,0,1,0,0,0,1,CrossContact UHP MO,0,simple,,
admin,base,Tyre,simple,25,CON03526230000-ZNQ,0,ContiSportContact 2 MO,,,/continental_sportcontact2.jpeg,/continental_sportcontact2.jpeg,/continental_sportcontact2.jpeg,,,,No layout updates,Product Info Column,,,,,Use config,Use config,No,265,45,265/45 R20,20,,,2017,Blackwall,104 Y ,Blackwall,2017,B,C,65,1408,1224.96,1,,Enabled,No,"Catalog, Search",Taxable Goods,Yes,No,No, This tyre is for reduced braking distance and it has excellent management  and for comfortable and quiet ride. This tyre has bionic compound and contour technologies to enhance traction and handling.,Continental,,,,,,,,,95,0,1,0,0,1,1,1,0,1,1,,,1,0,1,0,1,0,1,0,0,0,1,ContiSportContact 2 MO,0,simple,,
admin,base,Tyre,simple,25,CON03560980000,0,ContiSportContact 5 SUV MO,,,/continental_sportcontact5.jpg,/continental_sportcontact5.jpg,/continental_sportcontact5.jpg,,,,No layout updates,Product Info Column,,,,,Use config,Use config,No,265,45,265/45 R20,20,,,2017,Blackwall,108 Y ,Blackwall,2017,B,C,65,1541,1340.67,1,,Enabled,No,"Catalog, Search",Taxable Goods,Yes,No,No,This tyre is excellent road grip and handling just as safety when cornering and shorter braking distances in all weather conditions. Also reduced fuel consumption and high mileage.,Continental,,,,,,,,,95,0,1,0,0,1,1,1,0,1,1,,,1,0,1,0,1,0,1,0,0,0,1,ContiSportContact 5 SUV MO,0,simple,,
admin,base,Tyre,simple,25,CON3549410000,0,CrossContact LX,,,/continental_crosscontactlx.jpg,/continental_crosscontactlx.jpg,/continental_crosscontactlx.jpg,,,,No layout updates,Product Info Column,,,,,Use config,Use config,No,265,60,265/60 R18,18,,,2017,White letters,110 T ,White letters,2017,B,C,65,791,740,1,,Enabled,No,"Catalog, Search",Taxable Goods,Yes,No,No,This tyre is excellent handling and braking performance for on-road and off-road use and very good protection against aquaplaning. Also precise steering response and superb straight-line tracking.,Continental,,,,,,,,,95,0,1,0,0,1,1,1,0,1,1,,,1,0,1,0,1,0,1,0,0,0,1,CrossContact LX,0,simple,,
admin,base,Tyre,simple,25,CON3549120000,0,4x4 Contact MO,,,/continental_4x4contact.jpeg,/continental_4x4contact.jpeg,/continental_4x4contact.jpeg,,,,No layout updates,Product Info Column,,,,,Use config,Use config,No,265,60,265/60 R18,18,,,2017,Blackwall,110 V ,Blackwall,2017,B,C,65,850,800,1,,Enabled,No,"Catalog, Search",Taxable Goods,Yes,No,No,This tye is excellent noise levels and comfort in on-road use and good protection against aquaplaning. This tyre is  superb traction both on- and off-road.,Continental,,,,,,,,,95,0,1,0,0,1,1,1,0,1,1,,,1,0,1,0,1,0,1,0,0,0,1,4x4 Contact MO,0,simple,,
admin,base,Tyre,simple,25,CON15492740000,0,ContiCrossContact LX 2 FR,,,/continental_crosscontactlx2.png,/continental_crosscontactlx2.png,/continental_crosscontactlx2.png,,,,No layout updates,Product Info Column,,,,,Use config,Use config,No,265,65,265/65 R17,17,,,2017,Blackwall,112 H ,Blackwall,2017,B,C,65,736,680,1,,Enabled,No,"Catalog, Search",Taxable Goods,Yes,No,No,"Excellent dry and wet braking performance and very good handling properties. The tyre???s high pattern stiffness is highly impressive. This is ensured by the solid central pattern area, the closed shoulder pattern and additional raised areas within the tread pattern blocks. The tyre therefore offers excellent handling and very good braking properties on dry road surfaces. Short braking distances on wet road surfaces are ensured by the highly siped pattern, which increases grip by means of improved water displacement between the blocks and the road surface High mileage and high level of driving comfort. The continuously closed shoulder pattern creates a barrier against the tyre noise produced in the centre of the tread pattern. A high level of driving comfort is therefore guaranteed thanks to reduced noise emissions. The flat tyre contour facilitates an even distribution of pressure between the tyre and road surface. This leads to high mileage Outstanding traction in light off-road use. The highly siped pattern creates numerous grip angles. These guarantee outstanding traction in light off-road use.",Continental,,,,,,,,,95,0,1,0,0,1,1,1,0,1,1,,,1,0,1,0,1,0,1,0,0,0,1,ContiCrossContact LX 2 FR,0,simple,,
admin,base,Tyre,simple,25,CON15491810000,0,ContiCrossContact LX 2,,,/continental_crosscontactlx2.png,/continental_crosscontactlx2.png,/continental_crosscontactlx2.png,,,,No layout updates,Product Info Column,,,,,Use config,Use config,No,265,70,265/70 R16,16,,,2017,Blackwall,112 H ,Blackwall,2017,B,C,65,627,600,1,,Enabled,No,"Catalog, Search",Taxable Goods,Yes,No,No,This trye is excellent dry and wet braking performance and outclass handling properties with  high mileage and high level of driving comfort and  outstanding traction in light for off-road use.,Continental,,,,,,,,,95,0,1,0,0,1,1,1,0,1,1,,,1,0,1,0,1,0,1,0,0,0,1,ContiCrossContact LX 2,0,simple,,
admin,base,Tyre,simple,25,CON15449890000,0,CONTITRAC SUV,,,/continental_contitracsuv.jpg,/continental_contitracsuv.jpg,/continental_contitracsuv.jpg,,,,No layout updates,Product Info Column,,,,,Use config,Use config,No,265,70,265/70 R17,17,,,2017,White letters,113 S ,White letters,2017,B,C,65,775,725,1,,Enabled,No,"Catalog, Search",Taxable Goods,Yes,No,No,This trye is suitable for on-road and general off-road use. It has outstanding handling and braking performance and also good protection against aquaplaning and minimal stone retention. It has excellent traction and high ride comfort.,Continental,,,,,,,,,95,0,1,0,0,1,1,1,0,1,1,,,1,0,1,0,1,0,1,0,0,0,1,CONTITRAC SUV,0,simple,,
admin,base,Tyre,simple,25,CON15492410000,0,ContiCrossContact LX 2,,,/continental_crosscontactlx2.png,/continental_crosscontactlx2.png,/continental_crosscontactlx2.png,,,,No layout updates,Product Info Column,,,,,Use config,Use config,No,265,70,265/70 R17,17,,,2017,Blackwall,115 T ,Blackwall,2017,B,C,65,795,745,1,,Enabled,No,"Catalog, Search",Taxable Goods,Yes,No,No,This trye is excellent dry and wet braking performance and outclass handling properties with  high mileage and high level of driving comfort and  outstanding traction in light for off-road use.,Continental,,,,,,,,,95,0,1,0,0,1,1,1,0,1,1,,,1,0,1,0,1,0,1,0,0,0,1,ContiCrossContact LX 2,0,simple,,
admin,base,Tyre,simple,25,CON03560940000,0,ContiSportContact 5P RO1,,,/continental_sportcontact5p.jpg,/continental_sportcontact5p.jpg,/continental_sportcontact5p.jpg,,,,No layout updates,Product Info Column,,,,,Use config,Use config,No,275,30,275/30 R21,21,,,2017,Black Wall,98 Y ,Black Wall,2017,B,C,65,1632,1419.84,1,,Enabled,No,"Catalog, Search",Taxable Goods,Yes,No,No,The latest innovation from the Continental experts. A high performance tyre that offers maximum safety and driving pleasure for highly tuned cars. The ContiSportContact,Continental,,,,,,,,,95,0,1,0,0,1,1,1,0,1,1,,,1,0,1,0,1,0,1,0,0,0,1,ContiSportContact 5P RO1,0,simple,,
admin,base,Tyre,simple,25,CON03564750000,0,ContiSportContact 5P RO1 ContiSilent,,,/continental_sportcontact5p.jpg,/continental_sportcontact5p.jpg,/continental_sportcontact5p.jpg,,,,No layout updates,Product Info Column,,,,,Use config,Use config,No,275,30,275/30 R21,21,,,2017,Black Wall,98 Y ,Black Wall,2017,B,C,65,1799,1565.13,1,,Enabled,No,"Catalog, Search",Taxable Goods,Yes,No,No,The latest innovation from the Continental experts. A high performance tyre that offers maximum safety and driving pleasure for highly tuned cars. The ContiSportContact,Continental,,,,,,,,,95,0,1,0,0,1,1,1,0,1,1,,,1,0,1,0,1,0,1,0,0,0,1,ContiSportContact 5P RO1 ContiSilent,0,simple,,
admin,base,Tyre,simple,25,CON03509840000,0,ContiSportContact 3,,,/continental_sportcontact3.jpeg,/continental_sportcontact3.jpeg,/continental_sportcontact3.jpeg,,,,No layout updates,Product Info Column,,,,,Use config,Use config,No,275,35,275/35 R18,18,,,2017,Black Wall,99 Y ,Black Wall,2017,B,C,65,1395,1213.65,1,,Enabled,No,"Catalog, Search",Taxable Goods,Yes,No,No,"ContiSportContact 3 tires feature an asymmetric design with solid tread blocks and a continuous rib on the outboard shoulder to improve responsiveness and cornering stability, while continuous intermediate ribs provide constant rubber-to-road contact to reduce noise and control the longitudinal forces experienced when braking. The continuous circumferential tread grooves help disperse water to resist hydroplaning and their asymmetrically angled walls further stabilize the tread ribs, increasing steering precision and reducing deformation while cornering. The notched shoulder blocks on the inboard portion enhance wet weather traction.",Continental,,,,,,,,,95,0,1,0,0,1,1,1,0,1,1,,,1,0,1,0,1,0,1,0,0,0,1,ContiSportContact 3,0,simple,,
admin,base,Tyre,simple,25,CON03567990000,0,ContiSportContact 2 MO,,,/continental_sportcontact2mo_2_2.jpeg,/continental_sportcontact2mo_2_2.jpeg,/continental_sportcontact2mo_2_2.jpeg,,,,No layout updates,Product Info Column,,,,,Use config,Use config,No,275,35,275/35 R20,20,,,2017,Black Wall,102 Y ,Black Wall,2017,B,C,65,1285,1117.95,1,,Enabled,No,"Catalog, Search",Taxable Goods,Yes,No,No,"The ContiSportContact is Continental's Ultra High Performance Summer Tyre that was developed to meet the needs of the drivers of sports cars, coupes and sedans. The ContiSportContact was designed to provide traction in dry and wet road conditions, but it is not intended to be driven in near-freezing temperatures, through snow or on ice. Continental ContiSportContact Tyres combine black sidewall styling with subtle black letters reversed out of a circumferential serrated band.",Continental,,,,,,,,,95,0,1,0,0,1,1,1,0,1,1,,,1,0,1,0,1,0,1,0,0,0,1,ContiSportContact 2 MO,0,simple,,
admin,base,Tyre,simple,25,CON03514720000,0,ContiSportContact 5P RO1,,,/continental_sportcontact5p.jpg,/continental_sportcontact5p.jpg,/continental_sportcontact5p.jpg,,,,No layout updates,Product Info Column,,,,,Use config,Use config,No,275,35,275/35 R21,21,,,2017,Black Wall,103 Y ,Black Wall,2017,B,C,65,1575,1370.25,1,,Enabled,No,"Catalog, Search",Taxable Goods,Yes,No,No,The latest innovation from the Continental experts. A high performance tyre that offers maximum safety and driving pleasure for highly tuned cars. The ContiSportContact,Continental,,,,,,,,,95,0,1,0,0,1,1,1,0,1,1,,,1,0,1,0,1,0,1,0,0,0,1,ContiSportContact 5P RO1,0,simple,,
admin,base,Tyre,simple,25,CON03510980000,0,ContiSportContact 2 J,,,/continental_sportcontact2.jpg,/continental_sportcontact2.jpg,/continental_sportcontact2.jpg,,,,No layout updates,Product Info Column,,,,,Use config,Use config,No,275,40,275/40 R18,18,,,2017,Black Wall,103 W ,Black Wall,2017,B,C,65,1340,1165.8,1,,Enabled,No,"Catalog, Search",Taxable Goods,Yes,No,No,"The ContiSportContact is Continental's Ultra High Performance Summer Tyre that was developed to meet the needs of the drivers of sports cars, coupes and sedans. The ContiSportContact was designed to provide traction in dry and wet road conditions, but it is not intended to be driven in near-freezing temperatures, through snow or on ice. Continental ContiSportContact Tyres combine black sidewall styling with subtle black letters reversed out of a circumferential serrated band.",Continental,,,,,,,,,95,0,1,0,0,1,1,1,0,1,1,,,1,0,1,0,1,0,1,0,0,0,1,ContiSportContact 2 J,0,simple,,
admin,base,Tyre,simple,25,CON03502840000,0,ContiSportContact 3 E SSR,,,/continental_sportcontact3e_ssr.jpg,/continental_sportcontact3e_ssr.jpg,/continental_sportcontact3e_ssr.jpg,,,,No layout updates,Product Info Column,,,,,Use config,Use config,No,275,40,275/40 R18,18,,,2017,Run Flat/Black Wall,99 Y ,Run Flat/Black Wall,2017,B,C,65,1505,1309.35,1,,Enabled,No,"Catalog, Search",Taxable Goods,Yes,No,No,"The ContiSportContact 3 SSR (Self Supporting Runflat) is Continental Tire's Max Performance Summer run-flat tire designed to provide temporary extended mobility in case of complete air loss due to a puncture. The ContiSportContact 3 SSR is designed to combine outstanding braking capability and agile steering precision. Like all summer tires, the Continental ContiSportContact 3 SSR is not intended to be driven in near-freezing temperatures, through snow or on ice. ContiSportContact 3 SSR tires permit drivers to remain mobile in the event of a flat tire by allowing them to reach their destination or tire service facility without having to replace a flat tire with the spare tire. The ContiSportContact 3 SSR's reinforced sidewall enables the car to continue on its way at a maximum speed of 50 mph (80 km/h) for up to 50 miles (80 km), depending on road conditions and vehicle weight.",Continental,,,,,,,,,95,0,1,0,0,1,1,1,0,1,1,,,1,0,1,0,1,0,1,0,0,0,1,ContiSportContact 3 E SSR,0,simple,,
admin,base,Tyre,simple,25,CON3503940000,0,ContiSportContact 2 MO,,,/continental_sportcontact2mo.jpeg,/continental_sportcontact2mo.jpeg,/continental_sportcontact2mo.jpeg,,,,No layout updates,Product Info Column,,,,,Use config,Use config,No,275,40,275/40 R19,19,,,2017,Black Wall,101 V ,Black Wall,2017,B,C,65,1126,979.62,1,,Enabled,No,"Catalog, Search",Taxable Goods,Yes,No,No,"Continental ContiSportContact 2 MO tires use an Advanced Mould Concept (AMC) that helps distribute the pressure of the tire on the road more evenly. The AMC creates a larger area that grips the road when you hit your brake pedal. A very important part of the unique tread pattern of Continental ContiSportContact 2 MO tires is the closed outer shoulder, which helps make these tires stable. Furthermore, they're made of a newly developed bionic compound-a mix of two different materials-to add greater stability. High stability creates better handling no matter what conditions you are driving in. By choosing Continental ContiSportContact 2 MO tires for your Mercedes-Benz, you give yourself better ability to maintain precise control of your vehicle when you accelerate on long straightaways and when you corner at high speeds.",Continental,,,,,,,,,95,0,1,0,0,1,1,1,0,1,1,,,1,0,1,0,1,0,1,0,0,0,1,ContiSportContact 2 MO,0,simple,,
admin,base,Tyre,simple,25,CON03524990000,0,ContiSportContact 3 SSR,,,/continental_sportcontact3ssr.jpeg,/continental_sportcontact3ssr.jpeg,/continental_sportcontact3ssr.jpeg,,,,No layout updates,Product Info Column,,,,,Use config,Use config,No,275,40,275/40 R19,19,,,2017,Run Flat/Black Wall,101 W ,Run Flat/Black Wall,2017,B,C,65,1811,1575.57,1,,Enabled,No,"Catalog, Search",Taxable Goods,Yes,No,No,"The ContiSportContact 3 SSR (Self Supporting Runflat) is Continental Tire's Max Performance Summer run-flat tire designed to provide temporary extended mobility in case of complete air loss due to a puncture. The ContiSportContact 3 SSR is designed to combine outstanding braking capability and agile steering precision. Like all summer tires, the Continental ContiSportContact 3 SSR is not intended to be driven in near-freezing temperatures, through snow or on ice. ContiSportContact 3 SSR tires permit drivers to remain mobile in the event of a flat tire by allowing them to reach their destination or tire service facility without having to replace a flat tire with the spare tire. The ContiSportContact 3 SSR's reinforced sidewall enables the car to continue on its way at a maximum speed of 50 mph (80 km/h) for up to 50 miles (80 km), depending on road conditions and vehicle weight.",Continental,,,,,,,,,95,0,1,0,0,1,1,1,0,1,1,,,1,0,1,0,1,0,1,0,0,0,1,ContiSportContact 3 SSR,0,simple,,
admin,base,Tyre,simple,25,CON03542190000,0,ContiSportContact 5 SUV SSR,,,/continental_sportcontact5.jpg,/continental_sportcontact5.jpg,/continental_sportcontact5.jpg,,,,No layout updates,Product Info Column,,,,,Use config,Use config,No,275,40,275/40 R20,20,,,2017,Run Flat/Blackwall,106 W ,Run Flat/Blackwall,2017,B,C,65,1199,1043.13,1,,Enabled,No,"Catalog, Search",Taxable Goods,Yes,No,No,This tyre is excellent road grip and handling just as safety when cornering and shorter braking distances in all weather conditions. Also reduced fuel consumption and high mileage.,Continental,,,,,,,,,95,0,1,0,0,1,1,1,0,1,1,,,1,0,1,0,1,0,1,0,0,0,1,ContiSportContact 5 SUV SSR,0,simple,,
admin,base,Tyre,simple,25,CON3544410000,0,4x4 SportContact NO,,,/continental_4x4_sportcontact.jpg,/continental_4x4_sportcontact.jpg,/continental_4x4_sportcontact.jpg,,,,No layout updates,Product Info Column,,,,,Use config,Use config,No,275,40,275/40 R20,20,,,2017,Blackwall,106 Y ,Blackwall,2017,B,C,65,1198,1042.26,1,,Enabled,No,"Catalog, Search",Taxable Goods,Yes,No,No,This tyre is good cornering stability and good protection against aquaplaning. This trye is suitable for high-speed road use.,Continental,,,,,,,,,95,0,1,0,0,1,1,1,0,1,1,,,1,0,1,0,1,0,1,0,0,0,1,4x4 SportContact NO,0,simple,,
admin,base,Tyre,simple,25,CON3541750000,0,ContiSportContact 5 SUV,,,/continental_sportcontact5suv_5.jpg,/continental_sportcontact5suv_5.jpg,/continental_sportcontact5suv_5.jpg,,,,No layout updates,Product Info Column,,,,,Use config,Use config,No,275,40,275/40 R20,20,,,2017,Black Wall,106 Y ,Black Wall,2017,B,C,65,1261,1097.07,1,,Enabled,No,"Catalog, Search",Taxable Goods,Yes,No,No,"Designed for sports and high-performance vehicles. Its features are: Perfect steering precision and sporty handling, outstanding grip and stability during cornering, optimised to meet the specific requirements of front and rear axle positions, and short braking distances on both wet and dry roads.",Continental,,,,,,,,,95,0,1,0,0,1,1,1,0,1,1,,,1,0,1,0,1,0,1,0,0,0,1,ContiSportContact 5 SUV,0,simple,,
admin,base,Tyre,simple,25,CON03545590000,0,CrossContact UHP E,,,/continental_crosscontactuhp.jpg,/continental_crosscontactuhp.jpg,/continental_crosscontactuhp.jpg,,,,No layout updates,Product Info Column,,,,,Use config,Use config,No,275,40,275/40 R20,20,,,2017,Blackwall,106 Y ,Blackwall,2017,B,C,65,1281,1114.47,1,,Enabled,No,"Catalog, Search",Taxable Goods,Yes,No,No,This  tyre is short braking distances and very high cornering stability and safety reserves for outstanding handling and fun at the wheel Low rolling resistance and outstanding grip.,Continental,,,,,,,,,95,0,1,0,0,1,1,1,0,1,1,,,1,0,1,0,1,0,1,0,0,0,1,CrossContact UHP E,0,simple,,
admin,base,Tyre,simple,25,CON3542070092,0,CrossContact LX Sport,,,/continental_crosscontactlxsport.jpg,/continental_crosscontactlxsport.jpg,/continental_crosscontactlxsport.jpg,,,,No layout updates,Product Info Column,,,,,Use config,Use config,No,275,40,275/40 R22,22,,,2017,Blackwall,108 Y ,Blackwall,2017,B,C,65,1200,1250,1,,Enabled,No,"Catalog, Search",Taxable Goods,Yes,No,No,This tyre is outstanding handling for on-road and general off-road use and also excellent braking performance on dry and wet roads.In addition with this tyre is optimised forrolling resistance.,Continental,,,,,,,,,95,0,1,0,0,1,1,1,0,1,1,,,1,0,1,0,1,0,1,0,0,0,1,CrossContact LX Sport,0,simple,,
admin,base,Tyre,simple,25,CON03523990000,0,ContiSportContact 5 MO,,,/continental_contisportcontact5.jpeg,/continental_contisportcontact5.jpeg,/continental_contisportcontact5.jpeg,,,,No layout updates,Product Info Column,,,,,Use config,Use config,No,275,45,275/45 R18,18,,,2017,Black Wall,103 W ,Black Wall,2017,B,C,65,1159,1008.33,1,,Enabled,No,"Catalog, Search",Taxable Goods,Yes,No,No,"Unlimited driving fun thanks to excellent grip. The new ContiSportContact 5 Control never has bee sportier. With the launch of the ContiSportContact 5, Continental has developed a tire which is equally suitable for sporty cars & SUVs with sporty driving characteristics. With this new development, the tire engineers have made significant progress in camparison to the popular predecessor ContiSportContact 3 Shorter braking distances in all weather conditions. Excellent road grip and safety when cornering. Reduced fuel consumption and high mileage. This was made possible due to a new compound which focuses on maximum power transmission and provides low rolling resistance whilst driving normally. This rubber compound which carries the name BlackChilli uses the various vibrations of the tire.",Continental,,,,,,,,,95,0,1,0,0,1,1,1,0,1,1,,,1,0,1,0,1,0,1,0,0,0,1,ContiSportContact 5 MO,0,simple,,
admin,base,Tyre,simple,25,CON03520450000,0,ContiSportContact 2 MO,,,/continental_sportcontact2mo.jpeg,/continental_sportcontact2mo.jpeg,/continental_sportcontact2mo.jpeg,,,,No layout updates,Product Info Column,,,,,Use config,Use config,No,275,45,275/45 R18,18,,,2017,Black Wall,103 Y ,Black Wall,2017,B,C,65,1117,971.79,1,,Enabled,No,"Catalog, Search",Taxable Goods,Yes,No,No,"Continental ContiSportContact 2 MO tires use an Advanced Mould Concept (AMC) that helps distribute the pressure of the tire on the road more evenly. The AMC creates a larger area that grips the road when you hit your brake pedal. A very important part of the unique tread pattern of Continental ContiSportContact 2 MO tires is the closed outer shoulder, which helps make these tires stable. Furthermore, they're made of a newly developed bionic compound-a mix of two different materials-to add greater stability. High stability creates better handling no matter what conditions you are driving in. By choosing Continental ContiSportContact 2 MO tires for your Mercedes-Benz, you give yourself better ability to maintain precise control of your vehicle when you accelerate on long straightaways and when you corner at high speeds.",Continental,,,,,,,,,95,0,1,0,0,1,1,1,0,1,1,,,1,0,1,0,1,0,1,0,0,0,1,ContiSportContact 2 MO,0,simple,,
