store,websites,attribute_set,type,category_ids,sku,has_options,name,meta_title,meta_description,image,small_image,thumbnail,url_key,url_path,custom_design,page_layout,options_container,image_label,small_image_label,thumbnail_label,country_of_manufacture,msrp_enabled,msrp_display_actual_price_type,gift_message_available,width,ratio,diameter,car_make,car_model,car_year,sidewall_style,serv_desc,utqg,production_year,fuel,weather,sound,size,price,special_price,weight,msrp,status,is_recurring,visibility,tax_class_id,passenger,tyres4_4,vantyres,description,short_description,meta_keyword,custom_layout_update,special_from_date,special_to_date,news_from_date,news_to_date,custom_design_from,custom_design_to,qty,min_qty,use_config_min_qty,is_qty_decimal,backorders,use_config_backorders,min_sale_qty,use_config_min_sale_qty,max_sale_qty,use_config_max_sale_qty,is_in_stock,low_stock_date,notify_stock_qty,use_config_notify_stock_qty,manage_stock,use_config_manage_stock,stock_status_changed_auto,use_config_qty_increments,qty_increments,use_config_enable_qty_inc,enable_qty_increments,is_decimal_divided,stock_status_changed_automatically,use_config_enable_qty_increments,product_name,store_id,product_type_id,product_status_changed,product_changed_websites,website,_media_image,_media_lable,_media_position,_media_is_disabled
admin,base,Tyre,simple,36,NEX10120,0,CP672,,,,,,,,,,,,,,,Use config,Use config,No,205,60,16,,,-2016,Black Wall,92H,,-2016,C,C,65,205/60,181.5,,1,,Enabled,No,"Catalog, Search",Taxable Goods,Yes,No,No,"A quiet ride all year 'round, is the hallmark of the CP672 ? an optimized sectional design reduces pattern noise for ultra-quiet driving.? Stable handling and tight cornering are heightened by the rigid shoulder block design.? The straight center semi-dual rib offers higher speed responsiveness as well as excellent steering.? ","est assured when the roads are wet, four straight wide grooves maximize wet traction and anti-hydroplaning performance.?",,,,,,,,,100,0,1,0,0,1,1,1,0,1,1,,0,1,0,1,0,1,0,1,0,0,0,1,CP672,0,simple,,,,,,,
admin,base,Tyre,simple,36,NEX10121,0,NFERA RUI,,,,,,,,,,,,,,,Use config,Use config,No,255,45,20,,,2017,Black Wall,105W,,2017,C,C,65,255/45,451,,1,,Enabled,No,"Catalog, Search",Taxable Goods,Yes,No,No,"The special design of the tyre will make each trip comfortable and safe, without compromising the tyre performance. One of the most important elements of this design is the central rib of the tyre, which takes care of the vehicle stability even during fast cornering.",,,,,,,,,,100,0,1,0,0,1,1,1,0,1,1,,0,1,0,1,0,1,0,1,0,0,0,1,NFERA RUI,0,simple,,,,,,,
admin,base,Tyre,simple,36,NEX10122,0,RH5,,,,,,,,,,,,,,,Use config,Use config,No,265,65,17,,,2017,Black Wall,112H,,2017,C,C,65,265/65,368.5,,1,,Enabled,No,"Catalog, Search",Taxable Goods,Yes,No,No,Kerf Design & Silica Compound - Confident driving performance on any road conditions,,,,,,,,,,100,0,1,0,0,1,1,1,0,1,1,,0,1,0,1,0,1,0,1,0,0,0,1,RH5,0,simple,,,,,,,
admin,base,Tyre,simple,36,NEX10123,0,CP672,,,,,,,,,,,,,,,Use config,Use config,No,215,40,18,,,-2016,Black Wall,85V,,-2016,C,C,65,215/40,269.5,,1,,Enabled,No,"Catalog, Search",Taxable Goods,Yes,No,No,"A quiet ride all year 'round, is the hallmark of the CP672 ? an optimized sectional design reduces pattern noise for ultra-quiet driving.? Stable handling and tight cornering are heightened by the rigid shoulder block design.? The straight center semi-dual rib offers higher speed responsiveness as well as excellent steering.? ","est assured when the roads are wet, four straight wide grooves maximize wet traction and anti-hydroplaning performance.?",,,,,,,,,100,0,1,0,0,1,1,1,0,1,1,,0,1,0,1,0,1,0,1,0,0,0,1,CP672,0,simple,,,,,,,
admin,base,Tyre,simple,36,NEX10124,0,NFERA SUI,,,,,,,,,,,,,,,Use config,Use config,No,275,30,19,,,2017,Black Wall,96Y,,2017,C,C,65,275/30,385,,1,,Enabled,No,"Catalog, Search",Taxable Goods,Yes,No,No,3+1 asymmetric grooves - Improved drainage performance,,,,,,,,,,100,0,1,0,0,1,1,1,0,1,1,,0,1,0,1,0,1,0,1,0,0,0,1,NFERA SUI,0,simple,,,,,,,
admin,base,Tyre,simple,36,NEX10125,0,CP672,,,,,,,,,,,,,,,Use config,Use config,No,255,40,18,,,2016,Black Wall,99H,,2016,C,C,65,255/40,286,,1,,Enabled,No,"Catalog, Search",Taxable Goods,Yes,No,No,"A quiet ride all year 'round, is the hallmark of the CP672 ? an optimized sectional design reduces pattern noise for ultra-quiet driving.? Stable handling and tight cornering are heightened by the rigid shoulder block design.? The straight center semi-dual rib offers higher speed responsiveness as well as excellent steering.? ","est assured when the roads are wet, four straight wide grooves maximize wet traction and anti-hydroplaning performance.?",,,,,,,,,100,0,1,0,0,1,1,1,0,1,1,,0,1,0,1,0,1,0,1,0,0,0,1,CP672,0,simple,,,,,,,
admin,base,Tyre,simple,36,NEX10126,0,NFERA- AU5,,,,,,,,,,,,,,,Use config,Use config,No,235,35,19,,,2017,Black Wall,91W,,2017,C,C,65,235/35,335.5,,1,,Enabled,No,"Catalog, Search",Taxable Goods,Yes,No,No,"Optimal Lateral Groove width design, uniform block distribution and stiffness delivers a silent ride with the best ride quality",,,,,,,,,,100,0,1,0,0,1,1,1,0,1,1,,0,1,0,1,0,1,0,1,0,0,0,1,NFERA- AU5,0,simple,,,,,,,
admin,base,Tyre,simple,36,NEX10127,0,ROHTX RH5,,,,,,,,,,,,,,,Use config,Use config,No,245,75,16,,,2017,Black Wall,111S,,2017,C,C,65,245/75,357.5,,1,,Enabled,No,"Catalog, Search",Taxable Goods,Yes,No,No,Kerf Design & Silica Compound - Confident driving performance on any road conditions,,,,,,,,,,100,0,1,0,0,1,1,1,0,1,1,,0,1,0,1,0,1,0,1,0,0,0,1,ROHTX RH5,0,simple,,,,,,,
admin,base,Tyre,simple,36,NEX10128,0,CP643,,,,,,,,,,,,,,,Use config,Use config,No,225,45,18,,,2016,Black Wall,91V,,2016,C,C,65,225/45,231,,1,,Enabled,No,"Catalog, Search",Taxable Goods,Yes,No,No,"The CP643@ has 4 straight wide grooves that maximize wet traction and anti-hydroplaning performance. With 5 random pitch variations to reduce sound pattern noises and rigid shoulder block design to enhance cornering and handling stability, the CP643@ is an ideal high performance tyre for all seasons.",,,,,,,,,,100,0,1,0,0,1,1,1,0,1,1,,0,1,0,1,0,1,0,1,0,0,0,1,CP643,0,simple,,,,,,,
admin,base,Tyre,simple,36,NEX10129,0,NFERA- AU5,,,,,,,,,,,,,,,Use config,Use config,No,255,35,18,,,2016,Black Wall,94W,,2016,C,C,65,255/35,264,,1,,Enabled,No,"Catalog, Search",Taxable Goods,Yes,No,No,"Optimal Lateral Groove width design, uniform block distribution and stiffness delivers a silent ride with the best ride quality",,,,,,,,,,100,0,1,0,0,1,1,1,0,1,1,,0,1,0,1,0,1,0,1,0,0,0,1,NFERA- AU5,0,simple,,,,,,,
admin,base,Tyre,simple,36,NEX10130,0,NFERA AU5,,,,,,,,,,,,,,,Use config,Use config,No,235,40,18,,,2016,Black Wall,95W,,2016,C,C,65,235/40,220,,1,,Enabled,No,"Catalog, Search",Taxable Goods,Yes,No,No,Wide shoulder block - Improved cornering performance,,,,,,,,,,100,0,1,0,0,1,1,1,0,1,1,,0,1,0,1,0,1,0,1,0,0,0,1,NFERA AU5,0,simple,,,,,,,
admin,base,Tyre,simple,36,NEX10131,0,RO-HT,,,,,,,,,,,,,,,Use config,Use config,No,275,70,16,,,2016,Black Wall,114S,,2016,C,C,65,275/70,291.5,,1,,Enabled,No,"Catalog, Search",Taxable Goods,Yes,No,No,Kerf Design & Silica Compound - Confident driving performance on any road conditions,,,,,,,,,,100,0,1,0,0,1,1,1,0,1,1,,0,1,0,1,0,1,0,1,0,0,0,1,RO-HT,0,simple,,,,,,,
admin,base,Tyre,simple,36,NEX10132,0,NFERA RU5,,,,,,,,,,,,,,,Use config,Use config,No,255,50,20,,,2017,Black Wall,109W,,2017,C,C,65,255/50,412.5,,1,,Enabled,No,"Catalog, Search",Taxable Goods,Yes,No,No,"The special design of the tyre will make each trip comfortable and safe, without compromising the tyre performance. One of the most important elements of this design is the central rib of the tyre, which takes care of the vehicle stability even during fast cornering.",,,,,,,,,,100,0,1,0,0,1,1,1,0,1,1,,0,1,0,1,0,1,0,1,0,0,0,1,NFERA RU5,0,simple,,,,,,,
admin,base,Tyre,simple,36,NEX10133,0,CP672,,,,,,,,,,,,,,,Use config,Use config,No,205,55,16,,,2017,Black Wall,91V,,2017,C,C,65,205/55,236.5,,1,,Enabled,No,"Catalog, Search",Taxable Goods,Yes,No,No,"A quiet ride all year 'round, is the hallmark of the CP672 ? an optimized sectional design reduces pattern noise for ultra-quiet driving.? Stable handling and tight cornering are heightened by the rigid shoulder block design.? The straight center semi-dual rib offers higher speed responsiveness as well as excellent steering.? ","est assured when the roads are wet, four straight wide grooves maximize wet traction and anti-hydroplaning performance.?",,,,,,,,,100,0,1,0,0,1,1,1,0,1,1,,0,1,0,1,0,1,0,1,0,0,0,1,CP672,0,simple,,,,,,,
admin,base,Tyre,simple,36,NEX10134,0,CP672,,,,,,,,,,,,,,,Use config,Use config,No,215,65,16,,,2017,Black Wall,98H,,2017,C,C,65,215/65,269.5,,1,,Enabled,No,"Catalog, Search",Taxable Goods,Yes,No,No,"A quiet ride all year 'round, is the hallmark of the CP672 ? an optimized sectional design reduces pattern noise for ultra-quiet driving.? Stable handling and tight cornering are heightened by the rigid shoulder block design.? The straight center semi-dual rib offers higher speed responsiveness as well as excellent steering.? ","est assured when the roads are wet, four straight wide grooves maximize wet traction and anti-hydroplaning performance.?",,,,,,,,,100,0,1,0,0,1,1,1,0,1,1,,0,1,0,1,0,1,0,1,0,0,0,1,CP672,0,simple,,,,,,,
admin,base,Tyre,simple,36,NEX10135,0,CP672,,,,,,,,,,,,,,,Use config,Use config,No,215,60,17,,,2017,Black Wall,96H,,2017,C,C,65,215/60,286,,1,,Enabled,No,"Catalog, Search",Taxable Goods,Yes,No,No,"A quiet ride all year 'round, is the hallmark of the CP672 ? an optimized sectional design reduces pattern noise for ultra-quiet driving.? Stable handling and tight cornering are heightened by the rigid shoulder block design.? The straight center semi-dual rib offers higher speed responsiveness as well as excellent steering.? ","est assured when the roads are wet, four straight wide grooves maximize wet traction and anti-hydroplaning performance.?",,,,,,,,,100,0,1,0,0,1,1,1,0,1,1,,0,1,0,1,0,1,0,1,0,0,0,1,CP672,0,simple,,,,,,,
admin,base,Tyre,simple,36,NEX10136,0,CP672,,,,,,,,,,,,,,,Use config,Use config,No,205,40,17,,,2017,Black Wall,84H,,2017,C,C,65,205/40,242,,1,,Enabled,No,"Catalog, Search",Taxable Goods,Yes,No,No,"A quiet ride all year 'round, is the hallmark of the CP672 ? an optimized sectional design reduces pattern noise for ultra-quiet driving.? Stable handling and tight cornering are heightened by the rigid shoulder block design.? The straight center semi-dual rib offers higher speed responsiveness as well as excellent steering.? ","est assured when the roads are wet, four straight wide grooves maximize wet traction and anti-hydroplaning performance.?",,,,,,,,,100,0,1,0,0,1,1,1,0,1,1,,0,1,0,1,0,1,0,1,0,0,0,1,CP672,0,simple,,,,,,,
admin,base,Tyre,simple,36,NEX10137,0,NFERA AU5,,,,,,,,,,,,,,,Use config,Use config,No,265,30,19,,,2017,Black Wall,93W,,2017,C,C,65,265/30,429,,1,,Enabled,No,"Catalog, Search",Taxable Goods,Yes,No,No,Wide shoulder block - Improved cornering performance,,,,,,,,,,100,0,1,0,0,1,1,1,0,1,1,,0,1,0,1,0,1,0,1,0,0,0,1,NFERA AU5,0,simple,,,,,,,
admin,base,Tyre,simple,36,NEX10138,0,RO HP,,,,,,,,,,,,,,,Use config,Use config,No,265,45,20,,,2016,Black Wall,108V,,2016,C,C,65,265/45,297,,1,,Enabled,No,"Catalog, Search",Taxable Goods,Yes,No,No,Kerf Design & Silica Compound - Confident driving performance on any road conditions,,,,,,,,,,100,0,1,0,0,1,1,1,0,1,1,,0,1,0,1,0,1,0,1,0,0,0,1,RO HP,0,simple,,,,,,,
admin,base,Tyre,simple,36,NEX10139,0,ROHTX RU5,,,,,,,,,,,,,,,Use config,Use config,No,285,65,17,,,2016,Black Wall,116S,,2016,C,C,65,285/65,313.5,,1,,Enabled,No,"Catalog, Search",Taxable Goods,Yes,No,No,Kerf Design & Silica Compound - Confident driving performance on any road conditions,,,,,,,,,,100,0,1,0,0,1,1,1,0,1,1,,0,1,0,1,0,1,0,1,0,0,0,1,ROHTX RU5,0,simple,,,,,,,
admin,base,Tyre,simple,36,NEX10140,0,CP672,,,,,,,,,,,,,,,Use config,Use config,No,195,60,14,,,2017,Black Wall,86H,,2017,C,C,65,195/60,192.5,,1,,Enabled,No,"Catalog, Search",Taxable Goods,Yes,No,No,"A quiet ride all year 'round, is the hallmark of the CP672 ? an optimized sectional design reduces pattern noise for ultra-quiet driving.? Stable handling and tight cornering are heightened by the rigid shoulder block design.? The straight center semi-dual rib offers higher speed responsiveness as well as excellent steering.? ","est assured when the roads are wet, four straight wide grooves maximize wet traction and anti-hydroplaning performance.?",,,,,,,,,100,0,1,0,0,1,1,1,0,1,1,,0,1,0,1,0,1,0,1,0,0,0,1,CP672,0,simple,,,,,,,
admin,base,Tyre,simple,36,NEX10141,0,NFERA AU5,,,,,,,,,,,,,,,Use config,Use config,No,235,40,18,,,2015,Black Wall,95W,,2015,C,C,65,235/40,143,,1,,Enabled,No,"Catalog, Search",Taxable Goods,Yes,No,No,Wide shoulder block - Improved cornering performance,Nexen,,,,,,,,,100,0,1,0,0,1,1,1,0,1,1,,0,1,0,1,0,1,0,1,0,0,0,1,NFERA AU5,0,simple,,,,,,,
