store,websites,attribute_set,type,category_ids,sku,has_options,name,meta_title,meta_description,image,small_image,thumbnail,url_key,url_path,custom_design,page_layout,options_container,image_label,small_image_label,thumbnail_label,country_of_manufacture,msrp_enabled,msrp_display_actual_price_type,gift_message_available,width,ratio,size,diameter,car_make,car_model,car_year,sidewall_style,serv_desc,utqg,production_year,fuel,weather,sound,price,special_price,weight,msrp,status,is_recurring,visibility,tax_class_id,passenger,tyres4_4,vantyres,description,short_description,meta_keyword,custom_layout_update,special_from_date,special_to_date,news_from_date,news_to_date,custom_design_from,custom_design_to,qty,min_qty,use_config_min_qty,is_qty_decimal,backorders,use_config_backorders,min_sale_qty,use_config_min_sale_qty,max_sale_qty,use_config_max_sale_qty,is_in_stock,low_stock_date,notify_stock_qty,use_config_notify_stock_qty,manage_stock,use_config_manage_stock,stock_status_changed_auto,use_config_qty_increments,qty_increments,use_config_enable_qty_inc,enable_qty_increments,is_decimal_divided,stock_status_changed_automatically,use_config_enable_qty_increments,product_name,store_id,product_type_id,product_status_changed,product_changed_websites
admin,base,Tyre,simple,192,DUN35113ZNQ,0,275/35 R20 102Y,,,/dunlop_sportmaxxtt.jpeg,/dunlop_sportmaxxtt.jpeg,/dunlop_sportmaxxtt.jpeg,,,,No layout updates,Product Info Column,,,,,Use config,Use config,No,100,,275/35 R20,275/35 R20,,,2017,Black Wall,"102 Y Load Index 102 =  1,873.91lbs (850kg) per tireSpeed Rating = 186.41mph (300kph)",Black Wall,2017,C,C,65,899,854.05,1,,Enabled,No,"Catalog, Search",Taxable Goods,Yes,No,No,"The SP Sport Maxx TT (Touch Technology) is Dunlops Max Performance Summer tire developed for the drivers of sports cars, sporty coupes and high performance sedans. Dunlop Touch Technology combines sophisticated tire development and manufacturing techniques to enhance road feedback and driving precision. Like all summer tires, the SP Sport Maxx TT is not intended to be driven in near-freezing temperatures, through snow or on ice.",,,,,,,,,,100,0,1,0,0,1,1,1,0,1,1,,,1,0,1,0,1,0,1,0,0,0,1,275/35 R20 102Y,0,simple,,
admin,base,Tyre,simple,179,DUN35048,0,275/35 R21 103Y,,,/dunlop_sportmaxxgt.jpeg,/dunlop_sportmaxxgt.jpeg,/dunlop_sportmaxxgt.jpeg,,,,No layout updates,Product Info Column,,,,,Use config,Use config,No,100,,275/35 R21,275/35 R21,,,2017,Black Wall,"103 Y Load Index 103 =  1,929.03lbs (875kg) per tireSpeed Rating = 186.41mph (300kph)",Black Wall,2017,C,C,65,1324,1191.6,1,,Enabled,No,"Catalog, Search",Taxable Goods,Yes,No,No,"The SP Sport Maxx GT is Dunlops Max Performance Summer tire developed for the drivers of pure sports cars, powerful coupes and high performance sedans. SP Sport Maxx GT tires are designed to offer outstanding driver feedback and responsive handling, but like all summer tires are not intended to be driven in near-freezing temperatures, througnh sow or on ice.",,,,,,,,,,100,0,1,0,0,1,1,1,0,1,1,,,1,0,1,0,1,0,1,0,0,0,1,275/35 R21 103Y,0,simple,,
admin,base,Tyre,simple,182,DUN40304-ZNQ,0,275/40 R19 105Y,,,/max050.png,/max050.png,/max050.png,,,,No layout updates,Product Info Column,,,,,Use config,Use config,No,100,,275/40 R19,275/40 R19,,,2017,Black Wall,"105 Y Load Index 105 =  2,039.26lbs (925kg) per tireSpeed Rating = 186.41mph (300kph)",Black Wall,2017,C,C,65,649,616.55,1,,Enabled,No,"Catalog, Search",Taxable Goods,Yes,No,No,"MAX050 is Dunlops Max Performance Summer tire developed for the drivers of sports cars, sporty coupes and high performance sedans. Dunlop Touch Technology combines sophisticated tire development and manufacturing techniques to enhance road feedback and driving precision. Like all summer tires, the SP Sport Maxx TT is not intended to be driven in near-freezing temperatures, through snow or on ice.",,,,,,,,,,100,0,1,0,0,1,1,1,0,1,1,,,1,0,1,0,1,0,1,0,0,0,1,275/40 R19 105Y,0,simple,,
admin,base,Tyre,simple,181,DUN40032,0,275/40 R21 107Y,,,/dunlop_sportmaxxgt_6.jpeg,/dunlop_sportmaxxgt_6.jpeg,/dunlop_sportmaxxgt_6.jpeg,,,,No layout updates,Product Info Column,,,,,Use config,Use config,No,100,,275/40 R21,275/40 R21,,,2017,Black Wall,"107 Y Load Index 107 =  2,149.49lbs (975kg) per tireSpeed Rating = 186.41mph (300kph)",Black Wall,2017,C,C,65,1679,1511.1,1,,Enabled,No,"Catalog, Search",Taxable Goods,Yes,No,No,"The SP Sport Maxx GT is Dunlops Max Performance Summer tire developed for the drivers of pure sports cars, powerful coupes and high performance sedans. SP Sport Maxx GT tires are designed to offer outstanding driver feedback and responsive handling, but like all summer tires are not intended to be driven in near-freezing temperatures, through snow or on ice.",,,,,,,,,,100,0,1,0,0,1,1,1,0,1,1,,,1,0,1,0,1,0,1,0,0,0,1,275/40 R21 107Y,0,simple,,
admin,base,Tyre,simple,170,DUN011,0,275/50 R21 113V,,,/grandtrek_pt3_1_1.png,/grandtrek_pt3_1_1.png,/grandtrek_pt3_1_1.png,,,,No layout updates,Product Info Column,,,,,Use config,Use config,No,100,,275/50 R21,275/50 R21,,,2016,Black Wall,"113 V Load Index 113 =  2,535.29lbs (1150kg) per tireSpeed Rating = 149.13mph (240kph)",Black Wall,2016,C,C,65,1109,998.1,1,,Enabled,No,"Catalog, Search",Taxable Goods,Yes,No,No,"Highway All-Season light truck tires are for drivers who want a combination of pleasant on-road characteristics, long wear and all-season versatility, including traction in light snow. Highway All-Season tires branded with the M+S symbol are often used as Original Equipment (O.E.) on 2WD and 4WD, light- and medium-duty vans, trucks and pickups, as well as crossover and sport utility vehicles.",,,,,,,,,,100,0,1,0,0,1,1,1,0,1,1,,,1,0,1,0,1,0,1,0,0,0,1,275/50 R21 113V,0,simple,,
admin,base,Tyre,simple,167,DUN020-ZNQ,0,275/60 R20 115H,,,/dunlop_grandtrekat23.jpg,/dunlop_grandtrekat23.jpg,/dunlop_grandtrekat23.jpg,,,,No layout updates,Product Info Column,,,,,Use config,Use config,No,100,,275/60 R20,275/60 R20,,,2017,Black Wall,"115 H Load Index 115 =  2,678.59lbs (1215kg) per tireSpeed Rating = 130.49mph (210kph)",Black Wall,2017,C,C,65,729,692.55,1,,Enabled,No,"Catalog, Search",Taxable Goods,Yes,No,No,"Highway All-Season light truck tires are for drivers who want a combination of pleasant on-road characteristics, long wear and all-season versatility, including traction in light snow. Highway All-Season tires branded with the M+S symbol are often used as Original Equipment (O.E.) on 2WD and 4WD, light- and medium-duty vans, trucks and pickups, as well as crossover and sport utility vehicles.",,,,,,,,,,100,0,1,0,0,1,1,1,0,1,1,,,1,0,1,0,1,0,1,0,0,0,1,275/60 R20 115H,0,simple,,
admin,base,Tyre,simple,172,DUN484,0,275/70 R16 114T,,,/dunlop_grandtrektg28.jpeg,/dunlop_grandtrektg28.jpeg,/dunlop_grandtrektg28.jpeg,,,,No layout updates,Product Info Column,,,,,Use config,Use config,No,100,,275/70 R16,275/70 R16,,,2017,Black Wall,"114 T Load Index 114 =  2,601.43lbs (1180kg) per tireSpeed Rating = 118.06mph (190kph)",Black Wall,2017,C,C,65,637,605.15,1,,Enabled,No,"Catalog, Search",Taxable Goods,Yes,No,No,"A robust tread pattern for both on- and off- road performance, Fitted as OE to top-of-the-range Japanese recreational vehicles and SUVs, The sidewall protector rib ensures optimum performance for on - and off- road driving.",,,,,,,,,,100,0,1,0,0,1,1,1,0,1,1,,,1,0,1,0,1,0,1,0,0,0,1,275/70 R16 114T,0,simple,,
admin,base,Tyre,simple,192,DUN30007,0,285/30 R20 99Y,,,/dunlop_sportmaxxtt.jpeg,/dunlop_sportmaxxtt.jpeg,/dunlop_sportmaxxtt.jpeg,,,,No layout updates,Product Info Column,,,,,Use config,Use config,No,100,,285/30 R20,285/30 R20,,,2017,Black Wall,"99 Y Load Index 99 =  1,708.57lbs (775kg) per tireSpeed Rating = 186.41mph (300kph)",Black Wall,2017,C,C,65,1049,944.1,1,,Enabled,No,"Catalog, Search",Taxable Goods,Yes,No,No,"The SP Sport Maxx TT (Touch Technology) is Dunlops Max Performance Summer tire developed for the drivers of sports cars, sporty coupes and high performance sedans. Dunlop Touch Technology combines sophisticated tire development and manufacturing techniques to enhance road feedback and driving precision. Like all summer tires, the SP Sport Maxx TT is not intended to be driven in near-freezing temperatures, through snow or on ice.",,,,,,,,,,100,0,1,0,0,1,1,1,0,1,1,,,1,0,1,0,1,0,1,0,0,0,1,285/30 R20 99Y,0,simple,,
admin,base,Tyre,simple,184,DUN35118,0,285/35 R20 100Y,,,/dunlop_sp_sport_maxx_gt600_1_1.jpg,/dunlop_sp_sport_maxx_gt600_1_1.jpg,/dunlop_sp_sport_maxx_gt600_1_1.jpg,,,,No layout updates,Product Info Column,,,,,Use config,Use config,No,100,,285/35 R20,285/35 R20,,,2017,Run Flat/Black Wall,"100 Y Load Index 100 =  1,763.68lbs (800kg) per tireSpeed Rating = 186.41mph (300kph)",Run Flat/Black Wall,2017,C,C,65,2099,1889.1,1,,Enabled,No,"Catalog, Search",Taxable Goods,Yes,No,No,"The SP Sport Maxx GT 600 DSST CTT is an Extreme Performance Summer run-flat tire featuring Dunlop Self-Supporting Technology (DSST) developed for the all-wheel drive Nissan GT-R super sports car. Merging both car and motorcycle tire development and manufacturing technologies, the SP Sport Maxx GT 600 DSST CTT was created as a Combined Technology Tyre (CTT) to enhance ride quality while providing temporary extended mobility for a distance of 50 miles at up to 50 mph even after a puncture has allowed complete air pressure loss. However, like all Extreme Performance Summer tires, these tires are not intended to be serviced, stored nor driven in near- and below-freezing temperatures, through snow or on ice.",,,,,,,,,,100,0,1,0,0,1,1,1,0,1,1,,,1,0,1,0,1,0,1,0,0,0,1,285/35 R20 100Y,0,simple,,
admin,base,Tyre,simple,182,DUN 285/50R19-111W/GCCO,0,285/45 R19 111W,,,/max050_27_1.png,/max050_27_1.png,/max050_27_1.png,,,,No layout updates,Product Info Column,,,,,Use config,Use config,No,100,,285/45 R19,285/45 R19,,,2016,Black Wall,"111 W Load Index 111 =  2,403.01lbs (1090kg) per tireSpeed Rating = 167.77mph (270kph)",Black Wall,2016,C,C,65,749,711.55,1,,Enabled,No,"Catalog, Search",Taxable Goods,Yes,No,No,"Max Performance Summer tires are for serious driving enthusiasts who want a combination of a performance appearance, competent handling and Z-speed rated (or higher) durability with enhanced dry and wet traction. Often used as Original Equipment (O.E.) on powerful sports cars, performance coupes and high performance sedans, Max Performance Summer tires are not intended to be driven in near-freezing temperatures, through snow or on ice.",,,,,,,,,,100,0,1,0,0,1,1,1,0,1,1,,,1,0,1,0,1,0,1,0,0,0,1,285/45 R19 111W,0,simple,,
admin,base,Tyre,simple,168,DUN121-ZNQ,0,285/50 R20 112V,,,/dunlop_grandtrekpt2.jpg,/dunlop_grandtrekpt2.jpg,/dunlop_grandtrekpt2.jpg,,,,No layout updates,Product Info Column,,,,,Use config,Use config,No,100,,285/50 R20,285/50 R20,,,2017,Black Wall,"112 V Load Index 112 =  2,469.15lbs (1120kg) per tireSpeed Rating = 149.13mph (240kph)",Black Wall,2017,C,C,65,899,854.05,1,,Enabled,No,"Catalog, Search",Taxable Goods,Yes,No,No,"Street/Sport Truck All-Season light trucktires are for drivers who want a combination of aggressive, low-profile tires/large rim diameter wheels to enhance their vehicles appearance and handling withall-season versatility, including traction in light snow. Street/Sport Truck All-Season tires branded with the M/S symbol are sometimes used as Original Equipment (O.E.) on 2WD and 4WD light and medium duty pickup, crossover and sport utility vehicles.",,,,,,,,,,100,0,1,0,0,1,1,1,0,1,1,,,1,0,1,0,1,0,1,0,0,0,1,285/50 R20 112V,0,simple,,
admin,base,Tyre,simple,166,DUN733-ZNQ,0,285/60 R18 116V,,,/dunlop_grandtrek_at22_6.jpeg,/dunlop_grandtrek_at22_6.jpeg,/dunlop_grandtrek_at22_6.jpeg,,,,No layout updates,Product Info Column,,,,,Use config,Use config,No,100,,285/60 R18,285/60 R18,,,2017,Black Wall,"116 V Load Index 116 =  2,755.75lbs (1250kg) per tireSpeed Rating = 149.13mph (240kph)",Black Wall,2017,C,C,65,799,759.05,1,,Enabled,No,"Catalog, Search",Taxable Goods,Yes,No,No,"Fitted as original equipment on Toyota LandCruiser for superior 4WD performance. The Grandtrek AT22 features reinforced casing to reduce the risk of sidewall damage in tough off-road conditions. It is suitable for drivers who like to mix up their driving surfaces, on and off-road.",,,,,,,,,,100,0,1,0,0,1,1,1,0,1,1,,,1,0,1,0,1,0,1,0,0,0,1,285/60 R18 116V,0,simple,,
admin,base,Tyre,simple,169,DUN157,0,285/60 R18 116V,,,/grandtrek_pt3_1_7.png,/grandtrek_pt3_1_7.png,/grandtrek_pt3_1_7.png,,,,No layout updates,Product Info Column,,,,,Use config,Use config,No,100,,285/60 R18,285/60 R18,,,2017,Black Wall,"116 V Load Index 116 =  2,755.75lbs (1250kg) per tireSpeed Rating = 149.13mph (240kph)",Black Wall,2017,C,C,65,689,654.55,1,,Enabled,No,"Catalog, Search",Taxable Goods,Yes,No,No,"Highway All-Season light truck tires are for drivers who want a combination of pleasant on-road characteristics, long wear and all-season versatility, including traction in light snow. Highway All-Season tires branded with the M+S symbol are often used as Original Equipment (O.E.) on 2WD and 4WD, light- and medium-duty vans, trucks and pickups, as well as crossover and sport utility vehicles.",,,,,,,,,,100,0,1,0,0,1,1,1,0,1,1,,,1,0,1,0,1,0,1,0,0,0,1,285/60 R18 116V,0,simple,,
admin,base,Tyre,simple,166,DUN714-ZNQ,0,285/65 R17 116H,,,/dunlop_grandtrek_at22_5.jpeg,/dunlop_grandtrek_at22_5.jpeg,/dunlop_grandtrek_at22_5.jpeg,,,,No layout updates,Product Info Column,,,,,Use config,Use config,No,100,,285/65 R17,285/65 R17,,,2017,Black Wall,"116 H Load Index 116 =  2,755.75lbs (1250kg) per tireSpeed Rating = 130.49mph (210kph)",Black Wall,2017,C,C,65,729,692.55,1,,Enabled,No,"Catalog, Search",Taxable Goods,Yes,No,No,"Fitted as original equipment on Toyota LandCruiser for superior 4WD performance. The Grandtrek AT22 features reinforced casing to reduce the risk of sidewall damage in tough off-road conditions. It is suitable for drivers who like to mix up their driving surfaces, on and off-road.",,,,,,,,,,100,0,1,0,0,1,1,1,0,1,1,,,1,0,1,0,1,0,1,0,0,0,1,285/65 R17 116H,0,simple,,
admin,base,Tyre,simple,182,DUN295/40R21ARD111W-ZNQ,0,295/40 R21 111W,,,/max050.png,/max050.png,/max050.png,,,,No layout updates,Product Info Column,,,,,Use config,Use config,No,100,,295/40 R21,295/40 R21,,,2017,Black Wall,"111 W Load Index 111 =  2,403.01lbs (1090kg) per tireSpeed Rating = 167.77mph (270kph)",Black Wall,2017,C,C,65,859,816.05,1,,Enabled,No,"Catalog, Search",Taxable Goods,Yes,No,No,"Max Performance Summer tires are for serious driving enthusiasts who want a combination of a performance appearance, competent handling and Z-speed rated (orhigher) durability with enhanced dry and wet traction. Often used as Original Equipment (O.E.) on powerful sports cars, performance coupes and high performancesedans, Max Performance Summer tires are not intended to be driven in near-freezing temperatures, through snow or on ice.  O.E. Max Performance Summer tires are typically purchased as direct replacements for worn-out pairs/sets of thevehicle's original tires. They can also be used for other vehicle applications in complete sets of four or axle pairs if available in an appropriate size, loadrange and speed rating to match the existing O.E. tires' performance category and specifications.",,,,,,,,,,100,0,1,0,0,1,1,1,0,1,1,,,1,0,1,0,1,0,1,0,0,0,1,295/40 R21 111W,0,simple,,
admin,base,Tyre,simple,180,DUN30024,0,325/30 R21 108Y,,,/dunlop_sportmaxxgt.jpeg,/dunlop_sportmaxxgt.jpeg,/dunlop_sportmaxxgt.jpeg,,,,No layout updates,Product Info Column,,,,,Use config,Use config,No,100,,325/30 R21,325/30 R21,,,2016,Run Flat/Black Wall,"108 Y Load Index 108 =  2,204.60lbs (1000kg) per tireSpeed Rating = 186.41mph (300kph)",Run Flat/Black Wall,2016,C,C,65,2099,188910,1,,Enabled,No,"Catalog, Search",Taxable Goods,Yes,No,No,"The SP Sport Maxx GT is Dunlops Max Performance Summer tire developed for the drivers of pure sports cars, powerful coupes and high performance sedans. SP Sport Maxx GT tires are designed to offer outstanding driver feedback and responsive handling, but like all summer tires are not intended to be driven in near-freezing temperatures, through snow or on ice.",,,,,,,,,,100,0,1,0,0,1,1,1,0,1,1,,,1,0,1,0,1,0,1,0,0,0,1,325/30 R21 108Y,0,simple,,
