store,websites,attribute_set,type,category_ids,has_options,meta_title,meta_description,url_key,url_path,custom_design,page_layout,options_container,image_label,small_image_label,thumbnail_label,msrp_enabled,msrp_display_actual_price_type,gift_message_available,car_make,car_model,car_year,utqg,weight,msrp,status,is_recurring,visibility,tax_class_id,passenger,tyres4_4,vantyres,meta_keyword,custom_layout_update,special_from_date,special_to_date,news_from_date,news_to_date,custom_design_from,custom_design_to,qty,min_qty,use_config_min_qty,is_qty_decimal,backorders,use_config_backorders,min_sale_qty,use_config_min_sale_qty,max_sale_qty,use_config_max_sale_qty,is_in_stock,low_stock_date,notify_stock_qty,use_config_notify_stock_qty,manage_stock,use_config_manage_stock,stock_status_changed_auto,use_config_qty_increments,qty_increments,use_config_enable_qty_inc,enable_qty_increments,is_decimal_divided,stock_status_changed_automatically,use_config_enable_qty_increments,store_id,product_type_id,product_status_changed,product_changed_websites,website,_media_image,_media_lable,_media_position,_media_is_disabled,sku,name,product_name,country_of_manufacture,width,ratio,diameter,serv_desc,sidewall_style,production_year,fuel,weather,sound,size,price,special_price,description,short_description
BS300086,,,,185,70,14,88H,Black Wall,2017,B,C,65,185/70,215,,Bridgestone,Bridgestone,,,,,,,,,,,,,,,,,,,,,,,,,,,,,,,,,,,,,,,,,,,,,,,,,,,,,,,,,,,,,,,,,,,,,,,,,
BS300087,,,,235,55,20,102H,Black Wall,2017,B,C,65,235/55,715,,Bridgestone,Bridgestone,,,,,,,,,,,,,,,,,,,,,,,,,,,,,,,,,,,,,,,,,,,,,,,,,,,,,,,,,,,,,,,,,,,,,,,,,
BS300088,,,,205,55,16,91V,Black Wall,2017,B,C,65,205/55,440,,Bridgestone,Bridgestone,,,,,,,,,,,,,,,,,,,,,,,,,,,,,,,,,,,,,,,,,,,,,,,,,,,,,,,,,,,,,,,,,,,,,,,,,
BS300089,,,,225,40,18,92Y,Black Wall,2017,B,C,65,225/40,675,,Bridgestone,Bridgestone,,,,,,,,,,,,,,,,,,,,,,,,,,,,,,,,,,,,,,,,,,,,,,,,,,,,,,,,,,,,,,,,,,,,,,,,,
BS300090,,,,265,65,17,112H,Black Wall,2017,B,C,65,265/65,550,,Bridgestone,Bridgestone,,,,,,,,,,,,,,,,,,,,,,,,,,,,,,,,,,,,,,,,,,,,,,,,,,,,,,,,,,,,,,,,,,,,,,,,,
BS300091,,,,205,55,16,GR90,Black Wall,2017,B,C,65,205/55,365,,Bridgestone,Bridgestone,,,,,,,,,,,,,,,,,,,,,,,,,,,,,,,,,,,,,,,,,,,,,,,,,,,,,,,,,,,,,,,,,,,,,,,,,
BS300092,,,,245,50,20,102V,Black Wall,2017,B,C,65,245/50,720,,Bridgestone,Bridgestone,,,,,,,,,,,,,,,,,,,,,,,,,,,,,,,,,,,,,,,,,,,,,,,,,,,,,,,,,,,,,,,,,,,,,,,,,
BS300093,,,,700,,16,12PR,Black Wall,2017,B,C,65,700/16,495,,Bridgestone,Bridgestone,,,,,,,,,,,,,,,,,,,,,,,,,,,,,,,,,,,,,,,,,,,,,,,,,,,,,,,,,,,,,,,,,,,,,,,,,
BS300094,,,,215,65,16,C R611,Black Wall,2017,B,C,65,215/65,450,,Bridgestone,Bridgestone,,,,,,,,,,,,,,,,,,,,,,,,,,,,,,,,,,,,,,,,,,,,,,,,,,,,,,,,,,,,,,,,,,,,,,,,,
BS300095,,,,275,55,20,111S,Black Wall,2017,B,C,65,275/55,565,,Bridgestone,Bridgestone,,,,,,,,,,,,,,,,,,,,,,,,,,,,,,,,,,,,,,,,,,,,,,,,,,,,,,,,,,,,,,,,,,,,,,,,,
BS300096,,,,235,40,19,96Y,Black Wall,2017,B,C,65,235/40,840,,Bridgestone,Bridgestone,,,,,,,,,,,,,,,,,,,,,,,,,,,,,,,,,,,,,,,,,,,,,,,,,,,,,,,,,,,,,,,,,,,,,,,,,
BS300097,,,,285,35,20,100Y,Black Wall,2017,B,C,65,285/35,1500,,Bridgestone,Bridgestone,,,,,,,,,,,,,,,,,,,,,,,,,,,,,,,,,,,,,,,,,,,,,,,,,,,,,,,,,,,,,,,,,,,,,,,,,
BS300098,,,,225,50,17,94W,Black Wall,2017,B,C,65,225/50,485,,Bridgestone,Bridgestone,,,,,,,,,,,,,,,,,,,,,,,,,,,,,,,,,,,,,,,,,,,,,,,,,,,,,,,,,,,,,,,,,,,,,,,,,
BS300099,,,,205,70,15,R623,Black Wall,2017,B,C,65,205/70,360,,Bridgestone,Bridgestone,,,,,,,,,,,,,,,,,,,,,,,,,,,,,,,,,,,,,,,,,,,,,,,,,,,,,,,,,,,,,,,,,,,,,,,,,
BS300100,,,,235,55,19,101V,Black Wall,2017,B,C,65,235/55,625,,Bridgestone,Bridgestone,,,,,,,,,,,,,,,,,,,,,,,,,,,,,,,,,,,,,,,,,,,,,,,,,,,,,,,,,,,,,,,,,,,,,,,,,
BS300101,,,,225,65,17,,Black Wall,2017,B,C,65,225/65,440,,Bridgestone,Bridgestone,,,,,,,,,,,,,,,,,,,,,,,,,,,,,,,,,,,,,,,,,,,,,,,,,,,,,,,,,,,,,,,,,,,,,,,,,
BS300102,,,,265,70,18,,Black Wall,2017,B,C,65,265/70,760,,Bridgestone,Bridgestone,,,,,,,,,,,,,,,,,,,,,,,,,,,,,,,,,,,,,,,,,,,,,,,,,,,,,,,,,,,,,,,,,,,,,,,,,
BS300103,,,,225,45,19,92W,Black Wall,2017,B,C,65,225/45,1050,,Bridgestone,Bridgestone,,,,,,,,,,,,,,,,,,,,,,,,,,,,,,,,,,,,,,,,,,,,,,,,,,,,,,,,,,,,,,,,,,,,,,,,,
BS300104,,,,245,45,18,96Y,Black Wall,2017,B,C,65,245/45,890,,Bridgestone,Bridgestone,,,,,,,,,,,,,,,,,,,,,,,,,,,,,,,,,,,,,,,,,,,,,,,,,,,,,,,,,,,,,,,,,,,,,,,,,
BS300105,,,,750,,16,R230,Black Wall,2017,B,C,65,750/16,757,,Bridgestone,Bridgestone,,,,,,,,,,,,,,,,,,,,,,,,,,,,,,,,,,,,,,,,,,,,,,,,,,,,,,,,,,,,,,,,,,,,,,,,,
BS300106,,,,275,40,18,99Y,Black Wall,2017,B,C,65,275/40,665,,Bridgestone,Bridgestone,,,,,,,,,,,,,,,,,,,,,,,,,,,,,,,,,,,,,,,,,,,,,,,,,,,,,,,,,,,,,,,,,,,,,,,,,
BS300107,,,,225,50,17,94Y,Black Wall,2017,B,C,65,225/50,430,,Bridgestone,Bridgestone,,,,,,,,,,,,,,,,,,,,,,,,,,,,,,,,,,,,,,,,,,,,,,,,,,,,,,,,,,,,,,,,,,,,,,,,,
BS300108,,,,225,45,17,91Y,Black Wall,2017,B,C,65,225/45,210,,Bridgestone,Bridgestone,,,,,,,,,,,,,,,,,,,,,,,,,,,,,,,,,,,,,,,,,,,,,,,,,,,,,,,,,,,,,,,,,,,,,,,,,
