store,websites,attribute_set,type,category_ids,sku,has_options,name,meta_title,meta_description,image,small_image,thumbnail,url_key,url_path,custom_design,page_layout,options_container,image_label,small_image_label,thumbnail_label,country_of_manufacture,msrp_enabled,msrp_display_actual_price_type,gift_message_available,width,ratio,size,diameter,car_make,car_model,car_year,sidewall_style,serv_desc,utqg,production_year,fuel,weather,sound,price,special_price,weight,msrp,status,is_recurring,visibility,tax_class_id,passenger,tyres4_4,vantyres,description,short_description,meta_keyword,custom_layout_update,special_from_date,special_to_date,news_from_date,news_to_date,custom_design_from,custom_design_to,qty,min_qty,use_config_min_qty,is_qty_decimal,backorders,use_config_backorders,min_sale_qty,use_config_min_sale_qty,max_sale_qty,use_config_max_sale_qty,is_in_stock,low_stock_date,notify_stock_qty,use_config_notify_stock_qty,manage_stock,use_config_manage_stock,stock_status_changed_auto,use_config_qty_increments,qty_increments,use_config_enable_qty_inc,enable_qty_increments,is_decimal_divided,stock_status_changed_automatically,use_config_enable_qty_increments,product_name,store_id,product_type_id,product_status_changed,product_changed_websites
admin,base,Tyre,simple,24,BS201908,0,B250,,,/bridgestone_b250_2_2_2.jpeg,/bridgestone_b250_2_2_2.jpeg,/bridgestone_b250_2_2_2.jpeg,,,,No layout updates,Product Info Column,,,,,Use config,Use config,No,175,65,175/65 R14,14,,,2017,Black Wall,"82 H Load Index 82 =  1,047.19lbs (475kg) per tire Speed Rating = 130.49mph (210kph)",,2017,C,C,65,260,247,1,,Enabled,No,"Catalog, Search",Taxable Goods,Yes,No,No,The B250 is a total-balance tyre combining the benefits of safety with ride comfort. It is an original equipment (OE) tyre on selected vehicles.,,,,,,,,,,100,0,1,0,0,1,1,1,0,1,1,,,1,0,1,0,1,0,1,0,0,0,1,B250,0,simple,,
admin,base,Tyre,simple,24,BS201815,0,Turanza ER37,,,/bridgestone_turanzaer37_1.jpeg,/bridgestone_turanzaer37_1.jpeg,/bridgestone_turanzaer37_1.jpeg,,,,No layout updates,Product Info Column,,,,,Use config,Use config,No,175,65,175/65 R15,15,,,2017,Black Wall,"84 T Load Index 84 =  1,102.30lbs (500kg) per tire Speed Rating = 118.06mph (190kph)",,2017,C,C,65,320,304,1,,Enabled,No,"Catalog, Search",Taxable Goods,Yes,No,No,"TURANZA aims to achieve the high-level balance that luxury car owners seek, combining comfort, security, driving performance, and advanced technology.  TURANZA will constantly work to improve drivers performance, utilizing cutting-edge tire technology to approach ideal driving conditions for drivers of world-class luxury cars.",,,,,,,,,,100,0,1,0,0,1,1,1,0,1,1,,,1,0,1,0,1,0,1,0,0,0,1,Turanza ER37,0,simple,,
admin,base,Tyre,simple,24,BS201885,0,B250,,,/bridgestone_b250.jpeg,/bridgestone_b250.jpeg,/bridgestone_b250.jpeg,,,,No layout updates,Product Info Column,,,,,Use config,Use config,No,175,70,175/70 R14,14,,,2017,Black Wall,"84 H Load Index 84 =  1,102.30lbs (500kg) per tire Speed Rating = 130.49mph (210kph)",,2017,C,C,65,265,251.75,1,,Enabled,No,"Catalog, Search",Taxable Goods,Yes,No,No,The B250 is a total-balance tyre combining the benefits of safety with ride comfort. It is an original equipment (OE) tyre on selected vehicles.,,,,,,,,,,100,0,1,0,0,1,1,1,0,1,1,,,1,0,1,0,1,0,1,0,0,0,1,B250,0,simple,,
admin,base,Tyre,simple,24,BS201814,0,Turanza ER37,,,/bridgestone_turanzaer37_1_1.jpeg,/bridgestone_turanzaer37_1_1.jpeg,/bridgestone_turanzaer37_1_1.jpeg,,,,No layout updates,Product Info Column,,,,,Use config,Use config,No,185,55,185/55 R16,16,,,2017,Black Wall,"83 H Load Index 83 =  1,073.64lbs (487kg) per tire Speed Rating = 130.49mph (210kph)",,2017,C,C,65,374,355.3,1,,Enabled,No,"Catalog, Search",Taxable Goods,Yes,No,No,"TURANZA aims to achieve the high-level balance that luxury car owners seek, combining comfort, security, driving performance, and advanced technology.  TURANZA will constantly work to improve drivers performance, utilizing cutting-edge tire technology to approach ideal driving conditions for drivers of world-class luxury cars.",,,,,,,,,,100,0,1,0,0,1,1,1,0,1,1,,,1,0,1,0,1,0,1,0,0,0,1,Turanza ER37,0,simple,,
admin,base,Tyre,simple,24,BS201875,0,Turanza AR-20,,,/bridgestone_turanza_ar20.jpeg,/bridgestone_turanza_ar20.jpeg,/bridgestone_turanza_ar20.jpeg,,,,No layout updates,Product Info Column,,,,,Use config,Use config,No,185,60,185/60 R15,15,,,2017,Black Wall,"84 V Load Index 84 =  1,102.30lbs (500kg) per tire Speed Rating = 149.13mph (240kph)",,2017,C,C,65,298,283.1,1,,Enabled,No,"Catalog, Search",Taxable Goods,Yes,No,No,"The Turanza AR-20 embodies a refined balance of comfort and safety. Its advanced tread design delivers a smooth, quiet ride by cushioning shocks and silencing road noise, combined with better braking and responsive handling, all without sacrificing superior wet performance.",,,,,,,,,,100,0,1,0,0,1,1,1,0,1,1,,,1,0,1,0,1,0,1,0,0,0,1,Turanza AR-20,0,simple,,
admin,base,Tyre,simple,24,BS201906,0,Ecopia EP150,,,/bridgestone_ep150_1_1.jpeg,/bridgestone_ep150_1_1.jpeg,/bridgestone_ep150_1_1.jpeg,,,,No layout updates,Product Info Column,,,,,Use config,Use config,No,185,65,185/65 R14,14,,,2017,Black Wall,"86 H Load Index 86 =  1,168.44lbs (530kg) per tire Speed Rating = 130.49mph (210kph)",,2017,C,C,65,276,262.2,1,,Enabled,No,"Catalog, Search",Taxable Goods,Yes,No,No,The EP150 is a tyre that truly reflects Bridgestones advanced technology and commitment to innovation.  This low rolling resistance tyre is designed to deliver excellent fuel economy and low noise while maintaining Bridgestones renowned safety standards.,,,,,,,,,,100,0,1,0,0,1,1,1,0,1,1,,,1,0,1,0,1,0,1,0,0,0,1,Ecopia EP150,0,simple,,
admin,base,Tyre,simple,24,BS201906,0,Ecopia EP150,,,/bridgestone_ep150_1_1.jpeg,/bridgestone_ep150_1_1.jpeg,/bridgestone_ep150_1_1.jpeg,,,,No layout updates,Product Info Column,,,,,Use config,Use config,No,185,65,185/65 R14,14,,,2017,Black Wall,"86 H Load Index 86 =  1,168.44lbs (530kg) per tire Speed Rating = 130.49mph (210kph)",,2017,C,C,65,276,262.2,1,,Enabled,No,"Catalog, Search",Taxable Goods,Yes,No,No,The EP150 is a tyre that truly reflects Bridgestones advanced technology and commitment to innovation.  This low rolling resistance tyre is designed to deliver excellent fuel economy and low noise while maintaining Bridgestones renowned safety standards.,,,,,,,,,,100,0,1,0,0,1,1,1,0,1,1,,,1,0,1,0,1,0,1,0,0,0,1,Ecopia EP150,0,simple,,
admin,base,Tyre,simple,24,BS201860,0,Turanza AR-20,,,/bridgestone_turanza_ar20.jpeg,/bridgestone_turanza_ar20.jpeg,/bridgestone_turanza_ar20.jpeg,,,,No layout updates,Product Info Column,,,,,Use config,Use config,No,185,65,185/65 R14,14,,,2017,Black Wall,"86 H Load Index 86 =  1,168.44lbs (530kg) per tire Speed Rating = 130.49mph (210kph)",,2017,C,C,65,282,267.9,1,,Enabled,No,"Catalog, Search",Taxable Goods,Yes,No,No,"The Turanza AR-20 embodies a refined balance of comfort and safety. Its advanced tread design delivers a smooth, quiet ride by cushioning shocks and silencing road noise, combined with better braking and responsive handling, all without sacrificing superior wet performance.",,,,,,,,,,100,0,1,0,0,1,1,1,0,1,1,,,1,0,1,0,1,0,1,0,0,0,1,Turanza AR-20,0,simple,,
admin,base,Tyre,simple,24,BS201903,0,B250,,,/bridgestone_b250_2.jpeg,/bridgestone_b250_2.jpeg,/bridgestone_b250_2.jpeg,,,,No layout updates,Product Info Column,,,,,Use config,Use config,No,185,65,185/65 R15,15,,,2017,Black Wall,"88 H Load Index 88 =  1,234.58lbs (560kg) per tire Speed Rating = 130.49mph (210kph)",,2017,C,C,65,304,288.8,1,,Enabled,No,"Catalog, Search",Taxable Goods,Yes,No,No,The B250 is a total-balance tyre combining the benefits of safety with ride comfort. It is an original equipment (OE) tyre on selected vehicles.,,,,,,,,,,100,0,1,0,0,1,1,1,0,1,1,,,1,0,1,0,1,0,1,0,0,0,1,B250,0,simple,,
admin,base,Tyre,simple,24,BS201985,0,B391,,,/bridgestone_b391.jpg,/bridgestone_b391.jpg,/bridgestone_b391.jpg,,,,No layout updates,Product Info Column,,,,,Use config,Use config,No,185,65,185/65 R15,15,,,2017,Black Wall,"88 H Load Index 88 =  1,234.58lbs (560kg) per tire Speed Rating = 130.49mph (210kph)",,2017,C,C,65,364,345.8,1,,Enabled,No,"Catalog, Search",Taxable Goods,Yes,No,No,"Offering manoeuvrability and a smooth ride, the B391 is a safe, comfortable touring tyre for modern cars. An original equipment (OE) tyre on selected vehicles, the B391 also features an optimised tread design, which provides even wear across the tread to improve tyre life and manoeuvrability. Circumferential grooves give improved steering response and resistance to hydroplaning.",,,,,,,,,,100,0,1,0,0,1,1,1,0,1,1,,,1,0,1,0,1,0,1,0,0,0,1,B391,0,simple,,
admin,base,Tyre,simple,24,BS201904,0,Ecopia EP150,,,/bridgestone_ep150_1.jpeg,/bridgestone_ep150_1.jpeg,/bridgestone_ep150_1.jpeg,,,,No layout updates,Product Info Column,,,,,Use config,Use config,No,185,70,185/70 R14,14,,,2017,Black Wall,"88 H Load Index 88 =  1,234.58lbs (560kg) per tire Speed Rating = 130.49mph (210kph)",,2017,C,C,65,271,257.45,1,,Enabled,No,"Catalog, Search",Taxable Goods,Yes,No,No,The EP150 is a tyre that truly reflects Bridgestones advanced technology and commitment to innovation.  This low rolling resistance tyre is designed to deliver excellent fuel economy and low noise while maintaining Bridgestones renowned safety standards.,,,,,,,,,,100,0,1,0,0,1,1,1,0,1,1,,,1,0,1,0,1,0,1,0,0,0,1,Ecopia EP150,0,simple,,
admin,base,Tyre,simple,24,BS201904,0,Ecopia EP150,,,/bridgestone_ep150_1.jpeg,/bridgestone_ep150_1.jpeg,/bridgestone_ep150_1.jpeg,,,,No layout updates,Product Info Column,,,,,Use config,Use config,No,185,70,185/70 R14,14,,,2017,Black Wall,"88 H Load Index 88 =  1,234.58lbs (560kg) per tire Speed Rating = 130.49mph (210kph)",,2017,C,C,65,271,257.45,1,,Enabled,No,"Catalog, Search",Taxable Goods,Yes,No,No,The EP150 is a tyre that truly reflects Bridgestones advanced technology and commitment to innovation.  This low rolling resistance tyre is designed to deliver excellent fuel economy and low noise while maintaining Bridgestones renowned safety standards.,,,,,,,,,,100,0,1,0,0,1,1,1,0,1,1,,,1,0,1,0,1,0,1,0,0,0,1,Ecopia EP150,0,simple,,
admin,base,Tyre,simple,24,BS201872,0,Turanza AR-20,,,/bridgestone_turanza_ar20.jpeg,/bridgestone_turanza_ar20.jpeg,/bridgestone_turanza_ar20.jpeg,,,,No layout updates,Product Info Column,,,,,Use config,Use config,No,195,55,195/55 R15,15,,,2017,Black Wall,"85 V Load Index 85 =  1,135.37lbs (515kg) per tire Speed Rating = 149.13mph (240kph)",,2017,C,C,65,320,304,1,,Enabled,No,"Catalog, Search",Taxable Goods,Yes,No,No,"The Turanza AR-20 embodies a refined balance of comfort and safety. Its advanced tread design delivers a smooth, quiet ride by cushioning shocks and silencing road noise, combined with better braking and responsive handling, all without sacrificing superior wet performance.",,,,,,,,,,100,0,1,0,0,1,1,1,0,1,1,,,1,0,1,0,1,0,1,0,0,0,1,Turanza AR-20,0,simple,,
admin,base,Tyre,simple,24,BS201874,0,Turanza AR-20,,,/bridgestone_turanza_ar20.jpeg,/bridgestone_turanza_ar20.jpeg,/bridgestone_turanza_ar20.jpeg,,,,No layout updates,Product Info Column,,,,,Use config,Use config,No,195,55,195/55 R16,16,,,2017,Black Wall,"87 V Load Index 87 =  1,201.51lbs (545kg) per tire Speed Rating = 149.13mph (240kph)",,2017,C,C,65,369,350.55,1,,Enabled,No,"Catalog, Search",Taxable Goods,Yes,No,No,"The Turanza AR-20 embodies a refined balance of comfort and safety. Its advanced tread design delivers a smooth, quiet ride by cushioning shocks and silencing road noise, combined with better braking and responsive handling, all without sacrificing superior wet performance.",,,,,,,,,,100,0,1,0,0,1,1,1,0,1,1,,,1,0,1,0,1,0,1,0,0,0,1,Turanza AR-20,0,simple,,
admin,base,Tyre,simple,24,BS202196,0,Turanza ER3,,,/bridgestone_turanzaer300_6.jpeg,/bridgestone_turanzaer300_6.jpeg,/bridgestone_turanzaer300_6.jpeg,,,,No layout updates,Product Info Column,,,,,Use config,Use config,No,195,55,195/55 R16,16,,,2017,Run Flat / Black Wall,"87 V Load Index 87 =  1,201.51lbs (545kg) per tire Speed Rating = 149.13mph (240kph)",,2017,C,C,65,654,621.3,1,,Enabled,No,"Catalog, Search",Taxable Goods,Yes,No,No,"Using Bridgestone latest technologies, the Turanza ER3 has been designed to complement the handling and ride comfort of luxury and mid-range vehicles. Optimised for low noise, it provides a superb level of comfort without compromising on performance.",,,,,,,,,,100,0,1,0,0,1,1,1,0,1,1,,,1,0,1,0,1,0,1,0,0,0,1,Turanza ER3,0,simple,,
admin,base,Tyre,simple,24,BS201826,0,Ecopia EP150,,,/bridgestone_ep150.jpeg,/bridgestone_ep150.jpeg,/bridgestone_ep150.jpeg,,,,No layout updates,Product Info Column,,,,,Use config,Use config,No,195,60,195/60 R16,16,,,2017,Black Wall,"89 H Load Index 89 =  1,278.67lbs (580kg) per tire Speed Rating = 130.49mph (210kph)",,2017,C,C,65,358,340.1,1,,Enabled,No,"Catalog, Search",Taxable Goods,Yes,No,No,The EP150 is a tyre that truly reflects Bridgestones advanced technology and commitment to innovation.  This low rolling resistance tyre is designed to deliver excellent fuel economy and low noise while maintaining Bridgestone,,,,,,,,,,100,0,1,0,0,1,1,1,0,1,1,,,1,0,1,0,1,0,1,0,0,0,1,Ecopia EP150,0,simple,,
admin,base,Tyre,simple,24,BS201826,0,Ecopia EP150,,,/bridgestone_ep150.jpeg,/bridgestone_ep150.jpeg,/bridgestone_ep150.jpeg,,,,No layout updates,Product Info Column,,,,,Use config,Use config,No,195,60,195/60 R16,16,,,2017,Black Wall,"89 H Load Index 89 =  1,278.67lbs (580kg) per tire Speed Rating = 130.49mph (210kph)",,2017,C,C,65,358,340.1,1,,Enabled,No,"Catalog, Search",Taxable Goods,Yes,No,No,The EP150 is a tyre that truly reflects Bridgestones advanced technology and commitment to innovation.  This low rolling resistance tyre is designed to deliver excellent fuel economy and low noise while maintaining Bridgestone,,,,,,,,,,100,0,1,0,0,1,1,1,0,1,1,,,1,0,1,0,1,0,1,0,0,0,1,Ecopia EP150,0,simple,,
admin,base,Tyre,simple,24,BS201882,0,B250,,,/bridgestone_b250.jpeg,/bridgestone_b250.jpeg,/bridgestone_b250.jpeg,,,,No layout updates,Product Info Column,,,,,Use config,Use config,No,195,65,195/65 R15,15,,,2017,Black Wall,"91 H Load Index 91 =  1,355.83lbs (615kg) per tire Speed Rating = 130.49mph (210kph)",,2017,C,C,65,331,314.45,1,,Enabled,No,"Catalog, Search",Taxable Goods,Yes,No,No,The B250 is a total-balance tyre combining the benefits of safety with ride comfort. It is an original equipment (OE) tyre on selected vehicles.,,,,,,,,,,100,0,1,0,0,1,1,1,0,1,1,,,1,0,1,0,1,0,1,0,0,0,1,B250,0,simple,,
admin,base,Tyre,simple,24,BS201795,0,Turanza ER300,,,/bridgestone_turanzaer300.jpeg,/bridgestone_turanzaer300.jpeg,/bridgestone_turanzaer300.jpeg,,,,No layout updates,Product Info Column,,,,,Use config,Use config,No,195,65,195/65 R15,15,,,2017,Black Wall,"91 H Load Index 91 =  1,355.83lbs (615kg) per tire Speed Rating = 130.49mph (210kph)",,2017,C,C,65,320,304,1,,Enabled,No,"Catalog, Search",Taxable Goods,Yes,No,No,"Using Bridgestone latest technologies, the Turanza ER300 has been designed to complement the handling and ride comfort of luxury and mid-range vehicles. Optimised for low noise, it provides a superb level of comfort without compromising on performance.",,,,,,,,,,100,0,1,0,0,1,1,1,0,1,1,,,1,0,1,0,1,0,1,0,0,0,1,Turanza ER300,0,simple,,
admin,base,Tyre,simple,24,BS201863,0,Turanza AR-20,,,/bridgestone_turanza_ar20.jpeg,/bridgestone_turanza_ar20.jpeg,/bridgestone_turanza_ar20.jpeg,,,,No layout updates,Product Info Column,,,,,Use config,Use config,No,195,70,195/70 R14,14,,,2017,Black Wall,"91 H Load Index 91 =  1,355.83lbs (615kg) per tire Speed Rating = 130.49mph (210kph)",,2017,C,C,65,293,278.35,1,,Enabled,No,"Catalog, Search",Taxable Goods,Yes,No,No,"The Turanza AR-20 embodies a refined balance of comfort and safety. Its advanced tread design delivers a smooth, quiet ride by cushioning shocks and silencing road noise, combined with better braking and responsive handling, all without sacrificing superior wet performance.",,,,,,,,,,100,0,1,0,0,1,1,1,0,1,1,,,1,0,1,0,1,0,1,0,0,0,1,Turanza AR-20,0,simple,,
admin,base,Tyre,simple,24,BS201870,0,Turanza AR-20,,,/bridgestone_turanza_ar20.jpeg,/bridgestone_turanza_ar20.jpeg,/bridgestone_turanza_ar20.jpeg,,,,No layout updates,Product Info Column,,,,,Use config,Use config,No,205,55,205/55 R16,16,,,2017,Black Wall,"91 V Load Index 91 =  1,355.83lbs (615kg) per tire Speed Rating = 149.13mph (240kph)",,2017,C,C,65,369,350.55,1,,Enabled,No,"Catalog, Search",Taxable Goods,Yes,No,No,"The Turanza AR-20 embodies a refined balance of comfort and safety. Its advanced tread design delivers a smooth, quiet ride by cushioning shocks and silencing road noise, combined with better braking and responsive handling, all without sacrificing superior wet performance.",,,,,,,,,,100,0,1,0,0,1,1,1,0,1,1,,,1,0,1,0,1,0,1,0,0,0,1,Turanza AR-20,0,simple,,
admin,base,Tyre,simple,24,BS202037,0,Turanza ER300,,,/bridgestone_turanzaer30.jpg,/bridgestone_turanzaer30.jpg,/bridgestone_turanzaer30.jpg,,,,No layout updates,Product Info Column,,,,,Use config,Use config,No,205,55,205/55 R16,16,,,2017,Black Wall,"91 V Load Index 91 =  1,355.83lbs (615kg) per tire Speed Rating = 149.13mph (240kph)",,2017,C,C,65,449,426.55,1,,Enabled,No,"Catalog, Search",Taxable Goods,Yes,No,No,The Turanza ER300 offers high levels of ride comfort plus performance and is ideally suited to luxury imported vehicles. The tyre,,,,,,,,,,100,0,1,0,0,1,1,1,0,1,1,,,1,0,1,0,1,0,1,0,0,0,1,Turanza ER300,0,simple,,
admin,base,Tyre,simple,24,BS202058,0,Turanza GR90,,,/bridgestone_gr90.jpeg,/bridgestone_gr90.jpeg,/bridgestone_gr90.jpeg,,,,No layout updates,Product Info Column,,,,,Use config,Use config,No,205,55,205/55 R16,16,,,2017,Black Wall,"91 V Load Index 91 =  1,355.83lbs (615kg) per tire Speed Rating = 149.13mph (240kph)",,2017,C,C,65,435,413.25,1,,Enabled,No,"Catalog, Search",Taxable Goods,Yes,No,No,"The Turanza GR90 offers the ultimate in ride comfort, noise reduction and handling. Its superior design and noise-reduction technologies set a new standard for extreme quiet, while the outstanding dynamics and better water dispersion lead to a high level of safety and comfort. The Turanza GR90 has been designed for motorists who want the highest level of ride comfort combined with Bridgestone legendary levels of quality and safety.",,,,,,,,,,100,0,1,0,0,1,1,1,0,1,1,,,1,0,1,0,1,0,1,0,0,0,1,Turanza GR90,0,simple,,
admin,base,Tyre,simple,24,BS201927,0,Potenza Adrenalin ER300,,,/bridgestone_potenza_adrenalin_re003.jpg,/bridgestone_potenza_adrenalin_re003.jpg,/bridgestone_potenza_adrenalin_re003.jpg,,,,No layout updates,Product Info Column,,,,,Use config,Use config,No,205,55,205/55 R16,16,,,2017,Run Flat / Black Wall,"91 W Load Index 91 =  1,355.83lbs (615kg) per tire Speed Rating = 167.77mph (270kph)",,2017,C,C,65,699,664.05,1,,Enabled,No,"Catalog, Search",Taxable Goods,Yes,No,No,The Potenza Adrenalin ER300 has raised the bar even higher for sports performance tyres. Cutting-edge technology in the unique tread pattern and tyres composition has created a performance tyre that delivers an incredible driving experience for sports car drivers and enthusiasts.,,,,,,,,,,100,0,1,0,0,1,1,1,0,1,1,,,1,0,1,0,1,0,1,0,0,0,1,Potenza Adrenalin ER300,0,simple,,
