store,websites,attribute_set,type,category_ids,sku,has_options,name,meta_title,meta_description,image,small_image,thumbnail,url_key,url_path,custom_design,page_layout,options_container,image_label,small_image_label,thumbnail_label,country_of_manufacture,msrp_enabled,msrp_display_actual_price_type,gift_message_available,width,ratio,size,diameter,car_make,car_model,car_year,sidewall_style,serv_desc,utqg,production_year,fuel,weather,sound,price,special_price,weight,msrp,status,is_recurring,visibility,tax_class_id,passenger,tyres4_4,vantyres,description,short_description,meta_keyword,custom_layout_update,special_from_date,special_to_date,news_from_date,news_to_date,custom_design_from,custom_design_to,qty,min_qty,use_config_min_qty,is_qty_decimal,backorders,use_config_backorders,min_sale_qty,use_config_min_sale_qty,max_sale_qty,use_config_max_sale_qty,is_in_stock,low_stock_date,notify_stock_qty,use_config_notify_stock_qty,manage_stock,use_config_manage_stock,stock_status_changed_auto,use_config_qty_increments,qty_increments,use_config_enable_qty_inc,enable_qty_increments,is_decimal_divided,stock_status_changed_automatically,use_config_enable_qty_increments,product_name,store_id,product_type_id,product_status_changed,product_changed_websites
admin,base,Tyre,simple,466,MIC454045,,Pilot Super Sport,,,/michelin_pilotsupersport.jpg,/michelin_pilotsupersport.jpg,/michelin_pilotsupersport.jpg,,,,No layout updates,Product Info Column,,,,,Use config,Use config,No,245,40,245/40 R18,18,,,2017,Black Wall,97 Y,,2017,C,C,65,,,,,,,,,,,,"The Pilot Super Sport is Michelin's Max Performance Summer tire initially introduced as Original Equipment on several of the world's most sophisticated performance vehicles, including the exclusive limited edition Ferrari 599 GTO, Ferrari's fastest road car ever. Developed for drivers who care about how tire technology enhances their vehicle's performance and safety, Pilot Super Sport tires expand the Max Performance Summer tire performance envelope by delivering durability, handling and traction while increasing tread life. Building on the development of racing tires designed to carry Prototype and GT class cars to endurance race victories at the 24 Hours of Le Mans, 12 Hours of Sebring and Road Atlanta's Petit Lemans, Pilot Super Sport tires are designed to deliver consistent performance and longevity by blending Max Performance driving characteristics with extended tread wear.",,,,,,,,,,100,0,1,0,0,1,1,1,0,1,1,,,1,0,1,0,1,0,1,0,0,0,1,Pilot Super Sport,0,simple,,
admin,base,Tyre,simple,466,MIC454045,,Pilot Super Sport,,,/michelin_pilotsupersport.jpg,/michelin_pilotsupersport.jpg,/michelin_pilotsupersport.jpg,,,,No layout updates,Product Info Column,,,,,Use config,Use config,No,245,40,245/40 R18,18,,,2017,Black Wall,97 Y,,2017,C,C,65,,,,,,,,,,,,"The Pilot Super Sport is Michelin's Max Performance Summer tire initially introduced as Original Equipment on several of the world's most sophisticated performance vehicles, including the exclusive limited edition Ferrari 599 GTO, Ferrari's fastest road car ever. Developed for drivers who care about how tire technology enhances their vehicle's performance and safety, Pilot Super Sport tires expand the Max Performance Summer tire performance envelope by delivering durability, handling and traction while increasing tread life. Building on the development of racing tires designed to carry Prototype and GT class cars to endurance race victories at the 24 Hours of Le Mans, 12 Hours of Sebring and Road Atlanta's Petit Lemans, Pilot Super Sport tires are designed to deliver consistent performance and longevity by blending Max Performance driving characteristics with extended tread wear.",,,,,,,,,,100,0,1,0,0,1,1,1,0,1,1,,,1,0,1,0,1,0,1,0,0,0,1,Pilot Super Sport,0,simple,,
admin,base,Tyre,simple,466,MIC007410,,Primacy HP ZP,,,/michelin_primacyhpzp.jpg,/michelin_primacyhpzp.jpg,/michelin_primacyhpzp.jpg,,,,No layout updates,Product Info Column,,,,,Use config,Use config,No,245,40,245/40 R19,19,,,2017,Run Flat/Black Wall,94 Y,,2017,C,C,65,,,,,,,,,,,,"The Primacy HP ZP (Zero Pressure technology) is Michelin's Grand Touring Summer run-flat tire developed to provide long tread life and lasting performance, as well as enhanced braking, steering control and handling on wet roads. The Primacy HP ZP also offers temporary extended mobility (up to 50 miles at 50 mph) in the event a puncture results in complete air loss for current BMW 3 Series sedans, coupes, cabriolets and wagons and Z4 roadsters, as well as MINI Cooper and Cooper S hatchbacks and convertibles featuring Original Equipment self-supporting run-flat tires. Selected sizes of the Primacy HP ZP meet Michelin's Green X standard* for low rolling resistance that confirms the tire's contribution to reducing vehicle fuel consumption and emissions of CO2 gases. While Primacy HP ZP tires are designed to offer reliable traction in dry and wet conditions, they are not intended to be driven in near-freezing temperatures, through snow or on ice.",,,,,,,,,,100,0,1,0,0,1,1,1,0,1,1,,,1,0,1,0,1,0,1,0,0,0,1,Primacy HP ZP,0,simple,,
admin,base,Tyre,simple,466,MIC710421,,Pilot Sport3 GRNX,,,/michelin_pilotsport3grnx_.jpeg,/michelin_pilotsport3grnx_.jpeg,/michelin_pilotsport3grnx_.jpeg,,,,No layout updates,Product Info Column,,,,,Use config,Use config,No,245,40,245/40 R19,19,,,2017,Black Wall,98 Y,,2017,C,C,65,,,,,,,,,,,,"The Pilot Sport 3 is Michelin's Max Performance Summer tire developed as Original Equipment for premium high-performance sports cars, coupes and sedans. Based on Michelin expertise from over a dozen consecutive Le Mans 24-Hour Race victories, the Pilot Sport 3 is an eco-friendly sport tire with Green X branded on its sidewalls to guarantee it offers one of the best energy efficiency levels on the market. The Pilot Sport 3 is designed to balance tread life, fuel efficiency and road gripping performance in dry and wet conditions. However, like all summer tires, they are not intended to be driven in near freezing temperatures, through snow or on ice. The Pilot Sport 3 features Michelin's Green Power Compound to combine grip on wet surfaces with fuel savings and greater longevity. This compound is molded into an asymmetric tread design to enhance dry road response and cornering while Michelin's Anti Surf System combines an optimized profile and tread grooves to cut through puddles and standing water to resist hydroplaning and deliver shorter wet braking distances.",,,,,,,,,,100,0,1,0,0,1,1,1,0,1,1,,,1,0,1,0,1,0,1,0,0,0,1,Pilot Sport3 GRNX,0,simple,,
admin,base,Tyre,simple,466,MIC710421,,Pilot Sport3 GRNX,,,/michelin_pilotsport3grnx_.jpeg,/michelin_pilotsport3grnx_.jpeg,/michelin_pilotsport3grnx_.jpeg,,,,No layout updates,Product Info Column,,,,,Use config,Use config,No,245,40,245/40 R19,19,,,2017,Black Wall,98 Y,,2017,C,C,65,,,,,,,,,,,,"The Pilot Sport 3 is Michelin's Max Performance Summer tire developed as Original Equipment for premium high-performance sports cars, coupes and sedans. Based on Michelin expertise from over a dozen consecutive Le Mans 24-Hour Race victories, the Pilot Sport 3 is an eco-friendly sport tire with Green X branded on its sidewalls to guarantee it offers one of the best energy efficiency levels on the market. The Pilot Sport 3 is designed to balance tread life, fuel efficiency and road gripping performance in dry and wet conditions. However, like all summer tires, they are not intended to be driven in near freezing temperatures, through snow or on ice. The Pilot Sport 3 features Michelin's Green Power Compound to combine grip on wet surfaces with fuel savings and greater longevity. This compound is molded into an asymmetric tread design to enhance dry road response and cornering while Michelin's Anti Surf System combines an optimized profile and tread grooves to cut through puddles and standing water to resist hydroplaning and deliver shorter wet braking distances.",,,,,,,,,,100,0,1,0,0,1,1,1,0,1,1,,,1,0,1,0,1,0,1,0,0,0,1,Pilot Sport3 GRNX,0,simple,,
admin,base,Tyre,simple,466,MIC518047,,Pilot Sport 4,,,/desktop_pilot_sport_4.png,/desktop_pilot_sport_4.png,/desktop_pilot_sport_4.png,,,,No layout updates,Product Info Column,,,,,Use config,Use config,No,245,45,245/45 R17,17,,,2017,Black Wall,99 Y,,2017,C,C,65,,,,,,,,,,,,"The Pilot Sport 3 is Michelin's Max Performance Summer tire developed as Original Equipment for premium high-performance sports cars, coupes and sedans. Based on Michelin expertise from over a dozen consecutive Le Mans 24-Hour Race victories, the Pilot Sport 3 is an eco-friendly sport tire with Green X branded on its sidewalls to guarantee it offers one of the best energy efficiency levels on the market. The Pilot Sport 3 is designed to balance tread life, fuel efficiency and road gripping performance in dry and wet conditions. However, like all summer tires, they are not intended to be driven in near freezing temperatures, through snow or on ice. The Pilot Sport 3 features Michelin's Green Power Compound to combine grip on wet surfaces with fuel savings and greater longevity. This compound is molded into an asymmetric tread design to enhance dry road response and cornering while Michelin's Anti Surf System combines an optimized profile and tread grooves to cut through puddles and standing water to resist hydroplaning and deliver shorter wet braking distances.",,,,,,,,,,100,0,1,0,0,1,1,1,0,1,1,,,1,0,1,0,1,0,1,0,0,0,1,Pilot Sport 4,0,simple,,
admin,base,Tyre,simple,466,MIC773625,,Pilot Sport 4,,,/michelin_pilotsport3grnx__4_2.jpeg,/michelin_pilotsport3grnx__4_2.jpeg,/michelin_pilotsport3grnx__4_2.jpeg,,,,No layout updates,Product Info Column,,,,,Use config,Use config,No,245,45,245/45 R18,18,,,2017,Black Wall,100 Y,,2017,C,C,65,,,,,,,,,,,,"The Pilot Sport 4 is Michelin's Max Performance Summer tire developed as Original Equipment for premium high-performance sports cars, coupes and sedans. Based on Michelin expertise from over a dozen consecutive Le Mans 24-Hour Race victories, the Pilot Sport 4 is an eco-friendly sport tire with Green X branded on its sidewalls to guarantee it offers one of the best energy efficiency levels on the market. The Pilot Sport 4 is designed to balance tread life, fuel efficiency and road gripping performance in dry and wet conditions. However, like all summer tires, they are not intended to be driven in near freezing temperatures, through snow or on ice. The Pilot Sport 4 features Michelin's Green Power Compound to combine grip on wet surfaces with fuel savings and greater longevity. This compound is molded into an asymmetric tread design to enhance dry road response and cornering while Michelin's Anti Surf System combines an optimized profile and tread grooves to cut through puddles and standing water to resist hydroplaning and deliver shorter wet braking distances.",,,,,,,,,,100,0,1,0,0,1,1,1,0,1,1,,,1,0,1,0,1,0,1,0,0,0,1,Pilot Sport 4,0,simple,,
admin,base,Tyre,simple,466,MIC974019,,Primacy 3 AO GRNX,,,/michelin_primacy3.jpeg,/michelin_primacy3.jpeg,/michelin_primacy3.jpeg,,,,No layout updates,Product Info Column,,,,,Use config,Use config,No,245,45,245/45 R18,18,,,2017,Black Wall,100 Y,,2017,C,C,65,,,,,,,,,,,,"The Primacy 3 is Michelin's Grand Touring Summer tire developed for luxury coupe and sedan drivers looking for warm-weather tires that combine good ride and low noise with better braking, steering control and handling on wet roads. Designed to enhance vehicle fuel efficiency and reduce CO2 gas emissions, Primacy 3 tires meet Michelin's Green X standard* for low rolling resistance. While Primacy 3 tires are designed to offer reliable traction in dry and wet conditions in warm ambient temperatures, they are not intended to be driven in near-freezing temperatures, through snow or on ice. Primacy 3 tires feature a new generation Michelin tread compound molded into a symmetric tread design that has a notched center rib flanked by independent intermediate ribs and large shoulder blocks to combine responsive handling and high-speed stability with traction and even treadwear. The Primacy 3 tire's structure includes twin steel belts reinforced by size-optimized BAZ Technology (spirally-wrapped Polyamide Banded At Zero degrees to tire rotation) to enhance ride quality while providing high-speed durability.",,,,,,,,,,100,0,1,0,0,1,1,1,0,1,1,,,1,0,1,0,1,0,1,0,0,0,1,Primacy 3 AO GRNX,0,simple,,
admin,base,Tyre,simple,466,MIC162305,,Pilot Sport 3 MO GRNX,,,/michelin_pilotsport3grnx_.jpeg,/michelin_pilotsport3grnx_.jpeg,/michelin_pilotsport3grnx_.jpeg,,,,No layout updates,Product Info Column,,,,,Use config,Use config,No,245,45,245/45 R19,19,,,2017,Black Wall,102 Y,,2017,C,C,65,,,,,,,,,,,,"The Pilot Sport 3 is Michelin's Max Performance Summer tire developed as Original Equipment for premium high-performance sports cars, coupes and sedans. Based on Michelin expertise from over a dozen consecutive Le Mans 24-Hour Race victories, the Pilot Sport 3 is an eco-friendly sport tire with Green X branded on its sidewalls to guarantee it offers one of the best energy efficiency levels on the market. The Pilot Sport 3 is designed to balance tread life, fuel efficiency and road gripping performance in dry and wet conditions. However, like all summer tires, they are not intended to be driven in near freezing temperatures, through snow or on ice. The Pilot Sport 3 features Michelin's Green Power Compound to combine grip on wet surfaces with fuel savings and greater longevity. This compound is molded into an asymmetric tread design to enhance dry road response and cornering while Michelin's Anti Surf System combines an optimized profile and tread grooves to cut through puddles and standing water to resist hydroplaning and deliver shorter wet braking distances.",,,,,,,,,,100,0,1,0,0,1,1,1,0,1,1,,,1,0,1,0,1,0,1,0,0,0,1,Pilot Sport 3 MO GRNX,0,simple,,
admin,base,Tyre,simple,466,MIC436809,,Primacy 3 ZP*,,,/michelin_primacy3.jpeg,/michelin_primacy3.jpeg,/michelin_primacy3.jpeg,,,,No layout updates,Product Info Column,,,,,Use config,Use config,No,245,45,245/45 R19,19,,,2017,Run Flat/Black Wall,98 Y,,2017,C,C,65,,,,,,,,,,,,"The Primacy 3 is Michelin's Grand Touring Summer tire developed for luxury coupe and sedan drivers looking for warm-weather tires that combine good ride and low noise with better braking, steering control and handling on wet roads. Designed to enhance vehicle fuel efficiency and reduce CO2 gas emissions, Primacy 3 tires meet Michelin's Green X standard* for low rolling resistance. While Primacy 3 tires are designed to offer reliable traction in dry and wet conditions in warm ambient temperatures, they are not intended to be driven in near-freezing temperatures, through snow or on ice. Primacy 3 tires feature a new generation Michelin tread compound molded into a symmetric tread design that has a notched center rib flanked by independent intermediate ribs and large shoulder blocks to combine responsive handling and high-speed stability with traction and even treadwear. The Primacy 3 tire's structure includes twin steel belts reinforced by size-optimized BAZ Technology (spirally-wrapped Polyamide Banded At Zero degrees to tire rotation) to enhance ride quality while providing high-speed durability.",,,,,,,,,,100,0,1,0,0,1,1,1,0,1,1,,,1,0,1,0,1,0,1,0,0,0,1,Primacy 3 ZP*,0,simple,,
admin,base,Tyre,simple,466,MIC290116,,Latitude Sport,,,/michelin_latitudesport.jpg,/michelin_latitudesport.jpg,/michelin_latitudesport.jpg,,,,No layout updates,Product Info Column,,,,,Use config,Use config,No,245,45,245/45 R20,20,,,2017,Black Wall,99 V,,2017,C,C,65,,,,,,,,,,,,"The Latitude Sport is Michelin's Street/Sport Truck Summer tire initially developed for Original Equipment (O.E.) use on some of the world's most prestigious high performance crossover and sport utility vehicles (Audi Q7, Porsche Cayenne and VW Touareg). The Latitude Sport is designed to deliver world-class dry and wet road traction, handling and cornering but like all summer tires, it is not intended to be driven in near-freezing temperatures, through snow or on ice. Latitude Sport tires share the asymmetric tread pattern and dual tread compounds of Michelin Pilot Sport PS2 Max Performance Summer tires for passenger cars. It features a hybrid silica/carbon black compound that begins at the tire's outboard shoulder and continues across the tread to enhance dry traction where a high-silica compound continues to the tire's inboard shoulder to enhance wet traction. Large outboard shoulder blocks along with continuous intermediate and center ribs enhance steering response and cornering stability while wide circumferential grooves and lateral notches help channel water to enhance wet road traction. The tires' internal structure includes two high-tensile, steel cord belts that are further reinforced by size-optimized, precisely placed individual aramid/nylon hybrid filaments that resist tire distortion to provide high-speed durability and enhanced ride quality.",,,,,,,,,,100,0,1,0,0,1,1,1,0,1,1,,,1,0,1,0,1,0,1,0,0,0,1,Latitude Sport,0,simple,,
admin,base,Tyre,simple,466,MIC020687-2016,,Primacy MXM4,,,/michelin_primacymxm4_7.jpeg,/michelin_primacymxm4_7.jpeg,/michelin_primacymxm4_7.jpeg,,,,No layout updates,Product Info Column,,,,,Use config,Use config,No,245,45,245/45 R20,20,,,2017,Black Wall,99 V,,2017,C,C,65,,,,,,,,,,,,"The Primacy MXM4 is Michelin's Grand Touring All-Season tire developed for luxury sedan and coupe drivers looking to combine all-weather handling and traction with good noise and ride comfort. Most Primacy MXM4 tires meet Michelin's Green X standard* for low rolling resistance that confirms the tire's contribution to reducing vehicle fuel consumption and emissions of CO2 gases. The Primacy MXM4 is designed to blend a quiet, comfortable ride, responsive handling and enhanced fuel efficiency with year-round all-season traction, even in light snow. The Primacy MXM4 features Michelin's first use of their patented sunflower oil-enriched Helio Compound technology in an all-season tire to increase traction at low temperatures for improved braking and handling in the wet, as well as better overall performance in the snow. The Helio Compound is molded into an asymmetric tread design featuring a European handling profile with rounder shoulders that are designed to provide progressive, predictable cornering. Circumferential grooves evacuate water out from under the tire's footprint to reduce hydroplaning while Michelin's 3-D Variable Thickness Sipe Technology provides additional biting edges to enhance wet and wintertime traction.",,,,,,,,,,100,0,1,0,0,1,1,1,0,1,1,,,1,0,1,0,1,0,1,0,0,0,1,Primacy MXM4,0,simple,,
admin,base,Tyre,simple,466,MIC020687,,Primacy MXM4,,,/michelin_primacymxm4.jpeg,/michelin_primacymxm4.jpeg,/michelin_primacymxm4.jpeg,,,,No layout updates,Product Info Column,,,,,Use config,Use config,No,245,45,245/45 R20,20,,,2017,Black Wall,99 V,,2017,C,C,65,,,,,,,,,,,,"The Primacy MXM4 is Michelin's Grand Touring All-Season tire developed for luxury sedan and coupe drivers looking to combine all-weather handling and traction with good noise and ride comfort. Most Primacy MXM4 tires meet Michelin's Green X standard* for low rolling resistance that confirms the tire's contribution to reducing vehicle fuel consumption and emissions of CO2 gases. The Primacy MXM4 is designed to blend a quiet, comfortable ride, responsive handling and enhanced fuel efficiency with year-round all-season traction, even in light snow. The Primacy MXM4 features Michelin's first use of their patented sunflower oil-enriched Helio Compound technology in an all-season tire to increase traction at low temperatures for improved braking and handling in the wet, as well as better overall performance in the snow. The Helio Compound is molded into an asymmetric tread design featuring a European handling profile with rounder shoulders that are designed to provide progressive, predictable cornering. Circumferential grooves evacuate water out from under the tire's footprint to reduce hydroplaning while Michelin's 3-D Variable Thickness Sipe Technology provides additional biting edges to enhance wet and wintertime traction.",,,,,,,,,,100,0,1,0,0,1,1,1,0,1,1,,,1,0,1,0,1,0,1,0,0,0,1,Primacy MXM4,0,simple,,
admin,base,Tyre,simple,466,MIC770024-ANF-2016,,Latitude Tour HP,,,/michelin_latitudetourhp_13.jpeg,/michelin_latitudetourhp_13.jpeg,/michelin_latitudetourhp_13.jpeg,,,,No layout updates,Product Info Column,,,,,Use config,Use config,No,245,60,245/60 R18,18,,,2017,Black Wall,104 H,,2017,C,C,65,,,,,,,,,,,,"Michelin uses a range of advanced technologies to bring top handling, comfort and traction to one great crossover tire. The makers' choice for many Acura, Lexus, Mercedes and BMW CVUs as well as the Porsche Cayenne. The all-season compound balances dry, wet and wintertime traction with low rolling resistance for great fuel efficiency. Aramid fiber beneath the tread (with 10 times the tensile strength of steel) provides extra stability and traction. Stable shoulder blocks and a continuous center rib make these tires responsive and stable on the highway. Wide grooves around the circumference help resist hydroplaning; multiple sipes provide biting edges in snow. Precision manufacturing contributes to a smooth, comfortable ride.",,,,,,,,,,100,0,1,0,0,1,1,1,0,1,1,,,1,0,1,0,1,0,1,0,0,0,1,Latitude Tour HP,0,simple,,
admin,base,Tyre,simple,466,MIC770024-ZNQ,,Latitude Tour HP,,,/michelin_latitudetourhp.jpeg,/michelin_latitudetourhp.jpeg,/michelin_latitudetourhp.jpeg,,,,No layout updates,Product Info Column,,,,,Use config,Use config,No,245,60,245/60 R18,18,,,2017,Black Wall,104 H,,2017,C,C,65,,,,,,,,,,,,"Michelin uses a range of advanced technologies to bring top handling, comfort and traction to one great crossover tire. The makers' choice for many Acura, Lexus, Mercedes and BMW CVUs as well as the Porsche Cayenne. The all-season compound balances dry, wet and wintertime traction with low rolling resistance for great fuel efficiency. Aramid fiber beneath the tread (with 10 times the tensile strength of steel) provides extra stability and traction. Stable shoulder blocks and a continuous center rib make these tires responsive and stable on the highway. Wide grooves around the circumference help resist hydroplaning; multiple sipes provide biting edges in snow. Precision manufacturing contributes to a smooth, comfortable ride.",,,,,,,,,,100,0,1,0,0,1,1,1,0,1,1,,,1,0,1,0,1,0,1,0,0,0,1,Latitude Tour HP,0,simple,,
admin,base,Tyre,simple,466,MIC095259,,Latitude Tour HP,,,/michelin_latitudetourhp.jpeg,/michelin_latitudetourhp.jpeg,/michelin_latitudetourhp.jpeg,,,,No layout updates,Product Info Column,,,,,Use config,Use config,No,245,60,245/60 R18,18,,,2017,Black Wall,105 V,,2017,C,C,65,,,,,,,,,,,,"Michelin uses a range of advanced technologies to bring top handling, comfort and traction to one great crossover tire. The makers' choice for many Acura, Lexus, Mercedes and BMW CVUs as well as the Porsche Cayenne. The all-season compound balances dry, wet and wintertime traction with low rolling resistance for great fuel efficiency. Aramid fiber beneath the tread (with 10 times the tensile strength of steel) provides extra stability and traction. Stable shoulder blocks and a continuous center rib make these tires responsive and stable on the highway. Wide grooves around the circumference help resist hydroplaning; multiple sipes provide biting edges in snow. Precision manufacturing contributes to a smooth, comfortable ride.",,,,,,,,,,100,0,1,0,0,1,1,1,0,1,1,,,1,0,1,0,1,0,1,0,0,0,1,Latitude Tour HP,0,simple,,
admin,base,Tyre,simple,466,MIC128931,,Primacy SUV,,,/primacy_suv_6.png,/primacy_suv_6.png,/primacy_suv_6.png,,,,No layout updates,Product Info Column,,,,,Use config,Use config,No,245,65,245/65 R17,17,,,2017,Black Wall,107 H,,2017,C,C,65,,,,,,,,,,,,"Michelin Primacy SUV tyres - the most important safety feature on your SUV, bringing you confidence and a peaceful ride even in the most unpredictable driving conditions. Browse our website for more tyre sizes and tyre prices.       Better Holding on Wet Roads - Thanks to an optimised tread pattern design combined with grip-enhancing Flexmax 2.0 rubber compound, the Michelin Primacy SUV tyre has 6% better road holding on bends compared to its previous generation and 10% better when compared against leading competitors.      Smooth & Comfortable Ride - CushionGuard and EvenPeak technologies absorb road imperfections for a smoother ride.      New Tyre Compound & Tread Design - New FlexMax 2.0 rubber compound and StabiliGrip tread sipe design enhance safety.",,,,,,,,,,100,0,1,0,0,1,1,1,0,1,1,,,1,0,1,0,1,0,1,0,0,0,1,Primacy SUV,0,simple,,
admin,base,Tyre,simple,466,MIC986755,,Primacy SUV,,,/primacy_suv.jpg,/primacy_suv.jpg,/primacy_suv.jpg,,,,No layout updates,Product Info Column,,,,,Use config,Use config,No,245,70,245/70 R16,16,,,2017,Black Wall,111 H,,2017,C,C,65,,,,,,,,,,,,"Michelin Primacy SUV tyres - the most important safety feature on your SUV, bringing you confidence and a peaceful ride even in the most unpredictable driving conditions. Browse our website for more tyre sizes and tyre prices.       Better Holding on Wet Roads - Thanks to an optimised tread pattern design combined with grip-enhancing Flexmax 2.0 rubber compound, the Michelin Primacy SUV tyre has 6% better road holding on bends compared to its previous generation and 10% better when compared against leading competitors.      Smooth & Comfortable Ride - CushionGuard and EvenPeak technologies absorb road imperfections for a smoother ride.      New Tyre Compound & Tread Design - New FlexMax 2.0 rubber compound and StabiliGrip tread sipe design enhance safety.",,,,,,,,,,100,0,1,0,0,1,1,1,0,1,1,,,1,0,1,0,1,0,1,0,0,0,1,Primacy SUV,0,simple,,
admin,base,Tyre,simple,466,MIC408613-2016,,LTX AT2 LRE DT,,,/michelin_ltx_at2_5.jpeg,/michelin_ltx_at2_5.jpeg,/michelin_ltx_at2_5.jpeg,,,,No layout updates,Product Info Column,,,,,Use config,Use config,No,245,75,245/75 R16,16,,,2017,Black Wall,102 R,,2017,C,C,65,,,,,,,,,,,,"The LTX A/T2 is Michelin's On-/Off-Road All-Terrain light truck tire developed to meet the needs of today's recreational and commercial pickup, van and SUV drivers. It was designed to provide even wear, low noise and good fuel efficiency, even in demanding commercial applications while delivering the year-round traction and durability expected from rugged off-road tires without forsaking the on-road comfort and handling expected of a Michelin tire.",,,,,,,,,,100,0,1,0,0,1,1,1,0,1,1,,,1,0,1,0,1,0,1,0,0,0,1,LTX AT2 LRE DT,0,simple,,
admin,base,Tyre,simple,466,MIC408613,,LTX AT2 LRE DT,,,/michelin_ltx_at2.jpeg,/michelin_ltx_at2.jpeg,/michelin_ltx_at2.jpeg,,,,No layout updates,Product Info Column,,,,,Use config,Use config,No,245,75,245/75 R16,16,,,2017,Black Wall,102 R,,2017,C,C,65,,,,,,,,,,,,"The LTX A/T2 is Michelin's On-/Off-Road All-Terrain light truck tire developed to meet the needs of today's recreational and commercial pickup, van and SUV drivers. It was designed to provide even wear, low noise and good fuel efficiency, even in demanding commercial applications while delivering the year-round traction and durability expected from rugged off-road tires without forsaking the on-road comfort and handling expected of a Michelin tire.",,,,,,,,,,100,0,1,0,0,1,1,1,0,1,1,,,1,0,1,0,1,0,1,0,0,0,1,LTX AT2 LRE DT,0,simple,,
admin,base,Tyre,simple,466,MIC313692,,Pilot Sport PS2 ZP,,,/michelin_pilotsportps2_zp.jpeg,/michelin_pilotsportps2_zp.jpeg,/michelin_pilotsportps2_zp.jpeg,,,,No layout updates,Product Info Column,,,,,Use config,Use config,No,255,35,255/35 R18,18,,,2017,Run Flat/Black Wall,90 Y,,2017,C,C,65,,,,,,,,,,,,"The Pilot Sport PS2 ZP (Zero Pressure) is Michelin's Max Performance Summer run-flat tire developed for selected performance sedans and sports cars. Initially introduced as Original Equipment (O.E.) on BMW 3 series sport package cars, the Pilot Sport PS2 ZP has recently expanded its O.E. applications to include Michelin's first Corvette fitment on the highest performing production supercar in Chevrolet's history, the 2009 Corvette ZR1. The Pilot Sport PS2 ZP is designed to combine world class dry road traction, handling and cornering, however it is not intended to be driven in near-freezing temperatures, through snow or on ice.",,,,,,,,,,100,0,1,0,0,1,1,1,0,1,1,,,1,0,1,0,1,0,1,0,0,0,1,Pilot Sport PS2 ZP,0,simple,,
admin,base,Tyre,simple,466,MIC002705,,Pilot Sport 3,,,/michelin_pilotsport3grnx_.jpeg,/michelin_pilotsport3grnx_.jpeg,/michelin_pilotsport3grnx_.jpeg,,,,No layout updates,Product Info Column,,,,,Use config,Use config,No,255,35,255/35 R18,18,,,2017,Black Wall,94 Y,,2017,C,C,65,,,,,,,,,,,,"The Pilot Sport 3 is Michelin's Max Performance Summer tire developed as Original Equipment for premium high-performance sports cars, coupes and sedans. Based on Michelin expertise from over a dozen consecutive Le Mans 24-Hour Race victories, the Pilot Sport 3 is an eco-friendly sport tire with Green X branded on its sidewalls to guarantee it offers one of the best energy efficiency levels on the market. The Pilot Sport 3 is designed to balance tread life, fuel efficiency and road gripping performance in dry and wet conditions. However, like all summer tires, they are not intended to be driven in near freezing temperatures, through snow or on ice. The Pilot Sport 3 features Michelin's Green Power Compound to combine grip on wet surfaces with fuel savings and greater longevity. This compound is molded into an asymmetric tread design to enhance dry road response and cornering while Michelin's Anti Surf System combines an optimized profile and tread grooves to cut through puddles and standing water to resist hydroplaning and deliver shorter wet braking distances.",,,,,,,,,,100,0,1,0,0,1,1,1,0,1,1,,,1,0,1,0,1,0,1,0,0,0,1,Pilot Sport 3,0,simple,,
admin,base,Tyre,simple,466,MIC796573,,Pilot Sport 4,,,/michelin_pilotsport3grnx_.jpeg,/michelin_pilotsport3grnx_.jpeg,/michelin_pilotsport3grnx_.jpeg,,,,No layout updates,Product Info Column,,,,,Use config,Use config,No,255,35,255/35 R18,18,,,2017,Black Wall,94 Y,,2017,C,C,65,,,,,,,,,,,,"The Pilot Sport 3 is Michelin's Max Performance Summer tire developed as Original Equipment for premium high-performance sports cars, coupes and sedans. Based on Michelin expertise from over a dozen consecutive Le Mans 24-Hour Race victories, the Pilot Sport 3 is an eco-friendly sport tire with Green X branded on its sidewalls to guarantee it offers one of the best energy efficiency levels on the market. The Pilot Sport 3 is designed to balance tread life, fuel efficiency and road gripping performance in dry and wet conditions. However, like all summer tires, they are not intended to be driven in near freezing temperatures, through snow or on ice. The Pilot Sport 3 features Michelin's Green Power Compound to combine grip on wet surfaces with fuel savings and greater longevity. This compound is molded into an asymmetric tread design to enhance dry road response and cornering while Michelin's Anti Surf System combines an optimized profile and tread grooves to cut through puddles and standing water to resist hydroplaning and deliver shorter wet braking distances.",,,,,,,,,,100,0,1,0,0,1,1,1,0,1,1,,,1,0,1,0,1,0,1,0,0,0,1,Pilot Sport 4,0,simple,,
admin,base,Tyre,simple,466,MIC133870/ARD,,Pilot Sport 4,,,/michelin_pilotsport3grnx__4_2_1.jpeg,/michelin_pilotsport3grnx__4_2_1.jpeg,/michelin_pilotsport3grnx__4_2_1.jpeg,,,,No layout updates,Product Info Column,,,,,Use config,Use config,No,255,35,255/35 R19,19,,,2017,Black Wall,96 Y,,2017,C,C,65,,,,,,,,,,,,"The Pilot Sport 4 is Michelin's Max Performance Summer tire developed as Original Equipment for premium high-performance sports cars, coupes and sedans. Based on Michelin expertise from over a dozen consecutive Le Mans 24-Hour Race victories, the Pilot Sport 4 is an eco-friendly sport tire with Green X branded on its sidewalls to guarantee it offers one of the best energy efficiency levels on the market. The Pilot Sport 4 is designed to balance tread life, fuel efficiency and road gripping performance in dry and wet conditions. However, like all summer tires, they are not intended to be driven in near freezing temperatures, through snow or on ice. The Pilot Sport 4 features Michelin's Green Power Compound to combine grip on wet surfaces with fuel savings and greater longevity. This compound is molded into an asymmetric tread design to enhance dry road response and cornering while Michelin's Anti Surf System combines an optimized profile and tread grooves to cut through puddles and standing water to resist hydroplaning and deliver shorter wet braking distances.",,,,,,,,,,100,0,1,0,0,1,1,1,0,1,1,,,1,0,1,0,1,0,1,0,0,0,1,Pilot Sport 4,0,simple,,
admin,base,Tyre,simple,466,MIC643781,,Pilot Super Sport,,,/michelin_pilotsupersport.jpg,/michelin_pilotsupersport.jpg,/michelin_pilotsupersport.jpg,,,,No layout updates,Product Info Column,,,,,Use config,Use config,No,255,35,255/35 R19,19,,,2017,Black Wall,96 Y,,2017,C,C,65,,,,,,,,,,,,"The Pilot Super Sport is Michelin's Max Performance Summer tire initially introduced as Original Equipment on several of the world's most sophisticated performance vehicles, including the exclusive limited edition Ferrari 599 GTO, Ferrari's fastest road car ever. Developed for drivers who care about how tire technology enhances their vehicle's performance and safety, Pilot Super Sport tires expand the Max Performance Summer tire performance envelope by delivering durability, handling and traction while increasing tread life. Building on the development of racing tires designed to carry Prototype and GT class cars to endurance race victories at the 24 Hours of Le Mans, 12 Hours of Sebring and Road Atlanta's Petit Lemans, Pilot Super Sport tires are designed to deliver consistent performance and longevity by blending Max Performance driving characteristics with extended tread wear.",,,,,,,,,,100,0,1,0,0,1,1,1,0,1,1,,,1,0,1,0,1,0,1,0,0,0,1,Pilot Super Sport,0,simple,,
