store,websites,attribute_set,type,category_ids,sku,has_options,name,meta_title,meta_description,image,small_image,thumbnail,url_key,url_path,custom_design,page_layout,options_container,image_label,small_image_label,thumbnail_label,country_of_manufacture,msrp_enabled,msrp_display_actual_price_type,gift_message_available,width,ratio,size,diameter,car_make,car_model,car_year,sidewall_style,serv_desc,utqg,production_year,fuel,weather,sound,price,special_price,weight,msrp,status,is_recurring,visibility,tax_class_id,passenger,tyres4_4,vantyres,description,short_description,meta_keyword,custom_layout_update,special_from_date,special_to_date,news_from_date,news_to_date,custom_design_from,custom_design_to,qty,min_qty,use_config_min_qty,is_qty_decimal,backorders,use_config_backorders,min_sale_qty,use_config_min_sale_qty,max_sale_qty,use_config_max_sale_qty,is_in_stock,low_stock_date,notify_stock_qty,use_config_notify_stock_qty,manage_stock,use_config_manage_stock,stock_status_changed_auto,use_config_qty_increments,qty_increments,use_config_enable_qty_inc,enable_qty_increments,is_decimal_divided,stock_status_changed_automatically,use_config_enable_qty_increments,product_name,store_id,product_type_id,product_status_changed,product_changed_websites
admin,base,Tyre,simple,466,MIC973787-2016,,Pilot Super Sport,,,/michelin_pilotsupersport_12.jpg,/michelin_pilotsupersport_12.jpg,/michelin_pilotsupersport_12.jpg,,,,No layout updates,Product Info Column,,,,,Use config,Use config,No,265,40,265/40 R18,18,,,2017,Black Wall,101 Y,,2017,C,C,65,,,,,,,,,,,,"The Pilot Super Sport is Michelin's Max Performance Summer tire initially introduced as Original Equipment on several of the world's most sophisticated performance vehicles, including the exclusive limited edition Ferrari 599 GTO, Ferrari's fastest road car ever. Developed for drivers who care about how tire technology enhances their vehicle's performance and safety, Pilot Super Sport tires expand the Max Performance Summer tire performance envelope by delivering durability, handling and traction while increasing tread life. Building on the development of racing tires designed to carry Prototype and GT class cars to endurance race victories at the 24 Hours of Le Mans, 12 Hours of Sebring and Road Atlanta's Petit Lemans, Pilot Super Sport tires are designed to deliver consistent performance and longevity by blending Max Performance driving characteristics with extended tread wear.",,,,,,,,,,100,0,1,0,0,1,1,1,0,1,1,,,1,0,1,0,1,0,1,0,0,0,1,Pilot Super Sport,0,simple,,
admin,base,Tyre,simple,466,MIC197915,,Latitude Sport 3 N0,,,/michelin_latitudesport3.jpg,/michelin_latitudesport3.jpg,/michelin_latitudesport3.jpg,,,,No layout updates,Product Info Column,,,,,Use config,Use config,No,265,40,265/40 R21,21,,,2017,Black Wall,110 Y,,2017,C,C,65,,,,,,,,,,,,"This Tyre Latitude Sport 3 is designed for powerful SUV's. Due to its dynamics and security, MICHELIN Latitude Sport 3 is homologated for performance SUV models and has a breaking distance shorter by 2.70 m compared to its predecessor MICHELIN Latitude Sport.",,,,,,,,,,100,0,1,0,0,1,1,1,0,1,1,,,1,0,1,0,1,0,1,0,0,0,1,Latitude Sport 3 N0,0,simple,,
admin,base,Tyre,simple,466,MIC197915,,Latitude Sport 3 N0,,,/michelin_latitudesport3.jpg,/michelin_latitudesport3.jpg,/michelin_latitudesport3.jpg,,,,No layout updates,Product Info Column,,,,,Use config,Use config,No,265,40,265/40 R21,21,,,2017,Black Wall,110 Y,,2017,C,C,65,,,,,,,,,,,,"This Tyre Latitude Sport 3 is designed for powerful SUV's. Due to its dynamics and security, MICHELIN Latitude Sport 3 is homologated for performance SUV models and has a breaking distance shorter by 2.70 m compared to its predecessor MICHELIN Latitude Sport.",,,,,,,,,,100,0,1,0,0,1,1,1,0,1,1,,,1,0,1,0,1,0,1,0,0,0,1,Latitude Sport 3 N0,0,simple,,
admin,base,Tyre,simple,466,MIC521105-2016,,Latitude Sport 3 N0,,,/michelin_latitudesport3_10.jpg,/michelin_latitudesport3_10.jpg,/michelin_latitudesport3_10.jpg,,,,No layout updates,Product Info Column,,,,,Use config,Use config,No,265,45,265/45 R20,20,,,2017,Black Wall,104 Y,,2017,C,C,65,,,,,,,,,,,,"This Tyre Latitude Sport 3 is designed for powerful SUV's. Due to its dynamics and security, MICHELIN Latitude Sport 3 is homologated for performance SUV models and has a breaking distance shorter by 2.70 m compared to its predecessor MICHELIN Latitude Sport.",,,,,,,,,,100,0,1,0,0,1,1,1,0,1,1,,,1,0,1,0,1,0,1,0,0,0,1,Latitude Sport 3 N0,0,simple,,
admin,base,Tyre,simple,466,MIC521105,,Latitude Sport 3 N0,,,/michelin_latitudesport3.jpg,/michelin_latitudesport3.jpg,/michelin_latitudesport3.jpg,,,,No layout updates,Product Info Column,,,,,Use config,Use config,No,265,45,265/45 R20,20,,,2017,Black Wall,104 Y,,2017,C,C,65,,,,,,,,,,,,"This Tyre Latitude Sport 3 is designed for powerful SUV's. Due to its dynamics and security, MICHELIN Latitude Sport 3 is homologated for performance SUV models and has a breaking distance shorter by 2.70 m compared to its predecessor MICHELIN Latitude Sport.",,,,,,,,,,100,0,1,0,0,1,1,1,0,1,1,,,1,0,1,0,1,0,1,0,0,0,1,Latitude Sport 3 N0,0,simple,,
admin,base,Tyre,simple,466,MIC521105-2016,,Latitude Sport 3 N0,,,/michelin_latitudesport3_10.jpg,/michelin_latitudesport3_10.jpg,/michelin_latitudesport3_10.jpg,,,,No layout updates,Product Info Column,,,,,Use config,Use config,No,265,45,265/45 R20,20,,,2017,Black Wall,104 Y,,2017,C,C,65,,,,,,,,,,,,"This Tyre Latitude Sport 3 is designed for powerful SUV's. Due to its dynamics and security, MICHELIN Latitude Sport 3 is homologated for performance SUV models and has a breaking distance shorter by 2.70 m compared to its predecessor MICHELIN Latitude Sport.",,,,,,,,,,100,0,1,0,0,1,1,1,0,1,1,,,1,0,1,0,1,0,1,0,0,0,1,Latitude Sport 3 N0,0,simple,,
admin,base,Tyre,simple,466,MIC521105,,Latitude Sport 3 N0,,,/michelin_latitudesport3.jpg,/michelin_latitudesport3.jpg,/michelin_latitudesport3.jpg,,,,No layout updates,Product Info Column,,,,,Use config,Use config,No,265,45,265/45 R20,20,,,2017,Black Wall,104 Y,,2017,C,C,65,,,,,,,,,,,,"This Tyre Latitude Sport 3 is designed for powerful SUV's. Due to its dynamics and security, MICHELIN Latitude Sport 3 is homologated for performance SUV models and has a breaking distance shorter by 2.70 m compared to its predecessor MICHELIN Latitude Sport.",,,,,,,,,,100,0,1,0,0,1,1,1,0,1,1,,,1,0,1,0,1,0,1,0,0,0,1,Latitude Sport 3 N0,0,simple,,
admin,base,Tyre,simple,466,MIC315703,,Latitude Tour HP N0 GRNX,,,/michelin_latitudetourhp.jpeg,/michelin_latitudetourhp.jpeg,/michelin_latitudetourhp.jpeg,,,,No layout updates,Product Info Column,,,,,Use config,Use config,No,265,50,265/50 R19,19,,,2017,Black Wall,110 V,,2017,C,C,65,,,,,,,,,,,,"Michelin uses a range of advanced technologies to bring top handling, comfort and traction to one great crossover tire. The makers' choice for many Acura, Lexus, Mercedes and BMW CVUs as well as the Porsche Cayenne. The all-season compound balances dry, wet and wintertime traction with low rolling resistance for great fuel efficiency. Aramid fiber beneath the tread (with 10 times the tensile strength of steel) provides extra stability and traction. Stable shoulder blocks and a continuous center rib make these tires responsive and stable on the highway. Wide grooves around the circumference help resist hydroplaning; multiple sipes provide biting edges in snow. Precision manufacturing contributes to a smooth, comfortable ride.",,,,,,,,,,100,0,1,0,0,1,1,1,0,1,1,,,1,0,1,0,1,0,1,0,0,0,1,Latitude Tour HP N0 GRNX,0,simple,,
admin,base,Tyre,simple,466,MIC159270,,Latitude Sport 3 N0 GRNX,,,/michelin_latitudesport3.jpg,/michelin_latitudesport3.jpg,/michelin_latitudesport3.jpg,,,,No layout updates,Product Info Column,,,,,Use config,Use config,No,265,50,265/50 R19,19,,,2017,Black Wall,110 Y,,2017,C,C,65,,,,,,,,,,,,"This Tyre Latitude Sport 3 is designed for powerful SUV's. Due to its dynamics and security, MICHELIN Latitude Sport 3 is homologated for performance SUV models and has a breaking distance shorter by 2.70 m compared to its predecessor MICHELIN Latitude Sport.",,,,,,,,,,100,0,1,0,0,1,1,1,0,1,1,,,1,0,1,0,1,0,1,0,0,0,1,Latitude Sport 3 N0 GRNX,0,simple,,
admin,base,Tyre,simple,466,MIC612231-2016,,Latitude Sport 3 GRNX,,,/michelin_latitudesport3_14.jpg,/michelin_latitudesport3_14.jpg,/michelin_latitudesport3_14.jpg,,,,No layout updates,Product Info Column,,,,,Use config,Use config,No,265,50,265/50 R20,20,,,2017,Black Wall,107 V,,2017,C,C,65,,,,,,,,,,,,"The Latitude Sport 3 (third-generation Latitude on-road SUV tire) is Michelin's Street/Sport Truck Summer tire developed as Original Equipment for high performance SUVs and crossovers such as the Porsche Macan S and Macan Turbo. In addition to enhancing vehicle fuel economy by meeting Michelin's Green X low rolling resistance objectives, Latitude Sport 3 tires are designed to deliver world-class dry and wet road traction, handling and cornering. However, like all summer tires, they are not intended to be driven in near-freezing temperatures, through snow or on ice. Latitude Sport 3 tires feature a new tread compound molded into a symmetric design that offers an increased void ratio to improve wet grip compared to its predecessor. Variable thickness sipes reduce tread block deformation, which improves rolling resistance to enhance vehicle fuel economy. The tire's internal structure includes two high-tensile, steel cord belts that are further reinforced by size-optimized, precisely placed individual aramid/nylon hybrid filaments that resist tire distortion to provide high-speed durability and enhanced ride quality.",,,,,,,,,,100,0,1,0,0,1,1,1,0,1,1,,,1,0,1,0,1,0,1,0,0,0,1,Latitude Sport 3 GRNX,0,simple,,
admin,base,Tyre,simple,466,MIC612231,,Latitude Sport 3 GRNX,,,/michelin_latitudesport3.jpg,/michelin_latitudesport3.jpg,/michelin_latitudesport3.jpg,,,,No layout updates,Product Info Column,,,,,Use config,Use config,No,265,50,265/50 R20,20,,,2017,Black Wall,107 V,,2017,C,C,65,,,,,,,,,,,,"The Latitude Sport 3 (third-generation Latitude on-road SUV tire) is Michelin's Street/Sport Truck Summer tire developed as Original Equipment for high performance SUVs and crossovers such as the Porsche Macan S and Macan Turbo. In addition to enhancing vehicle fuel economy by meeting Michelin's Green X low rolling resistance objectives, Latitude Sport 3 tires are designed to deliver world-class dry and wet road traction, handling and cornering. However, like all summer tires, they are not intended to be driven in near-freezing temperatures, through snow or on ice. Latitude Sport 3 tires feature a new tread compound molded into a symmetric design that offers an increased void ratio to improve wet grip compared to its predecessor. Variable thickness sipes reduce tread block deformation, which improves rolling resistance to enhance vehicle fuel economy. The tire's internal structure includes two high-tensile, steel cord belts that are further reinforced by size-optimized, precisely placed individual aramid/nylon hybrid filaments that resist tire distortion to provide high-speed durability and enhanced ride quality.",,,,,,,,,,100,0,1,0,0,1,1,1,0,1,1,,,1,0,1,0,1,0,1,0,0,0,1,Latitude Sport 3 GRNX,0,simple,,
admin,base,Tyre,simple,466,MIC612231-2016,,Latitude Sport 3 GRNX,,,/michelin_latitudesport3_14.jpg,/michelin_latitudesport3_14.jpg,/michelin_latitudesport3_14.jpg,,,,No layout updates,Product Info Column,,,,,Use config,Use config,No,265,50,265/50 R20,20,,,2017,Black Wall,107 V,,2017,C,C,65,,,,,,,,,,,,"The Latitude Sport 3 (third-generation Latitude on-road SUV tire) is Michelin's Street/Sport Truck Summer tire developed as Original Equipment for high performance SUVs and crossovers such as the Porsche Macan S and Macan Turbo. In addition to enhancing vehicle fuel economy by meeting Michelin's Green X low rolling resistance objectives, Latitude Sport 3 tires are designed to deliver world-class dry and wet road traction, handling and cornering. However, like all summer tires, they are not intended to be driven in near-freezing temperatures, through snow or on ice. Latitude Sport 3 tires feature a new tread compound molded into a symmetric design that offers an increased void ratio to improve wet grip compared to its predecessor. Variable thickness sipes reduce tread block deformation, which improves rolling resistance to enhance vehicle fuel economy. The tire's internal structure includes two high-tensile, steel cord belts that are further reinforced by size-optimized, precisely placed individual aramid/nylon hybrid filaments that resist tire distortion to provide high-speed durability and enhanced ride quality.",,,,,,,,,,100,0,1,0,0,1,1,1,0,1,1,,,1,0,1,0,1,0,1,0,0,0,1,Latitude Sport 3 GRNX,0,simple,,
admin,base,Tyre,simple,466,MIC612231,,Latitude Sport 3 GRNX,,,/michelin_latitudesport3.jpg,/michelin_latitudesport3.jpg,/michelin_latitudesport3.jpg,,,,No layout updates,Product Info Column,,,,,Use config,Use config,No,265,50,265/50 R20,20,,,2017,Black Wall,107 V,,2017,C,C,65,,,,,,,,,,,,"The Latitude Sport 3 (third-generation Latitude on-road SUV tire) is Michelin's Street/Sport Truck Summer tire developed as Original Equipment for high performance SUVs and crossovers such as the Porsche Macan S and Macan Turbo. In addition to enhancing vehicle fuel economy by meeting Michelin's Green X low rolling resistance objectives, Latitude Sport 3 tires are designed to deliver world-class dry and wet road traction, handling and cornering. However, like all summer tires, they are not intended to be driven in near-freezing temperatures, through snow or on ice. Latitude Sport 3 tires feature a new tread compound molded into a symmetric design that offers an increased void ratio to improve wet grip compared to its predecessor. Variable thickness sipes reduce tread block deformation, which improves rolling resistance to enhance vehicle fuel economy. The tire's internal structure includes two high-tensile, steel cord belts that are further reinforced by size-optimized, precisely placed individual aramid/nylon hybrid filaments that resist tire distortion to provide high-speed durability and enhanced ride quality.",,,,,,,,,,100,0,1,0,0,1,1,1,0,1,1,,,1,0,1,0,1,0,1,0,0,0,1,Latitude Sport 3 GRNX,0,simple,,
admin,base,Tyre,simple,466,MIC024009,,Latitude Tour HP MO,,,/michelin_latitudetourhp.jpeg,/michelin_latitudetourhp.jpeg,/michelin_latitudetourhp.jpeg,,,,No layout updates,Product Info Column,,,,,Use config,Use config,No,265,60,265/60 R18,18,,,2017,Black Wall,110 V,,2017,C,C,65,,,,,,,,,,,,"Michelin uses a range of advanced technologies to bring top handling, comfort and traction to one great crossover tire. The makers' choice for many Acura, Lexus, Mercedes and BMW CVUs as well as the Porsche Cayenne. The all-season compound balances dry, wet and wintertime traction with low rolling resistance for great fuel efficiency. Aramid fiber beneath the tread (with 10 times the tensile strength of steel) provides extra stability and traction. Stable shoulder blocks and a continuous center rib make these tires responsive and stable on the highway. Wide grooves around the circumference help resist hydroplaning; multiple sipes provide biting edges in snow. Precision manufacturing contributes to a smooth, comfortable ride.",,,,,,,,,,100,0,1,0,0,1,1,1,0,1,1,,,1,0,1,0,1,0,1,0,0,0,1,Latitude Tour HP MO,0,simple,,
admin,base,Tyre,simple,466,MIC328903,,Primacy SUV,,,/primacy_suv_1.png,/primacy_suv_1.png,/primacy_suv_1.png,,,,No layout updates,Product Info Column,,,,,Use config,Use config,No,265,65,265/65 R17,17,,,2017,Black Wall,112 H,,2017,C,C,65,,,,,,,,,,,,"Michelin Primacy SUV tyres - the most important safety feature on your SUV, bringing you confidence and a peaceful ride even in the most unpredictable driving conditions. Browse our website for more tyre sizes and tyre prices.       Better Holding on Wet Roads - Thanks to an optimised tread pattern design combined with grip-enhancing Flexmax 2.0 rubber compound, the Michelin Primacy SUV tyre has 6% better road holding on bends compared to its previous generation and 10% better when compared against leading competitors.      Smooth & Comfortable Ride - CushionGuard and EvenPeak technologies absorb road imperfections for a smoother ride.      New Tyre Compound & Tread Design - New FlexMax 2.0 rubber compound and StabiliGrip tread sipe design enhance safety.",,,,,,,,,,100,0,1,0,0,1,1,1,0,1,1,,,1,0,1,0,1,0,1,0,0,0,1,Primacy SUV,0,simple,,
admin,base,Tyre,simple,466,MIC362431-2016,,Latitude Cross,,,/michelin_latitudecross_2.jpg,/michelin_latitudecross_2.jpg,/michelin_latitudecross_2.jpg,,,,No layout updates,Product Info Column,,,,,Use config,Use config,No,265,70,265/70 R16,16,,,2017,Black Wall,112 H,,2017,C,C,65,,,,,,,,,,,,"Michelin's new Latitude Cross tyre gives drivers of city slicker SUVs a chance to expand their horizons to enjoy the off-road experience their vehicles were designed for - with excellent performance both on and off-road. It provides the same traction as an off-road tyre, and superior steering control. Its ability to grip in mud and to hold and advance on loose ground are comparable to that of an all-terrain tyre.",,,,,,,,,,100,0,1,0,0,1,1,1,0,1,1,,,1,0,1,0,1,0,1,0,0,0,1,Latitude Cross,0,simple,,
admin,base,Tyre,simple,466,MIC362431,,Latitude Cross,,,/michelin_latitudecross.jpg,/michelin_latitudecross.jpg,/michelin_latitudecross.jpg,,,,No layout updates,Product Info Column,,,,,Use config,Use config,No,265,70,265/70 R16,16,,,2017,Black Wall,112 H,,2017,C,C,65,,,,,,,,,,,,"Michelin's new Latitude Cross tyre gives drivers of city slicker SUVs a chance to expand their horizons to enjoy the off-road experience their vehicles were designed for - with excellent performance both on and off-road. It provides the same traction as an off-road tyre, and superior steering control. Its ability to grip in mud and to hold and advance on loose ground are comparable to that of an all-terrain tyre.",,,,,,,,,,100,0,1,0,0,1,1,1,0,1,1,,,1,0,1,0,1,0,1,0,0,0,1,Latitude Cross,0,simple,,
admin,base,Tyre,simple,466,MIC362431-2016,,Latitude Cross,,,/michelin_latitudecross_2.jpg,/michelin_latitudecross_2.jpg,/michelin_latitudecross_2.jpg,,,,No layout updates,Product Info Column,,,,,Use config,Use config,No,265,70,265/70 R16,16,,,2017,Black Wall,112 H,,2017,C,C,65,,,,,,,,,,,,"Michelin's new Latitude Cross tyre gives drivers of city slicker SUVs a chance to expand their horizons to enjoy the off-road experience their vehicles were designed for - with excellent performance both on and off-road. It provides the same traction as an off-road tyre, and superior steering control. Its ability to grip in mud and to hold and advance on loose ground are comparable to that of an all-terrain tyre.",,,,,,,,,,100,0,1,0,0,1,1,1,0,1,1,,,1,0,1,0,1,0,1,0,0,0,1,Latitude Cross,0,simple,,
admin,base,Tyre,simple,466,MIC362431,,Latitude Cross,,,/michelin_latitudecross.jpg,/michelin_latitudecross.jpg,/michelin_latitudecross.jpg,,,,No layout updates,Product Info Column,,,,,Use config,Use config,No,265,70,265/70 R16,16,,,2017,Black Wall,112 H,,2017,C,C,65,,,,,,,,,,,,"Michelin's new Latitude Cross tyre gives drivers of city slicker SUVs a chance to expand their horizons to enjoy the off-road experience their vehicles were designed for - with excellent performance both on and off-road. It provides the same traction as an off-road tyre, and superior steering control. Its ability to grip in mud and to hold and advance on loose ground are comparable to that of an all-terrain tyre.",,,,,,,,,,100,0,1,0,0,1,1,1,0,1,1,,,1,0,1,0,1,0,1,0,0,0,1,Latitude Cross,0,simple,,
admin,base,Tyre,simple,466,MIC938431,,Primacy SUV,,,/primacy_suv_3.png,/primacy_suv_3.png,/primacy_suv_3.png,,,,No layout updates,Product Info Column,,,,,Use config,Use config,No,265,70,265/70 R16,16,,,2017,Black Wall,112 H,,2017,C,C,65,,,,,,,,,,,,"Michelin Primacy SUV tyres - the most important safety feature on your SUV, bringing you confidence and a peaceful ride even in the most unpredictable driving conditions. Browse our website for more tyre sizes and tyre prices.       Better Holding on Wet Roads - Thanks to an optimised tread pattern design combined with grip-enhancing Flexmax 2.0 rubber compound, the Michelin Primacy SUV tyre has 6% better road holding on bends compared to its previous generation and 10% better when compared against leading competitors.      Smooth & Comfortable Ride - CushionGuard and EvenPeak technologies absorb road imperfections for a smoother ride.      New Tyre Compound & Tread Design - New FlexMax 2.0 rubber compound and StabiliGrip tread sipe design enhance safety.",,,,,,,,,,100,0,1,0,0,1,1,1,0,1,1,,,1,0,1,0,1,0,1,0,0,0,1,Primacy SUV,0,simple,,
admin,base,Tyre,simple,466,MIC313698-2016,,LTX AT2 LRE,,,/michelin_ltx_at2_2_1.jpeg,/michelin_ltx_at2_2_1.jpeg,/michelin_ltx_at2_2_1.jpeg,,,,No layout updates,Product Info Column,,,,,Use config,Use config,No,265,70,265/70 R17,17,,,2017,Black Wall,121 R,,2017,C,C,65,,,,,,,,,,,,"The LTX A/T2 is Michelin's On-/Off-Road All-Terrain light truck tire developed to meet the needs of today's recreational and commercial pickup, van and SUV drivers. It was designed to provide even wear, low noise and good fuel efficiency, even in demanding commercial applications while delivering the year-round traction and durability expected from rugged off-road tires without forsaking the on-road comfort and handling expected of a Michelin tire.",,,,,,,,,,100,0,1,0,0,1,1,1,0,1,1,,,1,0,1,0,1,0,1,0,0,0,1,LTX AT2 LRE,0,simple,,
admin,base,Tyre,simple,466,MIC313698-2016,,LTX AT2 LRE,,,/michelin_ltx_at2_2_1.jpeg,/michelin_ltx_at2_2_1.jpeg,/michelin_ltx_at2_2_1.jpeg,,,,No layout updates,Product Info Column,,,,,Use config,Use config,No,265,70,265/70 R17,17,,,2017,Black Wall,121 R,,2017,C,C,65,,,,,,,,,,,,"The LTX A/T2 is Michelin's On-/Off-Road All-Terrain light truck tire developed to meet the needs of today's recreational and commercial pickup, van and SUV drivers. It was designed to provide even wear, low noise and good fuel efficiency, even in demanding commercial applications while delivering the year-round traction and durability expected from rugged off-road tires without forsaking the on-road comfort and handling expected of a Michelin tire.",,,,,,,,,,100,0,1,0,0,1,1,1,0,1,1,,,1,0,1,0,1,0,1,0,0,0,1,LTX AT2 LRE,0,simple,,
admin,base,Tyre,simple,466,MIC34085-2016,,X LT A/S,,,/michelin_ltx_at2_1_1.jpeg,/michelin_ltx_at2_1_1.jpeg,/michelin_ltx_at2_1_1.jpeg,,,,No layout updates,Product Info Column,,,,,Use config,Use config,No,265,70,265/70 R18,18,,,2017,Black Wall,116 T,,2017,C,C,65,,,,,,,,,,,,"Enduring Tread Life in Severe Conditions - LT A/S lasts for mile after mile. Exceptional grip allows you to brake confidently when you need it most.The forces of acceleration, braking, and cornering are evenly distributed to reduce rolling resistance and extend tread life.",,,,,,,,,,100,0,1,0,0,1,1,1,0,1,1,,,1,0,1,0,1,0,1,0,0,0,1,X LT A/S,0,simple,,
admin,base,Tyre,simple,466,MIC782261-2016,,Pilot Sport CUP2,,,/michelin_pilotsportcup2_1_2.png,/michelin_pilotsportcup2_1_2.png,/michelin_pilotsportcup2_1_2.png,,,,No layout updates,Product Info Column,,,,,Use config,Use config,No,275,35,275/35 R19,19,,,2017,Black Wall,100 Y,,2017,C,C,65,,,,,,,,,,,,"The Pilot Sport Cup 2 is Michelin's Streetable Track & Competition tire originally developed for Original Equipment use on the Ferrari 458 Speciale, Mercedes SLS AMG Coupe Black Series and Porsche 918 Spyder hybrid super sports car. Designed to provide faster circuit times and consistent performance lap after lap, the Pilot Sport Cup 2 allows these supercars to achieve their full potential in dry conditions. Like all summer tires they are not intended to be driven in near-freezing temperatures, through slush, snow or on ice. The Pilot Sport Cup 2's tread molds Michelin's Bi-Compound technology into an asymmetric design. Bi-Compound technology features different rubber compounds on the tread's outboard and inboard regions. Massive outboard shoulders feature a tread rubber whose hardness has been specially designed to deliver maximum adherence and outstanding dry grip on curves, especially on tight corners. Notched center ribs and an inboard shoulder use tread rubber featuring a more rigid elastomer to ensure precision steering.",,,,,,,,,,100,0,1,0,0,1,1,1,0,1,1,,,1,0,1,0,1,0,1,0,0,0,1,Pilot Sport CUP2,0,simple,,
admin,base,Tyre,simple,466,MIC548124,,Pilot Sport CUP2,,,/michelin_pilotsportcup2_1_1.png,/michelin_pilotsportcup2_1_1.png,/michelin_pilotsportcup2_1_1.png,,,,No layout updates,Product Info Column,,,,,Use config,Use config,No,275,35,275/35 R19,19,,,2017,Black Wall,100 Y,,2017,C,C,65,,,,,,,,,,,,"The Pilot Sport Cup 2 is Michelin's Streetable Track & Competition tire originally developed for Original Equipment use on the Ferrari 458 Speciale, Mercedes SLS AMG Coupe Black Series and Porsche 918 Spyder hybrid super sports car. Designed to provide faster circuit times and consistent performance lap after lap, the Pilot Sport Cup 2 allows these supercars to achieve their full potential in dry conditions. Like all summer tires they are not intended to be driven in near-freezing temperatures, through slush, snow or on ice. The Pilot Sport Cup 2's tread molds Michelin's Bi-Compound technology into an asymmetric design. Bi-Compound technology features different rubber compounds on the tread's outboard and inboard regions. Massive outboard shoulders feature a tread rubber whose hardness has been specially designed to deliver maximum adherence and outstanding dry grip on curves, especially on tight corners. Notched center ribs and an inboard shoulder use tread rubber featuring a more rigid elastomer to ensure precision steering.",,,,,,,,,,100,0,1,0,0,1,1,1,0,1,1,,,1,0,1,0,1,0,1,0,0,0,1,Pilot Sport CUP2,0,simple,,
