sku,image,small_image,thumbnail
PIR0060,/pirelli/ab3cd1f4-70b9-44b2-8b0f-bba42bfd9f64_1.45e96b11789a5e266c506cdbae7e62db.jpeg?odnHeight=450&odnWidth=450&odnBg=FFFFFF,/pirelli/ab3cd1f4-70b9-44b2-8b0f-bba42bfd9f64_1.45e96b11789a5e266c506cdbae7e62db.jpeg?odnHeight=450&odnWidth=450&odnBg=FFFFFF,/pirelli/ab3cd1f4-70b9-44b2-8b0f-bba42bfd9f64_1.45e96b11789a5e266c506cdbae7e62db.jpeg?odnHeight=450&odnWidth=450&odnBg=FFFFFF
PIR0061,/pirelli/pirelli_pzeronero_1.jpeg,/pirelli/pirelli_pzeronero_1.jpeg,/pirelli/pirelli_pzeronero_1.jpeg
PIR0062,/pirelli/41164ca5-74d8-48c2-8ab3-ade74945270d_1.5b5df3b25da06538af61c208b5f07a86.jpeg?odnHeight=450&odnWidth=450&odnBg=FFFFFF,/pirelli/41164ca5-74d8-48c2-8ab3-ade74945270d_1.5b5df3b25da06538af61c208b5f07a86.jpeg?odnHeight=450&odnWidth=450&odnBg=FFFFFF,/pirelli/41164ca5-74d8-48c2-8ab3-ade74945270d_1.5b5df3b25da06538af61c208b5f07a86.jpeg?odnHeight=450&odnWidth=450&odnBg=FFFFFF
PIR0063,/pirelli/pirelli_pzero.jpeg,/pirelli/pirelli_pzero.jpeg,/pirelli/pirelli_pzero.jpeg
PIR0064,/pirelli/pirelli_scorpionverde_9.jpeg,/pirelli/pirelli_scorpionverde_9.jpeg,/pirelli/pirelli_scorpionverde_9.jpeg
PIR0065,/pirelli/pirelli_scorpionstr.jpg,/pirelli/pirelli_scorpionstr.jpg,/pirelli/pirelli_scorpionstr.jpg
PIR0066,/pirelli/pirelli_p4_1.jpg,/pirelli/pirelli_p4_1.jpg,/pirelli/pirelli_p4_1.jpg
PIR0067,/pirelli/P%20Zero-500x500-product_thumb.jpg,/pirelli/P%20Zero-500x500-product_thumb.jpg,/pirelli/P%20Zero-500x500-product_thumb.jpg
PIR0068,/pirelli/pirelli_pzero.jpeg,/pirelli/pirelli_pzero.jpeg,/pirelli/pirelli_pzero.jpeg
PIR0069,/pirelli/pirelli-255-40r19-100y-p-zero-mo-xl.jpg,/pirelli/pirelli-255-40r19-100y-p-zero-mo-xl.jpg,/pirelli/pirelli-255-40r19-100y-p-zero-mo-xl.jpg
PIR0070,/pirelli/pzero-500x500.jpg,/pirelli/pzero-500x500.jpg,/pirelli/pzero-500x500.jpg
PIR0071,/pirelli/pirelli_cinturatop7.jpeg,/pirelli/pirelli_cinturatop7.jpeg,/pirelli/pirelli_cinturatop7.jpeg
PIR0072,/pirelli/pirelli_pzero.jpeg,/pirelli/pirelli_pzero.jpeg,/pirelli/pirelli_pzero.jpeg
PIR0073,/pirelli/pirelli_pzero.jpeg,/pirelli/pirelli_pzero.jpeg,/pirelli/pirelli_pzero.jpeg
PIR0074,/pirelli/s-l640.jpg,/pirelli/s-l640.jpg,/pirelli/s-l640.jpg
PIR0075,/pirelli/s-l225.jpg,/pirelli/s-l225.jpg,/pirelli/s-l225.jpg
PIR0076,/pirelli/714e7663-ba27-4c70-864d-080dac702448_1.cbeed7997ac0c83ddf0783115fdb3516.jpeg?odnHeight=450&odnWidth=450&odnBg=FFFFFF,/pirelli/714e7663-ba27-4c70-864d-080dac702448_1.cbeed7997ac0c83ddf0783115fdb3516.jpeg?odnHeight=450&odnWidth=450&odnBg=FFFFFF,/pirelli/714e7663-ba27-4c70-864d-080dac702448_1.cbeed7997ac0c83ddf0783115fdb3516.jpeg?odnHeight=450&odnWidth=450&odnBg=FFFFFF
PIR0077,/pirelli/pirelli_pzero.jpeg,/pirelli/pirelli_pzero.jpeg,/pirelli/pirelli_pzero.jpeg
PIR0078,/pirelli/pirelli_pzero_23.jpeg,/pirelli/pirelli_pzero_23.jpeg,/pirelli/pirelli_pzero_23.jpeg
PIR0079,/pirelli/pirelli_pzero_27.jpeg,/pirelli/pirelli_pzero_27.jpeg,/pirelli/pirelli_pzero_27.jpeg
PIR0080,/pirelli/s-l225.jpg,/pirelli/s-l225.jpg,/pirelli/s-l225.jpg
PIR0081,/pirelli/s-l225.jpg,/pirelli/s-l225.jpg,/pirelli/s-l225.jpg
PIR0082,/pirelli/pirelli_cinturatop7.jpeg,/pirelli/pirelli_cinturatop7.jpeg,/pirelli/pirelli_cinturatop7.jpeg
PIR0083,/pirelli/pirelli-pzero-pz4sport_min.jpg?revision=1506598278,/pirelli/pirelli-pzero-pz4sport_min.jpg?revision=1506598278,/pirelli/pirelli-pzero-pz4sport_min.jpg?revision=1506598278
PIR0084,/pirelli/s-l640.jpg,/pirelli/s-l640.jpg,/pirelli/s-l640.jpg
PIR0085,/pirelli/pirelli_cinturatop7.jpeg,/pirelli/pirelli_cinturatop7.jpeg,/pirelli/pirelli_cinturatop7.jpeg
PIR0086,/pirelli/0007572_pirelli_p_zero.jpeg,/pirelli/0007572_pirelli_p_zero.jpeg,/pirelli/0007572_pirelli_p_zero.jpeg
PIR0087,/pirelli/pirelli_pzero.jpeg,/pirelli/pirelli_pzero.jpeg,/pirelli/pirelli_pzero.jpeg
PIR0088,/pirelli/pirelli_pzero_30.jpeg,/pirelli/pirelli_pzero_30.jpeg,/pirelli/pirelli_pzero_30.jpeg
PIR0089,/pirelli/pirelli_pzeronero.jpeg,/pirelli/pirelli_pzeronero.jpeg,/pirelli/pirelli_pzeronero.jpeg
