sku,short_description
PIR1200007386,Pirelli
PIR1200033384,Pirelli
PIR1200030092,Pirelli
PIR1200030102,Pirelli
PIR1200032928,Pirelli
PIR1200032795,Pirelli
PIR1200024010,Pirelli
PIR1200028837,Pirelli
PIR1200035009,Pirelli
PIR1200016408,Pirelli
PIR1200030136,Pirelli
PIR1200007985-ZNQ,Pirelli
PIR1200035877-ZNQ,Pirelli
PIR1200030137,Pirelli
PIR1200024111,Pirelli
PIR1200030140/ANF,Pirelli
PIR1200032930,Pirelli
PIR1200024105,Pirelli
PIR1200024103/ARD,Pirelli
PIR1200028479,Pirelli
PIR1200039493,Pirelli
PIR1200023603,Pirelli
PIR1200012439-ZNQ,Pirelli
PIR1200028855-ZNQ,Pirelli
PIR235/35R20-ZNQ,Pirelli
PIR1200024031,Pirelli
PIR1200038530,Pirelli
PIR1200007350,Pirelli
PIR1200018468,Pirelli
PIR1200038538-2016,Pirelli
PIR1200033147,Pirelli
PIR1200038036,Pirelli
PIR1200024126,Pirelli
PIR1200024064,Pirelli
PIR1200038990-ZNQ,Pirelli
PIR1200036628,Pirelli
PIR1200017582,Pirelli
PIR1200039380-ZNQ,Pirelli
PIR1200011943-ZNQ,Pirelli
PIR1200032932,Pirelli
PIR1200020206,Pirelli
PIR1200023592/AD1564,Pirelli
PIR1200024073,Pirelli
PIR1200024072,Pirelli
PIR1200032830,Pirelli
PIR1200031584-ZNQ,Pirelli
PIR1200014566,Pirelli
PIR1200037291,Pirelli
PIR1200030163,Pirelli
PIR1200016409,Pirelli
PIR1200007552-ZNQ,Pirelli
PIR1200024069-ZNQ,Pirelli
PIR1200035878-ZNQ,Pirelli
PIR1200007568-ZNQ,Pirelli
PIR1200022593,Pirelli
PIR1200033000,Pirelli
PIR1200038531,Pirelli
PIR1200032833,Pirelli
PIR1200007602,Pirelli
PIR1200007613,Pirelli
PIR1200007630,Pirelli
PIR1200007639,Pirelli
PIR1200030179,Pirelli
PIR1200012440-ZNQ,Pirelli
PIR1200039383-ZNQ,Pirelli
PIR265/35R20-ZNQ,Pirelli
PIR1200026678-ZNQ,Pirelli
PIR1200019125,Pirelli
PIR1200038532,Pirelli
PIR1200028749,Pirelli
PIR1200030187,Pirelli
PIR1200017682,Pirelli
PIR1200007675,Pirelli
PIR1200007680,Pirelli
PIR1200030189,Pirelli
PIR1200024049,Pirelli
PIR1200007698-ZNQ,Pirelli
PIR1200039381/GCC,Pirelli
PIR1200022748-ZNQ,Pirelli
PIR1200011942-ZNQ,Pirelli
PIR1200016947,Pirelli
PIR1200032824,Pirelli
PIR1200016411,Pirelli
PIR1200007713,Pirelli
PIR1200031585-ZNQ,Pirelli
PIR1200032855,Pirelli
PIR1200032854,Pirelli
PIR1200032938,Pirelli
PIR1200039485,Pirelli
PIR1200039356,Pirelli
PIR1200031593,Pirelli
PIR1200032838-ZNQ,Pirelli
PIR1200038822,Pirelli
PIR1200030227-ZNQ,Pirelli
PIR1200030557-ZNQ,Pirelli
PIR1200007737-ZNQ,Pirelli
PIR1200016053,Pirelli
PIR1200032857,Pirelli
PIR1200036629-ZNQ,Pirelli
PIR1200007772-ZNQ,Pirelli
PIR1200032841-ZNQ,Pirelli
PIR1200018908,Pirelli
PIR1200039425,Pirelli
PIR1200012441,Pirelli
PIR1200026528-ZNQ,Pirelli
PIR1200024161,Pirelli
PIR1200032842,Pirelli
PIR1200017683-ZNQ,Pirelli
PIR1200024135-ZNQ,Pirelli
PIR1200030202-ZNQ,Pirelli
PIR1200012442-ZNQ,Pirelli
PIR1200039364,Pirelli
PIR1200026677-ZNQ,Pirelli
PIR1200038529,Pirelli
PIR1200032848-ZNQ,Pirelli
