store,websites,attribute_set,type,category_ids,sku,has_options,name,meta_title,meta_description,image,small_image,thumbnail,url_key,url_path,custom_design,page_layout,options_container,image_label,small_image_label,thumbnail_label,country_of_manufacture,msrp_enabled,msrp_display_actual_price_type,gift_message_available,width,ratio,size,diameter,car_make,car_model,car_year,sidewall_style,serv_desc,utqg,production_year,fuel,weather,sound,price,special_price,weight,msrp,status,is_recurring,visibility,tax_class_id,passenger,tyres4_4,vantyres,description,short_description,meta_keyword,custom_layout_update,special_from_date,special_to_date,news_from_date,news_to_date,custom_design_from,custom_design_to,qty,min_qty,use_config_min_qty,is_qty_decimal,backorders,use_config_backorders,min_sale_qty,use_config_min_sale_qty,max_sale_qty,use_config_max_sale_qty,is_in_stock,low_stock_date,notify_stock_qty,use_config_notify_stock_qty,manage_stock,use_config_manage_stock,stock_status_changed_auto,use_config_qty_increments,qty_increments,use_config_enable_qty_inc,enable_qty_increments,is_decimal_divided,stock_status_changed_automatically,use_config_enable_qty_increments,product_name,store_id,product_type_id,product_status_changed,product_changed_websites
admin,base,Tyre,simple,466,MIC169622,,Latitude Sport 3 GRNX,,,/michelin_latitudesport3.jpg,/michelin_latitudesport3.jpg,/michelin_latitudesport3.jpg,,,,No layout updates,Product Info Column,,,,,Use config,Use config,No,255,55,255/55 R18,18,,,2017,Black Wall,109 V,,2017,C,C,65,,,,,,,,,,,,"The Latitude Sport 3 (third-generation Latitude on-road SUV tire) is Michelin's Street/Sport Truck Summer tire developed as Original Equipment for high performance SUVs and crossovers such as the Porsche Macan S and Macan Turbo. In addition to enhancing vehicle fuel economy by meeting Michelin's Green X low rolling resistance objectives, Latitude Sport 3 tires are designed to deliver world-class dry and wet road traction, handling and cornering. However, like all summer tires, they are not intended to be driven in near-freezing temperatures, through snow or on ice. Latitude Sport 3 tires feature a new tread compound molded into a symmetric design that offers an increased void ratio to improve wet grip compared to its predecessor. Variable thickness sipes reduce tread block deformation, which improves rolling resistance to enhance vehicle fuel economy. The tire's internal structure includes two high-tensile, steel cord belts that are further reinforced by size-optimized, precisely placed individual aramid/nylon hybrid filaments that resist tire distortion to provide high-speed durability and enhanced ride quality.",,,,,,,,,,100,0,1,0,0,1,1,1,0,1,1,,,1,0,1,0,1,0,1,0,0,0,1,Latitude Sport 3 GRNX,0,simple,,
admin,base,Tyre,simple,466,MIC169622,,Latitude Sport 3 GRNX,,,/michelin_latitudesport3.jpg,/michelin_latitudesport3.jpg,/michelin_latitudesport3.jpg,,,,No layout updates,Product Info Column,,,,,Use config,Use config,No,255,55,255/55 R18,18,,,2017,Black Wall,109 V,,2017,C,C,65,,,,,,,,,,,,"The Latitude Sport 3 (third-generation Latitude on-road SUV tire) is Michelin's Street/Sport Truck Summer tire developed as Original Equipment for high performance SUVs and crossovers such as the Porsche Macan S and Macan Turbo. In addition to enhancing vehicle fuel economy by meeting Michelin's Green X low rolling resistance objectives, Latitude Sport 3 tires are designed to deliver world-class dry and wet road traction, handling and cornering. However, like all summer tires, they are not intended to be driven in near-freezing temperatures, through snow or on ice. Latitude Sport 3 tires feature a new tread compound molded into a symmetric design that offers an increased void ratio to improve wet grip compared to its predecessor. Variable thickness sipes reduce tread block deformation, which improves rolling resistance to enhance vehicle fuel economy. The tire's internal structure includes two high-tensile, steel cord belts that are further reinforced by size-optimized, precisely placed individual aramid/nylon hybrid filaments that resist tire distortion to provide high-speed durability and enhanced ride quality.",,,,,,,,,,100,0,1,0,0,1,1,1,0,1,1,,,1,0,1,0,1,0,1,0,0,0,1,Latitude Sport 3 GRNX,0,simple,,
admin,base,Tyre,simple,466,MIC760575,,Latitude Sport 3 ZP GRNX,,,/michelin_latitudesport3.jpg,/michelin_latitudesport3.jpg,/michelin_latitudesport3.jpg,,,,No layout updates,Product Info Column,,,,,Use config,Use config,No,255,55,255/55 R18,18,,,2017,Run Flat/Black Wall,109 V,,2017,C,C,65,,,,,,,,,,,,"The Latitude Sport 3 (third-generation Latitude on-road SUV tire) is Michelin's Street/Sport Truck Summer tire developed as Original Equipment for high performance SUVs and crossovers such as the Porsche Macan S and Macan Turbo. In addition to enhancing vehicle fuel economy by meeting Michelin's Green X low rolling resistance objectives, Latitude Sport 3 tires are designed to deliver world-class dry and wet road traction, handling and cornering. However, like all summer tires, they are not intended to be driven in near-freezing temperatures, through snow or on ice. Latitude Sport 3 tires feature a new tread compound molded into a symmetric design that offers an increased void ratio to improve wet grip compared to its predecessor. Variable thickness sipes reduce tread block deformation, which improves rolling resistance to enhance vehicle fuel economy. The tire's internal structure includes two high-tensile, steel cord belts that are further reinforced by size-optimized, precisely placed individual aramid/nylon hybrid filaments that resist tire distortion to provide high-speed durability and enhanced ride quality.",,,,,,,,,,100,0,1,0,0,1,1,1,0,1,1,,,1,0,1,0,1,0,1,0,0,0,1,Latitude Sport 3 ZP GRNX,0,simple,,
admin,base,Tyre,simple,466,MIC095304 / ARD,,Latitude Tour HP N1 GRNX,,,/michelin_latitudetourhp.jpeg,/michelin_latitudetourhp.jpeg,/michelin_latitudetourhp.jpeg,,,,No layout updates,Product Info Column,,,,,Use config,Use config,No,255,55,255/55 R18,18,,,2017,Black Wall,109 V,,2017,C,C,65,,,,,,,,,,,,"Michelin uses a range of advanced technologies to bring top handling, comfort and traction to one great crossover tire. The makers' choice for many Acura, Lexus, Mercedes and BMW CVUs as well as the Porsche Cayenne. The all-season compound balances dry, wet and wintertime traction with low rolling resistance for great fuel efficiency. Aramid fiber beneath the tread (with 10 times the tensile strength of steel) provides extra stability and traction. Stable shoulder blocks and a continuous center rib make these tires responsive and stable on the highway. Wide grooves around the circumference help resist hydroplaning; multiple sipes provide biting edges in snow. Precision manufacturing contributes to a smooth, comfortable ride.",,,,,,,,,,100,0,1,0,0,1,1,1,0,1,1,,,1,0,1,0,1,0,1,0,0,0,1,Latitude Tour HP N1 GRNX,0,simple,,
admin,base,Tyre,simple,466,MIC514028,,Latitude Sport N1,,,/michelin_latitudesport.jpg,/michelin_latitudesport.jpg,/michelin_latitudesport.jpg,,,,No layout updates,Product Info Column,,,,,Use config,Use config,No,255,55,255/55 R18,18,,,2017,Black Wall,109 Y,,2017,C,C,65,,,,,,,,,,,,"Ultra high-performance SUV and Crossover tyre that offers sport performance capabilities via excellent dry grip. Features a zero degree belt with variable spacing, which limits the deformation across the tread and allows a more uniform pressure within the tyre.",,,,,,,,,,100,0,1,0,0,1,1,1,0,1,1,,,1,0,1,0,1,0,1,0,0,0,1,Latitude Sport N1,0,simple,,
admin,base,Tyre,simple,466,MIC049336-2016,,Latitude Tour HP GRNX,,,/michelin_latitudetourhp_17.jpeg,/michelin_latitudetourhp_17.jpeg,/michelin_latitudetourhp_17.jpeg,,,,No layout updates,Product Info Column,,,,,Use config,Use config,No,255,55,255/55 R19,19,,,2017,Black Wall,111 V,,2017,C,C,65,,,,,,,,,,,,"Michelin uses a range of advanced technologies to bring top handling, comfort and traction to one great crossover tire. The makers' choice for many Acura, Lexus, Mercedes and BMW CVUs as well as the Porsche Cayenne. The all-season compound balances dry, wet and wintertime traction with low rolling resistance for great fuel efficiency. Aramid fiber beneath the tread (with 10 times the tensile strength of steel) provides extra stability and traction. Stable shoulder blocks and a continuous center rib make these tires responsive and stable on the highway. Wide grooves around the circumference help resist hydroplaning; multiple sipes provide biting edges in snow. Precision manufacturing contributes to a smooth, comfortable ride.",,,,,,,,,,100,0,1,0,0,1,1,1,0,1,1,,,1,0,1,0,1,0,1,0,0,0,1,Latitude Tour HP GRNX,0,simple,,
admin,base,Tyre,simple,466,MIC423863-2016,,Latitude Cross,,,/michelin_latitudecross_4.jpg,/michelin_latitudecross_4.jpg,/michelin_latitudecross_4.jpg,,,,No layout updates,Product Info Column,,,,,Use config,Use config,No,255,65,255/65 R17,17,,,2017,Black Wall,114 H,,2017,C,C,65,,,,,,,,,,,,"Michelin's new Latitude Cross tyre gives drivers of city slicker SUVs a chance to expand their horizons to enjoy the off-road experience their vehicles were designed for - with excellent performance both on and off-road. It provides the same traction as an off-road tyre, and superior steering control. Its ability to grip in mud and to hold and advance on loose ground are comparable to that of an all-terrain tyre.",,,,,,,,,,100,0,1,0,0,1,1,1,0,1,1,,,1,0,1,0,1,0,1,0,0,0,1,Latitude Cross,0,simple,,
admin,base,Tyre,simple,466,MIC423863-2016,,Latitude Cross,,,/michelin_latitudecross_4.jpg,/michelin_latitudecross_4.jpg,/michelin_latitudecross_4.jpg,,,,No layout updates,Product Info Column,,,,,Use config,Use config,No,255,65,255/65 R17,17,,,2017,Black Wall,114 H,,2017,C,C,65,,,,,,,,,,,,"Michelin's new Latitude Cross tyre gives drivers of city slicker SUVs a chance to expand their horizons to enjoy the off-road experience their vehicles were designed for - with excellent performance both on and off-road. It provides the same traction as an off-road tyre, and superior steering control. Its ability to grip in mud and to hold and advance on loose ground are comparable to that of an all-terrain tyre.",,,,,,,,,,100,0,1,0,0,1,1,1,0,1,1,,,1,0,1,0,1,0,1,0,0,0,1,Latitude Cross,0,simple,,
admin,base,Tyre,simple,466,MIC139542-2016,,LTX AT2 DT ORWL,,,/michelin_ltx_at2_1_1.jpg,/michelin_ltx_at2_1_1.jpg,/michelin_ltx_at2_1_1.jpg,,,,No layout updates,Product Info Column,,,,,Use config,Use config,No,255,70,255/70 R16,16,,,2017,Black Wall,111 T,,2017,C,C,65,,,,,,,,,,,,"Michelin LTX A/T2 Tire is an all terrain SUV and truck tire perfect for on or off-road driving conditions. Michelin LTX A/T2 tires lead the class in traction durability off-road, by offering tires that dig into any surface including dirt, gravel, mud and wet grass. The tires also lead the class in on-road comfort and handling due to Michelin Comfort Control Technology, premium manufacturing and computer optimized design that offers decreased vibrations and noise.",,,,,,,,,,100,0,1,0,0,1,1,1,0,1,1,,,1,0,1,0,1,0,1,0,0,0,1,LTX AT2 DT ORWL,0,simple,,
admin,base,Tyre,simple,466,MIC615912,,Pilot Sport 4,,,/michelin_pilotsport3grnx__4_4.jpeg,/michelin_pilotsport3grnx__4_4.jpeg,/michelin_pilotsport3grnx__4_4.jpeg,,,,No layout updates,Product Info Column,,,,,Use config,Use config,No,265,35,265/35 R18,18,,,2017,Black Wall,96 Y L,,2017,C,C,65,,,,,,,,,,,,"The Pilot Sport 4 is Michelin's Max Performance Summer tire developed as Original Equipment for premium high-performance sports cars, coupes and sedans. Based on Michelin expertise from over a dozen consecutive Le Mans 24-Hour Race victories, the Pilot Sport 4 is an eco-friendly sport tire with Green X branded on its sidewalls to guarantee it offers one of the best energy efficiency levels on the market. The Pilot Sport 4 is designed to balance tread life, fuel efficiency and road gripping performance in dry and wet conditions. However, like all summer tires, they are not intended to be driven in near freezing temperatures, through snow or on ice. The Pilot Sport 4 features Michelin's Green Power Compound to combine grip on wet surfaces with fuel savings and greater longevity. This compound is molded into an asymmetric tread design to enhance dry road response and cornering while Michelin's Anti Surf System combines an optimized profile and tread grooves to cut through puddles and standing water to resist hydroplaning and deliver shorter wet braking distances.",,,,,,,,,,100,0,1,0,0,1,1,1,0,1,1,,,1,0,1,0,1,0,1,0,0,0,1,Pilot Sport 4,0,simple,,
admin,base,Tyre,simple,466,MIC505499-2016,,Pilot Sport PS2 N2,,,/michelin_pilotsportps_4.jpg,/michelin_pilotsportps_4.jpg,/michelin_pilotsportps_4.jpg,,,,No layout updates,Product Info Column,,,,,Use config,Use config,No,265,35,265/35 R19,19,,,2017,Black Wall,94 Y L,,2017,C,C,65,,,,,,,,,,,,"The Pilot Sport PS2 is a Max Performance Summer tire member of the Michelin Pilot family of low profile, high-speed tires. Initially developed for Original Equipment (O.E.) on some of the world's most prestigious sports cars and performance sedans, the Pilot Sport PS2 combines world-class dry road traction, handling and cornering. Some of the first Pilot Sport PS2 O.E. fitments included the BMW Alpina Z8, McLaren SLR and Porsche GT2/GT3 models. The Pilot Sport PS2 is not intended to be driven in near-freezing temperatures, through snow or on ice. On the outside, Pilot Sport PS2 features two different tread rubber compounds (a hybrid silica/carbon black compound that begins at the tire's outer shoulder and continues across the tread until it joins a high-silica compound that continues to the tire's inside shoulder) molded into an asymmetric design with large outer shoulder blocks and continuous intermediate and center ribs to enhance steering response and cornering stability. Both tread compounds are specifically formulated for their location to combine dry and wet traction with crisp corning and high speed capability. The tread design also features wide circumferential grooves and lateral notches that help channel water through the footprint to enhance wet road traction.",,,,,,,,,,100,0,1,0,0,1,1,1,0,1,1,,,1,0,1,0,1,0,1,0,0,0,1,Pilot Sport PS2 N2,0,simple,,
admin,base,Tyre,simple,466,MIC505499,,Pilot Sport PS2 N2,,,/michelin_pilotsportps.jpg,/michelin_pilotsportps.jpg,/michelin_pilotsportps.jpg,,,,No layout updates,Product Info Column,,,,,Use config,Use config,No,265,35,265/35 R19,19,,,2017,Black Wall,94 Y L,,2017,C,C,65,,,,,,,,,,,,"The Pilot Sport PS2 is a Max Performance Summer tire member of the Michelin Pilot family of low profile, high-speed tires. Initially developed for Original Equipment (O.E.) on some of the world's most prestigious sports cars and performance sedans, the Pilot Sport PS2 combines world-class dry road traction, handling and cornering. Some of the first Pilot Sport PS2 O.E. fitments included the BMW Alpina Z8, McLaren SLR and Porsche GT2/GT3 models. The Pilot Sport PS2 is not intended to be driven in near-freezing temperatures, through snow or on ice. On the outside, Pilot Sport PS2 features two different tread rubber compounds (a hybrid silica/carbon black compound that begins at the tire's outer shoulder and continues across the tread until it joins a high-silica compound that continues to the tire's inside shoulder) molded into an asymmetric design with large outer shoulder blocks and continuous intermediate and center ribs to enhance steering response and cornering stability. Both tread compounds are specifically formulated for their location to combine dry and wet traction with crisp corning and high speed capability. The tread design also features wide circumferential grooves and lateral notches that help channel water through the footprint to enhance wet road traction.",,,,,,,,,,100,0,1,0,0,1,1,1,0,1,1,,,1,0,1,0,1,0,1,0,0,0,1,Pilot Sport PS2 N2,0,simple,,
admin,base,Tyre,simple,466,MIC505499-2016,,Pilot Sport PS2 N2,,,/michelin_pilotsportps_4.jpg,/michelin_pilotsportps_4.jpg,/michelin_pilotsportps_4.jpg,,,,No layout updates,Product Info Column,,,,,Use config,Use config,No,265,35,265/35 R19,19,,,2017,Black Wall,94 Y L,,2017,C,C,65,,,,,,,,,,,,"The Pilot Sport PS2 is a Max Performance Summer tire member of the Michelin Pilot family of low profile, high-speed tires. Initially developed for Original Equipment (O.E.) on some of the world's most prestigious sports cars and performance sedans, the Pilot Sport PS2 combines world-class dry road traction, handling and cornering. Some of the first Pilot Sport PS2 O.E. fitments included the BMW Alpina Z8, McLaren SLR and Porsche GT2/GT3 models. The Pilot Sport PS2 is not intended to be driven in near-freezing temperatures, through snow or on ice. On the outside, Pilot Sport PS2 features two different tread rubber compounds (a hybrid silica/carbon black compound that begins at the tire's outer shoulder and continues across the tread until it joins a high-silica compound that continues to the tire's inside shoulder) molded into an asymmetric design with large outer shoulder blocks and continuous intermediate and center ribs to enhance steering response and cornering stability. Both tread compounds are specifically formulated for their location to combine dry and wet traction with crisp corning and high speed capability. The tread design also features wide circumferential grooves and lateral notches that help channel water through the footprint to enhance wet road traction.",,,,,,,,,,100,0,1,0,0,1,1,1,0,1,1,,,1,0,1,0,1,0,1,0,0,0,1,Pilot Sport PS2 N2,0,simple,,
admin,base,Tyre,simple,466,MIC505499,,Pilot Sport PS2 N2,,,/michelin_pilotsportps.jpg,/michelin_pilotsportps.jpg,/michelin_pilotsportps.jpg,,,,No layout updates,Product Info Column,,,,,Use config,Use config,No,265,35,265/35 R19,19,,,2017,Black Wall,94 Y L,,2017,C,C,65,,,,,,,,,,,,"The Pilot Sport PS2 is a Max Performance Summer tire member of the Michelin Pilot family of low profile, high-speed tires. Initially developed for Original Equipment (O.E.) on some of the world's most prestigious sports cars and performance sedans, the Pilot Sport PS2 combines world-class dry road traction, handling and cornering. Some of the first Pilot Sport PS2 O.E. fitments included the BMW Alpina Z8, McLaren SLR and Porsche GT2/GT3 models. The Pilot Sport PS2 is not intended to be driven in near-freezing temperatures, through snow or on ice. On the outside, Pilot Sport PS2 features two different tread rubber compounds (a hybrid silica/carbon black compound that begins at the tire's outer shoulder and continues across the tread until it joins a high-silica compound that continues to the tire's inside shoulder) molded into an asymmetric design with large outer shoulder blocks and continuous intermediate and center ribs to enhance steering response and cornering stability. Both tread compounds are specifically formulated for their location to combine dry and wet traction with crisp corning and high speed capability. The tread design also features wide circumferential grooves and lateral notches that help channel water through the footprint to enhance wet road traction.",,,,,,,,,,100,0,1,0,0,1,1,1,0,1,1,,,1,0,1,0,1,0,1,0,0,0,1,Pilot Sport PS2 N2,0,simple,,
admin,base,Tyre,simple,466,MIC012112-2016,,Pilot Sport PS2,,,/michelin_pilotsportps_5.jpg,/michelin_pilotsportps_5.jpg,/michelin_pilotsportps_5.jpg,,,,No layout updates,Product Info Column,,,,,Use config,Use config,No,265,35,265/35 R19,19,,,2017,Black Wall,98 Y L,,2017,C,C,65,,,,,,,,,,,,"The Pilot Sport PS2 is a Max Performance Summer tire member of the Michelin Pilot family of low profile, high-speed tires. Initially developed for Original Equipment (O.E.) on some of the world's most prestigious sports cars and performance sedans, the Pilot Sport PS2 combines world-class dry road traction, handling and cornering. Some of the first Pilot Sport PS2 O.E. fitments included the BMW Alpina Z8, McLaren SLR and Porsche GT2/GT3 models. The Pilot Sport PS2 is not intended to be driven in near-freezing temperatures, through snow or on ice. On the outside, Pilot Sport PS2 features two different tread rubber compounds (a hybrid silica/carbon black compound that begins at the tire's outer shoulder and continues across the tread until it joins a high-silica compound that continues to the tire's inside shoulder) molded into an asymmetric design with large outer shoulder blocks and continuous intermediate and center ribs to enhance steering response and cornering stability. Both tread compounds are specifically formulated for their location to combine dry and wet traction with crisp corning and high speed capability. The tread design also features wide circumferential grooves and lateral notches that help channel water through the footprint to enhance wet road traction.",,,,,,,,,,100,0,1,0,0,1,1,1,0,1,1,,,1,0,1,0,1,0,1,0,0,0,1,Pilot Sport PS2,0,simple,,
admin,base,Tyre,simple,466,MIC012112,,Pilot Sport PS2,,,/michelin_pilotsportps.jpg,/michelin_pilotsportps.jpg,/michelin_pilotsportps.jpg,,,,No layout updates,Product Info Column,,,,,Use config,Use config,No,265,35,265/35 R19,19,,,2017,Black Wall,98 Y L,,2017,C,C,65,,,,,,,,,,,,"The Pilot Sport PS2 is a Max Performance Summer tire member of the Michelin Pilot family of low profile, high-speed tires. Initially developed for Original Equipment (O.E.) on some of the world's most prestigious sports cars and performance sedans, the Pilot Sport PS2 combines world-class dry road traction, handling and cornering. Some of the first Pilot Sport PS2 O.E. fitments included the BMW Alpina Z8, McLaren SLR and Porsche GT2/GT3 models. The Pilot Sport PS2 is not intended to be driven in near-freezing temperatures, through snow or on ice. On the outside, Pilot Sport PS2 features two different tread rubber compounds (a hybrid silica/carbon black compound that begins at the tire's outer shoulder and continues across the tread until it joins a high-silica compound that continues to the tire's inside shoulder) molded into an asymmetric design with large outer shoulder blocks and continuous intermediate and center ribs to enhance steering response and cornering stability. Both tread compounds are specifically formulated for their location to combine dry and wet traction with crisp corning and high speed capability. The tread design also features wide circumferential grooves and lateral notches that help channel water through the footprint to enhance wet road traction.",,,,,,,,,,100,0,1,0,0,1,1,1,0,1,1,,,1,0,1,0,1,0,1,0,0,0,1,Pilot Sport PS2,0,simple,,
admin,base,Tyre,simple,466,MIC917892,,Pilot Super Sport MO,,,/michelin_pilotsupersport.jpg,/michelin_pilotsupersport.jpg,/michelin_pilotsupersport.jpg,,,,No layout updates,Product Info Column,,,,,Use config,Use config,No,265,35,265/35 R19,19,,,2017,Black Wall,98 Y L,,2017,C,C,65,,,,,,,,,,,,"The Pilot Super Sport is Michelin's Max Performance Summer tire initially introduced as Original Equipment on several of the world's most sophisticated performance vehicles, including the exclusive limited edition Ferrari 599 GTO, Ferrari's fastest road car ever. Developed for drivers who care about how tire technology enhances their vehicle's performance and safety, Pilot Super Sport tires expand the Max Performance Summer tire performance envelope by delivering durability, handling and traction while increasing tread life. Building on the development of racing tires designed to carry Prototype and GT class cars to endurance race victories at the 24 Hours of Le Mans, 12 Hours of Sebring and Road Atlanta's Petit Lemans, Pilot Super Sport tires are designed to deliver consistent performance and longevity by blending Max Performance driving characteristics with extended tread wear.",,,,,,,,,,100,0,1,0,0,1,1,1,0,1,1,,,1,0,1,0,1,0,1,0,0,0,1,Pilot Super Sport MO,0,simple,,
admin,base,Tyre,simple,466,MIC693428,,Pilot Sport CUP2 N0,,,/michelin_pilotsportcup2.png,/michelin_pilotsportcup2.png,/michelin_pilotsportcup2.png,,,,No layout updates,Product Info Column,,,,,Use config,Use config,No,265,35,265/35 R20,20,,,2017,Black Wall,95 Y L,,2017,C,C,65,,,,,,,,,,,,"The Pilot Sport Cup 2 is Michelin's Streetable Track & Competition tire originally developed for Original Equipment use on the Ferrari 458 Speciale, Mercedes SLS AMG Coupe Black Series and Porsche 918 Spyder hybrid super sports car. Designed to provide faster circuit times and consistent performance lap after lap, the Pilot Sport Cup 2 allows these supercars to achieve their full potential in dry conditions. Like all summer tires they are not intended to be driven in near-freezing temperatures, through slush, snow or on ice. The Pilot Sport Cup 2's tread molds Michelin's Bi-Compound technology into an asymmetric design. Bi-Compound technology features different rubber compounds on the tread's outboard and inboard regions. Massive outboard shoulders feature a tread rubber whose hardness has been specially designed to deliver maximum adherence and outstanding dry grip on curves, especially on tight corners. Notched center ribs and an inboard shoulder use tread rubber featuring a more rigid elastomer to ensure precision steering.",,,,,,,,,,100,0,1,0,0,1,1,1,0,1,1,,,1,0,1,0,1,0,1,0,0,0,1,Pilot Sport CUP2 N0,0,simple,,
admin,base,Tyre,simple,466,MIC016663,,Pilot Super Sport,,,/michelin_pilotsupersport.jpg,/michelin_pilotsupersport.jpg,/michelin_pilotsupersport.jpg,,,,No layout updates,Product Info Column,,,,,Use config,Use config,No,265,35,265/35 R20,20,,,2017,Black Wall,99 Y L,,2017,C,C,65,,,,,,,,,,,,"The Pilot Super Sport is Michelin's Max Performance Summer tire initially introduced as Original Equipment on several of the world's most sophisticated performance vehicles, including the exclusive limited edition Ferrari 599 GTO, Ferrari's fastest road car ever. Developed for drivers who care about how tire technology enhances their vehicle's performance and safety, Pilot Super Sport tires expand the Max Performance Summer tire performance envelope by delivering durability, handling and traction while increasing tread life. Building on the development of racing tires designed to carry Prototype and GT class cars to endurance race victories at the 24 Hours of Le Mans, 12 Hours of Sebring and Road Atlanta's Petit Lemans, Pilot Super Sport tires are designed to deliver consistent performance and longevity by blending Max Performance driving characteristics with extended tread wear.",,,,,,,,,,100,0,1,0,0,1,1,1,0,1,1,,,1,0,1,0,1,0,1,0,0,0,1,Pilot Super Sport,0,simple,,
admin,base,Tyre,simple,466,MIC016663,,Pilot Super Sport,,,/michelin_pilotsupersport.jpg,/michelin_pilotsupersport.jpg,/michelin_pilotsupersport.jpg,,,,No layout updates,Product Info Column,,,,,Use config,Use config,No,265,35,265/35 R20,20,,,2017,Black Wall,99 Y L,,2017,C,C,65,,,,,,,,,,,,"The Pilot Super Sport is Michelin's Max Performance Summer tire initially introduced as Original Equipment on several of the world's most sophisticated performance vehicles, including the exclusive limited edition Ferrari 599 GTO, Ferrari's fastest road car ever. Developed for drivers who care about how tire technology enhances their vehicle's performance and safety, Pilot Super Sport tires expand the Max Performance Summer tire performance envelope by delivering durability, handling and traction while increasing tread life. Building on the development of racing tires designed to carry Prototype and GT class cars to endurance race victories at the 24 Hours of Le Mans, 12 Hours of Sebring and Road Atlanta's Petit Lemans, Pilot Super Sport tires are designed to deliver consistent performance and longevity by blending Max Performance driving characteristics with extended tread wear.",,,,,,,,,,100,0,1,0,0,1,1,1,0,1,1,,,1,0,1,0,1,0,1,0,0,0,1,Pilot Super Sport,0,simple,,
admin,base,Tyre,simple,466,MIC016663,,Pilot Super Sport,,,/michelin_pilotsupersport.jpg,/michelin_pilotsupersport.jpg,/michelin_pilotsupersport.jpg,,,,No layout updates,Product Info Column,,,,,Use config,Use config,No,265,35,265/35 R20,20,,,2017,Black Wall,99 Y L,,2017,C,C,65,,,,,,,,,,,,"The Pilot Super Sport is Michelin's Max Performance Summer tire initially introduced as Original Equipment on several of the world's most sophisticated performance vehicles, including the exclusive limited edition Ferrari 599 GTO, Ferrari's fastest road car ever. Developed for drivers who care about how tire technology enhances their vehicle's performance and safety, Pilot Super Sport tires expand the Max Performance Summer tire performance envelope by delivering durability, handling and traction while increasing tread life. Building on the development of racing tires designed to carry Prototype and GT class cars to endurance race victories at the 24 Hours of Le Mans, 12 Hours of Sebring and Road Atlanta's Petit Lemans, Pilot Super Sport tires are designed to deliver consistent performance and longevity by blending Max Performance driving characteristics with extended tread wear.",,,,,,,,,,100,0,1,0,0,1,1,1,0,1,1,,,1,0,1,0,1,0,1,0,0,0,1,Pilot Super Sport,0,simple,,
admin,base,Tyre,simple,466,MIC495268,,Pilot Sport PS2 N4,,,/pilot_sport_ps2_n4_1.jpg,/pilot_sport_ps2_n4_1.jpg,/pilot_sport_ps2_n4_1.jpg,,,,No layout updates,Product Info Column,,,,,Use config,Use config,No,265,40,265/40 R18,18,,,2017,Black Wall,101 Y,,2017,C,C,65,,,,,,,,,,,,"The Pilot Sport PS2 is a Max Performance Summer tire member of the Michelin Pilot family of low profile, high-speed tires. Initially developed for Original Equipment (O.E.) on some of the world's most prestigious sports cars and performance sedans, the Pilot Sport PS2 combines world-class dry road traction, handling and cornering. Some of the first Pilot Sport PS2 O.E. fitments included the BMW Alpina Z8, McLaren SLR and Porsche GT2/GT3 models. The Pilot Sport PS2 is not intended to be driven in near-freezing temperatures, through snow or on ice. On the outside, Pilot Sport PS2 features two different tread rubber compounds (a hybrid silica/carbon black compound that begins at the tire's outer shoulder and continues across the tread until it joins a high-silica compound that continues to the tire's inside shoulder) molded into an asymmetric design with large outer shoulder blocks and continuous intermediate and center ribs to enhance steering response and cornering stability. Both tread compounds are specifically formulated for their location to combine dry and wet traction with crisp corning and high speed capability. The tread design also features wide circumferential grooves and lateral notches that help channel water through the footprint to enhance wet road traction.",,,,,,,,,,100,0,1,0,0,1,1,1,0,1,1,,,1,0,1,0,1,0,1,0,0,0,1,Pilot Sport PS2 N4,0,simple,,
admin,base,Tyre,simple,466,MIC495268,,Pilot Sport PS2 N4,,,/pilot_sport_ps2_n4_1.jpg,/pilot_sport_ps2_n4_1.jpg,/pilot_sport_ps2_n4_1.jpg,,,,No layout updates,Product Info Column,,,,,Use config,Use config,No,265,40,265/40 R18,18,,,2017,Black Wall,101 Y,,2017,C,C,65,,,,,,,,,,,,"The Pilot Sport PS2 is a Max Performance Summer tire member of the Michelin Pilot family of low profile, high-speed tires. Initially developed for Original Equipment (O.E.) on some of the world's most prestigious sports cars and performance sedans, the Pilot Sport PS2 combines world-class dry road traction, handling and cornering. Some of the first Pilot Sport PS2 O.E. fitments included the BMW Alpina Z8, McLaren SLR and Porsche GT2/GT3 models. The Pilot Sport PS2 is not intended to be driven in near-freezing temperatures, through snow or on ice. On the outside, Pilot Sport PS2 features two different tread rubber compounds (a hybrid silica/carbon black compound that begins at the tire's outer shoulder and continues across the tread until it joins a high-silica compound that continues to the tire's inside shoulder) molded into an asymmetric design with large outer shoulder blocks and continuous intermediate and center ribs to enhance steering response and cornering stability. Both tread compounds are specifically formulated for their location to combine dry and wet traction with crisp corning and high speed capability. The tread design also features wide circumferential grooves and lateral notches that help channel water through the footprint to enhance wet road traction.",,,,,,,,,,100,0,1,0,0,1,1,1,0,1,1,,,1,0,1,0,1,0,1,0,0,0,1,Pilot Sport PS2 N4,0,simple,,
admin,base,Tyre,simple,466,MIC973787-2016,,Pilot Super Sport,,,/michelin_pilotsupersport_12.jpg,/michelin_pilotsupersport_12.jpg,/michelin_pilotsupersport_12.jpg,,,,No layout updates,Product Info Column,,,,,Use config,Use config,No,265,40,265/40 R18,18,,,2017,Black Wall,101 Y,,2017,C,C,65,,,,,,,,,,,,"The Pilot Super Sport is Michelin's Max Performance Summer tire initially introduced as Original Equipment on several of the world's most sophisticated performance vehicles, including the exclusive limited edition Ferrari 599 GTO, Ferrari's fastest road car ever. Developed for drivers who care about how tire technology enhances their vehicle's performance and safety, Pilot Super Sport tires expand the Max Performance Summer tire performance envelope by delivering durability, handling and traction while increasing tread life. Building on the development of racing tires designed to carry Prototype and GT class cars to endurance race victories at the 24 Hours of Le Mans, 12 Hours of Sebring and Road Atlanta's Petit Lemans, Pilot Super Sport tires are designed to deliver consistent performance and longevity by blending Max Performance driving characteristics with extended tread wear.",,,,,,,,,,100,0,1,0,0,1,1,1,0,1,1,,,1,0,1,0,1,0,1,0,0,0,1,Pilot Super Sport,0,simple,,
admin,base,Tyre,simple,466,MIC973787-2016,,Pilot Super Sport,,,/michelin_pilotsupersport_12.jpg,/michelin_pilotsupersport_12.jpg,/michelin_pilotsupersport_12.jpg,,,,No layout updates,Product Info Column,,,,,Use config,Use config,No,265,40,265/40 R18,18,,,2017,Black Wall,101 Y,,2017,C,C,65,,,,,,,,,,,,"The Pilot Super Sport is Michelin's Max Performance Summer tire initially introduced as Original Equipment on several of the world's most sophisticated performance vehicles, including the exclusive limited edition Ferrari 599 GTO, Ferrari's fastest road car ever. Developed for drivers who care about how tire technology enhances their vehicle's performance and safety, Pilot Super Sport tires expand the Max Performance Summer tire performance envelope by delivering durability, handling and traction while increasing tread life. Building on the development of racing tires designed to carry Prototype and GT class cars to endurance race victories at the 24 Hours of Le Mans, 12 Hours of Sebring and Road Atlanta's Petit Lemans, Pilot Super Sport tires are designed to deliver consistent performance and longevity by blending Max Performance driving characteristics with extended tread wear.",,,,,,,,,,100,0,1,0,0,1,1,1,0,1,1,,,1,0,1,0,1,0,1,0,0,0,1,Pilot Super Sport,0,simple,,
