sku,image,small_image,thumbnail
HNK0030,/hankook/hankook_ventusme01_k114.jpeg,/hankook/hankook_ventusme01_k114.jpeg,/hankook/hankook_ventusme01_k114.jpeg
HNK0031,/hankook/h436.jpg,/hankook/h436.jpg,/hankook/h436.jpg
HNK0032,/hankook/hankook_ventusme01_k114_3.jpeg,/hankook/hankook_ventusme01_k114_3.jpeg,/hankook/hankook_ventusme01_k114_3.jpeg
HNK0033,/hankook/hankook_ventusme01_k114.jpeg,/hankook/hankook_ventusme01_k114.jpeg,/hankook/hankook_ventusme01_k114.jpeg
HNK0034,/hankook/hankook_optimok242.jpeg,/hankook/hankook_optimok242.jpeg,/hankook/hankook_optimok242.jpeg
HNK0035,/hankook/hankook_dynaprohp_ra23.jpeg,/hankook/hankook_dynaprohp_ra23.jpeg,/hankook/hankook_dynaprohp_ra23.jpeg
HNK0036,/hankook/hankook_dynaprohl.jpeg,/hankook/hankook_dynaprohl.jpeg,/hankook/hankook_dynaprohl.jpeg
HNK0037,/hankook/h429_1.png,/hankook/h429_1.png,/hankook/h429_1.png
HNK0038,/hankook/h429.png,/hankook/h429.png,/hankook/h429.png
HNK0039,/hankook/k115_5.jpg,/hankook/k115_5.jpg,/hankook/k115_5.jpg
HNK0040,/hankook/hankook_ventuss1evo2_k117_2.jpeg,/hankook/hankook_ventuss1evo2_k117_2.jpeg,/hankook/hankook_ventuss1evo2_k117_2.jpeg
HNK0041,/hankook/hankook_ventuss1evo2_k117.jpeg,/hankook/hankook_ventuss1evo2_k117.jpeg,/hankook/hankook_ventuss1evo2_k117.jpeg
HNK0042,/hankook/hankook_ventusv12evo2.jpeg,/hankook/hankook_ventusv12evo2.jpeg,/hankook/hankook_ventusv12evo2.jpeg
HNK0043,/hankook/hankook_prime2_k115_3.jpeg,/hankook/hankook_prime2_k115_3.jpeg,/hankook/hankook_prime2_k115_3.jpeg
HNK0044,/hankook/hankook_prime2_k115.jpeg,/hankook/hankook_prime2_k115.jpeg,/hankook/hankook_prime2_k115.jpeg
HNK0045,/hankook/hankook_ventusme01_k114_4.jpeg,/hankook/hankook_ventusme01_k114_4.jpeg,/hankook/hankook_ventusme01_k114_4.jpeg
HNK0046,/hankook/hankook_ventusme01_k114.jpeg,/hankook/hankook_ventusme01_k114.jpeg,/hankook/hankook_ventusme01_k114.jpeg
HNK0047,/hankook/hankook_optimok415.png,/hankook/hankook_optimok415.png,/hankook/hankook_optimok415.png
HNK0048,/hankook/hankook_optimoh426_4.png,/hankook/hankook_optimoh426_4.png,/hankook/hankook_optimoh426_4.png
HNK0049,/hankook/hankook_optimoh426.png,/hankook/hankook_optimoh426.png,/hankook/hankook_optimoh426.png
HNK0050,/hankook/hankook_dynaprohp2.jpeg,/hankook/hankook_dynaprohp2.jpeg,/hankook/hankook_dynaprohp2.jpeg
HNK0051,/hankook/h436_2.jpg,/hankook/h436_2.jpg,/hankook/h436_2.jpg
HNK0052,/hankook/hankook_dynaprohp2.jpeg,/hankook/hankook_dynaprohp2.jpeg,/hankook/hankook_dynaprohp2.jpeg
HNK0053,/hankook/hankook_dynaprohp2_13.jpeg,/hankook/hankook_dynaprohp2_13.jpeg,/hankook/hankook_dynaprohp2_13.jpeg
HNK0054,/hankook/hankook_dynaprohp2.jpeg,/hankook/hankook_dynaprohp2.jpeg,/hankook/hankook_dynaprohp2.jpeg
HNK0055,/hankook/hankook_ventush452.jpeg,/hankook/hankook_ventush452.jpeg,/hankook/hankook_ventush452.jpeg
HNK0056,/hankook/hankook_optimok415_11.png,/hankook/hankook_optimok415_11.png,/hankook/hankook_optimok415_11.png
HNK0057,/hankook/hankook_optimok415.png,/hankook/hankook_optimok415.png,/hankook/hankook_optimok415.png
HNK0058,/hankook/hankook_ventush452_1.jpeg,/hankook/hankook_ventush452_1.jpeg,/hankook/hankook_ventush452_1.jpeg
HNK0059,/hankook/k114.jpg,/hankook/k114.jpg,/hankook/k114.jpg
