sku,image,small_image,thumbnail
CON400001,/conti/s-l640.jpg,/conti/s-l640.jpg,/conti/s-l640.jpg
CON400002,/conti/ContiSportContact%203-500x500-product_popup.jpg,/conti/ContiSportContact%203-500x500-product_popup.jpg,/conti/ContiSportContact%203-500x500-product_popup.jpg
CON400003,/conti/71cv39qlexL._SY450_.jpg,/conti/71cv39qlexL._SY450_.jpg,/conti/71cv39qlexL._SY450_.jpg
CON400004,/conti/continental-allseasoncontact-205-55-r16-94h,/conti/continental-allseasoncontact-205-55-r16-94h,/conti/continental-allseasoncontact-205-55-r16-94h
CON400005,/conti/continental-205-55r17-91v-premium-2.jpg,/conti/continental-205-55r17-91v-premium-2.jpg,/conti/continental-205-55r17-91v-premium-2.jpg
CON400006,/conti/s-l640.jpg,/conti/s-l640.jpg,/conti/s-l640.jpg
CON400007,/conti/s-l640.jpg,/conti/s-l640.jpg,/conti/s-l640.jpg
CON400008,/conti/ContiSportContact3.jpg,/conti/ContiSportContact3.jpg,/conti/ContiSportContact3.jpg
CON400009,/conti/0044234_continental-sport-contact-6-car-summer-tyre-22535-r19-88y-xl-225-35-19-72-db.jpeg,/conti/0044234_continental-sport-contact-6-car-summer-tyre-22535-r19-88y-xl-225-35-19-72-db.jpeg,/conti/0044234_continental-sport-contact-6-car-summer-tyre-22535-r19-88y-xl-225-35-19-72-db.jpeg
CON400010,/conti/sportcontact2-500x500.jpg,/conti/sportcontact2-500x500.jpg,/conti/sportcontact2-500x500.jpg
CON400011,/conti/sportcontact2-500x500.jpg,/conti/sportcontact2-500x500.jpg,/conti/sportcontact2-500x500.jpg
CON400012,/conti/continental-225-40r18-92w-sc-3-fr-xl.jpg,/conti/continental-225-40r18-92w-sc-3-fr-xl.jpg,/conti/continental-225-40r18-92w-sc-3-fr-xl.jpg
CON400013,/conti/continental-225-40r19-89w-sc-5-ssr.jpg,/conti/continental-225-40r19-89w-sc-5-ssr.jpg,/conti/continental-225-40r19-89w-sc-5-ssr.jpg
CON400014,/conti/continental-225-40r19-93y-sc-5-ssr-xl.jpg,/conti/continental-225-40r19-93y-sc-5-ssr-xl.jpg,/conti/continental-225-40r19-93y-sc-5-ssr-xl.jpg
CON400015,/conti/continental-225-40r19-93y-sc-5-ssr-xl.jpg,/conti/continental-225-40r19-93y-sc-5-ssr-xl.jpg,/conti/continental-225-40r19-93y-sc-5-ssr-xl.jpg
CON400016,/conti/71zobF6EQZL._SY450_.jpg,/conti/71zobF6EQZL._SY450_.jpg,/conti/71zobF6EQZL._SY450_.jpg
CON400017,/conti/continental_contisportcontact_2_14_24.jpg,/conti/continental_contisportcontact_2_14_24.jpg,/conti/continental_contisportcontact_2_14_24.jpg
CON400018,/conti/continental_contisportcontact_2_14_24.jpg,/conti/continental_contisportcontact_2_14_24.jpg,/conti/continental_contisportcontact_2_14_24.jpg
CON400019,/conti/71zobF6EQZL._SY450_.jpg,/conti/71zobF6EQZL._SY450_.jpg,/conti/71zobF6EQZL._SY450_.jpg
CON400020,/conti/71zobF6EQZL._SY450_.jpg,/conti/71zobF6EQZL._SY450_.jpg,/conti/71zobF6EQZL._SY450_.jpg
CON400021,/conti/71zobF6EQZL._SY450_.jpg,/conti/71zobF6EQZL._SY450_.jpg,/conti/71zobF6EQZL._SY450_.jpg
CON400022,/conti/continental-225-45r18-91y-sc-5-ssr.jpg,/conti/continental-225-45r18-91y-sc-5-ssr.jpg,/conti/continental-225-45r18-91y-sc-5-ssr.jpg
CON400023,/conti/9441-continental-contisportcontact-5.jpg,/conti/9441-continental-contisportcontact-5.jpg,/conti/9441-continental-contisportcontact-5.jpg
CON400024,/conti/9441-continental-contisportcontact-5.jpg,/conti/9441-continental-contisportcontact-5.jpg,/conti/9441-continental-contisportcontact-5.jpg
CON400025,/conti/s-l225.jpg,/conti/s-l225.jpg,/conti/s-l225.jpg
CON400026,,,
CON400027,/conti/contisportcontact_2.jpg,/conti/contisportcontact_2.jpg,/conti/contisportcontact_2.jpg
CON400028,/conti/continental-contisportcontact-5?$hacpdpmain$,/conti/continental-contisportcontact-5?$hacpdpmain$,/conti/continental-contisportcontact-5?$hacpdpmain$
CON400029,/conti/continental-contisportcontact-5?$hacpdpmain$,/conti/continental-contisportcontact-5?$hacpdpmain$,/conti/continental-contisportcontact-5?$hacpdpmain$
