store,websites,attribute_set,type,category_ids,sku,has_options,name,meta_title,meta_description,image,small_image,thumbnail,url_key,url_path,custom_design,page_layout,options_container,image_label,small_image_label,thumbnail_label,country_of_manufacture,msrp_enabled,msrp_display_actual_price_type,gift_message_available,width,ratio,size,diameter,car_make,car_model,car_year,sidewall_style,serv_desc,utqg,production_year,fuel,weather,sound,price,special_price,weight,msrp,status,is_recurring,visibility,tax_class_id,passenger,tyres4_4,vantyres,description,short_description,meta_keyword,custom_layout_update,special_from_date,special_to_date,news_from_date,news_to_date,custom_design_from,custom_design_to,qty,min_qty,use_config_min_qty,is_qty_decimal,backorders,use_config_backorders,min_sale_qty,use_config_min_sale_qty,max_sale_qty,use_config_max_sale_qty,is_in_stock,low_stock_date,notify_stock_qty,use_config_notify_stock_qty,manage_stock,use_config_manage_stock,stock_status_changed_auto,use_config_qty_increments,qty_increments,use_config_enable_qty_inc,enable_qty_increments,is_decimal_divided,stock_status_changed_automatically,use_config_enable_qty_increments,product_name,store_id,product_type_id,product_status_changed,product_changed_websites
admin,base,Tyre,simple,25,CON3562170000,0,ContiEcoContact 5,,,/continental_ecocontact5_1.jpg,/continental_ecocontact5_1.jpg,/continental_ecocontact5_1.jpg,,,,No layout updates,Product Info Column,,,,,Use config,Use config,No,165,65,165/65 R14,14,,,2017,Black Wall,79 T ,Black Wall,2017,C,C,65,342,324.9,1,,Enabled,No,"Catalog, Search",Taxable Goods,Yes,No,No,"The Continental Conti Eco Contact 5 ensures additional safety. It's a tyre that is manufactured with special emphasis on the environment. This tyre efficiently blends short braking distances on wet and dry with low rolling resistance. Rolling resistance was decreased thanks to the painstaking effort devoted to the design of the profile, outline of the tyre as well as on the rubber blend and the carcass. The enhancements on the outline provide higher mileage. The tread pattern has positive effects on braking distances on wet.",Continental,,,,,,,,,100,0,1,0,0,1,1,1,0,1,1,,,1,0,1,0,1,0,1,0,0,0,1,ContiEcoContact 5,0,simple,,
admin,base,Tyre,simple,25,CON03560420000,0,ContiEcoContact 5,,,/continental_ecocontact5.jpg,/continental_ecocontact5.jpg,/continental_ecocontact5.jpg,,,,No layout updates,Product Info Column,,,,,Use config,Use config,No,165,70,165/70 R14,14,,,2017,Black Wall,85 T ,Black Wall,2017,B,C,65,394,374.3,1,,Enabled,No,"Catalog, Search",Taxable Goods,Yes,No,No,"The Continental Conti Eco Contact 5 ensures additional safety. It's a tyre that is manufactured with special emphasis on the environment. This tyre efficiently blends short braking distances on wet and dry with low rolling resistance. Rolling resistance was decreased thanks to the painstaking effort devoted to the design of the profile, outline of the tyre as well as on the rubber blend and the carcass. The enhancements on the outline provide higher mileage. The tread pattern has positive effects on braking distances on wet.",Continental,,,,,,,,,95,0,1,0,0,1,1,1,0,1,1,,,1,0,1,0,1,0,1,0,0,0,1,ContiEcoContact 5,0,simple,,
admin,base,Tyre,simple,25,CON03562400000,0,ContiPremiumContact 5,,,/continental_premiumcontact5.jpg,/continental_premiumcontact5.jpg,/continental_premiumcontact5.jpg,,,,No layout updates,Product Info Column,,,,,Use config,Use config,No,175,65,175/65 R14,14,,,2017,Black Wall,82 T ,Black Wall,2017,B,C,65,306,290.7,1,,Enabled,No,"Catalog, Search",Taxable Goods,Yes,No,No,"The ContiPremiumContact 5 is the new allround premium Tyre for vehicles in the compact, mid-size and full-size category, which combines comfort and safety at the highest stage. The optimized 3D edges of the Tyre are what make for shorter braking distances than in the case of the predecessor model. ",Continental,,,,,,,,,95,0,1,0,0,1,1,1,0,1,1,,,1,0,1,0,1,0,1,0,0,0,1,ContiPremiumContact 5,0,simple,,
admin,base,Tyre,simple,25,CON03512300000,0,ContiPremiumContact 2,,,/continental_premiumcontact2.jpg,/continental_premiumcontact2.jpg,/continental_premiumcontact2.jpg,,,,No layout updates,Product Info Column,,,,,Use config,Use config,No,175,65,175/65 R15,15,,,2017,Black Wall,84 H ,Black Wall,2017,B,C,65,452,429.4,1,,Enabled,No,"Catalog, Search",Taxable Goods,Yes,No,No,The Continental Conti Premium Contact 2 is equipped with the 3D grooves technology. it gives the tyre an excellent stability and faster water dispersal. This new technology enhances braking performance and ensures safety on wet roads.,Continental,,,,,,,,,95,0,1,0,0,1,1,1,0,1,1,,,1,0,1,0,1,0,1,0,0,0,1,ContiPremiumContact 2,0,simple,,
admin,base,Tyre,simple,25,CON03512300000,0,ContiPremiumContact 2,,,/continental_premiumcontact2.jpg,/continental_premiumcontact2.jpg,/continental_premiumcontact2.jpg,,,,No layout updates,Product Info Column,,,,,Use config,Use config,No,175,65,175/65 R15,15,,,2017,Black Wall,84 H ,Black Wall,2017,B,C,65,452,429.4,1,,Enabled,No,"Catalog, Search",Taxable Goods,Yes,No,No,The Continental Conti Premium Contact 2 is equipped with the 3D grooves technology. it gives the tyre an excellent stability and faster water dispersal. This new technology enhances braking performance and ensures safety on wet roads.,Continental,,,,,,,,,95,0,1,0,0,1,1,1,0,1,1,,,1,0,1,0,1,0,1,0,0,0,1,ContiPremiumContact 2,0,simple,,
admin,base,Tyre,simple,25,CON03520100000,0,ContiEcoContact 3,,,/continental_ecocontact3_1.jpg,/continental_ecocontact3_1.jpg,/continental_ecocontact3_1.jpg,,,,No layout updates,Product Info Column,,,,,Use config,Use config,No,175,70,175/70 R13,13,,,2017,Black Wall,82 T ,Black Wall,2017,B,C,65,368,349.6,1,,Enabled,No,"Catalog, Search",Taxable Goods,Yes,No,No,This tyre is designed for compact cars.  The ContiEcoContact 3 has very low rolling resistance giving you increased fuel economy and has excellent wear properties to ensure high mileage. Its asymmetrical tread design provides excellent traction on wet and dry roads and much shorter braking distances.,Continental,,,,,,,,,95,0,1,0,0,1,1,1,0,1,1,,,1,0,1,0,1,0,1,0,0,0,1,ContiEcoContact 3,0,simple,,
admin,base,Tyre,simple,25,CON03500890000,0,ContiPremiumContact 2,,,/continental_premiumcontact2.jpeg,/continental_premiumcontact2.jpeg,/continental_premiumcontact2.jpeg,,,,No layout updates,Product Info Column,,,,,Use config,Use config,No,185,55,185/55 R16,16,,,2017,Black Wall,83 V ,Black Wall,2017,B,C,65,684,649.8,1,,Enabled,No,"Catalog, Search",Taxable Goods,Yes,No,No,"The ContiPremiumContact 2 has a unique 3D tread groove which gives it optimal braking performance on both wet and dry surfaces, excellent protection against aquaplaning, precise handling and unbeatable driving stability.",Continental,,,,,,,,,95,0,1,0,0,1,1,1,0,1,1,,,1,0,1,0,1,0,1,0,0,0,1,ContiPremiumContact 2,0,simple,,
admin,base,Tyre,simple,25,CON03500890000,0,ContiPremiumContact 2,,,/continental_premiumcontact2.jpeg,/continental_premiumcontact2.jpeg,/continental_premiumcontact2.jpeg,,,,No layout updates,Product Info Column,,,,,Use config,Use config,No,185,55,185/55 R16,16,,,2017,Black Wall,83 V ,Black Wall,2017,B,C,65,684,649.8,1,,Enabled,No,"Catalog, Search",Taxable Goods,Yes,No,No,"The ContiPremiumContact 2 has a unique 3D tread groove which gives it optimal braking performance on both wet and dry surfaces, excellent protection against aquaplaning, precise handling and unbeatable driving stability.",Continental,,,,,,,,,95,0,1,0,0,1,1,1,0,1,1,,,1,0,1,0,1,0,1,0,0,0,1,ContiPremiumContact 2,0,simple,,
admin,base,Tyre,simple,25,CONC03560450000,0,ContiEcoContact 5,,,/continental_ecocontact5.jpg,/continental_ecocontact5.jpg,/continental_ecocontact5.jpg,,,,No layout updates,Product Info Column,,,,,Use config,Use config,No,185,60,185/60 R14,14,,,2017,Black Wall,82 H ,Black Wall,2017,B,C,65,362,343.9,1,,Enabled,No,"Catalog, Search",Taxable Goods,Yes,No,No,"The Continental Conti Eco Contact 5 ensures additional safety. It's a tyre that is manufactured with special emphasis on the environment. This tyre efficiently blends short braking distances on wet and dry with low rolling resistance. Rolling resistance was decreased thanks to the painstaking effort devoted to the design of the profile, outline of the tyre as well as on the rubber blend and the carcass. The enhancements on the outline provide higher mileage. The tread pattern has positive effects on braking distances on wet. ",Continental,,,,,,,,,95,0,1,0,0,1,1,1,0,1,1,,,1,0,1,0,1,0,1,0,0,0,1,ContiEcoContact 5,0,simple,,
admin,base,Tyre,simple,25,CON3562420000,0,ContiPremiumContact 5,,,/continental_premiumcontact5_6.jpg,/continental_premiumcontact5_6.jpg,/continental_premiumcontact5_6.jpg,,,,No layout updates,Product Info Column,,,,,Use config,Use config,No,185,65,185/65 R15,15,,,2017,Black Wall,88 H ,Black Wall,2017,B,C,65,345,327.75,1,,Enabled,No,"Catalog, Search",Taxable Goods,Yes,No,No,"The ContiPremiumContact 5 is the new allround premium Tyre for vehicles in the compact, mid-size and full-size category, which combines comfort and safety at the highest stage. The optimized 3D edges of the Tyre are what make for shorter braking distances than in the case of the predecessor model. ",Continental,,,,,,,,,95,0,1,0,0,1,1,1,0,1,1,,,1,0,1,0,1,0,1,0,0,0,1,ContiPremiumContact 5,0,simple,,
admin,base,Tyre,simple,25,CON03518990000,0,ContiEcoContact 5,,,/continental_ecocontact5.jpg,/continental_ecocontact5.jpg,/continental_ecocontact5.jpg,,,,No layout updates,Product Info Column,,,,,Use config,Use config,No,185,70,185/70 R14,14,,,2017,Black Wall,88 T ,Black Wall,2017,B,C,65,367,348.65,1,,Enabled,No,"Catalog, Search",Taxable Goods,Yes,No,No,"This is an enTyrely new tyre concept aimed specifically at motorists who drive longer distances, but also at those who are very mindful of both fuel consumption and the environment. It has  optimised rolling resistance for reduced fuel consumption. ",Continental,,,,,,,,,95,0,1,0,0,1,1,1,0,1,1,,,1,0,1,0,1,0,1,0,0,0,1,ContiEcoContact 5,0,simple,,
admin,base,Tyre,simple,25,CON03560530000,0,ContiEcoContact 5,,,/continental_ecocontact5.jpg,/continental_ecocontact5.jpg,/continental_ecocontact5.jpg,,,,No layout updates,Product Info Column,,,,,Use config,Use config,No,195,50,195/50 R15,15,,,2017,Black Wall,82 V ,Black Wall,2017,B,C,65,347,329.65,1,,Enabled,No,"Catalog, Search",Taxable Goods,Yes,No,No,"Developed for mid-sized and compact class vehicles. Perfect for safe, fuel efficient driving. It has optimised rolling resistance for reduced fuel consumption, high braking safety and short braking distances on wet roads, and best handling on wet and dry roads.",Continental,,,,,,,,,95,0,1,0,0,1,1,1,0,1,1,,,1,0,1,0,1,0,1,0,0,0,1,ContiEcoContact 5,0,simple,,
admin,base,Tyre,simple,25,CON03507510000/3507530000,0,ContiPremiumContact 2,,,/continental_premiumcontact2.jpeg,/continental_premiumcontact2.jpeg,/continental_premiumcontact2.jpeg,,,,No layout updates,Product Info Column,,,,,Use config,Use config,No,195,50,195/50 R16,16,,,2017,Black Wall,84 V ,Black Wall,2017,B,C,65,740,703,1,,Enabled,No,"Catalog, Search",Taxable Goods,Yes,No,No,"The ContiPremiumContact 2 has a unique 3D tread groove which gives it optimal braking performance on both wet and dry surfaces, excellent protection against aquaplaning, precise handling and unbeatable driving stability.",Continental,,,,,,,,,95,0,1,0,0,1,1,1,0,1,1,,,1,0,1,0,1,0,1,0,0,0,1,ContiPremiumContact 2,0,simple,,
admin,base,Tyre,simple,25,CON03507510000/3507530000,0,ContiPremiumContact 2,,,/continental_premiumcontact2.jpeg,/continental_premiumcontact2.jpeg,/continental_premiumcontact2.jpeg,,,,No layout updates,Product Info Column,,,,,Use config,Use config,No,195,50,195/50 R16,16,,,2017,Black Wall,84 V ,Black Wall,2017,B,C,65,740,703,1,,Enabled,No,"Catalog, Search",Taxable Goods,Yes,No,No,"The ContiPremiumContact 2 has a unique 3D tread groove which gives it optimal braking performance on both wet and dry surfaces, excellent protection against aquaplaning, precise handling and unbeatable driving stability.",Continental,,,,,,,,,95,0,1,0,0,1,1,1,0,1,1,,,1,0,1,0,1,0,1,0,0,0,1,ContiPremiumContact 2,0,simple,,
admin,base,Tyre,simple,25,CON03562500000,0,ContiPremiumContact 5,,,/continental_premiumcontact5.jpg,/continental_premiumcontact5.jpg,/continental_premiumcontact5.jpg,,,,No layout updates,Product Info Column,,,,,Use config,Use config,No,195,55,195/55 R16,16,,,2017,Black Wall,87 H ,Black Wall,2017,B,C,65,552,524.4,1,,Enabled,No,"Catalog, Search",Taxable Goods,Yes,No,No,"The ContiPremiumContact 5 is the new allround premium Tyre for vehicles in the compact, mid-size and full-size category, which combines comfort and safety at the highest stage. The optimized 3D edges of the Tyre are what make for shorter braking distances than in the case of the predecessor model. ",Continental,,,,,,,,,95,0,1,0,0,1,1,1,0,1,1,,,1,0,1,0,1,0,1,0,0,0,1,ContiPremiumContact 5,0,simple,,
admin,base,Tyre,simple,25,CON03562570000,0,ContiPremiumContact 5,,,/continental_premiumcontact5_3.jpg,/continental_premiumcontact5_3.jpg,/continental_premiumcontact5_3.jpg,,,,No layout updates,Product Info Column,,,,,Use config,Use config,No,195,60,195/60 R15,15,,,2017,Black Wall,88 H ,Black Wall,2017,B,C,65,396,376.2,1,,Enabled,No,"Catalog, Search",Taxable Goods,Yes,No,No,"The ContiPremiumContact 5 is the new allround premium Tyre for vehicles in the compact, mid-size and full-size category, which combines comfort and safety at the highest stage. The optimized 3D edges of the Tyre are what make for shorter braking distances than in the case of the predecessor model. ",Continental,,,,,,,,,95,0,1,0,0,1,1,1,0,1,1,,,1,0,1,0,1,0,1,0,0,0,1,ContiPremiumContact 5,0,simple,,
admin,base,Tyre,simple,25,CONC03561510000/3569530000,0,ContiEcoContact 5,,,/continental_ecocontact5.jpg,/continental_ecocontact5.jpg,/continental_ecocontact5.jpg,,,,No layout updates,Product Info Column,,,,,Use config,Use config,No,195,65,195/65 R15,15,,,2017,Black Wall,91 H ,Black Wall,2017,B,C,65,342,324.9,1,,Enabled,No,"Catalog, Search",Taxable Goods,Yes,No,No,"Developed for mid-sized and compact class vehicles. Perfect for safe, fuel efficient driving. It has optimised rolling resistance for reduced fuel consumption, high braking safety and short braking distances on wet roads, and best handling on wet and dry roads.",Continental,,,,,,,,,95,0,1,0,0,1,1,1,0,1,1,,,1,0,1,0,1,0,1,0,0,0,1,ContiEcoContact 5,0,simple,,
admin,base,Tyre,simple,25,CON3500470000,0,ContiPremiumContact 2,,,/continental_premiumcontact2_1.jpg,/continental_premiumcontact2_1.jpg,/continental_premiumcontact2_1.jpg,,,,No layout updates,Product Info Column,,,,,Use config,Use config,No,195,65,195/65 R15,15,,,2017,Black Wall,91 H ,Black Wall,2017,B,C,65,363,344.85,1,,Enabled,No,"Catalog, Search",Taxable Goods,Yes,No,No,"The ContiPremiumContact 2 has a unique 3D tread groove which gives it optimal braking performance on both wet and dry surfaces, excellent protection against aquaplaning, precise handling and unbeatable driving stability.",Continental,,,,,,,,,95,0,1,0,0,1,1,1,0,1,1,,,1,0,1,0,1,0,1,0,0,0,1,ContiPremiumContact 2,0,simple,,
admin,base,Tyre,simple,25,CON3500470000,0,ContiPremiumContact 2,,,/continental_premiumcontact2_1.jpg,/continental_premiumcontact2_1.jpg,/continental_premiumcontact2_1.jpg,,,,No layout updates,Product Info Column,,,,,Use config,Use config,No,195,65,195/65 R15,15,,,2017,Black Wall,91 H ,Black Wall,2017,B,C,65,363,344.85,1,,Enabled,No,"Catalog, Search",Taxable Goods,Yes,No,No,"The ContiPremiumContact 2 has a unique 3D tread groove which gives it optimal braking performance on both wet and dry surfaces, excellent protection against aquaplaning, precise handling and unbeatable driving stability.",Continental,,,,,,,,,95,0,1,0,0,1,1,1,0,1,1,,,1,0,1,0,1,0,1,0,0,0,1,ContiPremiumContact 2,0,simple,,
admin,base,Tyre,simple,25,CON3562300000,0,ContiSportContact 5,,,/continental_sportcontact2_5.jpg,/continental_sportcontact2_5.jpg,/continental_sportcontact2_5.jpg,,,,No layout updates,Product Info Column,,,,,Use config,Use config,No,205,40,205/40 R17,17,,,2017,Black Wall,84 V ,Black Wall,2017,B,C,65,778,723.54,1,,Enabled,No,"Catalog, Search",Taxable Goods,Yes,No,No,"The ContiSportContact  features Continental's bionic tread compound technology molded into an asymmetric design that enhances steering response and precision while the tire's continuous ribs provide the circumferential stiffness to transmit drive and braking forces. The continuous circumferential tread grooves between the ribs help disperse water to resist hydroplaning. The tire's internal structure features Continental's Advanced Mold Contour (AMC), which allows the tire to become wider during braking to help shorten stopping distances. The ContiSportContact  features twin steel belts reinforced by nylon to stabilize the tread area and enhance handling as well as high-speed capability.",Continental,,,,,,,,,95,0,1,0,0,1,1,1,0,1,1,,,1,0,1,0,1,0,1,0,0,0,1,ContiSportContact 5,0,simple,,
admin,base,Tyre,simple,25,CON3578800000,0,ContiSportContact 3 SSR,,,/continental_sportcontact3ssr.jpeg,/continental_sportcontact3ssr.jpeg,/continental_sportcontact3ssr.jpeg,,,,No layout updates,Product Info Column,,,,,Use config,Use config,No,205,45,205/45 R17,17,,,2017,Run Flat/Black Wall,84 W ,Run Flat/Black Wall,2017,B,C,65,882,820.26,1,,Enabled,No,"Catalog, Search",Taxable Goods,Yes,No,No,"The ContiSportContact 3 SSR (Self Supporting Runflat) is Continental Tire's Max Performance Summer run-flat tire designed to provide temporary extended mobility in case of complete air loss due to a puncture. The ContiSportContact 3 SSR is designed to combine outstanding braking capability and agile steering precision. Like all summer tires, the Continental ContiSportContact 3 SSR is not intended to be driven in near-freezing temperatures, through snow or on ice. ContiSportContact 3 SSR tires permit drivers to remain mobile in the event of a flat tire by allowing them to reach their destination or tire service facility without having to replace a flat tire with the spare tire. The ContiSportContact 3 SSR's reinforced sidewall enables the car to continue on its way at a maximum speed of 50 mph (80 km/h) for up to 50 miles (80 km), depending on road conditions and vehicle weight.",Continental,,,,,,,,,95,0,1,0,0,1,1,1,0,1,1,,,1,0,1,0,1,0,1,0,0,0,1,ContiSportContact 3 SSR,0,simple,,
admin,base,Tyre,simple,25,CON03566050000,0,ContiSportContact 5,,,/continental_sportcontact5.jpeg,/continental_sportcontact5.jpeg,/continental_sportcontact5.jpeg,,,,No layout updates,Product Info Column,,,,,Use config,Use config,No,205,45,205/45 R17,17,,,2017,Black Wall,88 W ,Black Wall,2017,B,C,65,782,727.26,1,,Enabled,No,"Catalog, Search",Taxable Goods,Yes,No,No,"With the launch of the ContiSportContact 5, Continental has developed a tyre which is equally suitable for sporty cars & SUVs with sporty driving characteristics. With this new development, the tyre engineers have made significant progress in comparison to the popular predecessor ContiSportContact 3.Its Features are: Shorter braking distances in all weather conditions, Excellent road grip and safety when cornering, Reduced fuel consumption and high mileage. This was made possible due to a new compound which focuses on maximum power transmission and provides low rolling resistance whilst driving normally. This rubber compound which carries the name BlackChilli uses the various vibrations of the tyre. The ContiSportContact 5 is available in a range of sizes from 17 inch upwards for cars and 18 inch upwards for SUV.",Continental,,,,,,,,,95,0,1,0,0,1,1,1,0,1,1,,,1,0,1,0,1,0,1,0,0,0,1,ContiSportContact 5,0,simple,,
admin,base,Tyre,simple,25,CON03500690000,0,ContiPremiumContact 2,,,/continental_premiumcontact2.jpg,/continental_premiumcontact2.jpg,/continental_premiumcontact2.jpg,,,,No layout updates,Product Info Column,,,,,Use config,Use config,No,205,50,205/50 R15,15,,,2017,Black Wall,86 V ,Black Wall,2017,B,C,65,601,558.93,1,,Enabled,No,"Catalog, Search",Taxable Goods,Yes,No,No,The Continental Conti Premium Contact 2 is equipped with the 3D grooves technology. it gives the tyre an excellent stability and faster water dispersal. This new technology enhances braking performance and ensures safety on wet roads.,Continental,,,,,,,,,95,0,1,0,0,1,1,1,0,1,1,,,1,0,1,0,1,0,1,0,0,0,1,ContiPremiumContact 2,0,simple,,
admin,base,Tyre,simple,25,CON03500690000,0,ContiPremiumContact 2,,,/continental_premiumcontact2.jpg,/continental_premiumcontact2.jpg,/continental_premiumcontact2.jpg,,,,No layout updates,Product Info Column,,,,,Use config,Use config,No,205,50,205/50 R15,15,,,2017,Black Wall,86 V ,Black Wall,2017,B,C,65,601,558.93,1,,Enabled,No,"Catalog, Search",Taxable Goods,Yes,No,No,The Continental Conti Premium Contact 2 is equipped with the 3D grooves technology. it gives the tyre an excellent stability and faster water dispersal. This new technology enhances braking performance and ensures safety on wet roads.,Continental,,,,,,,,,95,0,1,0,0,1,1,1,0,1,1,,,1,0,1,0,1,0,1,0,0,0,1,ContiPremiumContact 2,0,simple,,
