sku,short_description
MIC698412,Michelin
MIC698412,Michelin
MIC876381,Michelin
MIC102558,Michelin
MIC260657,Michelin
MIC260657,Michelin
MIC525495,Michelin
MIC542695,Michelin
MIC817896,Michelin
MIC364558,Michelin
MIC364558,Michelin
MIC765691,Michelin
MIC938017-2016,Michelin
MIC938017-2016,Michelin
MIC817676,Michelin
MIC336487,Michelin
MIC336487,Michelin
MIC643511-2016,Michelin
MIC931629A,Michelin
MIC534716-2016,Michelin
MIC534716,Michelin
MIC534716-2016,Michelin
MIC534716,Michelin
MIC452837-2016,Michelin
MIC452837,Michelin
