"store","websites","attribute_set","type","category_ids","sku","has_options","name","meta_title","meta_description","image","small_image","thumbnail","url_key","url_path","custom_design","page_layout","options_container","image_label","small_image_label","thumbnail_label","country_of_manufacture","msrp_enabled","msrp_display_actual_price_type","gift_message_available","width","ratio","diameter","car_make","car_model","car_year","sidewall_style","serv_desc","utqg","production_year","fuel","weather","sound","price","special_price","weight","msrp","status","is_recurring","visibility","tax_class_id","passenger","tyres4_4","vantyres","description","short_description","meta_keyword","custom_layout_update","special_from_date","special_to_date","news_from_date","news_to_date","custom_design_from","custom_design_to","qty","min_qty","use_config_min_qty","is_qty_decimal","backorders","use_config_backorders","min_sale_qty","use_config_min_sale_qty","max_sale_qty","use_config_max_sale_qty","is_in_stock","low_stock_date","notify_stock_qty","use_config_notify_stock_qty","manage_stock","use_config_manage_stock","stock_status_changed_auto","use_config_qty_increments","qty_increments","use_config_enable_qty_inc","enable_qty_increments","is_decimal_divided","stock_status_changed_automatically","use_config_enable_qty_increments","product_name","store_id","product_type_id","product_status_changed","product_changed_websites"
"admin","base","Tyre","simple","2,3","Bridgestone108","0","Bridgestone 8","","","/t/y/tyre1_2_1.png","/t/y/tyre1_2_1.png","/t/y/tyre1_2_1.png","bridgestone-2","bridgestone-212.html","","No layout updates","Product Info Column","","","","China","Use config","Use config","No","100","23","423","Toyota","Corolla","2017","white wall","90 Y","300AA","2009","B","C","65","320.0000","300.0000","1.0000","","Enabled","No","Catalog, Search","Taxable Goods","Yes","No","No","Dueler H/P Sports DHPS","Dueler H/P Sports DHPS","","","2017-05-08 00:00:00","","","","","","95.0000","0.0000","1","0","0","1","1.0000","1","0.0000","1","1","","","1","0","1","0","1","0.0000","1","0","0","0","1","Bridgestone 8","0","simple","",""
"admin","base","Tyre","simple","2,3","bridgestone-9","0","Bridgestone 9","","","/t/y/tyre1_2_1_1.png","/t/y/tyre1_2_1_1.png","/t/y/tyre1_2_1_1.png","bridgestone-9","bridgestone-9.html","","No layout updates","Product Info Column","","","","China","Use config","Use config","No","120","423","150","Hyundai","i10","2010","Black Wall","97 Y","400AA","2010","E","A","73","320.0000","300.0000","1.0000","","Enabled","No","Catalog, Search","Taxable Goods","Yes","No","No","Serrations on the groove wall reduce pipe resonance noise making it an ultra-silent tire. Good control of over steer and extremely precise steering accuracy. Remarkable vehicle stability during braking in a turn and gentle side slip. Outstanding resistance against aquaplaning because of wide circumferential & lateral grooves.","Dueler H/P Sports DHPS","","","2017-05-08 00:00:00","","","","","","999.0000","0.0000","1","0","0","1","1.0000","1","0.0000","1","1","","","1","0","1","0","1","0.0000","1","0","0","0","1","Bridgestone 9","0","simple","",""
"admin","base","Tyre","simple","2,3","bridgestone-1","0","Bridgestone 1","","","/t/y/tyre1_2_1_2.png","/t/y/tyre1_2_1_2.png","/t/y/tyre1_2_1_2.png","bridgestone-1","bridgestone-1.html","","No layout updates","Product Info Column","","","","China","Use config","Use config","No","100","23","423","Toyota","Corolla","2017","white wall","90 Y","300AA","2009","B","C","65","330.0000","290.0000","1.0000","","Enabled","No","Catalog, Search","Taxable Goods","Yes","No","No","Dueler H/P Sports DHPS","Dueler H/P Sports DHPS","","","2017-05-08 00:00:00","","","","","","100.0000","0.0000","1","0","0","1","1.0000","1","0.0000","1","1","","","1","0","1","0","1","0.0000","1","0","0","0","1","Bridgestone 1","0","simple","",""
"admin","base","Tyre","simple","2,3","bridgestone-2","0","Bridgestone 2","","","/t/y/tyre1_2_1_2_1.png","/t/y/tyre1_2_1_2_1.png","/t/y/tyre1_2_1_2_1.png","bridgestone-2","bridgestone-213.html","","No layout updates","Product Info Column","","","","China","Use config","Use config","No","100","23","423","Toyota","Corolla","2017","white wall","90 Y","300AA","2009","B","C","65","320.0000","300.0000","1.0000","","Enabled","No","Catalog, Search","Taxable Goods","Yes","No","No","Dueler H/P Sports DHPS","Dueler H/P Sports DHPS","","","2017-05-08 00:00:00","","","","","","100.0000","0.0000","1","0","0","1","1.0000","1","0.0000","1","1","","","1","0","1","0","1","0.0000","1","0","0","0","1","Bridgestone 2","0","simple","",""
"admin","base","Tyre","simple","2,3","bridgestone-3","0","Bridgestone 3","","","/t/y/tyre1_2_1_2_1_1.png","/t/y/tyre1_2_1_2_1_1.png","/t/y/tyre1_2_1_2_1_1.png","bridgestone-2","bridgestone-214.html","","No layout updates","Product Info Column","","","","China","Use config","Use config","No","100","23","423","Toyota","Corolla","2017","white wall","90 Y","300AA","2009","B","C","65","320.0000","300.0000","1.0000","","Enabled","No","Catalog, Search","Taxable Goods","Yes","No","No","Dueler H/P Sports DHPS","Dueler H/P Sports DHPS","","","2017-05-08 00:00:00","","","","","","100.0000","0.0000","1","0","0","1","1.0000","1","0.0000","1","1","","","1","0","1","0","1","0.0000","1","0","0","0","1","Bridgestone 3","0","simple","",""
"admin","base","Tyre","simple","2,3","bridgestone-4","0","Bridgestone 4","","","/t/y/tyre1_2_1_2_1_1_1.png","/t/y/tyre1_2_1_2_1_1_1.png","/t/y/tyre1_2_1_2_1_1_1.png","bridgestone-4","bridgestone-4.html","","No layout updates","Product Info Column","","","","China","Use config","Use config","No","100","23","423","Toyota","Corolla","2017","white wall","90 Y","300AA","2009","B","C","65","320.0000","300.0000","1.0000","","Enabled","No","Catalog, Search","Taxable Goods","Yes","No","No","Dueler H/P Sports DHPS","Dueler H/P Sports DHPS","","","2017-05-08 00:00:00","","","","","","100.0000","0.0000","1","0","0","1","1.0000","1","0.0000","1","1","","","1","0","1","0","1","0.0000","1","0","0","0","1","Bridgestone 4","0","simple","",""
"admin","base","Default","simple","2","air-condition","0","Air Conditioning","","","/p/r/prod_1.png","/p/r/prod_1.png","/p/r/prod_1.png","air-condition","air-condition.html","","No layout updates","Product Info Column","","",""," ","Use config","Use config","No","","","","","","","","","","","","","","49.0000","","1.0000","","Enabled","No","Catalog, Search","Taxable Goods","","","","Lorem Ipsum is simply dummy text of the printing and typesetting industry. Lorem Ipsum has been the industry's standard dummy text ever since the 1500s, when an unknown printer took a galley of type and scrambled it to make a type specimen book. It has survived not only five centuries, but also the leap into electronic typesetting, remaining essentially unchanged. It was popularised in the 1960s with the release of Letraset sheets containing Lorem Ipsum passages, and more recently with desktop publishing software like Aldus PageMaker including versions of Lorem Ipsum","Book your Air-Conditioning Recharge online for ","","","","","","","","","1000.0000","0.0000","1","0","0","1","1.0000","1","0.0000","1","1","","","1","0","1","0","1","0.0000","1","0","0","0","1","Air Conditioning","0","simple","",""
"admin","base","Default","simple","2","brakes","0","Brakes","","","/p/r/prod_2.png","/p/r/prod_2.png","/p/r/prod_2.png","brakes","brakes.html","","No layout updates","Product Info Column","","",""," ","Use config","Use config","No","","","","","","","","","","","","","","49.0000","","1.0000","","Enabled","No","Catalog, Search","Taxable Goods","","","","Lorem Ipsum is simply dummy text of the printing and typesetting industry. Lorem Ipsum has been the industry's standard dummy text ever since the 1500s, when an unknown printer took a galley of type and scrambled it to make a type specimen book. It has survived not only five centuries, but also the leap into electronic typesetting, remaining essentially unchanged. It was popularised in the 1960s with the release of Letraset sheets containing Lorem Ipsum passages, and more recently with desktop publishing software like Aldus PageMaker including versions of Lorem Ipsum","Book your Air-Conditioning Recharge online for ","","","","","","","","","1000.0000","0.0000","1","0","0","1","1.0000","1","0.0000","1","1","","","1","0","1","0","1","0.0000","1","0","0","0","1","Brakes","0","simple","",""
"admin","base","Default","simple","2","batteries","0","Batteries","","","/p/r/prod_3.png","/p/r/prod_3.png","/p/r/prod_3.png","batteries","batteries.html","","No layout updates","Product Info Column","","",""," ","Use config","Use config","No","","","","","","","","","","","","","","49.0000","","1.0000","","Enabled","No","Catalog, Search","Taxable Goods","","","","Lorem Ipsum is simply dummy text of the printing and typesetting industry. Lorem Ipsum has been the industry's standard dummy text ever since the 1500s, when an unknown printer took a galley of type and scrambled it to make a type specimen book. It has survived not only five centuries, but also the leap into electronic typesetting, remaining essentially unchanged. It was popularised in the 1960s with the release of Letraset sheets containing Lorem Ipsum passages, and more recently with desktop publishing software like Aldus PageMaker including versions of Lorem Ipsum","Book your Air-Conditioning Recharge online for ","","","","","","","","","1000.0000","0.0000","1","0","0","1","1.0000","1","0.0000","1","1","","","1","0","1","0","1","0.0000","1","0","0","0","1","Batteries","0","simple","",""
"admin","base","Default","simple","2","exhaust","0","Exhaust","","","/p/r/prod_4.png","/p/r/prod_4.png","/p/r/prod_4.png","exhaust","exhaust.html","","No layout updates","Product Info Column","","",""," ","Use config","Use config","No","","","","","","","","","","","","","","49.0000","","1.0000","","Enabled","No","Catalog, Search","Taxable Goods","","","","Lorem Ipsum is simply dummy text of the printing and typesetting industry. Lorem Ipsum has been the industry's standard dummy text ever since the 1500s, when an unknown printer took a galley of type and scrambled it to make a type specimen book. It has survived not only five centuries, but also the leap into electronic typesetting, remaining essentially unchanged. It was popularised in the 1960s with the release of Letraset sheets containing Lorem Ipsum passages, and more recently with desktop publishing software like Aldus PageMaker including versions of Lorem Ipsum","Book your Air-Conditioning Recharge online for ","","","","","","","","","1000.0000","0.0000","1","0","0","1","1.0000","1","0.0000","1","1","","","1","0","1","0","1","0.0000","1","0","0","0","1","Exhaust","0","simple","",""
"admin","base","Default","simple","2","engine-treatments","0","Engine Treatments","","","/p/r/prod_5.png","/p/r/prod_5.png","/p/r/prod_5.png","engine-treatments","engine-treatments.html","","No layout updates","Product Info Column","","",""," ","Use config","Use config","No","","","","","","","","","","","","","","49.0000","","1.0000","","Enabled","No","Catalog, Search","Taxable Goods","","","","Lorem Ipsum is simply dummy text of the printing and typesetting industry. Lorem Ipsum has been the industry's standard dummy text ever since the 1500s, when an unknown printer took a galley of type and scrambled it to make a type specimen book. It has survived not only five centuries, but also the leap into electronic typesetting, remaining essentially unchanged. It was popularised in the 1960s with the release of Letraset sheets containing Lorem Ipsum passages, and more recently with desktop publishing software like Aldus PageMaker including versions of Lorem Ipsum","Book your Air-Conditioning Recharge online for ","","","","","","","","","1000.0000","0.0000","1","0","0","1","1.0000","1","0.0000","1","1","","","1","0","1","0","1","0.0000","1","0","0","0","1","Engine Treatments","0","simple","",""
"admin","base","Default","simple","2","bulbs","0","Bulbs","","","/p/r/prod_6.png","/p/r/prod_6.png","/p/r/prod_6.png","bulbs","bulbs.html","","No layout updates","Product Info Column","","",""," ","Use config","Use config","No","","","","","","","","","","","","","","49.0000","","1.0000","","Enabled","No","Catalog, Search","Taxable Goods","","","","Lorem Ipsum is simply dummy text of the printing and typesetting industry. Lorem Ipsum has been the industry's standard dummy text ever since the 1500s, when an unknown printer took a galley of type and scrambled it to make a type specimen book. It has survived not only five centuries, but also the leap into electronic typesetting, remaining essentially unchanged. It was popularised in the 1960s with the release of Letraset sheets containing Lorem Ipsum passages, and more recently with desktop publishing software like Aldus PageMaker including versions of Lorem Ipsum","Book your Air-Conditioning Recharge online for ","","","","","","","","","1000.0000","0.0000","1","0","0","1","1.0000","1","0.0000","1","1","","","1","0","1","0","1","0.0000","1","0","0","0","1","Bulbs","0","simple","",""
"admin","base","Default","simple","2","suspension","0","Suspension","","","/p/r/prod_7.png","/p/r/prod_7.png","/p/r/prod_7.png","suspension","suspension.html","","No layout updates","Product Info Column","","",""," ","Use config","Use config","No","","","","","","","","","","","","","","49.0000","","1.0000","","Enabled","No","Catalog, Search","Taxable Goods","","","","Lorem Ipsum is simply dummy text of the printing and typesetting industry. Lorem Ipsum has been the industry's standard dummy text ever since the 1500s, when an unknown printer took a galley of type and scrambled it to make a type specimen book. It has survived not only five centuries, but also the leap into electronic typesetting, remaining essentially unchanged. It was popularised in the 1960s with the release of Letraset sheets containing Lorem Ipsum passages, and more recently with desktop publishing software like Aldus PageMaker including versions of Lorem Ipsum","Book your Air-Conditioning Recharge online for ","","","","","","","","","1000.0000","0.0000","1","0","0","1","1.0000","1","0.0000","1","1","","","1","0","1","0","1","0.0000","1","0","0","0","1","Suspension","0","simple","",""
"admin","base","Default","simple","2","engine-diagnostics","0","Engine Diagnostics","","","/n/e/new-additions-25.7._17_08.jpg","/n/e/new-additions-25.7._17_08.jpg","/n/e/new-additions-25.7._17_08.jpg","engine-diagnostics","engine-diagnostics.html","","No layout updates","Product Info Column","","",""," ","Use config","Use config","No","","","","","","","","","","","","","","49.0000","","1.0000","","Disabled","No","Catalog, Search","Taxable Goods","","","","Lorem Ipsum is simply dummy text of the printing and typesetting industry. Lorem Ipsum has been the industry's standard dummy text ever since the 1500s, when an unknown printer took a galley of type and scrambled it to make a type specimen book. It has survived not only five centuries, but also the leap into electronic typesetting, remaining essentially unchanged. It was popularised in the 1960s with the release of Letraset sheets containing Lorem Ipsum passages, and more recently with desktop publishing software like Aldus PageMaker including versions of Lorem Ipsum","Book your Air-Conditioning Recharge online for ","","","","","","","","","1000.0000","0.0000","1","0","0","1","1.0000","1","0.0000","1","1","","","1","0","1","0","1","0.0000","1","0","0","0","1","Engine Diagnostics","0","simple","",""
"admin","base","Default","simple","2","windscreen-wipers","0","Windscreen Wipers","","","/p/r/prod_9.png","/p/r/prod_9.png","/p/r/prod_9.png","windscreen-wipers","windscreen-wipers.html","","No layout updates","Product Info Column","","",""," ","Use config","Use config","No","","","","","","","","","","","","","","49.0000","","1.0000","","Enabled","No","Catalog, Search","Taxable Goods","","","","Lorem Ipsum is simply dummy text of the printing and typesetting industry. Lorem Ipsum has been the industry's standard dummy text ever since the 1500s, when an unknown printer took a galley of type and scrambled it to make a type specimen book. It has survived not only five centuries, but also the leap into electronic typesetting, remaining essentially unchanged. It was popularised in the 1960s with the release of Letraset sheets containing Lorem Ipsum passages, and more recently with desktop publishing software like Aldus PageMaker including versions of Lorem Ipsum","Book your Air-Conditioning Recharge online for ","","","","","","","","","1000.0000","0.0000","1","0","0","1","1.0000","1","0.0000","1","1","","","1","0","1","0","1","0.0000","1","0","0","0","1","Windscreen Wipers","0","simple","",""
"admin","base","Default","simple","4","oil-service-information","0","Oil Service Information","","","/n/e/new-additions-25.7._17_03.jpg","/n/e/new-additions-25.7._17_03.jpg","/n/e/new-additions-25.7._17_03.jpg","oil-service-information","oil-service-information.html","","2 columns product","Product Info Column","","",""," ","Use config","Use config","No","","","","","","","","","","","","","","49.0000","","1.0000","","Enabled","No","Catalog, Search","Taxable Goods","","","","<div class=""cust-oil-Info"">
<h1 class=""oil-info-heading"">Oil Service Information</h1>
<div class=""custom-service-block design-cms-page design-cms-block"">
<div class=""row padding-vertical-50"">
<ul class=""nav nav-tabs nav-stacked col-md-3 design-horizontal-tabs""><!-- <li class=""active""><a href=""#serviceTab"">Services</a></li> -->
<li><a href=""#servicePkgs"">Service Packages</a></li>
</ul>
<div class=""tab-content design-horizontal-tabs-panel col-md-9""><!-- <div id=""serviceTab"" class=""tab-pane fade in active"">
<p>Servicing your car at timely intervals help maintain your car, reducing the risk of breakdown. At Sand Dance Tyres, we provide a wide range of affordable service packages to suit your budget and your vehicle needs. Vehicle servicing is carried out by our highly trained technicians and only OEM parts are used to deliver the highest quality in servicing.</p>
</div> -->
<div id=""servicePkgs"" class=""tab-pane fade in active"">
<h4>Information from Services.</h4>
<p class=""tab-pills""><span>5000 kms</span><span>10,000 kms</span><span>Manufacturing Services</span></p>
<p>Sand Dance Tyres performs major services on cars, which help prolong their lifespan and improves their safety. Take advantage of our pricing, which on average is 50% cheaper than main dealers throughout the UAE.</p>
</div>
</div>
</div>
</div>
<script type=""text/javascript"">// <![CDATA[
jQuery('.design-horizontal-tabs li a').on('click',function(event){
		event.preventDefault();
		jQuery('.design-horizontal-tabs li').removeClass('active');
		jQuery('.design-horizontal-tabs-panel .tab-pane').removeClass('in').removeClass('active');
		jQuery(this).parent('li').addClass('active');
		jQuery(jQuery(this).attr('href')).addClass('in').addClass('active'); 
	});
// ]]></script>

<p>Although servicing your vehicle is not a legal requirement, there are a number of good reasons why you should consider maintaining your vehicle correctly.</p>
<p><span class=""cust-safty"">Safety</span> Proper vehicle inspections will ensure your car is safe to run till its next service) Save money: Proper maintenance reduces the risk of costly breakdowns and recovery charges. If a fault is identified at the right time, you can replace it before it fails completely and possibly damages other parts on the car.</p>
<p><span class=""cust-longevity"">Longevity</span> Your car is a lot like the human body that needs to survive on food and water. With maintenance and oil replaced at regular intervals, you can run your car smoother for longer.</p>
<p><span class=""cust-maintain"">Maintaining vehicle value</span> Now a days the second hand market is a wash with dangerous and poorly maintained cars which lowers the value of the car because the risk of expensive breakdowns are only around the corner. So if you have your vehicle service history it makes it more valuable to the buyer knowing it has been maintained correctly and for you it makes it easier to sell as you know it is a reliable car.</p>
<p>&nbsp;</p>
<img alt="""" src=""{{media url=""wysiwyg/productimages/Depositphotos_27783503_original.jpg""}}"" />
</div>","Lorem Ipsum is simply dummy text of the printing and typesetting industry. Lorem Ipsum has been the industry's standard dummy text ever since the 1500s, when an unknown printer took a galley of type and scrambled it to make a type specimen book. It has survived not only five centuries, but also the leap into electronic typesetting, remaining essentially unchanged. It was popularised in the 1960s with the release of Letraset sheets containing Lorem Ipsum passages, and more recently with desktop publishing software like Aldus PageMaker including versions of Lorem Ipsum","","","","","","","","","100.0000","0.0000","1","0","0","1","1.0000","1","0.0000","1","1","","","1","0","1","0","1","0.0000","1","0","0","0","1","Oil Service Information","0","simple","",""
"admin","base","Default","simple","4","battery-information","0","Battery Information","","","/n/e/new-additions-25.7._17_05.jpg","/n/e/new-additions-25.7._17_05.jpg","/n/e/new-additions-25.7._17_05.jpg","battery-information","battery-information.html","","2 columns product","Product Info Column","","",""," ","Use config","Use config","No","","","","","","","","","","","","","","49.0000","","1.0000","","Enabled","No","Catalog, Search","Taxable Goods","","","","<div class=""cust-battery-info"">
<h1 class=""cust-battery-head"">Battery Information</h1>
<p class=""battery-info"">Your car battery is at the heart of all your vehicle's electrical system, storing the energy built up by<br /> the vehicle until it is ready for use.<br /> It is the only source of power to get your car started o it important that you check your battery regularly. <br />Flat batteries are one of the main reasons for breakdown calls in the UAE, especially on hot days, <br />and you'll only really know something is wrong when your car doesn't start.</p>
<p class=""battery-list"">Here are 5 quicktips your battery needs to be replaced<br /> 1. Your engine cranks but doesn't start. <br />2. No crank, no start, no lights! <br />3. One day it starts fine, then next day it won't. <br />4. Cold cranking is hard work. <br />5.You've jumped it a lot already.</p>
<img class=""battery-img"" alt="""" src=""{{media url=""wysiwyg/productimages/Depositphotos_7452797_original.jpg""}}"" />
</div>","Battery Information","","","","","","","","","100.0000","0.0000","1","0","0","1","1.0000","1","0.0000","1","1","","","1","0","1","0","1","0.0000","1","0","0","0","1","Battery Information","0","simple","",""
"admin","base","Default","simple","4","engine-diagnostic","0","Engine Diagnostics ","","","/n/e/new-additions-25.7._17_08_1.jpg","/n/e/new-additions-25.7._17_08_1.jpg","/n/e/new-additions-25.7._17_08_1.jpg","engine-diagnostics","engine-diagnostics-27.html","","2 columns product","Product Info Column","","",""," ","Use config","Use config","No","","","","","","","","","","","","","","49.0000","","1.0000","","Enabled","No","Catalog, Search","Taxable Goods","","","","<div class=""cust-engine-daignostics"">
<h1 class=""cust-engine-head"">Engine Diagnostics</h1>
<p class=""cust-main""><span style=""font-weight:400; color:#000"">Stop little problems becoming big ones</span> <br/>All modem cars contain on-board computers that monitor or control things like emissions level, engine temperature, fluid levels and even windscreen wipers. When things go wrong, these computers produce error codes which can only be read with vehicle diagnostics equipment.You may see a warning light on your dashboard, but these only give a small part of the full picture</p>
<p>At Sand Dance we can check and identify these codes in order to let you know what is wrong and what would be the best remedy to get you back on the road.</p>
<img class=""engine-img"" alt="""" src=""{{media url=""wysiwyg/productimages/Depositphotos_25383553_original.jpg""}}"" />
</div>","Engine Diagnostics ","","","","","","","","","100.0000","0.0000","1","0","0","1","1.0000","1","0.0000","1","1","","","1","0","1","0","1","0.0000","1","0","0","0","1","Engine Diagnostics ","0","simple","",""
"admin","base","Default","simple","4","suspension-and-shock-absorbers","0","Suspension and Shock Absorbers","","","/n/e/new-additions-25.7._17_10.jpg","/n/e/new-additions-25.7._17_10.jpg","/n/e/new-additions-25.7._17_10.jpg","suspension-and-shock-absorbers","suspension-and-shock-absorbers.html","","2 columns product","Product Info Column","","",""," ","Use config","Use config","No","","","","","","","","","","","","","","49.0000","","1.0000","","Enabled","No","Catalog, Search","None","","","","<div class=""cust-suspense"">
<h1 class=""suspense-head"">Suspension and Shock Absorbers</h1>
<p class=""sus-desc"">In a vehicle shock absorbers reduce the effect of traveling over rough ground, leading to improved ride quality and vehicle handling.While shock absorbers serve the purpose of limiting excessive suspension movement their intended sole purpose is to damp spring oscillations. Shock absorbers use multiple way bo absorb excess energy from the springs. In addition to shock absorbers you have components that use rubber bushes at every comer of your vehicle surrounding the shock absorber which all add up to the comfort and safety of your ride.</p>
<p>In the UAE with the harsh summer condition, it is common for vehicles' bushes to perish and crack. Maintaining a healthy vehicle suspension system is vital if you are to gain the optimum comfort, stability and handling characteristics from your vehicle.lf you hear any knocks or squeaks coming from your suspension, its time to get it checked out by our staff at Sand Dance.</p>
<img class=""suspense-img"" alt="""" src=""{{media url=""wysiwyg/productimages/898f6feb05d12e8150e6c9f0d24c5e08.jpg""}}"" />
</div>","Suspension and Shock Absorbers","","","","","","","","","100.0000","0.0000","1","0","0","1","1.0000","1","0.0000","1","1","","","1","0","1","0","1","0.0000","1","0","0","0","1","Suspension and Shock Absorbers","0","simple","",""
"admin","base","Default","simple","4","wheel-alignment","0","Wheel Alignment","","","/n/e/new-additions-25.7._17_12.jpg","/n/e/new-additions-25.7._17_12.jpg","/n/e/new-additions-25.7._17_12.jpg","wheel-alignment","wheel-alignment-29.html","","2 columns product","Product Info Column","","",""," ","Use config","Use config","No","","","","","","","","","","","","","","49.0000","","1.0000","","Enabled","No","Catalog, Search","None","","","","<div class=""row cust-wheel-align"">
<div class=""col-md-4 cust-wheel-text"">
<h1 class=""cust-wheel-head"">Wheel Alignment</h1>
<p>Wheel alignment involves checking the direction and angle of the wheels.</p><p>The misalignment positions are often described as toe in, toe out, positive camber or negative camber. On your right are some of the main causes for the alignment being out and needing adjustment.</p>
</div>
<div class=""col-md-8 cust-wheel-img""><img alt="""" src=""{{media url=""wysiwyg/productimages/New-Additions-25.7.'17_03.jpg""}}"" /> <img alt="""" src=""{{media url=""wysiwyg/productimages/New-Additions-25.7.'17_07.jpg""}}"" /> <img alt="""" src=""{{media url=""wysiwyg/productimages/New-Additions-25.7.'17_09.jpg""}}"" /></div>
</div>
","Wheel Alignment","","","","","","","","","100.0000","0.0000","1","0","0","1","1.0000","1","0.0000","1","1","","","1","0","1","0","1","0.0000","1","0","0","0","1","Wheel Alignment","0","simple","",""
"admin","base","Default","simple","4","brakes-information","0","Brakes Information","","","/n/e/new-additions-25.7._17_201.jpg","/n/e/new-additions-25.7._17_201.jpg","/n/e/new-additions-25.7._17_201.jpg","brakes-information","brakes-information.html","","2 columns product","Product Info Column","","",""," ","Use config","Use config","No","","","","","","","","","","","","","","49.0000","","1.0000","","Enabled","No","Catalog, Search","Taxable Goods","","","","<div class=""cust-brk"">
<h1 class=""cust-brk-info-head"">Brakes information</h1>
<p>Today's vehicle braking systems involve many different components working together to help you to stop and manoeuvre your vehicle in a controlled manner.The key components of your vehicle braking system includes a master cylinder, servo, brake callipers, brake fluid and cylinders, disks, drums, pads and shoes. All the components are linked by a series of brake hoses and brake pipes containing brake fluid, so when you press your brake pedal the vehicle slows down and stops.</p>
<p>In the UAE most vehicles are automatic, which means you use your brakes more often leading to brake pads wearing out faster. Regularly checking your brakes will ensure that your brake pads don't wear too low which causes your brakes to grind and damage the brake disc making it a very costly repair.</p>
<p>The effects of a sudden brake failure can be devastating and in the event of an accident attributed to faulty brakes, the conquences of not maintaining an effective braking system could result in prosecution.Your vehicle will also fail its year vehicle inspection test if your braking system does not meet required standards to allow your vehicle to come to an efficient stop.</p>
<img class=""brk-img"" alt="""" src=""{{media url=""wysiwyg/productimages/Depositphotos_37916571_original.jpg""}}"" />
</div>","Brakes Information","","","","","","","","","100.0000","0.0000","1","0","0","1","1.0000","1","0.0000","1","1","","","1","0","1","0","1","0.0000","1","0","0","0","1","Brakes Information","0","simple","",""
"admin","base","Default","simple","4","air-conditioning","0","Air Conditioning","","","/n/e/new-additions-25.7._17_20.jpg","/n/e/new-additions-25.7._17_20.jpg","/n/e/new-additions-25.7._17_20.jpg","air-conditioning","air-conditioning-31.html","","2 columns product","Product Info Column","","",""," ","Use config","Use config","No","","","","","","","","","","","","","","49.0000","","1.0000","","Enabled","No","Catalog, Search","Taxable Goods","","","","<div class=""cust-air-cond"">
<h1 class=""cust-air-head"">Air Conditioning</h1>
<p>In the UAE, air-conditioning is vital to the comfort of you driving your vehicle and is fitted in all modern day cars as standard in the UAE Many drivers experience the benefits of air-conditioning in their car orvan on a hot day, but just like other parts of your car, the air-conditioning system also needs regular maintenance to ensure it continues to work efficiently and effectively.</p>
<p>Vehicle air conditioning systems can lose refrigerant gas overtime, which means that they may not work as well as they should. This is why car manufacturers recommend your air-conditioning system is recharged with gas and lubricant every 2 years.This service is not part of routine vehicle servicing, so if your vehicle is more than 2 years old it's probably due an air-conditioning recharge.</p>
<p>Most garages in the UAE don't use the correct equipment to ensure that your vehicle has the right amount of gas and lubricant in it. Not having the AC serviced correctly puts strain on all the components and means the system is more likely to fail when you need it most. Repairing the AC system is a very costly repair and can easily run into the thousands. At Sand Dance, we use state-of-the-art machines and trained staff to service your AC to the manufacturers' specifications.</p>
<img class=""air-img"" alt="""" src=""{{media url=""wysiwyg/productimages/Depositphotos_51153353_original.jpg""}}"" />
</div>","Air Conditioning","","","","","","","","","100.0000","0.0000","1","0","0","1","1.0000","1","0.0000","1","1","","","1","0","1","0","1","0.0000","1","0","0","0","1","Air Conditioning","0","simple","",""
"admin","base","Default","simple","4","puncture-repair","0","Puncture Repair","","","/n/e/new-additions-25.7._17_26.jpg","/n/e/new-additions-25.7._17_26.jpg","/n/e/new-additions-25.7._17_26.jpg","puncture-repair","puncture-repair.html","","2 columns product","Product Info Column","","",""," ","Use config","Use config","No","","","","","","","","","","","","","","49.0000","","1.0000","","Enabled","No","Catalog, Search","Taxable Goods","","","","<div class=""cust-puncture"">
<h1 class=""cust-puncture-head"">Puncture Repair</h1>
<p>At Sand Dance we carry out free puncture repairs for all passenger and 4x4 vehicles.<br/>When is a tyre safe to repair <br/>A correct and safe tyre repair will repair the tyre punctures so they are permanently air tight preventing damage to tyres and making them last the full legal life of the tyre. Unfortunately though, some damages are beyond repair and hence require you to check the following:</p>
<ul class=""cust-puncture-list-one"">
<li>Legal tread depth (min 1.6mm across the central 3/4 of the tyre tread around the entire circumference).</li>
<li>Damage due to driving whilst flat-visible through for example a dark line on the side.</li>
<li>Secondary damage - caused by the damaged items. An internal inspection should be carried out to check for this.</li>
<li>Ageing/deterioration of the tyre rubber.</li>
<li>Puncture outside the repairable area, e.g. on the sidewall.</li>
<li>Damaged bead.</li>
<li>Exposed cords from steel belt(s).</li>
<li>Improper/poor quality previous repairs.</li>
</ul>
<p>If the tyre has experienced any of the above, it should not be repaired.<br />The number of repairs that can be carried out on a tyre is determined by speed class. There is also a limit to how large the puncture hole can be. See the table below:</p>
<table class=""cust-puncture-table"">
<tbody>
<tr class=""puncture-tbl-head"">
<td>Tyre type</td>
<td>Speed class</td>
<td>Max hole size</td>
<td>Max no. repairs</td>
</tr>
<tr>
<td>Car</td>
<td>All</td>
<td>6mm</td>
<td>Max 3</td>
</tr>
<tr>
<td>Truck/Bus</td>
<td>All</td>
<td>9mm</td>
<td>Max 3</td>
</tr>
</tbody>
</table>
<p><span class=""puncture-why"">Why run flat tyres can't be repaired?</span><br/>Run flat tyres have reinforced sidewalls which means they can be driven on for a short time after picking up a puncture allowing you to make it to safety, be that your home or your nearest tyre fitter.</p>
<p>Run flat tyres have obvious safety benefits as the tyre is still able to be driven on in the event of a puncture allowing you, the driver, to stay in control of the vehicle. Unfortunately, when a run flat tyre picks up a puncture it's hard to tell if the structure of the tyre wall has been compromised because the punctured tyre could have been driven on for an excessive amount of time or at unsuitable speeds (over 50kph) but the added strength of the run flat tyre can mask this damage. For this reason, we cannot carry out minor repairs to run flat tyres as the tyre may no longer be safe to use.</p>
</div>","Puncture Repair","","","","","","","","","100.0000","0.0000","1","0","0","1","1.0000","1","0.0000","1","1","","","1","0","1","0","1","0.0000","1","0","0","0","1","Puncture Repair","0","simple","",""
"admin","base","Default","simple","4","tyre-rotation","0","Tyre Rotation","","","/n/e/new-additions-25.7._17_23.jpg","/n/e/new-additions-25.7._17_23.jpg","/n/e/new-additions-25.7._17_23.jpg","tyre-rotation","tyre-rotation-34.html","","2 columns product","Product Info Column","","",""," ","Use config","Use config","No","","","","","","","","","","","","","","100.0000","","1.0000","","Enabled","No","Catalog, Search","Taxable Goods","","","","<div class=""cust-tyre-roatation"">
<h1 class=""tyre-roation-head"">Tyre Rotation</h1>
<p>Tyre rotation is one of the most important things anyone can do when it comes to looking after your tyres. At Sand Dance we recommend this is done every 5000 kms or 10,000 kms depending on your type of vehicle and tyres. This will allow you to get the most out of your tyres and make your money stretch that bit further.</p>
<p class=""cust-tyre-customer""><span class=""cust-tyre-benifit"">Buy 4 Tyres for Free benefits</span><br />Every customer that purchases 4 tyres from Sand Dance will get free tyre rotations, nitrogen and puncture repairs for the legal life of the tyre.</p>
<img class=""rotation-img"" alt="""" src=""{{media url=""wysiwyg/productimages/Depositphotos_7988833_original.jpg""}}"" />
</div>","Tyre Rotation","","","","","","","","","100.0000","0.0000","1","0","0","1","1.0000","1","0.0000","1","1","","","1","0","1","0","1","0.0000","1","0","0","0","1","Tyre Rotation","0","simple","",""
