Name,Path,Position,Is Active,Url Key,Description,Image,Page Title,Meta Keywords,Meta Description,Include In Menu,Display Mode,CMS Block,Is Anchor,Availabe Sort By,Default Sort By,Page Layout,Custom Layout Update
Optimo K406,Default Category/Products/Hankook,10,Yes,,,,,,,No,Products only,,Yes,,,No layout updates,
Optimo K415,Default Category/Products/Hankook,11,Yes,,,,,,,No,Products only,,Yes,,,No layout updates,
Optimo K415 - TL,Default Category/Products/Hankook,12,Yes,,,,,,,No,Products only,,Yes,,,No layout updates,
Optimo K715,Default Category/Products/Hankook,13,Yes,,,,,,,No,Products only,,Yes,,,No layout updates,
Optimo ME02 K424,Default Category/Products/Hankook,14,Yes,,,,,,,No,Products only,,Yes,,,No layout updates,
Ventus ME01 K114,Default Category/Products/Hankook,15,Yes,,,,,,,No,Products only,,Yes,,,No layout updates,
Ventus Prime 2 K115,Default Category/Products/Hankook,16,Yes,,,,,,,No,Products only,,Yes,,,No layout updates,
Ventus Prime2 K115,Default Category/Products/Hankook,17,Yes,,,,,,,No,Products only,,Yes,,,No layout updates,
Ventus S1 Evo2 K117,Default Category/Products/Hankook,18,Yes,,,,,,,No,Products only,,Yes,,,No layout updates,
Ventus S1 evo2 K117A,Default Category/Products/Hankook,19,Yes,,,,,,,No,Products only,,Yes,,,No layout updates,
Ventus S1 Noble2 H452,Default Category/Products/Hankook,20,Yes,,,,,,,No,Products only,,Yes,,,No layout updates,
Ventus V12 Evo2 K120,Default Category/Products/Hankook,21,Yes,,,,,,,No,Products only,,Yes,,,No layout updates,
Crugen HP91,Default Category/Products/Kumho,1,Yes,,,,,,,No,Products only,,Yes,,,No layout updates,
Crugen Premium KL33,Default Category/Products/Kumho,2,Yes,,,,,,,No,Products only,,Yes,,,No layout updates,
Eco Solus KL21,Default Category/Products/Kumho,3,Yes,,,,,,,No,Products only,,Yes,,,No layout updates,
Ecowing ES01 KH27,Default Category/Products/Kumho,4,Yes,,,,,,,No,Products only,,Yes,,,No layout updates,
Ecsta HS51,Default Category/Products/Kumho,5,Yes,,,,,,,No,Products only,,Yes,,,No layout updates,
Ecsta KH11,Default Category/Products/Kumho,6,Yes,,,,,,,No,Products only,,Yes,,,No layout updates,
Ecsta LE Sport KU39,Default Category/Products/Kumho,7,Yes,,,,,,,No,Products only,,Yes,,,No layout updates,
Ecsta LX Platinum KU27,Default Category/Products/Kumho,8,Yes,,,,,,,No,Products only,,Yes,,,No layout updates,
Ecsta PS31,Default Category/Products/Kumho,9,Yes,,,,,,,No,Products only,,Yes,,,No layout updates,
ECSTA PS91,Default Category/Products/Kumho,10,Yes,,,,,,,No,Products only,,Yes,,,No layout updates,
Radial 798,Default Category/Products/Kumho,11,Yes,,,,,,,No,Products only,,Yes,,,No layout updates,
Radial K798 Plus,Default Category/Products/Kumho,12,Yes,,,,,,,No,Products only,,Yes,,,No layout updates,
Road Venture APT KL51,Default Category/Products/Kumho,13,Yes,,,,,,,No,Products only,,Yes,,,No layout updates,
Road Venture AT51,Default Category/Products/Kumho,14,Yes,,,,,,,No,Products only,,Yes,,,No layout updates,
Road Venture MT KL71,Default Category/Products/Kumho,15,Yes,,,,,,,No,Products only,,Yes,,,No layout updates,
Road Venture SAT KL61,Default Category/Products/Kumho,16,Yes,,,,,,,No,Products only,,Yes,,,No layout updates,
Solus KH15,Default Category/Products/Kumho,17,Yes,,,,,,,No,Products only,,Yes,,,No layout updates,
Solus KH17,Default Category/Products/Kumho,18,Yes,,,,,,,No,Products only,,Yes,,,No layout updates,
LS388,Default Category/Products/Landsail,1,Yes,,,,,,,No,Products only,,Yes,,,No layout updates,
LS588 SUV,Default Category/Products/Landsail,2,Yes,,,,,,,No,Products only,,Yes,,,No layout updates,
BRAVO HP-M3,Default Category/Products/Maxxis,1,Yes,,,,,,,No,Products only,,Yes,,,No layout updates,
HP600 BRAVO,Default Category/Products/Maxxis,2,Yes,,,,,,,No,Products only,,Yes,,,No layout updates,
HT760 BRAVO,Default Category/Products/Maxxis,3,Yes,,,,,,,No,Products only,,Yes,,,No layout updates,
HT770 BRAVO,Default Category/Products/Maxxis,4,Yes,,,,,,,No,Products only,,Yes,,,No layout updates,
MA511,Default Category/Products/Maxxis,5,Yes,,,,,,,No,Products only,,Yes,,,No layout updates,
MA569,Default Category/Products/Maxxis,6,Yes,,,,,,,No,Products only,,Yes,,,No layout updates,
MA751,Default Category/Products/Maxxis,7,Yes,,,,,,,No,Products only,,Yes,,,No layout updates,
MECOTRA ME,Default Category/Products/Maxxis,8,Yes,,,,,,,No,Products only,,Yes,,,No layout updates,
Agilis,Default Category/Products/Michelin,1,Yes,,,,,,,No,Products only,,Yes,,,No layout updates,
Agilis GRNX,Default Category/Products/Michelin,2,Yes,,,,,,,No,Products only,,Yes,,,No layout updates,
Energy SAVER,Default Category/Products/Michelin,3,Yes,,,,,,,No,Products only,,Yes,,,No layout updates,
Energy SAVER MO,Default Category/Products/Michelin,4,Yes,,,,,,,No,Products only,,Yes,,,No layout updates,
Energy Saver Plus,Default Category/Products/Michelin,5,Yes,,,,,,,No,Products only,,Yes,,,No layout updates,
Energy XM2 GRNX,Default Category/Products/Michelin,6,Yes,,,,,,,No,Products only,,Yes,,,No layout updates,
Latitude Cross,Default Category/Products/Michelin,7,Yes,,,,,,,No,Products only,,Yes,,,No layout updates,
Latitude Cross DT,Default Category/Products/Michelin,8,Yes,,,,,,,No,Products only,,Yes,,,No layout updates,
Latitude Diamaris,Default Category/Products/Michelin,9,Yes,,,,,,,No,Products only,,Yes,,,No layout updates,
Latitude Diamaris DT,Default Category/Products/Michelin,10,Yes,,,,,,,No,Products only,,Yes,,,No layout updates,
Latitude Sport,Default Category/Products/Michelin,11,Yes,,,,,,,No,Products only,,Yes,,,No layout updates,
Latitude Sport 3 AO,Default Category/Products/Michelin,12,Yes,,,,,,,No,Products only,,Yes,,,No layout updates,
Latitude Sport 3 GRNX,Default Category/Products/Michelin,13,Yes,,,,,,,No,Products only,,Yes,,,No layout updates,
Latitude Sport 3 N0,Default Category/Products/Michelin,14,Yes,,,,,,,No,Products only,,Yes,,,No layout updates,
Latitude Sport 3 N0 GRNX,Default Category/Products/Michelin,15,Yes,,,,,,,No,Products only,,Yes,,,No layout updates,
Latitude Sport 3 ZP GRNX,Default Category/Products/Michelin,16,Yes,,,,,,,No,Products only,,Yes,,,No layout updates,
Latitude Sport AO,Default Category/Products/Michelin,17,Yes,,,,,,,No,Products only,,Yes,,,No layout updates,
Latitude Sport GRNX,Default Category/Products/Michelin,18,Yes,,,,,,,No,Products only,,Yes,,,No layout updates,
Latitude Sport N1,Default Category/Products/Michelin,19,Yes,,,,,,,No,Products only,,Yes,,,No layout updates,
Latitude Tour,Default Category/Products/Michelin,20,Yes,,,,,,,No,Products only,,Yes,,,No layout updates,
Latitude Tour HP,Default Category/Products/Michelin,21,Yes,,,,,,,No,Products only,,Yes,,,No layout updates,
Latitude Tour HP GRNX,Default Category/Products/Michelin,22,Yes,,,,,,,No,Products only,,Yes,,,No layout updates,
Latitude Tour HP MO,Default Category/Products/Michelin,23,Yes,,,,,,,No,Products only,,Yes,,,No layout updates,
Latitude Tour HP N0 GRNX,Default Category/Products/Michelin,24,Yes,,,,,,,No,Products only,,Yes,,,No layout updates,
Latitude Tour HP N1 GRNX,Default Category/Products/Michelin,25,Yes,,,,,,,No,Products only,,Yes,,,No layout updates,
LTX AT2 DT ORWL,Default Category/Products/Michelin,26,Yes,,,,,,,No,Products only,,Yes,,,No layout updates,
LTX AT2 LRE,Default Category/Products/Michelin,27,Yes,,,,,,,No,Products only,,Yes,,,No layout updates,
LTX AT2 LRE DT,Default Category/Products/Michelin,28,Yes,,,,,,,No,Products only,,Yes,,,No layout updates,
Pilot HX MXM4,Default Category/Products/Michelin,29,Yes,,,,,,,No,Products only,,Yes,,,No layout updates,
Pilot HX MXM4 GRNX,Default Category/Products/Michelin,30,Yes,,,,,,,No,Products only,,Yes,,,No layout updates,
Pilot HX MXM4 ORBL,Default Category/Products/Michelin,31,Yes,,,,,,,No,Products only,,Yes,,,No layout updates,
Pilot Sport 3,Default Category/Products/Michelin,32,Yes,,,,,,,No,Products only,,Yes,,,No layout updates,
Pilot Sport 3 MO GRNX,Default Category/Products/Michelin,33,Yes,,,,,,,No,Products only,,Yes,,,No layout updates,
Pilot Sport 4,Default Category/Products/Michelin,34,Yes,,,,,,,No,Products only,,Yes,,,No layout updates,
Pilot Sport CUP2,Default Category/Products/Michelin,35,Yes,,,,,,,No,Products only,,Yes,,,No layout updates,
Pilot Sport CUP2 N0,Default Category/Products/Michelin,36,Yes,,,,,,,No,Products only,,Yes,,,No layout updates,
Pilot Sport PS2,Default Category/Products/Michelin,37,Yes,,,,,,,No,Products only,,Yes,,,No layout updates,
Pilot Sport PS2 N2,Default Category/Products/Michelin,38,Yes,,,,,,,No,Products only,,Yes,,,No layout updates,
Pilot Sport PS2 N3,Default Category/Products/Michelin,39,Yes,,,,,,,No,Products only,,Yes,,,No layout updates,
Pilot Sport PS2 N4,Default Category/Products/Michelin,40,Yes,,,,,,,No,Products only,,Yes,,,No layout updates,
Pilot Sport PS2 ZP,Default Category/Products/Michelin,41,Yes,,,,,,,No,Products only,,Yes,,,No layout updates,
Pilot Sport3 GRNX,Default Category/Products/Michelin,42,Yes,,,,,,,No,Products only,,Yes,,,No layout updates,
Pilot Super Sport,Default Category/Products/Michelin,43,Yes,,,,,,,No,Products only,,Yes,,,No layout updates,
Pilot Super Sport Cup2,Default Category/Products/Michelin,44,Yes,,,,,,,No,Products only,,Yes,,,No layout updates,
Pilot Super Sport K1,Default Category/Products/Michelin,45,Yes,,,,,,,No,Products only,,Yes,,,No layout updates,
Pilot Super Sport K2,Default Category/Products/Michelin,46,Yes,,,,,,,No,Products only,,Yes,,,No layout updates,
Pilot Super Sport MO,Default Category/Products/Michelin,47,Yes,,,,,,,No,Products only,,Yes,,,No layout updates,
Pilot Super Sport N0,Default Category/Products/Michelin,48,Yes,,,,,,,No,Products only,,Yes,,,No layout updates,
Primacy 3,Default Category/Products/Michelin,49,Yes,,,,,,,No,Products only,,Yes,,,No layout updates,
Primacy 3 AO GRNX,Default Category/Products/Michelin,50,Yes,,,,,,,No,Products only,,Yes,,,No layout updates,
Primacy 3 GRNX,Default Category/Products/Michelin,51,Yes,,,,,,,No,Products only,,Yes,,,No layout updates,
Primacy 3 MOE ZP,Default Category/Products/Michelin,52,Yes,,,,,,,No,Products only,,Yes,,,No layout updates,
Primacy 3 ST GRNX,Default Category/Products/Michelin,53,Yes,,,,,,,No,Products only,,Yes,,,No layout updates,
Primacy HP GRNX,Default Category/Products/Michelin,55,Yes,,,,,,,No,Products only,,Yes,,,No layout updates,
Primacy HP MO GRNX,Default Category/Products/Michelin,56,Yes,,,,,,,No,Products only,,Yes,,,No layout updates,
Primacy HP ZP,Default Category/Products/Michelin,57,Yes,,,,,,,No,Products only,,Yes,,,No layout updates,
Primacy LC DT2,Default Category/Products/Michelin,58,Yes,,,,,,,No,Products only,,Yes,,,No layout updates,
Primacy MXM4,Default Category/Products/Michelin,59,Yes,,,,,,,No,Products only,,Yes,,,No layout updates,
Primacy MXV4 GRNX,Default Category/Products/Michelin,60,Yes,,,,,,,No,Products only,,Yes,,,No layout updates,
