Name,Path,Position,Is Active,Url Key,Description,Image,Page Title,Meta Keywords,Meta Description,Include In Menu,Display Mode,CMS Block,Is Anchor,Availabe Sort By,Default Sort By,Page Layout,Custom Layout Update
Primacy SUV,Default Category/Products/Michelin,61,Yes,,,,,,,No,Products only,,Yes,,,No layout updates,
Super Sport,Default Category/Products/Nexen,62,Yes,,,,,,,No,Products only,,Yes,,,No layout updates,
CP671,Default Category/Products/Michelin,1,Yes,,,,,,,No,Products only,,Yes,,,No layout updates,
CP672,Default Category/Products/Michelin,2,Yes,,,,,,,No,Products only,,Yes,,,No layout updates,
N'Fera AU5,Default Category/Products/Michelin,3,Yes,,,,,,,No,Products only,,Yes,,,No layout updates,
NFERA RU1,Default Category/Products/Michelin,4,Yes,,,,,,,No,Products only,,Yes,,,No layout updates,
NFERA RU5,Default Category/Products/Michelin,5,Yes,,,,,,,No,Products only,,Yes,,,No layout updates,
NFERA SU1,Default Category/Products/Michelin,6,Yes,,,,,,,No,Products only,,Yes,,,No layout updates,
RO HT,Default Category/Products/Michelin,7,Yes,,,,,,,No,Products only,,Yes,,,No layout updates,
RO HTX RH5,Default Category/Products/Michelin,8,Yes,,,,,,,No,Products only,,Yes,,,No layout updates,
ROADIAN 581,Default Category/Products/Michelin,9,Yes,,,,,,,No,Products only,,Yes,,,No layout updates,
Roadian HP,Default Category/Products/Michelin,10,Yes,,,,,,,No,Products only,,Yes,,,No layout updates,
Roadian HT,Default Category/Products/Michelin,11,Yes,,,,,,,No,Products only,,Yes,,,No layout updates,
Roadian HTX RH5,Default Category/Products/Michelin,12,Yes,,,,,,,No,Products only,,Yes,,,No layout updates,
DURA GRAPPLER,Default Category/Products/Nitto,1,Yes,,,,,,,No,Products only,,Yes,,,No layout updates,
INVO,Default Category/Products/Nitto,2,Yes,,,,,,,No,Products only,,Yes,,,No layout updates,
NT01,Default Category/Products/Nitto,3,Yes,,,,,,,No,Products only,,Yes,,,No layout updates,
NT05,Default Category/Products/Nitto,4,Yes,,,,,,,No,Products only,,Yes,,,No layout updates,
NT420S,Default Category/Products/Nitto,5,Yes,,,,,,,No,Products only,,Yes,,,No layout updates,
NT421Q,Default Category/Products/Nitto,6,Yes,,,,,,,No,Products only,,Yes,,,No layout updates,
NT555,Default Category/Products/Nitto,7,Yes,,,,,,,No,Products only,,Yes,,,No layout updates,
NT650,Default Category/Products/Nitto,8,Yes,,,,,,,No,Products only,,Yes,,,No layout updates,
NT830,Default Category/Products/Nitto,9,Yes,,,,,,,No,Products only,,Yes,,,No layout updates,
NT850 PLUS,Default Category/Products/Nitto,10,Yes,,,,,,,No,Products only,,Yes,,,No layout updates,
NT860,Default Category/Products/Nitto,11,Yes,,,,,,,No,Products only,,Yes,,,No layout updates,
NTVAN,Default Category/Products/Nitto,12,Yes,,,,,,,No,Products only,,Yes,,,No layout updates,
TERRA GRAPPLER,Default Category/Products/Nitto,13,Yes,,,,,,,No,Products only,,Yes,,,No layout updates,
Cinturato P1 Verde,Default Category/Products/Pirelli,1,Yes,,,,,,,No,Products only,,Yes,,,No layout updates,
Cinturato P7,Default Category/Products/Pirelli,2,Yes,,,,,,,No,Products only,,Yes,,,No layout updates,
Cinturato P7 AO,Default Category/Products/Pirelli,3,Yes,,,,,,,No,Products only,,Yes,,,No layout updates,
Cinturato P7 J,Default Category/Products/Pirelli,4,Yes,,,,,,,No,Products only,,Yes,,,No layout updates,
Cinturato P7 MO,Default Category/Products/Pirelli,5,Yes,,,,,,,No,Products only,,Yes,,,No layout updates,
Cinturato P7 MOE,Default Category/Products/Pirelli,6,Yes,,,,,,,No,Products only,,Yes,,,No layout updates,
Cinturato P7 XL,Default Category/Products/Pirelli,7,Yes,,,,,,,No,Products only,,Yes,,,No layout updates,
Cinturato P7 _,Default Category/Products/Pirelli,8,Yes,,,,,,,No,Products only,,Yes,,,No layout updates,
Nero A,Default Category/Products/Pirelli,9,Yes,,,,,,,No,Products only,,Yes,,,No layout updates,
P Zero,Default Category/Products/Pirelli,10,Yes,,,,,,,No,Products only,,Yes,,,No layout updates,
P Zero  B1,Default Category/Products/Pirelli,11,Yes,,,,,,,No,Products only,,Yes,,,No layout updates,
P zero AMS F01,Default Category/Products/Pirelli,12,Yes,,,,,,,No,Products only,,Yes,,,No layout updates,
P Zero AO,Default Category/Products/Pirelli,13,Yes,,,,,,,No,Products only,,Yes,,,No layout updates,
P Zero B1,Default Category/Products/Pirelli,14,Yes,,,,,,,No,Products only,,Yes,,,No layout updates,
P Zero BL,Default Category/Products/Pirelli,15,Yes,,,,,,,No,Products only,,Yes,,,No layout updates,
P Zero F,Default Category/Products/Pirelli,16,Yes,,,,,,,No,Products only,,Yes,,,No layout updates,
P Zero F01,Default Category/Products/Pirelli,17,Yes,,,,,,,No,Products only,,Yes,,,No layout updates,
P Zero F02,Default Category/Products/Pirelli,18,Yes,,,,,,,No,Products only,,Yes,,,No layout updates,
P Zero J,Default Category/Products/Pirelli,19,Yes,,,,,,,No,Products only,,Yes,,,No layout updates,
P Zero MGT,Default Category/Products/Pirelli,20,Yes,,,,,,,No,Products only,,Yes,,,No layout updates,
P Zero MO,Default Category/Products/Pirelli,21,Yes,,,,,,,No,Products only,,Yes,,,No layout updates,
P Zero MOE,Default Category/Products/Pirelli,22,Yes,,,,,,,No,Products only,,Yes,,,No layout updates,
P Zero N0,Default Category/Products/Pirelli,23,Yes,,,,,,,No,Products only,,Yes,,,No layout updates,
P Zero N1,Default Category/Products/Pirelli,24,Yes,,,,,,,No,Products only,,Yes,,,No layout updates,
P Zero N2,Default Category/Products/Pirelli,25,Yes,,,,,,,No,Products only,,Yes,,,No layout updates,
P Zero Nero A,Default Category/Products/Pirelli,26,Yes,,,,,,,No,Products only,,Yes,,,No layout updates,
P Zero R01,Default Category/Products/Pirelli,27,Yes,,,,,,,No,Products only,,Yes,,,No layout updates,
P Zero RO1,Default Category/Products/Pirelli,28,Yes,,,,,,,No,Products only,,Yes,,,No layout updates,
P Zero Rosso MO,Default Category/Products/Pirelli,29,Yes,,,,,,,No,Products only,,Yes,,,No layout updates,
P Zero _,Default Category/Products/Pirelli,30,Yes,,,,,,,No,Products only,,Yes,,,No layout updates,
P4 FOUR PLUS,Default Category/Products/Pirelli,31,Yes,,,,,,,No,Products only,,Yes,,,No layout updates,
P6 Four Seasons,Default Category/Products/Pirelli,32,Yes,,,,,,,No,Products only,,Yes,,,No layout updates,
PZero PZ4 N1,Default Category/Products/Pirelli,33,Yes,,,,,,,No,Products only,,Yes,,,No layout updates,
Scorpion STR,Default Category/Products/Pirelli,34,Yes,,,,,,,No,Products only,,Yes,,,No layout updates,
Scorpion STR A,Default Category/Products/Pirelli,35,Yes,,,,,,,No,Products only,,Yes,,,No layout updates,
Scorpion STR _,Default Category/Products/Pirelli,36,Yes,,,,,,,No,Products only,,Yes,,,No layout updates,
Scorpion Verde,Default Category/Products/Pirelli,37,Yes,,,,,,,No,Products only,,Yes,,,No layout updates,
Scorpion Verde A,Default Category/Products/Pirelli,38,Yes,,,,,,,No,Products only,,Yes,,,No layout updates,
Scorpion Verde MO,Default Category/Products/Pirelli,39,Yes,,,,,,,No,Products only,,Yes,,,No layout updates,
Scorpion Zero,Default Category/Products/Pirelli,40,Yes,,,,,,,No,Products only,,Yes,,,No layout updates,
CP661,Default Category/Products/Roadstone,1,Yes,,,,,,,No,Products only,,Yes,,,No layout updates,
CP672,Default Category/Products/Roadstone,2,Yes,,,,,,,No,Products only,,Yes,,,No layout updates,
N Priz AH5,Default Category/Products/Roadstone,3,Yes,,,,,,,No,Products only,,Yes,,,No layout updates,
N5000,Default Category/Products/Roadstone,4,Yes,,,,,,,No,Products only,,Yes,,,No layout updates,
N5000 PLUS,Default Category/Products/Roadstone,5,Yes,,,,,,,No,Products only,,Yes,,,No layout updates,
NFERA RU1,Default Category/Products/Roadstone,6,Yes,,,,,,,No,Products only,,Yes,,,No layout updates,
NFERA RU5,Default Category/Products/Roadstone,7,Yes,,,,,,,No,Products only,,Yes,,,No layout updates,
NFERA SU1,Default Category/Products/Roadstone,8,Yes,,,,,,,No,Products only,,Yes,,,No layout updates,
RO HTX RH5,Default Category/Products/Roadstone,9,Yes,,,,,,,No,Products only,,Yes,,,No layout updates,
HTR Z III,Default Category/Products/Sumitomo,1,Yes,,,,,,,No,Products only,,Yes,,,No layout updates,
A.drive AA01,Default Category/Products/Yokohama,1,Yes,,,,,,,No,Products only,,Yes,,,No layout updates,
A.drive AC01TL,Default Category/Products/Yokohama,1,Yes,,,,,,,No,Products only,,Yes,,,No layout updates,
A349TL,Default Category/Products/Yokohama,2,Yes,,,,,,,No,Products only,,Yes,,,No layout updates,
ADVAN A10E,Default Category/Products/Yokohama,3,Yes,,,,,,,No,Products only,,Yes,,,No layout updates,
ADVAN A10F,Default Category/Products/Yokohama,4,Yes,,,,,,,No,Products only,,Yes,,,No layout updates,
ADVAN A10J,Default Category/Products/Yokohama,5,Yes,,,,,,,No,Products only,,Yes,,,No layout updates,
ADVAN A460,Default Category/Products/Yokohama,6,Yes,,,,,,,No,Products only,,Yes,,,No layout updates,
ADVAN db V551,Default Category/Products/Yokohama,7,Yes,,,,,,,No,Products only,,Yes,,,No layout updates,
ADVAN Sport V103B N1,Default Category/Products/Yokohama,8,Yes,,,,,,,No,Products only,,Yes,,,No layout updates,
ADVAN Sport V103B NO,Default Category/Products/Yokohama,9,Yes,,,,,,,No,Products only,,Yes,,,No layout updates,
ADVAN Sport V105,Default Category/Products/Yokohama,10,Yes,,,,,,,No,Products only,,Yes,,,No layout updates,
ADVAN Sport V105S,Default Category/Products/Yokohama,11,Yes,,,,,,,No,Products only,,Yes,,,No layout updates,
ASPEC A348,Default Category/Products/Yokohama,12,Yes,,,,,,,No,Products only,,Yes,,,No layout updates,
ASPEC A349,Default Category/Products/Yokohama,13,Yes,,,,,,,No,Products only,,Yes,,,No layout updates,
ASPEC A349A,Default Category/Products/Yokohama,14,Yes,,,,,,,No,Products only,,Yes,,,No layout updates,
ASPEC A349A MO,Default Category/Products/Yokohama,15,Yes,,,,,,,No,Products only,,Yes,,,No layout updates,
AVS db E70B,Default Category/Products/Yokohama,16,Yes,,,,,,,No,Products only,,Yes,,,No layout updates,
AVS db E70D,Default Category/Products/Yokohama,17,Yes,,,,,,,No,Products only,,Yes,,,No layout updates,
AVS db E70J,Default Category/Products/Yokohama,18,Yes,,,,,,,No,Products only,,Yes,,,No layout updates,
AVS db E70L,Default Category/Products/Yokohama,19,Yes,,,,,,,No,Products only,,Yes,,,No layout updates,
AVS db E70N,Default Category/Products/Yokohama,20,Yes,,,,,,,No,Products only,,Yes,,,No layout updates,
C Drive,Default Category/Products/Yokohama,21,Yes,,,,,,,No,Products only,,Yes,,,No layout updates,
C Drive AC01TL,Default Category/Products/Yokohama,22,Yes,,,,,,,No,Products only,,Yes,,,No layout updates,
