Name,Path,Position,Is Active,Url Key,Description,Image,Page Title,Meta Keywords,Meta Description,Include In Menu,Display Mode,CMS Block,Is Anchor,Availabe Sort By,Default Sort By,Page Layout,Custom Layout Update
"			Pilot Super Sport Cup2",Default Category/Products/Michelin,44,Yes,,,,,,,No,Products only,,Yes,,,No layout updates,
"			Pilot Super Sport K1",Default Category/Products/Michelin,45,Yes,,,,,,,No,Products only,,Yes,,,No layout updates,
"			Pilot Super Sport K2",Default Category/Products/Michelin,46,Yes,,,,,,,No,Products only,,Yes,,,No layout updates,
"			Pilot Super Sport MO",Default Category/Products/Michelin,47,Yes,,,,,,,No,Products only,,Yes,,,No layout updates,
"			Pilot Super Sport N0",Default Category/Products/Michelin,48,Yes,,,,,,,No,Products only,,Yes,,,No layout updates,
"			Primacy 3",Default Category/Products/Michelin,49,Yes,,,,,,,No,Products only,,Yes,,,No layout updates,
"			Primacy 3 AO GRNX",Default Category/Products/Michelin,50,Yes,,,,,,,No,Products only,,Yes,,,No layout updates,
"			Primacy 3 GRNX",Default Category/Products/Michelin,51,Yes,,,,,,,No,Products only,,Yes,,,No layout updates,
"			Primacy 3 MOE ZP",Default Category/Products/Michelin,52,Yes,,,,,,,No,Products only,,Yes,,,No layout updates,
"			Primacy 3 ST GRNX",Default Category/Products/Michelin,53,Yes,,,,,,,No,Products only,,Yes,,,No layout updates,
"			Primacy 3 ZP_",Default Category/Products/Michelin,54,Yes,,,,,,,No,Products only,,Yes,,,No layout updates,
"			Primacy HP GRNX",Default Category/Products/Michelin,55,Yes,,,,,,,No,Products only,,Yes,,,No layout updates,
"			Primacy HP MO GRNX",Default Category/Products/Michelin,56,Yes,,,,,,,No,Products only,,Yes,,,No layout updates,
"			Primacy HP ZP",Default Category/Products/Michelin,57,Yes,,,,,,,No,Products only,,Yes,,,No layout updates,
"			Primacy LC DT2",Default Category/Products/Michelin,58,Yes,,,,,,,No,Products only,,Yes,,,No layout updates,
"			Primacy MXM4",Default Category/Products/Michelin,59,Yes,,,,,,,No,Products only,,Yes,,,No layout updates,
"			Primacy MXV4 GRNX",Default Category/Products/Michelin,60,Yes,,,,,,,No,Products only,,Yes,,,No layout updates,
"			Primacy SUV",Default Category/Products/Michelin,61,Yes,,,,,,,No,Products only,,Yes,,,No layout updates,
"			Super Sport",Default Category/Products/Michelin,62,Yes,,,,,,,No,Products only,,Yes,,,No layout updates,
